time,IdealSim1.ideal[0].idealDataHost.divide-by(session-1-TransmissionRate:vector)
0.0006,5
0.0006024,5
0.0006048,5
0.0006072,5
0.0006096,5
0.000612,5
0.0006144,5
0.0006168,5
0.0006192,5
0.0006216,5
0.000624,5
0.0006264,5
0.0006288,5
0.0006312,5
0.0006336,5
0.000636,5
0.0006384,5
0.0006408,5
0.0006432,5
0.0006456,5
0.000648,5
0.0006504,5
0.0006528,5
0.0006552,5
0.0006576,5
0.00066,5
0.0006624,5
0.0006648,5
0.0006672,5
0.0006696,5
0.000672,5
0.0006744,5
0.0006768,5
0.0006792,5
0.0006816,5
0.000684,5
0.0006864,5
0.0006888,5
0.0006912,5
0.0006936,5
0.000696,5
0.0006984,5
0.0007008,5
0.0007032,5
0.0007056,5
0.000708,5
0.0007104,5
0.0007128,5
0.0007152,5
0.0007176,5
0.00072,5
0.0007224,5
0.0007248,5
0.0007272,5
0.0007296,5
0.000732,5
0.0007344,5
0.0007368,5
0.0007392,5
0.0007416,5
0.000744,5
0.0007464,5
0.0007488,5
0.0007512,5
0.0007536,5
0.000756,5
0.0007584,5
0.0007608,5
0.0007632,5
0.0007656,5
0.000768,5
0.0007704,5
0.0007728,5
0.0007752,5
0.0007776,5
0.00078,5
0.0007824,5
0.0007848,5
0.0007872,5
0.0007896,5
0.000792,5
0.0007944,5
0.0007968,5
0.0007992,5
0.0008016,5
0.000804,5
0.0008064,5
0.0008088,5
0.0008112,5
0.0008136,5
0.000816,5
0.0008184,5
0.0008208,5
0.0008232,5
0.0008256,5
0.000828,5
0.0008304,5
0.0008328,5
0.0008352,5
0.0008376,5
0.00084,5
0.0008424,5
0.0008448,5
0.0008472,5
0.0008496,5
0.000852,5
0.0008544,5
0.0008568,5
0.0008592,5
0.0008616,5
0.000864,5
0.0008664,5
0.0008688,5
0.0008712,5
0.0008736,5
0.000876,5
0.0008784,5
0.0008808,5
0.0008832,5
0.0008856,5
0.000888,5
0.0008904,5
0.0008928,5
0.0008952,5
0.0008976,5
0.0009,5
0.0009024,5
0.0009048,5
0.0009072,5
0.0009096,5
0.000912,5
0.0009144,5
0.0009168,5
0.0009192,5
0.0009216,5
0.000924,5
0.0009264,5
0.0009288,5
0.0009312,5
0.0009336,5
0.000936,5
0.0009384,5
0.0009408,5
0.0009432,5
0.0009456,5
0.000948,5
0.0009504,5
0.0009528,5
0.0009552,5
0.0009576,5
0.00096,5
0.0009624,5
0.0009648,5
0.0009672,5
0.0009696,5
0.000972,5
0.0009744,5
0.0009768,5
0.0009792,5
0.0009816,5
0.000984,5
0.0009864,5
0.0009888,5
0.0009912,5
0.0009936,5
0.000996,5
0.0009984,5
0.0010008,5
0.0010032,5
0.0010056,5
0.001008,5
0.0010104,5
0.0010128,5
0.0010152,5
0.0010176,5
0.00102,5
0.0010224,5
0.0010248,5
0.0010272,5
0.0010296,5
0.001032,5
0.0010344,5
0.0010368,5
0.0010392,5
0.0010416,5
0.001044,5
0.0010464,5
0.0010488,5
0.0010512,5
0.0010536,5
0.001056,5
0.0010584,5
0.0010608,5
0.0010632,5
0.0010656,5
0.001068,5
0.0010704,5
0.0010728,5
0.0010752,5
0.0010776,5
0.00108,5
0.0010824,5
0.0010848,5
0.0010872,5
0.0010896,5
0.001092,5
0.0010944,5
0.0010968,5
0.0010992,5
0.0011016,5
0.001104,5
0.0011064,5
0.0011088,5
0.0011112,5
0.0011136,5
0.001116,5
0.0011184,5
0.0011208,5
0.0011232,5
0.0011256,5
0.001128,5
0.0011304,5
0.0011328,5
0.0011352,5
0.0011376,5
0.00114,5
0.0011424,5
0.0011448,5
0.0011472,5
0.0011496,5
0.001152,5
0.0011544,5
0.0011568,5
0.0011592,5
0.0011616,5
0.001164,5
0.0011664,5
0.0011688,5
0.0011712,5
0.0011736,5
0.001176,5
0.0011784,5
0.0011808,5
0.0011832,5
0.0011856,5
0.001188,5
0.0011904,5
0.0011928,5
0.0011952,5
0.0011976,5
0.0012,5
0.0012024,5
0.0012048,5
0.0012072,5
0.0012096,5
0.001212,5
0.0012144,5
0.0012168,5
0.0012192,5
0.0012216,5
0.001224,5
0.0012264,5
0.0012288,5
0.0012312,5
0.0012336,5
0.001236,5
0.0012384,5
0.0012408,5
0.0012432,5
0.0012456,5
0.001248,5
0.0012504,5
0.0012528,5
0.0012552,5
0.0012576,5
0.00126,5
0.0012624,5
0.0012648,5
0.0012672,5
0.0012696,5
0.001272,5
0.0012744,5
0.0012768,5
0.0012792,5
0.0012816,5
0.001284,5
0.0012864,5
0.0012888,5
0.0012912,5
0.0012936,5
0.001296,5
0.0012984,5
0.0013008,5
0.0013032,5
0.0013056,5
0.001308,5
0.0013104,5
0.0013128,5
0.0013152,5
0.0013176,5
0.00132,5
0.0013224,5
0.0013248,5
0.0013272,5
0.0013296,5
0.001332,5
0.0013344,5
0.0013368,5
0.0013392,5
0.0013416,5
0.001344,5
0.0013464,5
0.0013488,5
0.0013512,5
0.0013536,5
0.001356,5
0.0013584,5
0.0013608,5
0.0013632,5
0.0013656,5
0.001368,5
0.0013704,5
0.0013728,5
0.0013752,5
0.0013776,5
0.00138,5
0.0013824,5
0.0013848,5
0.0013872,5
0.0013896,5
0.001392,5
0.0013944,5
0.0013968,5
0.0013992,5
0.0014016,5
0.001404,5
0.0014064,5
0.0014088,5
0.0014112,5
0.0014136,5
0.001416,5
0.0014184,5
0.0014208,5
0.0014232,5
0.0014256,5
0.001428,5
0.0014304,5
0.0014328,5
0.0014352,5
0.0014376,5
0.00144,5
0.0014424,5
0.0014448,5
0.0014472,5
0.0014496,5
0.001452,5
0.0014544,5
0.0014568,5
0.0014592,5
0.0014616,5
0.001464,5
0.0014664,5
0.0014688,5
0.0014712,5
0.0014736,5
0.001476,5
0.0014784,5
0.0014808,5
0.0014832,5
0.0014856,5
0.001488,5
0.0014904,5
0.0014928,5
0.0014952,5
0.0014976,5
0.0015,5
0.0015024,5
0.0015048,5
0.0015072,5
0.0015096,5
0.001512,5
0.0015144,5
0.0015168,5
0.0015192,5
0.0015216,5
0.001524,5
0.0015264,5
0.0015288,5
0.0015312,5
0.0015336,5
0.001536,5
0.0015384,5
0.0015408,5
0.0015432,5
0.0015456,5
0.001548,5
0.0015504,5
0.0015528,5
0.0015552,5
0.0015576,5
0.00156,5
0.0015624,5
0.0015648,5
0.0015672,5
0.0015696,5
0.001572,5
0.0015744,5
0.0015768,5
0.0015792,5
0.0015816,5
0.001584,5
0.0015864,5
0.0015888,5
0.0015912,5
0.0015936,5
0.001596,5
0.0015984,5
0.0016008,5
0.0016032,5
0.0016056,5
0.001608,5
0.0016104,5
0.0016128,5
0.0016152,5
0.0016176,5
0.00162,5
0.0016224,5
0.0016248,5
0.0016272,5
0.0016296,5
0.001632,5
0.0016344,5
0.0016368,5
0.0016392,5
0.0016416,5
0.001644,5
0.0016464,5
0.0016488,5
0.0016512,5
0.0016536,5
0.001656,5
0.0016584,5
0.0016608,5
0.0016632,5
0.0016656,5
0.001668,5
0.0016704,5
0.0016728,5
0.0016752,5
0.0016776,5
0.00168,5
0.0016824,5
0.0016848,5
0.0016872,5
0.0016896,5
0.001692,5
0.0016944,5
0.0016968,5
0.0016992,5
0.0017016,5
0.001704,5
0.0017064,5
0.0017088,5
0.0017112,5
0.0017136,5
0.001716,5
0.0017184,5
0.0017208,5
0.0017232,5
0.0017256,5
0.001728,5
0.0017304,5
0.0017328,5
0.0017352,5
0.0017376,5
0.00174,5
0.0017424,5
0.0017448,5
0.0017472,5
0.0017496,5
0.001752,5
0.0017544,5
0.0017568,5
0.0017592,5
0.0017616,5
0.001764,5
0.0017664,5
0.0017688,5
0.0017712,5
0.0017736,5
0.001776,5
0.0017784,5
0.0017808,5
0.0017832,5
0.0017856,5
0.001788,5
0.0017904,5
0.0017928,5
0.0017952,5
0.0017976,5
0.0018,5
0.0018024,5
0.0018048,5
0.0018072,5
0.0018096,5
0.001812,5
0.0018144,5
0.0018168,5
0.0018192,5
0.0018216,5
0.001824,5
0.0018264,5
0.0018288,5
0.0018312,5
0.0018336,5
0.001836,5
0.0018384,5
0.0018408,5
0.0018432,5
0.0018456,5
0.001848,5
0.0018504,5
0.0018528,5
0.0018552,5
0.0018576,5
0.00186,5
0.0018624,5
0.0018648,5
0.0018672,5
0.0018696,5
0.001872,5
0.0018744,5
0.0018768,5
0.0018792,5
0.0018816,5
0.001884,5
0.0018864,5
0.0018888,5
0.0018912,5
0.0018936,5
0.001896,5
0.0018984,5
0.0019008,5
0.0019032,5
0.0019056,5
0.001908,5
0.0019104,5
0.0019128,5
0.0019152,5
0.0019176,5
0.00192,5
0.0019224,5
0.0019248,5
0.0019272,5
0.0019296,5
0.001932,5
0.0019344,5
0.0019368,5
0.0019392,5
0.0019416,5
0.001944,5
0.0019464,5
0.0019488,5
0.0019512,5
0.0019536,5
0.001956,5
0.0019584,5
0.0019608,5
0.0019632,5
0.0019656,5
0.001968,5
0.0019704,5
0.0019728,5
0.0019752,5
0.0019776,5
0.00198,5
0.0019824,5
0.0019848,5
0.0019872,5
0.0019896,5
0.001992,5
0.0019944,5
0.0019968,5
0.0019992,5
0.0020016,5
0.002004,5
0.0020064,5
0.0020088,5
0.0020112,5
0.0020136,5
0.002016,5
0.0020184,5
0.0020208,5
0.0020232,5
0.0020256,5
0.002028,5
0.0020304,5
0.0020328,5
0.0020352,5
0.0020376,5
0.00204,5
0.0020424,5
0.0020448,5
0.0020472,5
0.0020496,5
0.002052,5
0.0020544,5
0.0020568,5
0.0020592,5
0.0020616,5
0.002064,5
0.0020664,5
0.0020688,5
0.0020712,5
0.0020736,5
0.002076,5
0.0020784,5
0.0020808,5
0.0020832,5
0.0020856,5
0.002088,5
0.0020904,5
0.0020928,5
0.0020952,5
0.0020976,5
0.0021,5
0.0021024,5
0.0021048,5
0.0021072,5
0.0021096,5
0.002112,5
0.0021144,5
0.0021168,5
0.0021192,5
0.0021216,5
0.002124,5
0.0021264,5
0.0021288,5
0.0021312,5
0.0021336,5
0.002136,5
0.0021384,5
0.0021408,5
0.0021432,5
0.0021456,5
0.002148,5
0.0021504,5
0.0021528,5
0.0021552,5
0.0021576,5
0.00216,5
0.0021624,5
0.0021648,5
0.0021672,5
0.0021696,5
0.002172,5
0.0021744,5
0.0021768,5
0.0021792,5
0.0021816,5
0.002184,5
0.0021864,5
0.0021888,5
0.0021912,5
0.0021936,5
0.002196,5
0.0021984,5
0.0022008,5
0.0022032,5
0.0022056,5
0.002208,5
0.0022104,5
0.0022128,5
0.0022152,5
0.0022176,5
0.00222,5
0.0022224,5
0.0022248,5
0.0022272,5
0.0022296,5
0.002232,5
0.0022344,5
0.0022368,5
0.0022392,5
0.0022416,5
0.002244,5
0.0022464,5
0.0022488,5
0.0022512,5
0.0022536,5
0.002256,5
0.0022584,5
0.0022608,5
0.0022632,5
0.0022656,5
0.002268,5
0.0022704,5
0.0022728,5
0.0022752,5
0.0022776,5
0.00228,5
0.0022824,5
0.0022848,5
0.0022872,5
0.0022896,5
0.002292,5
0.0022944,5
0.0022968,5
0.0022992,5
0.0023016,5
0.002304,5
0.0023064,5
0.0023088,5
0.0023112,5
0.0023136,5
0.002316,5
0.0023184,5
0.0023208,5
0.0023232,5
0.0023256,5
0.002328,5
0.0023304,5
0.0023328,5
0.0023352,5
0.0023376,5
0.00234,5
0.0023424,5
0.0023448,5
0.0023472,5
0.0023496,5
0.002352,5
0.0023544,5
0.0023568,5
0.0023592,5
0.0023616,5
0.002364,5
0.0023664,5
0.0023688,5
0.0023712,5
0.0023736,5
0.002376,5
0.0023784,5
0.0023808,5
0.0023832,5
0.0023856,5
0.002388,5
0.0023904,5
0.0023928,5
0.0023952,5
0.0023976,5
0.0024,5
0.0024024,5
0.0024048,5
0.0024072,5
0.0024096,5
0.002412,5
0.0024144,5
0.0024168,5
0.0024192,5
0.0024216,5
0.002424,5
0.0024264,5
0.0024288,5
0.0024312,5
0.0024336,5
0.002436,5
0.0024384,5
0.0024408,5
0.0024432,5
0.0024456,5
0.002448,5
0.0024504,5
0.0024528,5
0.0024552,5
0.0024576,5
0.00246,5
0.0024624,5
0.0024648,5
0.0024672,5
0.0024696,5
0.002472,5
0.0024744,5
0.0024768,5
0.0024792,5
0.0024816,5
0.002484,5
0.0024864,5
0.0024888,5
0.0024912,5
0.0024936,5
0.002496,5
0.0024984,5
0.0025008,5
0.0025032,5
0.0025056,5
0.002508,5
0.0025104,5
0.0025128,5
0.0025152,5
0.0025176,5
0.00252,5
0.0025224,5
0.0025248,5
0.0025272,5
0.0025296,5
0.002532,5
0.0025344,5
0.0025368,5
0.0025392,5
0.0025416,5
0.002544,5
0.0025464,5
0.0025488,5
0.0025512,5
0.0025536,5
0.002556,5
0.0025584,5
0.0025608,5
0.0025632,5
0.0025656,5
0.002568,5
0.0025704,5
0.0025728,5
0.0025752,5
0.0025776,5
0.00258,5
0.0025824,5
0.0025848,5
0.0025872,5
0.0025896,5
0.002592,5
0.0025944,5
0.0025968,5
0.0025992,5
0.0026016,5
0.002604,5
0.0026064,5
0.0026088,5
0.0026112,5
0.0026136,5
0.002616,5
0.0026184,5
0.0026208,5
0.0026232,5
0.0026256,5
0.002628,5
0.0026304,5
0.0026328,5
0.0026352,5
0.0026376,5
0.00264,5
0.0026424,5
0.0026448,5
0.0026472,5
0.0026496,5
0.002652,5
0.0026544,5
0.0026568,5
0.0026592,5
0.0026616,5
0.002664,5
0.0026664,5
0.0026688,5
0.0026712,5
0.0026736,5
0.002676,5
0.0026784,5
0.0026808,5
0.0026832,5
0.0026856,5
0.002688,5
0.0026904,5
0.0026928,5
0.0026952,5
0.0026976,5
0.0027,5
0.0027024,5
0.0027048,5
0.0027072,5
0.0027096,5
0.002712,5
0.0027144,5
0.0027168,5
0.0027192,5
0.0027216,5
0.002724,5
0.0027264,5
0.0027288,5
0.0027312,5
0.0027336,5
0.002736,5
0.0027384,5
0.0027408,5
0.0027432,5
0.0027456,5
0.002748,5
0.0027504,5
0.0027528,5
0.0027552,5
0.0027576,5
0.00276,5
0.0027624,5
0.0027648,5
0.0027672,5
0.0027696,5
0.002772,5
0.0027744,5
0.0027768,5
0.0027792,5
0.0027816,5
0.002784,5
0.0027864,5
0.0027888,5
0.0027912,5
0.0027936,5
0.002796,5
0.0027984,5
0.0028008,5
0.0028032,5
0.0028056,5
0.002808,5
0.0028104,5
0.0028128,5
0.0028152,5
0.0028176,5
0.00282,5
0.0028224,5
0.0028248,5
0.0028272,5
0.0028296,5
0.002832,5
0.0028344,5
0.0028368,5
0.0028392,5
0.0028416,5
0.002844,5
0.0028464,5
0.0028488,5
0.0028512,5
0.0028536,5
0.002856,5
0.0028584,5
0.0028608,5
0.0028632,5
0.0028656,5
0.002868,5
0.0028704,5
0.0028728,5
0.0028752,5
0.0028776,5
0.00288,5
0.0028824,5
0.0028848,5
0.0028872,5
0.0028896,5
0.002892,5
0.0028944,5
0.0028968,5
0.0028992,5
0.0029016,5
0.002904,5
0.0029064,5
0.0029088,5
0.0029112,5
0.0029136,5
0.002916,5
0.0029184,5
0.0029208,5
0.0029232,5
0.0029256,5
0.002928,5
0.0029304,5
0.0029328,5
0.0029352,5
0.0029376,5
0.00294,5
0.0029424,5
0.0029448,5
0.0029472,5
0.0029496,5
0.002952,5
0.0029544,5
0.0029568,5
0.0029592,5
0.0029616,5
0.002964,5
0.0029664,5
0.0029688,5
0.0029712,5
0.0029736,5
0.002976,5
0.0029784,5
0.0029808,5
0.0029832,5
0.0029856,5
0.002988,5
0.0029904,5
0.0029928,5
0.0029952,5
0.0029976,5
