time,PerHopSim1.charny[0].charnyDataHost.divide-by(session-1-TransmissionRate:vector)
0.0006,0
0.000612453988,4.94667
0.000614879864,4.94667
0.00061730574,4.94667
0.000619731616,4.94667
0.000622157492,4.94667
0.000624583368,4.94667
0.000627009244,4.94667
0.00062943512,4.94667
0.000631860996,4.94667
0.000634286872,4.94667
0.000636712748,4.94667
0.000639138624,4.94667
0.0006415645,4.94667
0.000643990376,4.94667
0.000646416252,4.94667
0.000648842128,4.94667
0.000651268004,4.94667
0.00065369388,4.94667
0.000656119756,4.94667
0.000658545632,4.94667
0.000660971508,4.94667
0.000663397384,4.94667
0.00066582326,4.94667
0.000668249136,4.94667
0.000670675012,4.94667
0.000673100888,4.94667
0.000675526764,4.94667
0.00067795264,4.94667
0.000680378516,4.94667
0.000682804392,4.94667
0.000685230268,4.94667
0.000687656144,4.94667
0.00069008202,4.94667
0.000692507896,4.94667
0.000694933772,4.94667
0.000697359648,4.94667
0.000699785524,4.94667
0.0007022114,4.94667
0.000704637276,4.94667
0.000707063152,4.94667
0.000709489028,4.94667
0.000711914904,4.94667
0.00071434078,4.94667
0.000716766656,4.94667
0.000719192532,4.94667
0.000721618408,4.94667
0.000724044284,4.94667
0.00072647016,4.94667
0.000728896036,4.94667
0.000731321912,4.94667
0.000733747788,4.94667
0.000736173664,4.94667
0.00073859954,4.94667
0.000741025416,4.94667
0.000743451292,4.94667
0.000745877168,4.94667
0.000748303044,4.94667
0.00075072892,4.94667
0.000753154796,4.94667
0.000755580672,4.94667
0.000758006548,4.94667
0.000760432424,4.94667
0.0007628583,4.94667
0.000765284176,4.94667
0.000767710052,4.94667
0.000770135928,4.94667
0.000772561804,4.94667
0.00077498768,4.94667
0.000777413556,4.94667
0.000779839432,4.94667
0.000782265308,4.94667
0.000784691184,4.94667
0.00078711706,4.94667
0.000789542936,4.94667
0.000791968812,4.94667
0.000794394688,4.94667
0.000796820564,4.94667
0.00079924644,4.94667
0.000801672316,4.94667
0.000804098192,4.94667
0.000806524068,4.94667
0.000808949944,4.94667
0.00081137582,4.94667
0.000813801696,4.94667
0.000816227572,4.94667
0.000818653448,4.94667
0.000821079324,4.94667
0.0008235052,4.94667
0.000825931076,4.94667
0.000828356952,4.94667
0.000830782828,4.94667
0.000833208704,4.94667
0.00083563458,4.94667
0.000838060456,4.94667
0.000840486332,4.94667
0.000842912208,4.94667
0.000845338084,4.94667
0.00084776396,4.94667
0.000850189836,4.94667
0.000852615712,4.94667
0.000855041588,4.94667
0.000857467464,4.94667
0.00085989334,4.94667
0.000862319216,4.94667
0.000864745092,4.94667
0.000867170968,4.94667
0.000869596844,4.94667
0.00087202272,4.94667
0.000874448596,4.94667
0.000876874472,4.94667
0.000879300348,4.94667
0.000881726224,4.94667
0.0008841521,4.94667
0.000886577976,4.94667
0.000889003852,4.94667
0.000891429728,4.94667
0.000893855604,4.94667
0.00089628148,4.94667
0.000898707356,4.94667
0.000901133232,4.94667
0.000903559108,4.94667
0.000905984984,4.94667
0.00090841086,4.94667
0.000910836736,4.94667
0.000913262612,4.94667
0.000915688488,4.94667
0.000918114364,4.94667
0.00092054024,4.94667
0.000922966116,4.94667
0.000925391992,4.94667
0.000927817868,4.94667
0.000930243744,4.94667
0.00093266962,4.94667
0.000935095496,4.94667
0.000937521372,4.94667
0.000939947248,4.94667
0.000942373124,4.94667
0.000944799,4.94667
0.000947224876,4.94667
0.000949650752,4.94667
0.000952076628,4.94667
0.000954502504,4.94667
0.00095692838,4.94667
0.000959354256,4.94667
0.000961780132,4.94667
0.000964206008,4.94667
0.000966631884,4.94667
0.00096905776,4.94667
0.000971483636,4.94667
0.000973909512,4.94667
0.000976335388,4.94667
0.000978761264,4.94667
0.00098118714,4.94667
0.000983613016,4.94667
0.000986038892,4.94667
0.000988464768,4.94667
0.000990890644,4.94667
0.00099331652,4.94667
0.000995742396,4.94667
0.000998168272,4.94667
0.001000594148,4.94667
0.001003020024,4.94667
0.0010054459,4.94667
0.001007871776,4.94667
0.001010297652,4.94667
0.001012723528,4.94667
0.001015149404,4.94667
0.00101757528,4.94667
0.001020001156,4.94667
0.001022427032,4.94667
0.001024852908,4.94667
0.001027278784,4.94667
0.00102970466,4.94667
0.001032130536,4.94667
0.001034556412,4.94667
0.001036982288,4.94667
0.001039408164,4.94667
0.00104183404,4.94667
0.001044259916,4.94667
0.001046685792,4.94667
0.001049111668,4.94667
0.001051537544,4.94667
0.00105396342,4.94667
0.001056389296,4.94667
0.001058815172,4.94667
0.001061241048,4.94667
0.001063666924,4.94667
0.0010660928,4.94667
0.001068518676,4.94667
0.001070944552,4.94667
0.001073370428,4.94667
0.001075796304,4.94667
0.00107822218,4.94667
0.001080648056,4.94667
0.001083073932,4.94667
0.001085499808,4.94667
0.001087925684,4.94667
0.00109035156,4.94667
0.001092777436,4.94667
0.001095203312,4.94667
0.001097629188,4.94667
0.001100055064,4.94667
0.00110248094,4.94667
0.001104906816,4.94667
0.001107332692,4.94667
0.001109758568,4.94667
0.001112184444,4.94667
0.00111461032,4.94667
0.001117036196,4.94667
0.001119462072,4.94667
0.001121887948,4.94667
0.001124313824,4.94667
0.0011267397,4.94667
0.001129165576,4.94667
0.001131591452,4.94667
0.001134017328,4.94667
0.001136443204,4.94667
0.00113886908,4.94667
0.001141294956,4.94667
0.001143720832,4.94667
0.001146146708,4.94667
0.001148572584,4.94667
0.00115099846,4.94667
0.001153424336,4.94667
0.001155850212,4.94667
0.001158276088,4.94667
0.001160701964,4.94667
0.00116312784,4.94667
0.001165553716,4.94667
0.001167979592,4.94667
0.001170405468,4.94667
0.001172831344,4.94667
0.00117525722,4.94667
0.001177683096,4.94667
0.001180108972,4.94667
0.001182534848,4.94667
0.001184960724,4.94667
0.0011873866,4.94667
0.001189812476,4.94667
0.001192238352,4.94667
0.001194664228,4.94667
0.001197090104,4.94667
0.00119951598,4.94667
0.001201941856,4.94667
0.001204367732,4.94667
0.001206793608,4.94667
0.001209219484,4.94667
0.00121164536,4.94667
0.001214071236,4.94667
0.001216497112,4.94667
0.001218922988,4.94667
0.001221348864,4.94667
0.00122377474,4.94667
0.001226200616,4.94667
0.001228626492,4.94667
0.001231052368,4.94667
0.001233478244,4.94667
0.00123590412,4.94667
0.001238329996,4.94667
0.001240755872,4.94667
0.001243181748,4.94667
0.001245607624,4.94667
0.0012480335,4.94667
0.001250459376,4.94667
0.001252885252,4.94667
0.001255311128,4.94667
0.001257737004,4.94667
0.00126016288,4.94667
0.001262588756,4.94667
0.001265014632,4.94667
0.001267440508,4.94667
0.001269866384,4.94667
0.00127229226,4.94667
0.001274718136,4.94667
0.001277144012,4.94667
0.001279569888,4.94667
0.001281995764,4.94667
0.00128442164,4.94667
0.001286847516,4.94667
0.001289273392,4.94667
0.001291699268,4.94667
0.001294125144,4.94667
0.00129655102,4.94667
0.001298976896,4.94667
0.001301402772,4.94667
0.001303828648,4.94667
0.001306254524,4.94667
0.0013086804,4.94667
0.001311106276,4.94667
0.001313532152,4.94667
0.001315958028,4.94667
0.001318383904,4.94667
0.00132080978,4.94667
0.001323235656,4.94667
0.001325661532,4.94667
0.001328087408,4.94667
0.001330513284,4.94667
0.00133293916,4.94667
0.001335365036,4.94667
0.001337790912,4.94667
0.001340216788,4.94667
0.001342642664,4.94667
0.00134506854,4.94667
0.001347494416,4.94667
0.001349920292,4.94667
0.001352346168,4.94667
0.001354772044,4.94667
0.00135719792,4.94667
0.001359623796,4.94667
0.001362049672,4.94667
0.001364475548,4.94667
0.001366901424,4.94667
0.0013693273,4.94667
0.001371753176,4.94667
0.001374179052,4.94667
0.001376604928,4.94667
0.001379030804,4.94667
0.00138145668,4.94667
0.001383882556,4.94667
0.001386308432,4.94667
0.001388734308,4.94667
0.001391160184,4.94667
0.00139358606,4.94667
0.001396011936,4.94667
0.001398437812,4.94667
0.001400863688,4.94667
0.001403289564,4.94667
0.00140571544,4.94667
0.001408141316,4.94667
0.001410567192,4.94667
0.001412993068,4.94667
0.001415418944,4.94667
0.00141784482,4.94667
0.001420270696,4.94667
0.001422696572,4.94667
0.001425122448,4.94667
0.001427548324,4.94667
0.0014299742,4.94667
0.001432400076,4.94667
0.001434825952,4.94667
0.001437251828,4.94667
0.001439677704,4.94667
0.00144210358,4.94667
0.001444529456,4.94667
0.001446955332,4.94667
0.001449381208,4.94667
0.001451807084,4.94667
0.00145423296,4.94667
0.001456658836,4.94667
0.001459084712,4.94667
0.001461510588,4.94667
0.001463936464,4.94667
0.00146636234,4.94667
0.001468788216,4.94667
0.001471214092,4.94667
0.001473639968,4.94667
0.001476065844,4.94667
0.00147849172,4.94667
0.001480917596,4.94667
0.001483343472,4.94667
0.001485769348,4.94667
0.001488195224,4.94667
0.0014906211,4.94667
0.001493046976,4.94667
0.001495472852,4.94667
0.001497898728,4.94667
0.001500324604,4.94667
0.00150275048,4.94667
0.001505176356,4.94667
0.001507602232,4.94667
0.001510028108,4.94667
0.001512453984,4.94667
0.00151487986,4.94667
0.001517305736,4.94667
0.001519731612,4.94667
0.001522157488,4.94667
0.001524583364,4.94667
0.00152700924,4.94667
0.001529435116,4.94667
0.001531860992,4.94667
0.001534286868,4.94667
0.001536712744,4.94667
0.00153913862,4.94667
0.001541564496,4.94667
0.001543990372,4.94667
0.001546416248,4.94667
0.001548842124,4.94667
0.001551268,4.94667
0.001553693876,4.94667
0.001556119752,4.94667
0.001558545628,4.94667
0.001560971504,4.94667
0.00156339738,4.94667
0.001565823256,4.94667
0.001568249132,4.94667
0.001570675008,4.94667
0.001573100884,4.94667
0.00157552676,4.94667
0.001577952636,4.94667
0.001580378512,4.94667
0.001582804388,4.94667
0.001585230264,4.94667
0.00158765614,4.94667
0.001590082016,4.94667
0.001592507892,4.94667
0.001594933768,4.94667
0.001597359644,4.94667
0.00159978552,4.94667
0.001602211396,4.94667
0.001604637272,4.94667
0.001607063148,4.94667
0.001609489024,4.94667
0.0016119149,4.94667
0.001614340776,4.94667
0.001616766652,4.94667
0.001619192528,4.94667
0.001621618404,4.94667
0.00162404428,4.94667
0.001626470156,4.94667
0.001628896032,4.94667
0.001631321908,4.94667
0.001633747784,4.94667
0.00163617366,4.94667
0.001638599536,4.94667
0.001641025412,4.94667
0.001643451288,4.94667
0.001645877164,4.94667
0.00164830304,4.94667
0.001650728916,4.94667
0.001653154792,4.94667
0.001655580668,4.94667
0.001658006544,4.94667
0.00166043242,4.94667
0.001662858296,4.94667
0.001665284172,4.94667
0.001667710048,4.94667
0.001670135924,4.94667
0.0016725618,4.94667
0.001674987676,4.94667
0.001677413552,4.94667
0.001679839428,4.94667
0.001682265304,4.94667
0.00168469118,4.94667
0.001687117056,4.94667
0.001689542932,4.94667
0.001691968808,4.94667
0.001694394684,4.94667
0.00169682056,4.94667
0.001699246436,4.94667
0.001701672312,4.94667
0.001704098188,4.94667
0.001706524064,4.94667
0.00170894994,4.94667
0.001711375816,4.94667
0.001713801692,4.94667
0.001716227568,4.94667
0.001718653444,4.94667
0.00172107932,4.94667
0.001723505196,4.94667
0.001725931072,4.94667
0.001728356948,4.94667
0.001730782824,4.94667
0.0017332087,4.94667
0.001735634576,4.94667
0.001738060452,4.94667
0.001740486328,4.94667
0.001742912204,4.94667
0.00174533808,4.94667
0.001747763956,4.94667
0.001750189832,4.94667
0.001752615708,4.94667
0.001755041584,4.94667
0.00175746746,4.94667
0.001759893336,4.94667
0.001762319212,4.94667
0.001764745088,4.94667
0.001767170964,4.94667
0.00176959684,4.94667
0.001772022716,4.94667
0.001774448592,4.94667
0.001776874468,4.94667
0.001779300344,4.94667
0.00178172622,4.94667
0.001784152096,4.94667
0.001786577972,4.94667
0.001789003848,4.94667
0.001791429724,4.94667
0.0017938556,4.94667
0.001796281476,4.94667
0.001798707352,4.94667
0.001801133228,4.94667
0.001803559104,4.94667
0.00180598498,4.94667
0.001808410856,4.94667
0.001810836732,4.94667
0.001813262608,4.94667
0.001815688484,4.94667
0.00181811436,4.94667
0.001820540236,4.94667
0.001822966112,4.94667
0.001825391988,4.94667
0.001827817864,4.94667
0.00183024374,4.94667
0.001832669616,4.94667
0.001835095492,4.94667
0.001837521368,4.94667
0.001839947244,4.94667
0.00184237312,4.94667
0.001844798996,4.94667
0.001847224872,4.94667
0.001849650748,4.94667
0.001852076624,4.94667
0.0018545025,4.94667
0.001856928376,4.94667
0.001859354252,4.94667
0.001861780128,4.94667
0.001864206004,4.94667
0.00186663188,4.94667
0.001869057756,4.94667
0.001871483632,4.94667
0.001873909508,4.94667
0.001876335384,4.94667
0.00187876126,4.94667
0.001881187136,4.94667
0.001883613012,4.94667
0.001886038888,4.94667
0.001888464764,4.94667
0.00189089064,4.94667
0.001893316516,4.94667
0.001895742392,4.94667
0.001898168268,4.94667
0.001900594144,4.94667
0.00190302002,4.94667
0.001905445896,4.94667
0.001907871772,4.94667
0.001910297648,4.94667
0.001912723524,4.94667
0.0019151494,4.94667
0.001917575276,4.94667
0.001920001152,4.94667
0.001922427028,4.94667
0.001924852904,4.94667
0.00192727878,4.94667
0.001929704656,4.94667
0.001932130532,4.94667
0.001934556408,4.94667
0.001936982284,4.94667
0.00193940816,4.94667
0.001941834036,4.94667
0.001944259912,4.94667
0.001946685788,4.94667
0.001949111664,4.94667
0.00195153754,4.94667
0.001953963416,4.94667
0.001956389292,4.94667
0.001958815168,4.94667
0.001961241044,4.94667
0.00196366692,4.94667
0.001966092796,4.94667
0.001968518672,4.94667
0.001970944548,4.94667
0.001973370424,4.94667
0.0019757963,4.94667
0.001978222176,4.94667
0.001980648052,4.94667
0.001983073928,4.94667
0.001985499804,4.94667
0.00198792568,4.94667
0.001990351556,4.94667
0.001992777432,4.94667
0.001995203308,4.94667
0.001997629184,4.94667
0.00200005506,4.94667
0.002002480936,4.94667
0.002004906812,4.94667
0.002007332688,4.94667
0.002009758564,4.94667
0.00201218444,4.94667
0.002014610316,4.94667
0.002017036192,4.94667
0.002019462068,4.94667
0.002021887944,4.94667
0.00202431382,4.94667
0.002026739696,4.94667
0.002029165572,4.94667
0.002031591448,4.94667
0.002034017324,4.94667
0.0020364432,4.94667
0.002038869076,4.94667
0.002041294952,4.94667
0.002043720828,4.94667
0.002046146704,4.94667
0.00204857258,4.94667
0.002050998456,4.94667
0.002053424332,4.94667
0.002055850208,4.94667
0.002058276084,4.94667
0.00206070196,4.94667
0.002063127836,4.94667
0.002065553712,4.94667
0.002067979588,4.94667
0.002070405464,4.94667
0.00207283134,4.94667
0.002075257216,4.94667
0.002077683092,4.94667
0.002080108968,4.94667
0.002082534844,4.94667
0.00208496072,4.94667
0.002087386596,4.94667
0.002089812472,4.94667
0.002092238348,4.94667
0.002094664224,4.94667
0.0020970901,4.94667
0.002099515976,4.94667
0.002101941852,4.94667
0.002104367728,4.94667
0.002106793604,4.94667
0.00210921948,4.94667
0.002111645356,4.94667
0.002114071232,4.94667
0.002116497108,4.94667
0.002118922984,4.94667
0.00212134886,4.94667
0.002123774736,4.94667
0.002126200612,4.94667
0.002128626488,4.94667
0.002131052364,4.94667
0.00213347824,4.94667
0.002135904116,4.94667
0.002138329992,4.94667
0.002140755868,4.94667
0.002143181744,4.94667
0.00214560762,4.94667
0.002148033496,4.94667
0.002150459372,4.94667
0.002152885248,4.94667
0.002155311124,4.94667
0.002157737,4.94667
0.002160162876,4.94667
0.002162588752,4.94667
0.002165014628,4.94667
0.002167440504,4.94667
0.00216986638,4.94667
0.002172292256,4.94667
0.002174718132,4.94667
0.002177144008,4.94667
0.002179569884,4.94667
0.00218199576,4.94667
0.002184421636,4.94667
0.002186847512,4.94667
0.002189273388,4.94667
0.002191699264,4.94667
0.00219412514,4.94667
0.002196551016,4.94667
0.002198976892,4.94667
0.002201402768,4.94667
0.002203828644,4.94667
0.00220625452,4.94667
0.002208680396,4.94667
0.002211106272,4.94667
0.002213532148,4.94667
0.002215958024,4.94667
0.0022183839,4.94667
0.002220809776,4.94667
0.002223235652,4.94667
0.002225661528,4.94667
0.002228087404,4.94667
0.00223051328,4.94667
0.002232939156,4.94667
0.002235365032,4.94667
0.002237790908,4.94667
0.002240216784,4.94667
0.00224264266,4.94667
0.002245068536,4.94667
0.002247494412,4.94667
0.002249920288,4.94667
0.002252346164,4.94667
0.00225477204,4.94667
0.002257197916,4.94667
0.002259623792,4.94667
0.002262049668,4.94667
0.002264475544,4.94667
0.00226690142,4.94667
0.002269327296,4.94667
0.002271753172,4.94667
0.002274179048,4.94667
0.002276604924,4.94667
0.0022790308,4.94667
0.002281456676,4.94667
0.002283882552,4.94667
0.002286308428,4.94667
0.002288734304,4.94667
0.00229116018,4.94667
0.002293586056,4.94667
0.002296011932,4.94667
0.002298437808,4.94667
0.002300863684,4.94667
0.00230328956,4.94667
0.002305715436,4.94667
0.002308141312,4.94667
0.002310567188,4.94667
0.002312993064,4.94667
0.00231541894,4.94667
0.002317844816,4.94667
0.002320270692,4.94667
0.002322696568,4.94667
0.002325122444,4.94667
0.00232754832,4.94667
0.002329974196,4.94667
0.002332400072,4.94667
0.002334825948,4.94667
0.002337251824,4.94667
0.0023396777,4.94667
0.002342103576,4.94667
0.002344529452,4.94667
0.002346955328,4.94667
0.002349381204,4.94667
0.00235180708,4.94667
0.002354232956,4.94667
0.002356658832,4.94667
0.002359084708,4.94667
0.002361510584,4.94667
0.00236393646,4.94667
0.002366362336,4.94667
0.002368788212,4.94667
0.002371214088,4.94667
0.002373639964,4.94667
0.00237606584,4.94667
0.002378491716,4.94667
0.002380917592,4.94667
0.002383343468,4.94667
0.002385769344,4.94667
0.00238819522,4.94667
0.002390621096,4.94667
0.002393046972,4.94667
0.002395472848,4.94667
0.002397898724,4.94667
0.0024003246,4.94667
0.002402750476,4.94667
0.002405176352,4.94667
0.002407602228,4.94667
0.002410028104,4.94667
0.00241245398,4.94667
0.002414879856,4.94667
0.002417305732,4.94667
0.002419731608,4.94667
0.002422157484,4.94667
0.00242458336,4.94667
0.002427009236,4.94667
0.002429435112,4.94667
0.002431860988,4.94667
0.002434286864,4.94667
0.00243671274,4.94667
0.002439138616,4.94667
0.002441564492,4.94667
0.002443990368,4.94667
0.002446416244,4.94667
0.00244884212,4.94667
0.002451267996,4.94667
0.002453693872,4.94667
0.002456119748,4.94667
0.002458545624,4.94667
0.0024609715,4.94667
0.002463397376,4.94667
0.002465823252,4.94667
0.002468249128,4.94667
0.002470675004,4.94667
0.00247310088,4.94667
0.002475526756,4.94667
0.002477952632,4.94667
0.002480378508,4.94667
0.002482804384,4.94667
0.00248523026,4.94667
0.002487656136,4.94667
0.002490082012,4.94667
0.002492507888,4.94667
0.002494933764,4.94667
0.00249735964,4.94667
0.002499785516,4.94667
0.002502211392,4.94667
0.002504637268,4.94667
0.002507063144,4.94667
0.00250948902,4.94667
0.002511914896,4.94667
0.002514340772,4.94667
0.002516766648,4.94667
0.002519192524,4.94667
0.0025216184,4.94667
0.002524044276,4.94667
0.002526470152,4.94667
0.002528896028,4.94667
0.002531321904,4.94667
0.00253374778,4.94667
0.002536173656,4.94667
0.002538599532,4.94667
0.002541025408,4.94667
0.002543451284,4.94667
0.00254587716,4.94667
0.002548303036,4.94667
0.002550728912,4.94667
0.002553154788,4.94667
0.002555580664,4.94667
0.00255800654,4.94667
0.002560432416,4.94667
0.002562858292,4.94667
0.002565284168,4.94667
0.002567710044,4.94667
0.00257013592,4.94667
0.002572561796,4.94667
0.002574987672,4.94667
0.002577413548,4.94667
0.002579839424,4.94667
0.0025822653,4.94667
0.002584691176,4.94667
0.002587117052,4.94667
0.002589542928,4.94667
0.002591968804,4.94667
0.00259439468,4.94667
0.002596820556,4.94667
0.002599246432,4.94667
0.002601672308,4.94667
0.002604098184,4.94667
0.00260652406,4.94667
0.002608949936,4.94667
0.002611375812,4.94667
0.002613801688,4.94667
0.002616227564,4.94667
0.00261865344,4.94667
0.002621079316,4.94667
0.002623505192,4.94667
0.002625931068,4.94667
0.002628356944,4.94667
0.00263078282,4.94667
0.002633208696,4.94667
0.002635634572,4.94667
0.002638060448,4.94667
0.002640486324,4.94667
0.0026429122,4.94667
0.002645338076,4.94667
0.002647763952,4.94667
0.002650189828,4.94667
0.002652615704,4.94667
0.00265504158,4.94667
0.002657467456,4.94667
0.002659893332,4.94667
0.002662319208,4.94667
0.002664745084,4.94667
0.00266717096,4.94667
0.002669596836,4.94667
0.002672022712,4.94667
0.002674448588,4.94667
0.002676874464,4.94667
0.00267930034,4.94667
0.002681726216,4.94667
0.002684152092,4.94667
0.002686577968,4.94667
0.002689003844,4.94667
0.00269142972,4.94667
0.002693855596,4.94667
0.002696281472,4.94667
0.002698707348,4.94667
0.002701133224,4.94667
0.0027035591,4.94667
0.002705984976,4.94667
0.002708410852,4.94667
0.002710836728,4.94667
0.002713262604,4.94667
0.00271568848,4.94667
0.002718114356,4.94667
0.002720540232,4.94667
0.002722966108,4.94667
0.002725391984,4.94667
0.00272781786,4.94667
0.002730243736,4.94667
0.002732669612,4.94667
0.002735095488,4.94667
0.002737521364,4.94667
0.00273994724,4.94667
0.002742373116,4.94667
0.002744798992,4.94667
0.002747224868,4.94667
0.002749650744,4.94667
0.00275207662,4.94667
0.002754502496,4.94667
0.002756928372,4.94667
0.002759354248,4.94667
0.002761780124,4.94667
0.002764206,4.94667
0.002766631876,4.94667
0.002769057752,4.94667
0.002771483628,4.94667
0.002773909504,4.94667
0.00277633538,4.94667
0.002778761256,4.94667
0.002781187132,4.94667
0.002783613008,4.94667
0.002786038884,4.94667
0.00278846476,4.94667
0.002790890636,4.94667
0.002793316512,4.94667
0.002795742388,4.94667
0.002798168264,4.94667
0.00280059414,4.94667
0.002803020016,4.94667
0.002805445892,4.94667
0.002807871768,4.94667
0.002810297644,4.94667
0.00281272352,4.94667
0.002815149396,4.94667
0.002817575272,4.94667
0.002820001148,4.94667
0.002822427024,4.94667
0.0028248529,4.94667
0.002827278776,4.94667
0.002829704652,4.94667
0.002832130528,4.94667
0.002834556404,4.94667
0.00283698228,4.94667
0.002839408156,4.94667
0.002841834032,4.94667
0.002844259908,4.94667
0.002846685784,4.94667
0.00284911166,4.94667
0.002851537536,4.94667
0.002853963412,4.94667
0.002856389288,4.94667
0.002858815164,4.94667
0.00286124104,4.94667
0.002863666916,4.94667
0.002866092792,4.94667
0.002868518668,4.94667
0.002870944544,4.94667
0.00287337042,4.94667
0.002875796296,4.94667
0.002878222172,4.94667
0.002880648048,4.94667
0.002883073924,4.94667
0.0028854998,4.94667
0.002887925676,4.94667
0.002890351552,4.94667
0.002892777428,4.94667
0.002895203304,4.94667
0.00289762918,4.94667
0.002900055056,4.94667
0.002902480932,4.94667
0.002904906808,4.94667
0.002907332684,4.94667
0.00290975856,4.94667
0.002912184436,4.94667
0.002914610312,4.94667
0.002917036188,4.94667
0.002919462064,4.94667
0.00292188794,4.94667
0.002924313816,4.94667
0.002926739692,4.94667
0.002929165568,4.94667
0.002931591444,4.94667
0.00293401732,4.94667
0.002936443196,4.94667
0.002938869072,4.94667
0.002941294948,4.94667
0.002943720824,4.94667
0.0029461467,4.94667
0.002948572576,4.94667
0.002950998452,4.94667
0.002953424328,4.94667
0.002955850204,4.94667
0.00295827608,4.94667
0.002960701956,4.94667
0.002963127832,4.94667
0.002965553708,4.94667
0.002967979584,4.94667
0.00297040546,4.94667
0.002972831336,4.94667
0.002975257212,4.94667
0.002977683088,4.94667
0.002980108964,4.94667
0.00298253484,4.94667
0.002984960716,4.94667
0.002987386592,4.94667
0.002989812468,4.94667
0.002992238344,4.94667
0.00299466422,4.94667
0.002997090096,4.94667
0.002999515972,4.94667
0.003001941848,4.94667
0.003004367724,4.94667
0.0030067936,4.94667
0.003009219476,4.94667
0.003011645352,4.94667
0.003014071228,4.94667
0.003016497104,4.94667
0.00301892298,4.94667
0.003021348856,4.94667
0.003023774732,4.94667
0.003026200608,4.94667
0.003028626484,4.94667
0.00303105236,4.94667
0.003033478236,4.94667
0.003035904112,4.94667
