time,IdealSim1.flowGenerator3.flowSynSize:vector
0.000055232,36
0.005516870334,803
0.011941670334,1
0.014689670333,6
0.015420470332,4884
0.024821270332,21
0.029020070331,7
0.030919670329,16
0.032202470327,5
0.033674870325,33
0.034174070324,12
0.035029670322,32
0.036122870321,18749
0.039087207896,27
0.042884007894,33
0.043586007891,506
0.04648520789,64
0.050922807889,37
0.054173607888,22
0.055529607886,2260
0.058918407885,5026
0.061316007885,588
0.062609607885,53
0.065378007884,19574
0.066431672596,14
0.066958761684,41
0.071776423246,16
0.072772423246,2896
0.074765808039,2
0.07553198774,59
0.080426909995,510
0.086189833029,36
0.089929033028,3999
0.092741045479,43
0.095498013483,87
0.097773486498,39
0.099525328227,7
0.106631851788,14
0.109738651787,1190
0.113625451786,5197
0.120461255702,1349
0.122179651118,774
0.123928223983,22
0.125778623982,5
0.126060623981,1389
0.126718223981,52
0.128130623981,626
0.13600502398,4
0.137728223979,2
0.138257423977,19
0.142276223977,2634
0.142869023977,2862
0.143153423977,10
0.143963288281,3
0.145042144673,1917
0.147451744672,1926
0.147566888277,3226
0.149019055973,5
0.149087455973,6584
0.149840170531,510
0.151457770531,126
0.152292970531,2897
0.152768179865,37
0.154114154549,516
0.159246070733,36
0.162931270733,57
0.163090870733,6090
0.165069858775,14
0.171193905264,624
0.172877435849,20
0.176604222102,23
0.17825936125,7
0.182214307792,595
0.188369025951,1223
0.205398592763,2026
0.205979647542,36
0.206373154121,1
0.206980456866,2
0.208729703905,1001
0.211972094594,262
0.230728633097,457
0.234441433097,988
0.234493065097,20
0.235327033096,19
0.238065433096,15050
0.242870610669,41
0.261402464478,15
0.261474464478,1262
0.262668887229,5
0.265533519193,4
0.266602597299,41
0.268515345947,44
0.27610797493,5
0.277636774929,20
0.278665174928,3743
0.284925731848,20
0.286941731848,3494
0.287510217986,6
0.288606937349,6
0.299182478937,53
0.304597722073,1
0.307290445539,4
0.314080467884,554
0.31867924366,4137
0.323480661078,15
0.329621364816,3831
0.330969954811,18
0.337484708805,20
0.339995833549,48
0.341861716656,116
0.342580858186,3
0.342785647998,95
0.347495232421,104
0.348591767285,208
0.350283665125,7
0.357744345391,6026
0.358161569951,122
0.375462874156,18
0.38593812631,666
0.397226173656,16
0.399605951092,5
0.405182276229,58
0.409299849038,36
0.41813223721,637
0.42003303721,5712
0.421617669773,48
0.42384806464,36
0.424518585241,66
0.435486537094,3
0.437994514549,1104
0.438642967203,61
0.441114497936,3
0.443014124624,474
0.443963137486,7
0.448929077062,52
0.450566296562,1283
0.464807407025,5457
0.472237558524,2
0.476627779282,118
0.483174498841,2996
0.483529837988,66
0.486359437987,3496
0.490767399936,7
0.49214600011,41
0.49486584231,7
0.50058839417,31
0.50063399417,3177
0.501523596971,1482
0.502233389638,34
0.508373559664,63
0.517245270322,9
0.522774275597,413
0.523521704178,29
0.527918504178,4644
0.527954839821,27
0.528084471821,101
0.530672068626,1006
0.535332247612,336
0.53675653857,840
0.536829971775,6
0.542569448467,3000
0.542704418039,615
0.549095682922,260
0.549343867626,388
0.551402717332,1007
0.553942381431,28
0.556335499703,27
0.559287761799,1089
0.562995354613,18
0.56535967935,28
0.578021046794,1019
0.578873046793,3252
0.581614018668,38
0.58760496718,1
0.588341767179,2961
0.592146136098,472
0.594888136097,6421
0.603423594841,49
0.605096823664,250
0.605211153288,4
0.606858988893,6
0.609634355373,1247
0.619524153561,3
0.623181753561,42
0.62626575356,5690
0.627704784657,28
0.638639049968,109
0.647826326412,35
0.648643526411,31
0.64865792641,5326
0.649481312922,16
0.652611737577,1087
0.663395256107,3495
0.66411337881,1144
0.665271775616,104
0.668879345534,21
0.674134840901,1
0.676155721899,1152
0.677643038062,225
0.684686690379,8
0.696517421267,24
0.701770676139,109
0.704631619263,53
0.705061434652,1
0.710941184941,3053
0.715104237117,727
0.716136489826,28
0.720884792192,45
0.728446080721,3740
0.730446664177,258
0.731075464176,1098
0.732563396121,44
0.734085556243,1
0.734959993851,18
0.741453601366,4736
0.74671099358,1968
0.750726175095,619
0.753145915144,78
0.759994300882,4
0.762775900882,10
0.763907500881,45
0.771534700881,7
0.782196700881,952
0.78235510088,18811
0.790865464039,13
0.794856664039,4886
0.804620769044,650
0.806552663998,44
0.815051539971,3
0.818276151427,16
0.819641104758,1037
0.824446547946,50
0.830134907194,1026
0.832264307008,14
0.840678197535,3
0.845331797534,4430
0.84779041651,744
0.850022023055,52
0.852598208767,6
0.854902609449,10
0.85621838228,1
0.858973799239,33
0.860669271985,2
0.864788004376,5
0.865896558522,2
0.866920888529,51
0.876301393893,17
0.876993964855,5
0.87956946501,20
0.882191465009,2534
0.886144067394,64
0.887182649271,16
0.888198219027,80
0.89148188082,19
0.891768680819,6
0.893002280817,16
0.893358680817,2174
0.893649080816,19
0.894325880815,5
0.897072680813,118
0.897371480812,100
0.898937480811,6556
0.905618923294,37
0.911002123293,89
0.911688523293,30
0.912571723293,6648
0.91420072451,1
0.918080571065,1594
0.918675309353,20
0.918756909352,16
0.91893930935,1346
0.922387876712,783
0.930194469974,1476
0.935050038634,203
0.935947526235,32
0.951240475824,38
0.954344265635,1013
0.955352265634,38
0.956787465633,981
0.956876265632,84
0.957413865631,2605
0.960187418536,38
0.960753857864,7
0.96138296294,29
0.962199007888,3
0.969191506749,8
0.975387426243,6
0.980584806478,2
0.982353606477,5105
0.985405728466,5
0.991309728465,4115
0.991626126047,1214
0.992377682536,16
0.998112965095,221
0.999114801478,2
0.999915201478,754
1.004950587557,88
1.006246415623,424
1.008440460907,1
1.012620261288,6
1.012680968746,4
1.013013791926,20
1.013220578276,29
1.020930578275,6537
1.022624939171,97
1.024043469588,19
1.025732486377,14
1.028770161584,4
1.037051974505,17
1.037223542844,7
1.04332709024,9
1.043660690239,13
1.044743090238,959
1.045571932127,113
1.047094732127,30
1.050874732127,3
1.053865132127,16
1.055333964127,5177
1.057484364127,940
1.060177164127,2270
1.060971104732,20
1.062117104732,48
1.062658304732,6676
1.063965042238,14
1.064251092532,240
1.073444221179,8
1.075515421179,1913
1.080501421179,1063
1.081047421179,3194
1.088957821179,11892
1.093195309946,1
1.10419437086,406
1.105669133612,4
1.107700499099,2
1.109294922192,47
1.111965724746,1611
1.117300120272,168
1.120295468155,1084
1.121383756709,98
1.123329056409,42
1.127967835005,23
1.130432274168,56
1.137731787875,5
1.139230587875,7
1.139337387875,111
1.143831387875,31
1.144493787875,51
1.145260587875,78
1.147157787875,15
1.149932187875,969
1.153662987875,503
1.157151387874,43
1.158167787873,14941
1.158639258495,18
1.160298858495,4117
1.163741145907,6
1.163774713148,3
1.167476482951,1095
1.172656462814,30
1.183387517118,15
1.184673467984,292
1.185708087169,4
1.189621292507,15
1.191856966525,5
1.196943024925,1019
1.200453429493,9
1.207873204915,3
1.214579813464,28
1.215138421783,18
1.216954615214,5
1.228697188246,1429
1.233453797353,7
1.234651264561,13
1.242038543794,344
1.242840143794,4811
1.245647576271,107
1.247825203541,53
1.249387840903,258
1.252637440902,2127
1.254517653753,18
1.256113653752,4515
1.264158135709,24
1.266788357867,3
1.268178294052,854
1.269731088807,901
1.272425580517,53
1.28047459129,1148
1.280726421984,9
1.282918821984,913
1.284846242792,598
1.286005442792,1
1.290385442792,3706
1.292175205932,4856
1.294955428923,38
1.29837789302,16
1.30227896379,858
1.306543018007,223
1.316033580857,1043
1.321002506932,34
1.323623306931,5668
1.331939214036,84
1.334101614035,14
1.339092414033,5723
1.340052247042,4534
1.34635276264,1
1.35040516264,4077
1.352375152895,356
1.353532351128,33
1.355352751128,20
1.356870751128,47
1.357614751128,4589
1.359605742583,9
1.362434936214,157
1.369408858262,2
1.371428806779,76
1.375261986708,42
1.385932097346,4581
1.388558380097,1501
1.39559516907,4226
1.399478566164,30
1.403519575906,33
1.413392724979,183
1.42041359692,2
1.42223879692,6346
1.423356024283,10
1.423859739368,28
1.425691226392,6
1.427145482525,4
1.427392304458,7
1.428654582674,50
1.429007382674,631
1.435451072475,1
1.436329169999,1
1.441759076169,43
1.454058513123,25
1.454400513122,1
1.457848113121,1876
1.460156913121,45
1.460298513121,11
1.46284011312,5618
1.465078414943,6254
1.466394845478,5
1.467768327313,25
1.468586912382,50
1.473375967381,6
1.48331619371,1524
1.483350993709,3048
1.485297807779,59
1.490092966474,26
1.490235453312,19
1.49174538434,28
1.497622984339,5244
1.498697764901,113
1.504427478024,3259
1.513901551631,17
1.516525951631,2910
1.521364496093,2229
1.525966485901,2
1.540354201508,3591
1.541193509438,43
1.545453509438,38
1.548263909438,6464
1.560395215171,73
1.565367893449,27
1.567109903637,108
1.567202303636,1325
1.56859626541,20
1.569467814718,6
1.57264180477,48
1.576830580814,133
1.578395380814,22
1.579001380814,1
1.583018980814,5717
1.589302790175,126
1.592555990174,15
1.592659222174,39
1.594297222174,17
1.597185622173,5850
1.597508547466,1481
1.601056694407,23
1.602680294407,16
1.604048294406,2610
1.609138358702,1636
1.610339558702,3192
1.616758051259,109
1.621919266715,70
1.622540095632,12
1.624728458382,13
1.630707789895,121
1.631044989895,1253
1.632076275696,198
1.635877240901,3
1.639480953879,3
1.652951484762,1
1.656501917744,37
1.657428656083,3
1.658956255952,556
1.663675148512,34
1.673556809893,107
1.673580809892,4220
1.675372950181,1
1.681589814658,2684
1.683836082978,31
1.685740482977,1242
1.685886882977,17
1.690745682977,4
1.693000482977,159
1.694339682977,9671
1.695078829307,8
1.697985229307,14
1.701339229307,1911
1.702730029307,105
1.703228029307,37
1.704950029306,8349
1.715918697967,27
1.715951097967,284
1.716828241401,20
1.718370843636,667
1.71851138607,119
1.721061568849,654
1.723368416068,1001
1.725685885294,4
1.730329459783,2
1.733021059782,2500
1.738097658496,1034
1.742714591467,1263
1.743934757837,657
1.745215195773,1
1.746700795773,24
1.750498795773,3359
1.750697477521,2623
1.75091374005,18
1.753289066262,511
1.760138784796,44
1.760349273517,42
1.774305563821,28
1.774781247139,31
1.778386007874,17
1.780909116666,35
1.783092713609,2
1.790489660391,34
1.790830527818,56
1.791401284937,23
1.79418253943,6
1.798933266344,251
1.799424068857,90
1.800202857857,38
1.802641583807,10
1.812096769667,37
1.813689169667,549
1.819907569666,586
1.820091169666,14
1.820271169666,8357
1.821420331445,19
1.824487097365,38
1.839835052761,1
1.842042414597,26
1.860128828749,15
1.863251471354,1318
1.867660164806,2
1.883242826236,2934
1.894826155253,4994
1.89489563094,468
1.89551363094,1214
1.89602003094,3517
1.899856998815,52
1.899961556921,19
1.910297813709,1
1.911440877584,17
1.917989396596,20
1.924642641563,2432
1.925323378211,66
1.925377790655,53
1.92965786256,1377
1.92972386256,12
1.930017862559,102
1.930400662558,2532
1.931270289202,4
1.932074037468,2
1.932527637467,888
1.934068971554,52
1.941710127044,41
1.944188842956,1140
1.948785214305,1
1.949824643549,98
1.952270316761,3
1.956763246761,44
1.95968487521,26
1.960761275209,1569
1.96231533243,327
1.962690997112,4
1.965103660996,1153
1.967775143165,31
1.970347324203,705
1.970488753002,4
1.972467289726,16
1.973032621842,2
1.973535421842,11
1.981201021842,19
1.987869421841,12364
1.99360176333,4
1.99610736333,1571
2.000009009786,456
2.000147009784,2636
2.000239000344,605
2.000356600343,99
2.000800600342,12
2.000945800342,2833
2.003707049495,9
2.013529685947,53
2.015361528192,44
2.017450157224,27
2.021158157223,3519
2.021908598331,45
2.023247790051,16
2.024522941932,125
2.027934541932,2274
2.029110821822,2109
2.031443873339,22
2.038717889702,7
2.045464856719,4110
2.048607366272,66
2.04989764293,44
2.05324204293,3793
2.056316750436,18
2.067999899055,15
2.068884845963,5
2.07270158814,40
2.080758737073,13
2.08319127681,46
2.08447670686,49
2.086072975101,25
2.089228290529,858
2.089608372261,1
2.100615511002,14
2.111052080969,50
2.117940770546,17
2.12259455017,524
2.125431590644,3
2.125660790644,2367
2.129643631409,36
2.129762208496,8
2.132056447242,223
2.132955481175,161
2.133106019997,16
2.142929135727,23
2.145366557962,5
2.149624427746,52
2.152959227745,3144
2.153516891342,1270
2.157944276552,15
2.157952676552,46
2.162602031603,8
2.163610053862,14
2.165448948906,250
2.166828483149,563
2.170967336198,70
2.171533477121,8
2.174450443343,423
2.175452066997,51
2.177110149575,7
2.179122410166,7
2.181313610166,1011
2.184832010166,15
2.185156010165,3
2.190300410163,52
2.198875610162,1
2.201902010159,769
2.202671210158,3315
2.203121210157,1236
2.203244810157,14696
2.208262828639,22
2.211436848372,24
2.212237543551,33
2.215758065738,4
2.216974865737,2792
2.226335835016,27
2.227150635016,2228
2.227782714139,63
2.228886941666,1
2.234439635253,265
2.235441635253,14
2.23742163525,2666
2.242863193623,5706
2.244919392453,268
2.245713792452,1862
2.250533073749,23
2.252984673749,2416
2.256519700072,5
2.260517424236,3
2.264618617209,407
2.268657721592,823
2.273594446577,691
2.275317206514,1062
2.278648324205,188
2.285729863153,35
2.293923160361,1331
2.294832615122,696
2.306843268703,2
2.31021349661,117
2.313765946583,1135
2.317669828988,21
2.318388628986,879
2.321247028986,18
2.324031028984,6646
2.330321763704,22
2.33067742675,18
2.337139126142,16
2.337499575611,306
2.343656491042,27
2.344072891042,520
2.355584283126,1193
2.357923841133,51
2.359433441132,1311
2.361105420464,41
2.363632992624,215
2.36748327497,1219
2.375535957126,3
2.384082251316,41
2.385186251315,21
2.389536251313,7
2.392019051311,28
2.398422251311,81
2.402197451311,67
2.403433451309,36
2.406211451308,6573
2.406792251306,3396
2.408934251306,329
2.412539051305,14
2.423129051304,72
2.431125851302,450
2.433369851301,53
2.4442670513,7
2.444777051299,6479
2.445649451299,1515
2.447174683299,15766
2.447811158353,43
2.448641558352,28
2.45282355835,8774
2.453062314747,2
2.453686314747,58
2.457809514746,9
2.463905514744,3080
2.466171114744,108
2.473527114743,971
2.476909914742,2
2.47861631474,22
2.482161114739,29
2.485848714738,16812
2.486168853339,46
2.488643253339,841
2.489111253339,17295
2.489164053338,628
2.491702053338,1439
2.493287253337,4167
2.493828485338,2581
2.494652937349,619
2.498241041783,47
2.501167031605,12
2.508719482185,40
2.509542682185,2162
2.510077263586,83
2.515307170722,113
2.516044801937,18
2.517785574114,47
2.520006774113,14
2.531430774111,19
2.53496477411,15446
2.535856150193,17
2.536200712564,16
2.538310047298,18
2.539353679584,383
2.546874162485,1002
2.55074486048,43
2.551190060479,14
2.552382860478,3
2.556238460477,51
2.556677660476,4340
2.558612660936,2931
2.561671723683,44
2.566909521131,15
2.56911603363,834
2.573197056341,1325
2.574742828902,21
2.579740499309,20
2.582685044238,48
2.588783048782,2
2.589853250076,14
2.593758498808,126
2.594590919704,4
2.596257746572,9
2.597134946571,31
2.59777934657,2211
2.604263356989,50
2.608200640522,1000
2.608572672522,1251
2.612287465466,51
2.612837203859,66
2.614144003858,15
2.617376803858,3505
2.61950910548,921
2.623506622615,18
2.624026222613,1413
2.624526622613,2
2.627116222612,6164
2.627287171581,93
2.63014882194,730
2.631620717387,6
2.634429202238,44
2.635636806172,30
2.6427359489,4
2.6470043489,5598
2.650744143299,15
2.656066539439,50
2.656822805089,18
2.663036891352,4
2.663305691351,637
2.665684063021,43
2.666924283175,38
2.672531949901,29
2.674771441047,5
2.676869606401,1654
2.700207839913,314
2.70040727235,3
2.706299005191,1393
2.709385640435,32
2.712764930796,650
2.713699597108,43
2.715681603786,1109
2.716018972885,26
2.716789372883,905
2.721611188844,19
2.723441188842,38
2.725427188841,2251
2.726196388841,3793
2.735001880266,434
2.735868280265,1689
2.736261992424,1814
2.737118975614,275
2.742982879682,1
2.743168278583,7
2.747394607842,903
2.747555523019,4
2.756051960572,152
2.756641505746,1
2.759578353111,561
2.772325758018,3
2.783353124958,116
2.784363848478,43
2.787379361311,104
2.788692412103,6
2.78881630908,29
2.792286673301,2
2.803125801531,1033
2.80548020153,6129
2.813258650059,33
2.813611450059,32
2.817395050057,980
2.825719450055,14197
2.828837031164,2057
2.852947521362,42
2.857952480703,42
2.862752480703,117
2.865816080702,46
2.8678032807,512
2.871094880698,12064
2.87894886451,45
2.888596687881,4
2.891051484288,1397
2.893599476367,34
2.900203076367,1197
2.906481476365,3557
2.922661076364,2
2.926953476362,420
2.928775076361,16201
2.934910724484,2
2.935099124482,1160
2.938198724482,6
2.940245924481,794
2.94199552448,17496
2.948040760834,233
2.951036699178,1
2.951198699177,604
2.955919936119,181
2.957403067198,64
2.958904920035,5
2.961431851776,1
2.965345964746,19
2.971399669769,1175
2.974080469769,5772
2.979690081587,51
2.981608881586,1307
2.984944881585,7
2.986336913585,4
2.987091467305,8
2.987139681582,772
2.987382081582,3591
2.987891899304,3137
2.990853499304,4061
2.991073264436,215
2.991225909226,12
2.993935481181,2090
2.998967122675,254
3.001033928106,646
3.008085786029,82
3.011913786028,3610
3.026526279043,741
3.028657479042,2558
3.031463079041,879
3.031538679041,969
3.031586711041,18
3.035243111041,15536
3.038368912663,34
3.040575712662,104
3.04573931266,3776
3.049881153212,17
3.052248753211,342
3.054017553209,10
3.063760353208,48
3.066196353207,19898
3.066811066889,6
3.072708742425,3121
3.074520964614,1586
3.08123664668,7
3.08253024668,2824
3.087597036038,2290
3.088884836104,18
3.096565161598,388
3.098232716744,117
3.100146716744,1716
3.103901536589,22
3.112753476015,19
3.135215778852,18
3.13614457885,58
3.136337596013,49
3.139747996013,22
3.140685196012,1332
3.145605196011,6
3.145937596007,1149
3.146074396006,29
3.146379196006,12186
3.149909596005,39
3.151686796003,2
3.153090796002,51
3.156370396002,3847
3.161249596001,16
3.161616796,4335
3.170691195999,2
3.176807595996,16291
3.177336132633,2184
3.179500932633,5186
3.18001923029,21
3.181109378739,780
3.183167604574,47
3.186403385833,401
3.189012185833,3154
3.194513117617,2
3.208283612053,7
3.208421759864,53
3.230644899812,21
3.230693182429,24
3.239661771837,86
3.239876571836,2524
3.240282171835,3072
3.242840676027,52
3.243271476026,3071
3.247776214767,18
3.247797814767,615
3.249759196884,42
3.253844920693,285
3.256548520693,2941
3.25685531252,49
3.256919500923,20
3.260008361746,25
3.262417751899,1
3.266329625856,107
3.269093225856,3228
3.269157412882,14
3.275224077614,22
3.28085281739,52
3.28156201739,1726
3.288306537384,2111
3.297509901126,53
3.297565101126,38
3.302101101126,4115
3.30583786468,9
3.306885016501,17
3.312390780927,30
3.315749580927,5666
3.316404844957,3
3.322881011858,105
3.328690211857,31
3.331997097037,3064
3.333398697037,4851
3.334262697036,2220
3.336242591117,16
3.336943391116,352
3.338943791116,6
3.339976991115,5089
3.340316591115,4
3.341452991113,35
3.342516191111,4296
3.345595549396,16
3.346390280875,28
3.347812075625,22
3.348996290674,7
3.357777798407,10
3.367033593254,2463
3.373070059494,172
3.38169020126,5
3.385459747889,36
3.405706460249,9
3.407382860248,5863
3.407426829038,12
3.407640429037,1661
3.412524774946,40
3.416911601671,9
3.417031601671,17
3.41712040167,680
3.425161138159,2919
3.426690687994,104
3.428510328088,46
3.429554185779,27
3.435923266983,34
3.437816049305,3
3.438586234072,19
3.441247514296,16
3.447080254058,3
3.449039531971,7
3.44935153197,476
3.451777962214,49
3.45955357894,1191
3.462478789527,52
3.464315518171,11
3.468651105925,10
3.469296248854,115
3.480270341175,100
3.487007714761,4673
3.495866230497,5
3.498173830497,42
3.500073430495,127
3.500221030493,1671
3.500545030493,8
3.502586230492,21
3.508918630489,129
3.513376630488,277
3.513421030488,1095
3.514784230488,2
3.515618230488,5
3.518563367135,741
3.518609862488,3408
3.521366294488,13
3.524267894488,3
3.524787494487,4
3.527783894486,42
3.530083094484,31
3.530093894484,23
3.532111359421,9329
3.53726295942,2927
3.53894179142,158
3.539490191419,18558
3.543711570295,10
3.548918370294,9045
3.560524644472,36
3.56283704447,13
3.56435024447,9
3.56495024447,1117
3.56514344447,5963
3.56667587647,308
3.569011076469,3
3.569032676469,266
3.569956676469,500
3.570044276467,46
3.570242276467,1819
3.571174676467,24
3.571270676465,1
3.571861076465,7906
3.572539771244,28
3.585732571244,1144
3.587194171243,11295
3.591209270787,48
3.592902031359,14
3.595409163344,117
3.595674363343,44
3.596363163343,868
3.597957414892,40
3.598766030929,43
3.603084484546,206
3.607918923035,7
3.613718252158,23
3.616431487723,1
3.62122756275,5
3.62514210609,1056
3.628046660266,22
3.628127876751,23
3.630865848121,9
3.632200248119,15
3.634411848118,44
3.635737848116,26
3.637319448115,53
3.637375848114,323
3.638981448113,2
3.649266648112,17
3.65256064811,1033
3.654693048109,44
3.656788248107,6
3.662983848106,7
3.664725048105,2738
3.665823048105,22
3.665956248105,13060
3.666379848104,1
3.668494248103,50
3.670686648102,17306
3.671366713146,612
3.679585489853,528
3.686156378561,1135
3.686981978561,2755
3.693037372119,28
3.694084378095,6
3.695368554621,33
3.696861759786,2
3.698815242007,52
3.700722042007,2592
3.711640977835,1
3.711698577834,42
3.713239377833,4870
3.714212559892,1534
3.717420712814,520
3.718747912812,656
3.719085112811,597
3.721386712809,1025
3.725775112809,41
3.726837112808,108
3.727798312807,8886
3.73360816845,6
3.73516816845,370
3.737973768448,1
3.739099368445,4038
3.739178519294,1488
3.741334384673,5
3.748412265716,47
3.750405322735,25
3.754418762897,2520
3.755384151552,93
3.761184296211,254
3.761991896211,1942
3.762867194052,396
3.76377553272,43
3.76519189793,527
3.788253448259,1591
3.788512210111,109
3.789333305936,17
3.792062338291,19
3.797009295124,37
3.799195736337,89
3.804953221239,516
3.805565221238,1446
3.807376928709,75
3.808558734142,27
3.808990322637,17
3.81271906189,1
3.815645861889,2450
3.817663635703,13
3.822352687315,17
3.82463104117,17
3.825499841169,983
3.826856409169,20
3.828045536199,218
3.836282703095,1159
3.850420067255,18
3.851250623886,38
3.862852960117,53
3.867788070609,1488
3.874741125724,31
3.878539740868,28
3.881504267135,2
3.882517302478,15
3.888087201262,2206
3.888598461224,42
3.888632061223,1116
3.890973305439,22
3.897558854622,889
3.904898054622,9548
3.907140877559,3
3.909985196945,964
3.914632491365,9
3.915015016605,15
3.931504485045,12
3.935758506457,15
3.937045940101,67
3.948658579224,14
3.951632383717,19
3.961052793571,7
3.965023895583,48
3.968758206281,31
3.971448776175,893
3.97287272871,2
3.975887965588,12
3.984709459058,5
3.989491500417,532
3.990654300416,454
3.991760700415,4
3.993182700413,614
3.993866700412,4319
3.994178827653,1332
3.995278189245,10
4.006784473321,16
4.008866336711,591
4.011121863109,14
4.013169649492,143
4.017000263366,427
4.017641063365,52
4.019118263363,743
4.019871863362,81
4.02091226336,4159
4.027424968596,4
4.029635091589,21
4.034113222745,45
4.041989028587,47
4.043036628587,2031
4.043152940025,39
4.051217308693,229
4.060470812015,5
4.061958812014,4451
4.067356894572,708
4.082896718382,2
4.08628451647,46
4.088363437994,4
4.089676373635,6
4.090103703034,31
4.100510774543,1153
4.102437974543,8
4.107199574541,35
4.107605174539,14
4.110000374537,9353
4.116528364952,4998
4.123840350753,39
4.124698338928,57
4.124962089317,34
4.12768514606,41
4.129163299679,7
4.1317663366,24
4.140255607838,863
4.145926295483,26
4.149257644404,12
4.149433496237,3
4.158651342511,368
4.15867553364,41
4.165812134599,1029
4.169011297297,15
4.172191297296,3488
4.172313274693,139
4.174517674692,2962
4.189332021962,1593
4.19131945387,993
4.191432517671,338
4.193626095136,21
4.194024495134,131
4.197562095133,20
4.201080495131,6202
4.202705069867,2
4.203956669866,29
4.204557869864,4680
4.205606744176,4
4.205925944176,878
4.207835558249,38
4.211241158247,26
4.211880758245,3
4.215119558244,1215
4.215167558244,5491
4.218433010847,1274
4.220878610845,4545
4.223167565028,2039
4.223938059049,995
4.22458722187,13
4.230625289669,44
4.231257900159,33
4.233221522896,4
4.23434129664,21
4.235529358066,14
4.24352888798,4
4.244828204802,4
4.259839888936,30
4.262911888935,3554
4.263392415698,3183
4.269951943971,807
4.270277823109,55
4.275747364723,41
4.279783403076,48
4.281294285095,107
4.28540580374,6
4.28746046725,14
4.291639781159,14
4.292952601208,804
4.293024047722,4
4.298802767744,2281
4.301797612203,50
4.306304572073,18
4.306350172072,98
4.307349187286,168
4.308072811658,28
4.310134379633,5
4.314160379632,3347
4.317909829327,3200
4.320332929338,1251
4.320995552518,136
4.325629208034,5
4.330642651554,1227
4.332453525605,11
4.333237125604,1256
4.341533925603,102
4.341740325601,2
4.343714325599,596
4.345144725599,4
4.345201125595,12
4.345835925595,55
4.346267925595,54
4.350088725594,1248
4.353123525594,116
4.361131125593,4284
4.365278325593,32
4.366023525592,13649
4.367003762146,7
4.367200562144,934
4.36919035759,18
4.370486357588,11449
4.372782727973,78
4.375985280533,41
4.388102721509,15
4.389248801386,74
4.394947355676,1062
4.398611205885,2252
4.400772886294,820
4.40424476694,11
4.404375566939,1650
4.406254108951,18
4.416928794746,1
4.418545194745,2573
4.431975545571,4670
4.432291145569,25
4.432858745568,2539
4.439927945567,12025
4.448010397244,87
4.451181407827,698
4.455665736374,34
4.460600877035,396
4.461511832334,1059
4.462500456563,14
4.465115397223,780
4.466489441296,964
4.477850170655,19
4.483842970654,36
4.483926970652,1
4.49108617065,5
4.494725770649,10097
4.500522970647,14368
4.503053121052,18
4.50313352105,4948
4.507500066545,16
4.509645666544,2492
4.514709570723,860
4.51714042547,52
4.517576025469,53
4.517620425467,1963
4.520090250458,714
4.534446633043,2
4.536775980105,1204
4.540030976895,1073
4.540902748158,30
4.545087815827,37
4.553098034988,1136
4.55367632083,11
4.559458359893,1005
4.560023647456,675
4.563911578136,204
4.565500196018,131
4.567764435287,34
4.568912291499,19
4.57336944812,653
4.575191063668,3
4.57574135574,1
4.582377942319,700
4.585557485316,1166
4.590292504946,28
4.595770228615,16
4.596571828615,53
4.597518628614,822
4.598770228613,6
4.599312628611,3262
4.60315813304,5
4.603307942092,15
4.605170369578,28
4.605982802566,21
4.611432956087,11
4.614226556085,3809
4.614830401052,2994
4.617915715472,69
4.618257116517,13
4.625401104234,20
4.625738697355,7
4.625751897354,14
4.625770996837,6
4.627593528993,20
4.628714090451,292
4.636150018352,208
4.641200360476,24
4.641753560476,2
4.645030760475,5713
4.64650348535,43
4.646748232005,44
4.649778236473,41
4.652055253869,4
4.656235934192,1897
4.662101914203,127
4.664608694405,38
4.664767084291,132
4.67536175563,27
4.676247745113,27
4.684061233159,534
4.691368112187,18
4.695067433946,15
4.698518097374,22
4.700939263675,44
4.707358922983,22
4.711274522982,3568
4.715563489149,35
4.724378996305,277
4.726049460948,710
4.729205684399,2881
4.730133123567,77
4.730756703347,41
4.731793139767,42
4.733573168275,1230
4.741690519625,44
4.742641067023,43
4.75337647384,5
4.753962389964,434
4.754415979943,6
4.760139979943,6
4.760924779941,5716
4.763178721705,39
4.763304347892,6
4.76720921402,9
4.76860601402,3777
4.770689927391,163
4.775806309829,1112
4.778464309828,2735
4.779138087848,50
4.784256087846,49
4.791175287844,31
4.793934087843,46
4.799065287841,5184
4.799206887841,2192
4.80205568784,4
4.803525687838,507
4.804207287836,14268
4.806294561841,103
4.818841171038,1590
4.824516922264,52
4.826705722264,4193
4.828017322263,5370
4.829750815519,4
4.833797389864,13
4.834231320908,6
4.838930062345,2293
4.845235143834,904
4.847087558964,17
4.85701048653,96
4.857126886529,672
4.859036086528,6328
4.86500433571,66
4.878750690262,264
4.879585890259,11
4.881435090257,1
4.882363890257,690
4.884680955946,237
4.886174955945,86
4.887508155943,5582
4.889927355943,2472
4.890038527016,2093
4.896938527016,5659
4.902688187943,4
4.910644187941,15263
4.911314300046,3
4.914734671856,23
4.916742021096,40
4.927699215812,5532
4.932189835001,1
4.933189435,1
4.934495034998,2533
4.940028436531,1788
4.940051173963,4
4.944282802062,2558
4.946794624069,38
4.952155065075,40
4.967791971023,120
4.971824303284,18
4.977607996194,212
4.977757996192,46
4.978313596192,1388
4.978864396191,2525
4.987319747623,57
4.988602366604,6
4.993007871771,2063
4.999170282807,961
5.003133882806,4660
5.005538097916,3253
5.010627977284,24
5.013202482072,48
5.015516342695,17
5.01740883485,425
5.017441234849,37
5.019423634848,2468
5.027249662344,181
5.031601762574,579
5.033294175517,4
5.03481830403,34
5.036347100763,32
5.037136788448,50
5.045054557189,61
5.046664885808,12
5.053790858664,3192
5.058049555085,20
5.058344755084,15
5.059129555083,5
5.059196755082,6429
5.059597221231,90
5.062924821229,7
5.064702021227,5207
5.072676191856,6
5.074686688702,1
5.077853391015,8
5.078230191014,93
5.078542191012,726
5.078843231399,773
5.091697857891,1
5.095834361019,1
5.095999961019,1298
5.09723816843,50
5.106902331035,15
5.109591331797,1279
5.11382700561,645
5.113855805609,3
5.115229805607,3565
5.117373592673,1186
5.118889534064,20
5.129856891894,35
5.13808438985,7
5.141139247252,389
5.154566925471,409
5.158830406576,11
5.16289779906,7
5.163803994102,23
5.165374918779,22
5.172327561386,10
5.185545195037,35
5.186311995036,5942
5.198025821325,17
5.199323021324,4167
5.201674599774,35
5.203479399773,2305
5.205910033691,53
5.214509709988,5
5.218274109987,8988
5.218712711913,23
5.222641493735,7
5.242630053052,36
5.246095653051,327
5.247077253049,53
5.252273253048,31
5.254170453046,12219
5.255361303822,19
5.259494079089,18
5.261506479088,2484
5.263781849292,238
5.263984894868,43
5.26421915844,17
5.2652621099,33
5.268263472263,1286
5.269783434388,867
5.271268851948,39
5.272669102865,1
5.274670557307,28
5.279028587054,207
5.283804668695,25
5.285427128611,2
5.2869330743,653
5.288558811055,3
5.291623233672,18
5.292799534441,18
5.299675327845,125
5.300314927844,20
5.301042127842,1499
5.304590180235,4
5.305786338354,70
5.308941980855,47
5.309699180854,2555
5.310978489788,4
5.314561153949,2441
5.314745432374,24
5.320636369292,3102
5.321702873187,12
5.322610073186,1545
5.325923440379,117
5.326804240378,17
5.330400640377,4912
5.333538388292,3298
5.336489536889,82
5.339030499618,41
5.342625579813,89
5.347597072589,46
5.349357472588,19
5.351851072587,4375
5.354363115849,41
5.360761581795,181
5.368802792006,574
5.369366792005,33
5.369745992003,16
5.369994392001,5042
5.370062731122,3
5.37093953659,1
5.371819792933,18
5.376216733108,36
5.376601619902,39
5.381744266796,20
5.382929866796,26
5.383874266795,5166
5.387660188182,67
5.390770506894,1199
5.392210639712,10
5.392807039711,1071
5.396986671711,3657
5.410388225163,26
5.412368476444,1145
5.413978160886,7
5.424003398001,94
5.427501810315,779
5.434193534277,10
5.436790665107,663
5.437779055537,38
5.439104593483,606
5.4400993032,995
5.445436929508,17
5.447424647171,2
5.449887404728,626
5.451136475716,46
5.452300786399,16
5.45241271967,53
5.456708281074,38
5.461081502695,62
5.462018792373,30
5.465660125319,9
5.466195889128,28
5.469589790554,337
5.477954808897,3
5.483599628088,16
5.490863707,303
5.4963941867,8
5.512643208179,716
5.512650780705,32
5.516804801857,206
5.516871723463,50
5.518558109407,392
5.519673181946,9
5.523007807118,10
5.530391535479,85
5.531612330591,7
5.538568657066,1543
5.541390699349,51
5.542347081293,7
5.548634274403,2840
5.551155506731,1170
5.551536630645,12
5.559082264243,44
5.565514264242,38
5.56983666424,26
5.571996664238,49
5.573160664237,5360
5.574543064235,630
5.576320264234,12111
5.586070383535,9
5.588047834439,465
5.593433112055,26
5.596447608679,1893
5.601951253259,18
5.607581261602,82
5.609729261601,2264
5.610215871883,2224
5.61423128598,1340
5.616339157483,38
5.616406357482,49
5.616790357481,524
5.624176270928,171
5.625753438145,1
5.627648159487,7
5.628668354451,748
5.630848371164,51
5.632093886482,51
5.633442143932,20
5.633742509066,13
5.638806577159,2527
5.642063712033,516
5.642171712032,2556
5.650633577531,312
5.65179997753,1609
5.657449653059,809
5.661557178098,6
5.663866541202,3
5.664344872927,45
5.665735945714,1
5.67506668868,178
5.677119888679,1
5.677583088679,374
5.679332688679,7
5.681250288678,45
5.682736669799,343
5.684687120678,64
5.685378320678,95
5.686051520676,90
5.686581920676,44
5.691803120675,38
5.693605552676,5634
5.695629952675,133
5.695727152674,405
5.696465152674,3
5.703822352673,21
5.708696784673,2333
5.709609984673,4387
5.713443984672,1008
5.714481984671,48
5.71506158467,110
5.715384384669,36
5.717520384667,12354
5.719534016667,14033
5.726850085455,4510
5.729769358683,23
5.730727483163,3
5.730791115163,47
5.732397418309,3
5.734646218308,3
5.735157418306,6
5.735405818304,14
5.741350618302,37
5.7454126183,1013
5.746640218299,5
5.747770618298,5
5.749960618297,260
5.751196618296,117
5.752129018295,5659
5.754964618294,3
5.759991418292,19
5.76210221829,16155
5.76224714101,365
5.762571141009,3
5.763952341007,478
5.765691141006,3693
5.765759782384,691
5.766840013488,16
5.775230777492,499
5.778071057823,4
5.782870743807,31
5.786491215538,5
5.792563020886,12
5.79264940886,1
5.809423361305,981
5.810174724945,26
5.813895924943,3
5.817477924941,6068
5.818791130266,1100
5.818855930266,1303
5.820036076274,47
5.820301925681,72
5.821325435015,53
5.823377244138,49
5.823780045001,2
5.825335312741,4
5.839915607553,370
5.843302052317,1
5.84492732853,27
5.84503935195,3
5.847654899294,16
5.84851064515,1
5.849564159733,39
5.855848002343,31
5.857136802342,7
5.85735040234,45
5.857697202338,133
5.860250802337,36
5.861110002336,29
5.864345202334,7602
5.864969234334,329
5.865306434334,919
5.866477634334,1163
5.869639634333,80
5.876218034331,10882
5.882456442354,529
5.884909242353,28
5.886471642352,4331
5.887300801353,3116
5.888311025902,16
5.896290087172,17
5.898403524283,39
5.911922309032,3859
5.916214981879,51
5.917735516623,2
5.921330993335,1
5.923783793334,84
5.934464993333,5751
5.935656593332,7432
5.94210239954,3
5.943966658097,31
5.951051527408,2264
5.966994517784,3
5.973540517783,1107
5.974243717782,52
5.976772117782,407
5.978411317781,5500
5.97897891778,2
5.990201317778,101
5.990336917776,1636
5.990440117775,1
5.991326917773,11
5.994833317771,17802
5.99486044369,17
5.99582026174,299
6.006307160287,25
6.019271424322,5
6.026149824321,2832
6.028151424319,375
6.028669824318,42
6.028818624316,11522
6.035016701064,28
6.035368301063,1840
6.035418627322,724
6.036043332222,15
6.037185732221,1184
6.042587158348,48
6.043228934508,45
6.048109524006,54
6.055730796178,15
6.057337771991,7
6.061576212596,29
6.06464233414,30
6.066095946665,927
6.066109560695,7
6.078388177634,43
6.08801246491,846
6.089442753926,4
6.091340585075,46
6.091960549057,25
6.092308400711,41
6.094720260212,188
6.101147184012,53
6.101609184011,683
6.10276718401,35
6.103698384008,3054
6.106043856763,2730
6.106073817915,1
6.109374710604,18
6.111932848816,20
6.114763722695,4
6.117049379127,995
6.118084643536,37
6.126716316938,2600
6.126963625066,2
6.130919245378,20
6.132371245377,34
6.133608445376,3268
6.133954767151,50
6.134530593628,40
6.142184532863,32
6.147553332863,6474
6.14908137229,5
6.149666789134,16
6.152345832522,523
6.160186687052,7
6.166781635041,49
6.169061742336,1
6.172628964758,1181
6.180889213271,1109
6.182975209125,7
6.187766114594,4
6.193160114593,34
6.194360114591,1854
6.19558891459,12
6.19993171459,1314
6.201284114588,10924
6.205903542962,1084
6.212705747534,13
6.213169188462,12
6.216141670215,1119
6.216570533871,26
6.222992352686,20
6.223486022303,180
6.225917269013,15
6.235045102037,613
6.237453409699,1
6.243294639558,32
6.249860215153,34
6.251592528141,18
6.258033724585,31
6.266724110136,450
6.268375310135,21
6.268386668734,4
6.268893100734,5441
6.271752218594,116
6.273707803666,8
6.280286880289,38
6.283423348218,1
6.298182019916,26
6.298934956368,6
6.29925964162,36
6.303060771984,410
6.306728106162,1073
6.328772812741,34
6.337066664972,23
6.338864264971,52
6.33992986497,2585
6.340793892362,86
6.341720461927,20
6.346241064408,15
6.353669064408,2024
6.355307064405,76
6.355449864403,2
6.355595064401,665
6.3601766644,4
6.363095064398,983
6.368948664397,908
6.373233864396,45
6.376286664396,4203
6.381147864396,6102
6.383671464396,20
6.389162664395,27
6.401107464394,17094
6.407282696394,26
6.407390922583,48
6.409961128394,65
6.413555603379,19023
6.414147203379,45
6.414184403378,2509
6.414255203378,1289
6.419163235378,5108
6.42111913563,18
6.421753935628,41
6.422093535626,3239
6.42274550861,5
6.429443135891,2875
6.435987182161,5
6.436286750022,17
6.441819865571,18
6.442574003319,19
6.443348639298,33
6.443593050838,24
6.447037418893,937
6.44758849705,74
6.447858719879,23
6.449905692762,15
6.452493982798,49
6.453175719439,515
6.456225125723,7
6.458340725722,5
6.458598725719,3
6.459897125719,2443
6.461768118228,5
6.463211718226,16
6.465500118225,16
6.467697318224,2738
6.468234918223,32
6.468422118221,28
6.46998691822,101
6.470415318218,7
6.475578918216,53
6.479148918215,1233
6.482993718214,16214
6.4864559264,4
6.488405601797,30
6.496458321047,3
6.497210721046,2816
6.504936288143,827
6.508893888143,27
6.509087088141,1584
6.51052228814,19
6.511277088139,5769
6.519736506886,47
6.533745208791,54
6.53543754529,26
6.535481945289,714
6.551227275082,69
6.56523728803,82
6.566548730252,17
6.57654890501,22
6.577987705009,1019
6.578084616576,38
6.584046537009,8624
6.585635564662,501
6.58938106812,24
6.595321068119,5290
6.599929192168,1164
6.602528392167,2
6.605161192165,6549
6.607794970422,24
6.611149562612,46
6.614598224005,4
6.615503024004,3130
6.618379105595,37
6.618988705594,1012
6.623333189637,1085
6.62778591748,7
6.632586127793,45
6.646673541413,85
6.649114705794,15
6.653105165176,477
6.653302636089,2
6.656805391046,23
6.657360991045,25
6.659111791045,2
6.660338191044,51
6.663162991043,634
6.664855023043,5685
6.667607823043,2836
6.668006927555,17
6.668065727554,509
6.674145731115,39
6.690705604885,391
6.691814502963,1119
6.699024800103,9
6.701160972634,61
6.702713982139,28
6.706349673788,2
6.708415244479,1276
6.716081150064,6
6.717799493906,2
6.718949551249,13
6.719925058945,314
6.73265877935,25
6.736587223655,1095
6.73931100054,3
6.741959736883,1650
6.748296782583,161
6.748332092728,42
6.753953560879,51
6.758047309006,745
6.759364614512,227
6.760744646999,9
6.763641618156,39
6.767803100366,226
6.771338974995,2288
6.774442479699,2761
6.774874122098,42
6.781775907796,2976
6.782292394773,1
6.783649145707,38
6.788023185632,19
6.788373585631,2795
6.798922521961,434
6.804819470504,2300
6.805302226551,17
6.805681426549,1794
6.808196033747,4
6.809650433746,3
6.815140433744,5799
6.821156012118,40
6.823183434842,16
6.824143933432,52
6.825650778889,3
6.82592384473,3
6.839282239826,37
6.840484938453,43
6.846506757489,2610
6.847439684946,20
6.862621203394,4
6.871915247499,51
6.873948238844,45
6.880298212258,35
6.882046481916,6
6.886389468288,1153
6.889858668287,53
6.891719868285,10
6.893606268283,6409
6.895157926521,2162
6.895178329988,2
6.895544170221,29
6.904769232735,47
6.905452227357,28
6.905849437229,16
6.911176143204,34
6.923959137064,5833
6.926216304784,208
6.939327504783,26
6.939851904782,2
6.940166630206,705
6.945013430206,35
6.946082630205,6117
6.947321030204,5424
6.951752630203,39
6.956505830202,16
6.9611306302,3291
6.963114773301,5335
6.965141605301,453
6.968417605301,18
6.970167205299,583
6.970451605298,1876
6.971220805297,3
6.974602405296,9819
6.978690805296,8217
6.978741205295,50
6.979668805295,4815
6.981318805294,5278
6.986258401621,2742
6.986441699168,547
6.988403730034,676
6.994091864769,185
6.998805419097,160
7.000738641427,49
7.002164754483,883
7.005408988479,1
7.005537868697,17
7.017557182497,45
7.019515316138,18
7.019602916138,136
7.021547151287,1626
7.022397788002,636
7.022398988002,3
7.024397245198,68
7.025592261908,6
7.032264653062,1247
7.040556536215,106
7.041589736214,232
7.043275736212,2183
7.044223175019,55
7.044869975019,664
7.046398582459,17
7.047722182458,2071
7.048638527771,54
7.050968270119,20
7.059481998836,22
7.061591598835,37
7.062942798833,2788
7.065011598832,1004
7.066116798831,3
7.066857198829,5785
7.066960105731,52
7.072283743032,3274
7.074867645936,4
7.07893353964,14
7.081366208721,21
7.084462934972,1858
7.095866946719,266
7.101188959558,2969
7.101826810602,386
7.101879292384,47
7.102687428264,4
7.106184328102,132
7.106700607892,33
7.107150299446,53
7.108431749961,3
7.109730521229,266
7.114409784941,51
7.123621923051,12
7.124425923051,2435
7.12788255102,19
7.1318849919,961
7.13697763408,36
7.13745643408,3009
7.148194481468,97
7.14876226485,23
7.148985518925,6
7.150672494358,16
7.150887294357,371
7.152299541069,392
7.152652143282,129
7.162921210907,834
7.169017334088,16
7.172919288464,3244
7.177176310389,6
7.187910649591,31
7.192295564836,9
7.192859663588,45
7.195587260311,2231
7.196109814496,145
7.199861014494,15
7.201077814491,2279
7.201372361429,27
7.203983561428,2618
7.206844177199,269
7.209660577197,129
7.209842977195,6361
7.213414254123,36
7.22020707761,133
7.225158412326,124
7.22759581478,218
7.228141382226,75
7.230160172685,3
7.230956113342,20
7.236624939138,1003
7.241817599464,1287
7.243866826844,51
7.248504826843,59
7.250202826842,5630
7.256522281643,18
7.258092735226,13
7.267334759834,375
7.27375179557,1020
7.275486288774,459
7.276476055788,1
7.28068004141,39
7.282574113855,24
7.283985749407,39
7.288722368797,11
7.289328368796,121
7.290096368794,403
7.290894368793,4172
7.297306205245,2438
7.299994237245,3967
7.307379654512,159
7.309261706568,3
7.313068082643,1785
7.31430607028,895
7.318624642063,2924
7.329689372575,24
7.339590342512,23
7.367169182367,6
7.367332382366,3697
7.367610127155,4
7.36900733908,809
7.369146216731,3
7.376406210051,40
7.376716816738,53
7.377063187736,6
7.379229444845,122
7.384781844845,5120
7.397116221049,6666
7.398350376528,2
7.401253934266,16
7.401276766266,14
7.404216434493,2352
7.409127245992,1256
7.410660958065,437
7.41260162384,1
7.422307829937,376
7.428365894804,21
7.443605649144,2441
7.459152610603,1
7.473239615991,4813
7.481397257598,40
7.481729657598,113
7.482456857596,3
7.485448457594,20
7.493477657593,74
7.497366857592,14
7.50275605759,50
7.502806457589,18883
7.505160924413,4712
7.512647869889,2400
7.516826134623,42
7.518046035576,120
7.518115635574,809
7.52381734902,4811
7.529435277228,18
7.535032868118,47
7.536929765475,21
7.540408368829,30
7.543024368829,4448
7.544562525201,17
7.545970125199,4
7.546442925197,3108
7.548164405684,116
7.552713178735,645
7.552720378734,6
7.557745978733,6514
7.559841828132,4
7.562158160294,38
7.5721563755,42
7.572398775498,1021
7.574651175498,7149
7.575324095842,2510
7.577040841666,1457
7.583398991876,6
7.585129960279,1011
7.590145499247,22
7.605389082864,4
7.60597896114,45
7.611395026048,46
7.613977705623,631
7.619499504091,41
7.622467980848,343
7.624717324556,520
7.625128292465,20
7.625424059789,41
7.628266315244,27
7.633689334885,696
7.645381488691,6
7.65752879927,569
7.657780541537,51
7.659205794912,652
7.663887225809,175
7.668395062819,233
7.686230869706,14
7.7003153102,7
7.709462864395,1073
7.713538064394,7
7.721662064392,792
7.72210966439,1207
7.728209264389,16697
7.72930009639,3529
7.730999742278,386
7.731695883126,16
7.734509267965,1326
7.73502429059,11
7.73637435092,207
7.744248661023,33
7.753266074151,842
7.753900590146,23
7.755123993234,61
7.765190377902,387
7.765844377901,1643
7.768061604628,206
7.769109876182,24
7.774212458046,1067
7.77681778131,46
7.777189426942,38
7.777221027606,2
7.777649655696,5
7.778260877885,38
7.787246331509,6
7.792265151078,30
7.795248351078,6088
7.796249380717,13
7.798789780716,2149
7.804653637977,4905
7.805590634771,1749
7.811016816469,22
7.816601200887,133
7.819261188184,548
7.823739724227,608
7.82649724492,182
7.832279158858,48
7.833004960065,14
7.834478685504,4
7.838558312339,9
7.838977800254,16
7.839065668643,20
7.847955060247,43
7.848257701011,62
7.8552895792,14
7.863646515278,26
7.865555300479,2
7.866438006559,47
7.87234995071,863
7.877114246304,833
7.878085046303,2701
7.879495769673,1352
7.884009644383,25
7.884768924933,73
7.890212215751,2204
7.890627915854,11
7.894782479586,38
7.896580935415,673
7.907219570245,2628
7.909181831286,1222
7.915163783887,438
7.915703959297,40
7.923518996516,112
7.927539904734,1847
7.930353234767,14
7.932753535425,33
7.932906207075,54
7.938543607489,4692
7.939681110885,3
7.940560710884,21
7.940942310882,48
7.94707071088,3222
7.950672676817,24
7.952601076816,2753
7.955833908817,2797
7.956391908817,2410
7.957345940817,3750
7.964979744,1309
7.972051397135,577
7.972866839867,50
7.981115987983,4
7.981661987982,1749
7.982876387981,3318
7.992853602501,47
8.004898114897,2906
8.006787613509,2288
8.008525019711,13
8.021107598868,1006
8.022403503089,38
8.023907103087,2329
8.02401179795,6
8.02442939795,492
8.029925384133,26
8.032019318139,45
8.034925565631,7
8.048128622754,4
8.053902623726,322
8.057492676286,3097
8.074474494764,3
8.075014494764,2290
8.078433305667,1771
8.085311681915,2115
8.089872056673,284
8.090377093689,29
8.099174957314,122
8.100503357313,14
8.103676157311,6015
8.10495125883,38
8.105098858828,1549
8.105436058828,7
8.109676858826,25
8.110270858825,2921
8.110694458825,4397
8.12513701312,2509
8.132807282645,31
8.134517282643,195
8.134855682642,1328
8.148287282642,52
8.152312082639,10
8.153794251214,6
8.154401451213,4
8.155888251212,2272
8.157629483213,1537
8.158731115213,36
8.160369115212,30
8.168015515211,16421
8.168376715211,6
8.172649915209,3010
8.178274315208,16756
8.186810386876,6033
8.187688563604,45
8.187806163604,318
8.188081129331,36
8.195238502477,18
8.208609099738,2079
8.220431499737,7
8.222253099735,13
8.228267499733,33
8.228333499732,5
8.23260069973,43
8.232928299729,15963
8.232939149634,4760
8.234237581634,5599
8.23939919521,5
8.239620400459,89
8.239923024338,40
8.243905794553,5
8.244503394552,1203
8.245097860588,47
8.249383739772,101
8.254978186207,37
8.259860619646,24
8.264811685656,18
8.265633452538,5
8.267904418299,329
8.271556018298,3848
8.272066750805,1
8.272806813349,545
8.274143073296,122
8.275825473295,1756
8.286755657662,12
8.294106419918,34
8.301465418335,591
8.304422154094,28
8.306157354093,14
8.309344554091,6537
8.314992148648,50
8.320154548647,8539
8.322655886596,6
8.3366323695,19
8.34433361264,12
8.353648650324,1900
8.366015097746,3123
8.371053266916,17
8.377165988303,115
8.383136488194,3
8.388127459022,22
8.389577788282,7
8.389833320561,1
8.393306733547,4
8.402183901794,16
8.406399502081,25
8.411078168752,7
8.412936256605,37
8.422381322967,14
8.426373047543,703
8.430969611599,3260
8.439166212284,6
8.449574192933,1207
8.450134592932,2796
8.4547040382,669
8.462589680125,18
8.464871832227,45
8.47977743089,6
8.491249711409,1877
8.497641837667,49
8.505444237667,11130
8.506021869263,49
8.510750055511,29
8.515392227054,15
8.518433575823,19
8.522774954336,19
8.525017243414,32
8.530474843412,48
8.530923643409,1
8.531551243408,17
8.534059243406,1216
8.536315243405,1
8.536360843403,4512
8.536988995108,51
8.537131795106,32
8.543981395104,3033
8.544244195104,34
8.544701395103,20
8.545394995103,14
8.549611795102,11997
8.552574843524,784
8.558368618057,42
8.561378625068,13
8.56910095702,6
8.570199302885,6
8.570575179035,11
8.579730669133,506
8.581197069132,2074
8.587950809215,961
8.600170668765,611
8.607195621217,123
8.621267642325,17
8.621682722008,17
8.622040044654,26
8.623393096609,258
8.6283723655,1525
8.629652910988,338
8.631897586426,24
8.632234786425,78
8.632718386424,1466
8.633755491838,3
8.640309482239,20
8.644472864069,2945
8.647758544281,43
8.64795774428,37
8.658422944278,1093
8.659474144276,668
8.660974144276,11730
8.664264416222,17
8.666436923578,124
8.669418923578,2694
8.681739702517,38
8.689773702517,7675
8.699505808849,14
8.702323771908,31
8.703172044013,5
8.704088490544,6
8.709066192003,47
8.714467341065,17
8.718274823097,90
8.721688911924,4
8.723635222874,1
8.724850069469,21
8.72787242322,94
8.729371074152,945
8.730051235159,6
8.733448073919,20
8.733550073918,214
8.734997065847,520
8.741108643964,1
8.748607443963,552
8.754608643963,3084
8.758005843963,50
8.758831443961,11509
8.760353560472,3
8.763575560471,16
8.76409516047,134
8.764109560469,5386
8.76561716105,10
8.774551813068,4
8.777369443159,12
8.77837807244,28
8.789739468255,817
8.790944268254,2219
8.793610418948,4
8.806628018948,38
8.812198418946,12263
8.812631423156,3988
8.814960502977,27
8.816661310275,31
8.819022463605,1202
8.821836825897,36
8.822128993692,73
8.822622519537,236
8.841843309411,362
8.84335410941,1663
8.84560715794,47
8.856624834219,29
8.858481517239,122
8.862383281185,3102
8.866064244192,18
8.866096644191,1249
8.869980770408,5
8.870043279333,3
8.87114575646,62
8.878436627766,7
8.883832879587,29
8.890242460737,19
8.891049017227,157
8.894022427348,102
8.906546054714,17
8.907905654714,33
8.913347654713,6134
8.913375784929,12
8.920544883243,33
8.927550189202,5671
8.932495672505,1271
8.935011113995,374
8.935425113995,5
8.940520313994,5827
8.941863735562,33
8.962215554342,293
8.965487773788,608
8.977802461713,18
8.983349074353,34
8.989399392593,4
8.992426341342,7
8.994497033718,22
8.995012771123,42
8.997894910093,452
8.998045802241,25
9.000765646089,4
9.003987912518,15
9.006888547081,97
9.008558146032,52
9.010305346032,19
9.01096414603,612
9.012310546029,132
9.014218546028,4561
9.016230149481,37
9.017413381481,978
9.022704916147,50
9.023802499775,68
9.034791907419,80
9.03570937155,671
9.039840153613,33
9.044562048307,719
9.047143248306,4789
9.049870711375,9
9.052291111373,596
9.053245111371,18
9.05349711137,2586
9.053983295296,2761
9.054057032497,4
9.058241432495,1
9.060130232495,5201
9.061796594637,29
9.062896994637,16
9.065799794636,441
9.073620194634,42
9.074055794633,457
9.074448194633,10522
9.076707353423,4
9.078981127503,1128
9.080947897024,15
9.085079059326,50
9.088274659326,26
9.092370259324,5
9.093479059323,9040
9.105511570678,32
9.106135570677,63
9.106272370675,122
9.107213170675,48
9.110202370673,3739
9.116094504315,26
9.135523934696,2
9.135997745677,83
9.143275183757,25
9.144806633859,62
9.155760049528,312
9.159957693845,33
9.163125936088,525
9.169801661141,647
9.170286333344,284
9.176972485568,552
9.177132862035,44
9.179344246201,599
9.184210333433,8
9.186039353134,90
9.195106163852,3
9.204074846161,28
9.207383795156,49
9.209235395434,204
9.213515164995,463
9.226892686433,5036
9.229104773958,743
9.22992348008,130
9.232163417963,601
9.234079849963,104
9.234372649963,40
9.237921049962,263
9.239855449961,931
9.246268249961,14
9.246271849959,10929
9.247349765216,2
9.248695888942,8
9.250775700593,2
9.251590500592,1099
9.254200354469,52
9.254526132195,11
9.255293138014,1
9.25789863985,19
9.25812663985,18
9.259107039849,59
9.260229039848,5
9.263737839848,1120
9.265788639847,742
9.267819039845,3
9.269433039845,8834
9.269905449089,60
9.277180625711,76
9.283413035361,1228
9.283471759897,37
9.283787833434,1354
9.286316476695,398
9.292063069692,1154
9.294448854515,5
9.296998854514,4
9.298195254512,4831
9.302585270128,19
9.303385670127,1067
9.304798637543,50
9.310630272789,22
9.311277072789,4250
9.314313061659,1101
9.320088996563,134
9.323000196562,3947
9.326406517912,38
9.332472508779,1082
9.333461308777,1993
9.336253758213,285
9.336794958212,3255
9.340989244221,929
9.345323644221,7
9.348236044218,19
9.351670444216,4
9.351701644214,1794
9.354230044214,4
9.354531244211,39
9.35814684421,1
9.359106844209,6
9.360192844208,7876
9.366419209242,15
9.368189209239,5
9.372362809237,15
9.374436409235,32
9.38183284672,47
9.381991246719,588
9.383509246718,8433
9.385402890903,2169
9.389605278718,20
9.390402078716,27
9.391700478716,20
9.395970078715,7476
9.397570425917,28
9.398400825916,4853
9.402553310713,48
9.403350110712,19343
9.405644281909,17
9.408642357696,3
9.409920894921,130
9.411778494919,838
9.415144494919,3858
9.423587828002,1310
9.426657436323,2
9.427056202632,1
9.431962623988,43
9.43334453258,2
9.433918426804,19
9.444976331849,579
9.445573818073,2
9.447310163975,654
9.451347650451,3027
9.460888751021,2472
9.464468210745,1141
9.466840714538,37
9.470404588577,24
9.471119628247,11
9.481091062509,1311
9.481872628595,24
9.482593828593,2095
9.495576666959,2
9.495772619017,22
9.497787794914,5
9.507377549676,4672
9.509126652697,2385
9.515746681703,686
9.518229481703,53
9.520631881702,46
9.522158281702,33
9.532349881699,41
9.532383481697,52
9.533387881697,30
9.533504281695,25
9.538310281695,3094
9.538466313695,736
9.538695513695,9741
9.539974713694,3069
9.541749545694,5807
9.542616296781,107
9.545073136943,42
9.552583351644,16
9.570878389318,162
9.576870834132,932
9.586466369667,69
9.590545169666,877
9.590606369664,1160
9.592504769664,25
9.597382769662,146
9.60079436966,4
9.603583169659,12
9.603799169657,15
9.606266369656,53
9.610183169654,15737
9.610540868683,36
9.611156468681,1165
9.617197268681,15
9.619011668679,1347
9.623250068678,3410
9.632829668677,129
9.636242468675,11
9.638008868674,29
9.638286068672,4915
9.640030868672,17699
9.647002486171,2
9.654478486168,1540
9.656652886168,49
9.656943286168,2535
9.657773718169,3
9.658006518168,20
9.666531318167,4063
9.666566118167,1
9.670506918166,22
9.671174118165,4960
9.672485718165,30
9.674436918163,6067
9.674884550163,6166
9.677646115852,3607
9.678270813092,3
9.679017958939,35
9.683413571986,20
9.6872308906,7
9.687533217717,28
9.69268681879,483
9.69836641879,3047
9.699956073169,46
9.701966073168,5890
9.703592969287,12
9.709697616391,19
9.710086024551,116
9.715093051528,50
9.715950249698,42
9.721167625532,365
9.723637979767,5
9.728026379766,37
9.729803579764,5105
9.732042593167,1054
9.73378112327,40
9.736979788361,2373
9.743672695264,1362
9.746236637604,2219
9.747589544062,1
9.753700264201,3144
9.763887322408,1630
9.763949764705,31
9.767538414982,41
9.771730014981,5554
9.781816381547,34
9.788163060586,5
9.79337717266,3733
9.794730656962,16
9.79544984962,5
9.797593886647,72
9.799961486647,19
9.800443886645,41
9.806417486644,69
9.80680268664,174
9.810283886639,7254
9.814458718642,3686
9.815975518638,8
9.817014718636,3145
9.817668622645,625
9.821207422645,4405
9.821483469246,1117
9.824537658084,30
9.825869658083,304
9.827158458083,2928
9.832756115349,28
9.83939281925,15
9.845813404934,88
9.853341478632,27
9.864806255632,8
9.865161455631,44
9.869295455629,10411
9.875435545275,41
9.886851211787,6
9.888125806771,4
9.89175269244,9
9.899348692439,6593
9.899426601945,12
9.911565613004,13
9.912308919639,125
9.91377449626,104
9.914082896258,619
9.914712375467,37
9.914987175465,1131
9.918211139008,2800
9.921137713303,17
9.923007313302,2539
9.927088505794,48
9.92754939651,292
9.93479138141,46
9.937041206607,2
9.938543501222,14
9.939355059925,52
9.945560197669,362
9.952044974522,6
9.954585374521,2598
9.960259457231,1
9.96051625723,23
9.960734657229,1232
9.967682657229,17
9.972041057228,18
9.972122657227,12946
9.972901144121,15
9.974432125305,9
9.977486063443,3
9.978072356086,1
9.981685556085,3171
9.985588750427,48
9.987382750426,4
9.989752750424,6555
9.993051523375,3
9.994385828826,18
9.995473386154,19
9.997039590073,29
9.997808253151,347
10.002786688732,366
10.004267735193,20
10.006060298328,19
10.00636994626,18
10.013656455313,25
10.014361086598,123
10.01483815216,48
10.015241565322,31
10.016900807863,18
10.021573133319,684
10.027768286267,47
10.03164824602,49
10.034784212764,69
10.039817903217,311
10.04386272985,1
10.050558551697,28
10.05683916312,26
10.056888739852,20
10.059437256296,20
10.063025980852,6
10.063479763264,9
10.066786195944,14
10.071096595944,482
10.072324195942,1431
10.073864995941,5100
10.082978148968,12
10.088700948966,2566
10.091799348965,2007
10.092776148964,5145
10.094565069218,28
10.102980669218,50
10.103254269216,4913
10.104152279938,19
10.105751879936,5036
10.10622548183,34
10.109102728903,19
10.117539366612,2423
10.12092487318,78
10.127905554739,12
10.133473554738,40
10.133718354736,873
10.136133954736,6472
10.139434214637,212
10.14161537119,12
10.146973485355,33
10.164516430566,18
10.166324830566,48
10.167775630565,87
10.168420030564,5590
10.174098246833,817
10.177905846832,374
10.180580646832,6378
10.180910178503,47
10.184546178502,619
10.187326578502,22
10.198589778499,9827
10.199926621946,6557
