time,DctcpSim1.flowGenerator3.flowSynSize:vector
1,1.0
2,5.0
3,4.0
4,224.0
5,127.0
6,13.0
7,45.0
8,9.0
9,359.0
10,7.0
11,769.0
12,20.0
13,46.0
14,1.0
15,15.0
16,3157.0
17,40.0
18,448.0
19,1311.0
20,2419.0
21,396.0
22,18.0
23,2.0
24,297.0
25,52.0
26,1466.0
27,606.0
28,25.0
29,25.0
30,943.0
31,22.0
32,15.0
33,16.0
34,2550.0
35,261.0
36,35.0
37,1096.0
38,4.0
39,9.0
40,27.0
41,2909.0
42,1229.0
43,2106.0
44,1923.0
45,2257.0
46,7.0
47,6458.0
48,562.0
49,1327.0
50,13.0
51,2568.0
52,20.0
53,1609.0
54,21.0
55,48.0
56,282.0
57,6083.0
58,35.0
59,41.0
60,17.0
61,1989.0
62,3148.0
63,40.0
64,27.0
65,3.0
66,344.0
67,7.0
68,227.0
69,5.0
70,23.0
71,6.0
72,5.0
73,7.0
74,3011.0
75,1975.0
76,672.0
77,48.0
78,209.0
79,2625.0
80,869.0
81,47.0
82,3.0
83,728.0
84,372.0
85,215.0
86,1.0
87,116.0
88,24.0
89,1791.0
90,2226.0
91,32.0
92,16.0
93,84.0
94,3755.0
95,6.0
96,5644.0
97,2.0
98,17.0
99,10.0
100,8.0
101,14.0
102,2730.0
103,15.0
104,352.0
105,20.0
106,21.0
107,53.0
108,8.0
109,42.0
110,375.0
111,5.0
112,11023.0
113,4.0
114,3.0
115,23.0
116,20.0
117,1.0
118,49.0
119,7.0
120,33.0
121,19.0
122,29.0
123,5.0
124,16.0
125,42.0
126,5.0
127,394.0
128,19.0
129,3.0
130,120.0
131,2018.0
132,36.0
133,31.0
134,2380.0
135,2.0
136,86.0
137,5.0
138,43.0
139,15.0
140,149.0
141,22.0
142,110.0
143,26.0
144,3.0
145,215.0
146,694.0
147,1567.0
148,44.0
149,9.0
150,5.0
151,1211.0
152,274.0
153,983.0
154,28.0
155,17.0
156,40.0
157,6.0
158,1390.0
159,138.0
160,6215.0
161,19.0
162,120.0
163,5402.0
164,9.0
165,27.0
166,403.0
167,851.0
168,20.0
169,5975.0
170,2134.0
171,67.0
172,31.0
173,51.0
174,49.0
175,32.0
176,2398.0
177,1.0
178,544.0
179,3.0
180,1037.0
181,2052.0
182,1.0
183,354.0
184,999.0
185,2.0
186,1419.0
187,1255.0
188,1540.0
189,83.0
190,46.0
191,57.0
192,26.0
193,6.0
194,7.0
195,2.0
196,36.0
197,6334.0
198,8.0
199,3756.0
200,3.0
201,4248.0
202,19.0
203,20.0
204,6118.0
205,26.0
206,45.0
207,2695.0
208,19.0
209,2.0
210,3099.0
211,60.0
212,49.0
213,47.0
214,2260.0
215,17.0
216,1921.0
217,337.0
218,3.0
219,57.0
220,6.0
221,929.0
222,37.0
223,32.0
224,11951.0
225,7.0
226,212.0
227,4721.0
228,22.0
229,3848.0
230,224.0
231,276.0
232,40.0
233,16.0
234,3.0
235,351.0
236,44.0
237,1435.0
238,4993.0
239,3944.0
240,42.0
241,12.0
242,22.0
243,52.0
244,2.0
245,3115.0
246,35.0
247,23.0
248,21.0
249,107.0
250,2942.0
251,7.0
252,31.0
253,3702.0
254,943.0
255,35.0
256,49.0
257,3304.0
258,6.0
259,32.0
260,3869.0
261,6.0
262,2.0
263,94.0
264,17.0
265,43.0
266,41.0
267,101.0
268,38.0
269,30.0
270,1061.0
271,14.0
272,2934.0
273,3.0
274,6.0
275,17.0
276,3.0
277,19.0
278,1277.0
279,1244.0
280,164.0
281,24.0
282,33.0
283,128.0
284,5.0
285,60.0
286,597.0
287,25.0
288,2.0
289,2353.0
290,53.0
291,43.0
292,6.0
293,17.0
294,38.0
295,60.0
296,3485.0
297,111.0
298,1419.0
299,18.0
300,48.0
301,24.0
302,21.0
303,4.0
304,15.0
305,132.0
306,41.0
307,9.0
308,2646.0
309,6328.0
310,261.0
311,53.0
312,925.0
313,16129.0
314,1409.0
315,212.0
316,4.0
317,3495.0
318,3.0
319,17880.0
320,4514.0
321,1093.0
322,5572.0
323,2008.0
324,687.0
325,18.0
326,1033.0
327,23.0
328,2134.0
329,1780.0
330,40.0
331,2585.0
332,9.0
333,2.0
334,26.0
335,1265.0
336,144.0
337,6546.0
338,728.0
339,45.0
340,1.0
341,6.0
342,5.0
343,16.0
344,2768.0
345,3713.0
346,3916.0
347,13.0
348,1010.0
349,6.0
350,37.0
351,718.0
352,5252.0
353,686.0
354,2.0
355,20.0
356,2937.0
357,127.0
358,1.0
359,8255.0
360,2.0
361,1976.0
362,42.0
363,4.0
364,1174.0
365,2267.0
366,16.0
367,132.0
368,69.0
369,24.0
370,8.0
371,43.0
372,4.0
373,4.0
374,1057.0
375,5884.0
376,5.0
377,16.0
378,1200.0
379,5.0
380,480.0
381,6.0
382,251.0
383,16.0
384,1325.0
385,20.0
386,32.0
387,3797.0
388,37.0
389,47.0
390,22.0
391,1.0
392,6.0
393,1206.0
394,1497.0
395,1586.0
396,3.0
397,44.0
398,5367.0
399,4240.0
400,25.0
401,80.0
402,2817.0
403,10201.0
404,4884.0
405,14.0
406,4589.0
407,18668.0
408,41.0
409,134.0
410,1.0
411,63.0
412,16.0
413,87.0
414,14.0
415,96.0
416,356.0
417,29.0
418,82.0
419,1233.0
420,76.0
421,32.0
422,19.0
423,7.0
424,46.0
425,20.0
426,8.0
427,31.0
428,6478.0
429,9637.0
430,30.0
431,11.0
432,2.0
433,13.0
434,434.0
435,50.0
436,4.0
437,1057.0
438,20.0
439,37.0
440,55.0
441,55.0
442,9.0
443,3288.0
444,12606.0
445,327.0
446,19.0
447,1319.0
448,620.0
449,17.0
450,2583.0
451,53.0
452,43.0
453,1215.0
454,4.0
455,20.0
456,2.0
457,25.0
458,6.0
459,419.0
460,4.0
461,20.0
462,9.0
463,36.0
464,496.0
465,47.0
466,20.0
467,32.0
468,13.0
469,10.0
470,53.0
471,117.0
472,5.0
473,40.0
474,16.0
475,910.0
476,134.0
477,1.0
478,2.0
479,3232.0
480,3282.0
481,22.0
482,65.0
483,32.0
484,28.0
485,4.0
486,2809.0
487,28.0
488,5667.0
489,1058.0
490,471.0
491,6.0
492,91.0
493,3.0
494,49.0
495,48.0
496,58.0
497,3.0
498,1001.0
499,14.0
500,1236.0
501,34.0
502,34.0
503,8923.0
504,131.0
505,1556.0
506,25.0
507,27.0
508,266.0
509,9047.0
510,1584.0
511,89.0
512,1.0
513,3.0
514,30.0
515,1014.0
516,41.0
517,1946.0
518,73.0
519,15.0
520,18.0
521,74.0
522,807.0
523,6.0
524,15.0
525,28.0
526,750.0
527,132.0
528,640.0
529,4.0
530,1563.0
531,47.0
532,32.0
533,2709.0
534,614.0
535,5075.0
536,1311.0
537,20.0
538,471.0
539,3224.0
540,5880.0
541,7951.0
542,17.0
543,4.0
544,375.0
545,2.0
546,119.0
547,53.0
548,2043.0
549,441.0
550,21.0
551,4244.0
552,1183.0
553,8.0
554,561.0
555,9.0
556,447.0
557,2.0
558,23.0
559,65.0
560,8.0
561,24.0
562,29.0
563,6.0
564,1640.0
565,52.0
566,162.0
567,20.0
568,61.0
569,432.0
570,1147.0
571,301.0
572,20.0
573,586.0
574,42.0
575,1.0
576,15259.0
577,535.0
578,42.0
579,92.0
580,53.0
581,11.0
582,100.0
583,133.0
584,1121.0
585,575.0
586,2328.0
587,4150.0
588,577.0
589,68.0
590,2147.0
591,8.0
592,93.0
593,535.0
594,26.0
595,20.0
596,6.0
597,46.0
598,1245.0
599,651.0
600,306.0
601,5021.0
602,1.0
603,6.0
604,6683.0
605,19.0
606,833.0
607,63.0
608,791.0
609,2.0
610,855.0
611,3456.0
612,21.0
613,687.0
614,15.0
615,5060.0
616,35.0
617,47.0
618,3.0
619,544.0
620,3628.0
621,2632.0
622,1675.0
623,453.0
624,65.0
625,416.0
626,2911.0
627,916.0
628,4114.0
629,2367.0
630,5092.0
631,75.0
632,18.0
633,29.0
634,75.0
635,14160.0
636,1181.0
637,25.0
638,14.0
639,1182.0
640,3.0
641,3310.0
642,41.0
643,3367.0
644,47.0
645,1272.0
646,31.0
647,1205.0
648,8.0
649,132.0
650,62.0
651,47.0
652,2.0
653,1718.0
654,326.0
655,240.0
656,35.0
657,1058.0
658,5.0
659,47.0
660,11.0
661,2978.0
662,3189.0
663,3.0
664,3538.0
665,2.0
666,1189.0
667,4054.0
668,7.0
669,40.0
670,16.0
671,36.0
672,14.0
673,455.0
674,1135.0
675,1146.0
676,97.0
677,24.0
678,4413.0
679,2161.0
680,1136.0
681,16.0
682,28.0
683,4.0
684,536.0
685,4.0
686,33.0
687,29.0
688,981.0
689,629.0
690,27.0
691,884.0
692,622.0
693,21.0
694,935.0
695,11.0
696,1393.0
697,42.0
698,54.0
699,515.0
700,35.0
701,42.0
702,18.0
703,5.0
704,45.0
705,37.0
706,18216.0
707,43.0
708,50.0
709,14.0
710,20.0
711,38.0
712,2537.0
713,15.0
714,5889.0
715,73.0
716,1645.0
717,1114.0
718,2.0
719,8.0
720,17.0
721,472.0
722,2.0
723,7.0
724,2.0
725,5.0
726,432.0
727,5034.0
728,28.0
729,1750.0
730,19.0
731,972.0
732,25.0
733,43.0
734,1.0
735,3976.0
736,2113.0
737,6.0
738,18.0
739,1.0
740,5582.0
741,4.0
742,329.0
743,836.0
744,5.0
745,2646.0
746,4344.0
747,88.0
748,568.0
749,243.0
750,627.0
751,24.0
752,14.0
753,4.0
754,384.0
755,6.0
756,6.0
757,1241.0
758,37.0
759,3112.0
760,46.0
761,6.0
762,545.0
763,29.0
764,1.0
765,19318.0
766,3.0
767,366.0
768,21.0
769,3.0
770,72.0
771,2631.0
772,5.0
773,19.0
774,14.0
775,48.0
776,6.0
777,19.0
778,731.0
779,564.0
780,13.0
781,385.0
782,47.0
783,1.0
784,53.0
785,917.0
786,4884.0
787,12.0
788,7.0
789,37.0
790,46.0
791,617.0
792,578.0
793,8.0
794,3153.0
795,2.0
796,4.0
797,29.0
798,4.0
799,258.0
800,21.0
801,25.0
802,4.0
803,17.0
804,9.0
805,58.0
806,103.0
807,2881.0
808,3.0
809,43.0
810,450.0
811,5.0
812,13.0
813,26.0
814,1306.0
815,1077.0
816,17.0
817,3146.0
818,4.0
819,6509.0
820,722.0
821,4.0
822,29.0
823,73.0
824,40.0
825,23.0
826,28.0
827,63.0
828,281.0
829,3185.0
830,14685.0
831,77.0
832,6.0
833,3787.0
834,31.0
835,1268.0
836,2.0
837,2544.0
838,4.0
839,607.0
840,234.0
841,105.0
842,49.0
843,43.0
844,29.0
845,38.0
846,18.0
847,2161.0
848,6.0
849,14.0
850,26.0
851,11.0
852,45.0
853,8.0
854,1.0
855,121.0
856,299.0
857,1375.0
858,40.0
859,2477.0
860,12.0
861,186.0
862,37.0
863,52.0
864,6.0
865,414.0
866,24.0
867,7.0
868,1161.0
869,20.0
870,2714.0
871,21.0
872,1050.0
873,2838.0
874,1329.0
875,210.0
876,4.0
877,6077.0
878,17.0
879,270.0
880,2839.0
881,3.0
882,30.0
883,4.0
884,3.0
885,9.0
886,24.0
887,16.0
888,5.0
889,6653.0
890,212.0
891,17.0
892,7884.0
893,29.0
894,2594.0
895,25.0
896,14.0
897,6.0
898,6.0
899,41.0
900,279.0
901,48.0
902,446.0
903,106.0
904,31.0
905,125.0
906,17.0
907,5.0
908,6699.0
909,32.0
910,24.0
911,166.0
912,547.0
913,6570.0
914,21.0
915,2235.0
916,797.0
917,3.0
918,5.0
919,43.0
920,655.0
921,88.0
922,14586.0
923,17.0
924,77.0
925,2839.0
926,9.0
927,2499.0
928,4964.0
929,14.0
930,28.0
931,47.0
932,7.0
933,1053.0
934,783.0
935,831.0
936,2198.0
937,1323.0
938,715.0
939,2025.0
940,2780.0
941,110.0
942,29.0
943,3025.0
944,16.0
945,32.0
946,3.0
947,931.0
948,822.0
949,603.0
950,1201.0
951,3.0
952,22.0
953,431.0
954,4809.0
955,403.0
956,14422.0
957,30.0
958,20.0
959,51.0
960,1451.0
961,1027.0
962,194.0
963,15.0
964,15.0
965,38.0
966,32.0
967,32.0
968,3558.0
969,19.0
970,459.0
971,232.0
972,21.0
973,12.0
974,5040.0
975,273.0
976,50.0
977,15.0
978,8525.0
979,2813.0
980,30.0
981,420.0
982,20.0
983,294.0
984,6.0
985,1649.0
986,34.0
987,16.0
988,4.0
989,17853.0
990,218.0
991,9.0
992,3392.0
993,4.0
994,839.0
995,524.0
996,177.0
997,19.0
998,893.0
999,29.0
1000,531.0
1001,23.0
1002,3.0
1003,88.0
1004,5.0
1005,18.0
1006,10.0
1007,3.0
1008,15.0
1009,31.0
1010,560.0
1011,46.0
1012,126.0
1013,22.0
1014,296.0
1015,363.0
1016,4.0
1017,20.0
1018,651.0
1019,27.0
1020,16.0
1021,45.0
1022,11702.0
1023,51.0
1024,31.0
1025,1865.0
1026,1.0
1027,7.0
1028,710.0
1029,4.0
1030,16.0
1031,15.0
1032,14.0
1033,3.0
1034,2.0
1035,752.0
1036,1988.0
1037,41.0
1038,3297.0
1039,16046.0
1040,5060.0
1041,57.0
1042,5287.0
1043,94.0
1044,8.0
1045,49.0
1046,173.0
1047,11692.0
1048,1491.0
1049,7.0
1050,2.0
1051,51.0
1052,93.0
1053,12.0
1054,48.0
1055,4688.0
1056,7.0
1057,112.0
1058,47.0
1059,260.0
1060,10.0
1061,18.0
1062,42.0
1063,35.0
1064,36.0
1065,3576.0
1066,111.0
1067,1.0
1068,25.0
1069,2045.0
1070,877.0
1071,2.0
1072,7.0
1073,42.0
1074,780.0
1075,7384.0
1076,101.0
1077,14.0
1078,333.0
1079,50.0
1080,294.0
1081,6415.0
1082,1425.0
1083,31.0
1084,10.0
1085,307.0
1086,1738.0
1087,1962.0
1088,2952.0
1089,289.0
1090,51.0
1091,1.0
1092,2.0
1093,4.0
1094,1214.0
1095,10.0
1096,2568.0
1097,37.0
1098,19.0
1099,4.0
1100,50.0
1101,173.0
1102,1595.0
1103,748.0
1104,5.0
1105,20.0
1106,1058.0
1107,13193.0
1108,22.0
1109,3174.0
1110,17519.0
1111,29.0
1112,422.0
1113,33.0
1114,13.0
1115,2.0
1116,14.0
1117,5.0
1118,92.0
1119,6.0
1120,167.0
1121,6757.0
1122,1546.0
1123,1458.0
1124,25.0
1125,2794.0
1126,4.0
1127,703.0
1128,16.0
1129,37.0
1130,927.0
1131,19.0
1132,21.0
1133,73.0
1134,45.0
1135,4.0
1136,629.0
1137,7.0
1138,17.0
1139,53.0
1140,19.0
1141,3882.0
1142,15.0
1143,5091.0
1144,21.0
1145,600.0
1146,19.0
1147,1006.0
1148,3122.0
1149,2752.0
1150,8.0
1151,6.0
1152,9637.0
1153,369.0
1154,1181.0
1155,3.0
1156,1248.0
1157,265.0
1158,38.0
1159,2742.0
1160,4.0
1161,946.0
1162,43.0
1163,1465.0
1164,293.0
1165,17.0
1166,766.0
1167,15449.0
1168,25.0
1169,2025.0
1170,3.0
1171,7.0
1172,4.0
1173,23.0
1174,1031.0
1175,18.0
1176,41.0
1177,39.0
1178,46.0
1179,2102.0
1180,3193.0
1181,15.0
1182,11.0
1183,3778.0
1184,3.0
1185,84.0
1186,75.0
1187,13.0
1188,6.0
1189,30.0
1190,1891.0
1191,1066.0
1192,132.0
1193,1548.0
1194,472.0
1195,16.0
1196,427.0
1197,7.0
1198,7.0
1199,3.0
1200,348.0
1201,56.0
1202,771.0
1203,26.0
1204,403.0
1205,343.0
1206,661.0
1207,14399.0
1208,12809.0
1209,1.0
1210,15762.0
1211,1.0
1212,4927.0
1213,1404.0
1214,1146.0
1215,10.0
1216,3645.0
1217,858.0
1218,4.0
1219,573.0
1220,15.0
1221,14.0
1222,204.0
1223,15.0
1224,311.0
1225,108.0
1226,4611.0
1227,4025.0
1228,2559.0
1229,20.0
1230,726.0
1231,1697.0
1232,6625.0
1233,46.0
1234,4368.0
1235,20.0
1236,16.0
1237,2632.0
1238,4.0
1239,5.0
1240,5.0
1241,18.0
1242,2250.0
1243,20.0
1244,10371.0
1245,1.0
1246,6487.0
1247,96.0
1248,3.0
1249,9.0
1250,74.0
1251,2893.0
1252,1649.0
1253,2026.0
1254,3.0
1255,37.0
1256,3159.0
1257,245.0
1258,3.0
1259,4.0
1260,156.0
1261,2414.0
1262,3333.0
1263,1330.0
1264,15.0
1265,15.0
1266,6.0
1267,72.0
1268,2575.0
1269,3.0
1270,876.0
1271,66.0
1272,2.0
1273,502.0
1274,17.0
1275,13434.0
1276,861.0
1277,2338.0
1278,19551.0
1279,1.0
1280,22.0
1281,24.0
1282,46.0
1283,3037.0
1284,3181.0
1285,53.0
1286,4356.0
1287,10.0
1288,1230.0
1289,14.0
1290,236.0
1291,251.0
1292,628.0
1293,11378.0
1294,50.0
1295,18.0
1296,48.0
1297,4495.0
1298,207.0
1299,35.0
1300,198.0
1301,1120.0
1302,50.0
1303,20.0
1304,19.0
1305,15.0
1306,5.0
1307,20.0
1308,50.0
1309,4.0
1310,1083.0
1311,531.0
1312,3291.0
1313,30.0
1314,2.0
1315,50.0
1316,2867.0
1317,391.0
1318,3452.0
1319,5.0
1320,20.0
1321,3561.0
1322,4796.0
1323,124.0
1324,11881.0
1325,564.0
1326,1206.0
1327,1027.0
1328,50.0
1329,41.0
1330,103.0
1331,95.0
1332,54.0
1333,1.0
1334,10.0
1335,14926.0
1336,70.0
1337,395.0
1338,32.0
1339,51.0
1340,239.0
1341,85.0
1342,4.0
1343,2920.0
1344,33.0
1345,106.0
1346,65.0
1347,3.0
1348,222.0
1349,43.0
1350,5252.0
1351,4.0
1352,1.0
1353,19.0
1354,814.0
1355,2428.0
1356,5.0
1357,1230.0
1358,53.0
1359,2639.0
1360,1281.0
1361,48.0
1362,1452.0
1363,562.0
1364,2.0
1365,1912.0
1366,3778.0
1367,40.0
1368,12.0
1369,3256.0
1370,5.0
1371,396.0
1372,41.0
1373,5.0
1374,53.0
1375,47.0
1376,216.0
1377,3153.0
1378,17350.0
1379,3.0
1380,18233.0
1381,4216.0
1382,1336.0
1383,6363.0
1384,619.0
1385,9410.0
1386,3362.0
1387,2932.0
1388,10.0
1389,33.0
1390,6216.0
1391,2780.0
1392,1008.0
1393,5755.0
1394,6.0
1395,103.0
1396,559.0
1397,52.0
1398,4.0
1399,1021.0
1400,31.0
1401,11.0
1402,596.0
1403,20.0
1404,981.0
1405,2201.0
1406,5337.0
1407,29.0
1408,30.0
1409,5.0
1410,20.0
1411,1117.0
1412,10906.0
1413,49.0
1414,4.0
1415,3283.0
1416,1.0
1417,10.0
1418,2028.0
1419,18828.0
1420,4756.0
1421,40.0
1422,6.0
1423,51.0
1424,5886.0
1425,43.0
1426,20.0
1427,23.0
1428,5.0
1429,197.0
1430,18.0
1431,14.0
1432,132.0
1433,15.0
1434,13.0
1435,405.0
1436,615.0
1437,17.0
1438,11.0
1439,750.0
1440,2599.0
1441,1725.0
1442,21.0
1443,36.0
1444,359.0
1445,28.0
1446,31.0
1447,20.0
1448,97.0
1449,20.0
1450,32.0
1451,613.0
1452,2906.0
1453,5504.0
1454,1.0
1455,1174.0
1456,129.0
1457,4150.0
1458,50.0
1459,4.0
1460,5534.0
1461,1071.0
1462,14.0
1463,488.0
1464,320.0
1465,370.0
1466,2.0
1467,2673.0
1468,13.0
1469,1497.0
1470,39.0
1471,21.0
1472,4767.0
1473,22.0
1474,10.0
1475,1236.0
1476,6.0
1477,6191.0
1478,7.0
1479,7.0
1480,2822.0
1481,21.0
1482,336.0
1483,42.0
1484,7.0
1485,55.0
1486,30.0
1487,18.0
1488,5.0
1489,15.0
1490,52.0
1491,616.0
1492,417.0
1493,1258.0
1494,261.0
1495,266.0
1496,845.0
1497,25.0
1498,3200.0
1499,4.0
1500,148.0
1501,8.0
1502,40.0
1503,5018.0
1504,2980.0
1505,19.0
1506,11.0
1507,14.0
1508,40.0
1509,21.0
1510,4842.0
1511,6.0
1512,43.0
1513,507.0
1514,22.0
1515,48.0
1516,6.0
1517,1326.0
1518,11037.0
1519,629.0
1520,29.0
1521,828.0
1522,1418.0
1523,911.0
1524,1310.0
1525,608.0
1526,6285.0
1527,69.0
1528,40.0
1529,4306.0
1530,4.0
1531,885.0
1532,317.0
1533,18.0
1534,5.0
1535,15.0
1536,85.0
1537,1322.0
1538,20.0
1539,33.0
1540,1.0
1541,34.0
1542,568.0
1543,19.0
1544,40.0
1545,52.0
1546,5233.0
1547,98.0
1548,20.0
1549,675.0
1550,398.0
1551,399.0
1552,2083.0
1553,6280.0
1554,2006.0
1555,18.0
1556,1406.0
1557,269.0
1558,6.0
1559,768.0
1560,459.0
1561,30.0
1562,50.0
1563,398.0
1564,361.0
1565,4.0
1566,8.0
1567,19.0
1568,763.0
1569,6.0
1570,33.0
1571,42.0
1572,18665.0
1573,960.0
1574,2641.0
1575,999.0
1576,8.0
1577,1.0
1578,1.0
1579,80.0
1580,11.0
1581,334.0
1582,14.0
1583,1.0
1584,49.0
1585,6.0
1586,1104.0
1587,6303.0
1588,51.0
1589,44.0
1590,2.0
1591,321.0
1592,719.0
1593,5225.0
1594,1.0
1595,802.0
1596,2446.0
1597,45.0
1598,4393.0
1599,1998.0
1600,17.0
1601,5.0
1602,13.0
1603,721.0
1604,27.0
1605,2230.0
1606,1498.0
1607,2.0
1608,5.0
1609,17.0
1610,1024.0
1611,244.0
1612,2118.0
1613,398.0
1614,20.0
1615,1183.0
1616,2813.0
1617,1218.0
1618,6324.0
1619,15.0
1620,18.0
1621,34.0
1622,513.0
1623,988.0
1624,943.0
1625,18.0
1626,95.0
1627,46.0
1628,13.0
1629,730.0
1630,23.0
1631,18.0
1632,4.0
1633,19.0
1634,5.0
1635,11.0
1636,655.0
1637,5.0
1638,13.0
1639,475.0
1640,5.0
1641,14.0
1642,918.0
1643,1840.0
1644,2.0
1645,6514.0
1646,724.0
1647,2.0
1648,432.0
1649,19.0
1650,74.0
1651,37.0
1652,11.0
1653,1.0
1654,90.0
1655,922.0
1656,3.0
1657,39.0
1658,13.0
1659,241.0
1660,2199.0
1661,1167.0
1662,3220.0
1663,1273.0
1664,4.0
1665,65.0
1666,53.0
1667,877.0
1668,824.0
1669,5543.0
1670,5.0
1671,23.0
1672,98.0
1673,27.0
1674,36.0
1675,7.0
1676,37.0
1677,31.0
1678,210.0
1679,127.0
1680,2376.0
1681,28.0
1682,24.0
1683,4.0
1684,2940.0
1685,76.0
1686,31.0
1687,1048.0
1688,14.0
1689,1033.0
1690,3022.0
1691,4778.0
1692,901.0
1693,31.0
1694,2031.0
1695,3.0
1696,31.0
1697,874.0
1698,22.0
1699,281.0
1700,6260.0
1701,19.0
1702,31.0
1703,35.0
1704,532.0
1705,45.0
1706,2.0
1707,5585.0
1708,3401.0
1709,12605.0
1710,2526.0
1711,45.0
1712,10.0
1713,529.0
1714,21.0
1715,296.0
1716,24.0
1717,1294.0
1718,46.0
1719,3216.0
1720,120.0
1721,11.0
1722,90.0
1723,2917.0
1724,15.0
1725,3700.0
1726,10.0
1727,1001.0
1728,12.0
1729,3.0
1730,74.0
1731,1975.0
1732,7.0
1733,42.0
1734,11.0
1735,1006.0
1736,14.0
1737,6030.0
1738,17.0
1739,6451.0
1740,29.0
1741,16.0
1742,40.0
1743,16.0
1744,3.0
1745,5.0
1746,18.0
1747,19.0
1748,15975.0
1749,32.0
1750,1697.0
1751,9.0
1752,1206.0
1753,1122.0
1754,2.0
1755,360.0
1756,6.0
1757,4180.0
1758,47.0
1759,3.0
1760,36.0
1761,862.0
1762,92.0
1763,2.0
1764,2.0
1765,1222.0
1766,15.0
1767,2274.0
1768,480.0
1769,17.0
1770,1704.0
1771,1677.0
1772,20.0
1773,5.0
1774,6506.0
1775,3171.0
1776,792.0
1777,4.0
1778,1.0
1779,2.0
1780,2977.0
1781,194.0
1782,29.0
1783,5962.0
1784,6485.0
1785,2330.0
1786,8.0
1787,8480.0
1788,896.0
1789,2172.0
1790,2.0
1791,7.0
1792,3159.0
1793,7.0
1794,6.0
1795,126.0
1796,2767.0
1797,82.0
1798,2045.0
1799,17.0
1800,5608.0
1801,518.0
1802,18.0
1803,311.0
1804,37.0
1805,6.0
1806,190.0
1807,743.0
1808,11.0
1809,1.0
1810,3.0
1811,2568.0
1812,21.0
1813,16.0
1814,3500.0
1815,49.0
1816,8.0
1817,13.0
1818,4.0
1819,16.0
1820,6134.0
1821,49.0
1822,27.0
1823,121.0
1824,5.0
1825,41.0
1826,22.0
1827,23.0
1828,3200.0
1829,11.0
1830,436.0
1831,5201.0
1832,73.0
1833,15.0
1834,12.0
1835,5493.0
1836,10.0
1837,1103.0
1838,132.0
1839,2859.0
1840,3019.0
1841,3575.0
1842,1149.0
1843,533.0
1844,1052.0
1845,49.0
1846,5.0
1847,53.0
1848,295.0
1849,1.0
1850,8.0
1851,3107.0
1852,52.0
1853,16.0
1854,1072.0
1855,369.0
1856,14.0
1857,868.0
1858,5.0
1859,2.0
1860,43.0
1861,48.0
1862,5577.0
1863,595.0
1864,40.0
1865,441.0
1866,672.0
1867,34.0
1868,14.0
1869,1662.0
1870,1062.0
1871,1301.0
1872,22.0
1873,199.0
1874,20.0
1875,3.0
1876,13.0
1877,3.0
1878,105.0
1879,2288.0
1880,1535.0
1881,15.0
1882,1150.0
1883,3937.0
1884,19.0
1885,764.0
1886,4.0
1887,2121.0
1888,298.0
1889,77.0
1890,14.0
1891,1850.0
1892,48.0
1893,65.0
1894,28.0
1895,16.0
1896,9.0
1897,6.0
1898,31.0
1899,3.0
1900,935.0
1901,3799.0
1902,22.0
1903,3676.0
1904,10.0
1905,46.0
1906,50.0
1907,19.0
1908,496.0
1909,531.0
1910,277.0
1911,47.0
1912,19.0
1913,554.0
1914,45.0
1915,39.0
1916,424.0
1917,8750.0
1918,2382.0
1919,77.0
1920,16231.0
1921,53.0
1922,13.0
1923,21.0
1924,5732.0
1925,27.0
1926,7499.0
1927,8.0
1928,191.0
1929,5.0
1930,3.0
1931,299.0
1932,58.0
1933,1.0
1934,30.0
1935,99.0
1936,39.0
1937,4.0
1938,19.0
1939,11.0
1940,6.0
1941,29.0
1942,2.0
1943,15.0
1944,2227.0
1945,2.0
1946,51.0
1947,24.0
1948,12094.0
1949,1.0
1950,25.0
1951,19.0
1952,4912.0
1953,16.0
1954,48.0
1955,20.0
1956,97.0
1957,16.0
1958,2.0
1959,2.0
1960,17.0
1961,5785.0
1962,2674.0
1963,2071.0
1964,195.0
1965,1333.0
1966,4.0
1967,16.0
1968,19.0
1969,16.0
1970,45.0
1971,7017.0
1972,23.0
1973,626.0
1974,12410.0
1975,3419.0
1976,45.0
1977,21.0
1978,846.0
1979,19.0
1980,365.0
1981,109.0
1982,3029.0
1983,54.0
1984,78.0
1985,4545.0
1986,25.0
1987,5136.0
1988,472.0
1989,27.0
1990,1812.0
1991,1099.0
1992,103.0
1993,19.0
1994,3086.0
1995,379.0
1996,945.0
1997,1.0
1998,254.0
1999,1149.0
2000,41.0
2001,317.0
2002,38.0
2003,97.0
2004,89.0
2005,73.0
2006,32.0
2007,606.0
2008,39.0
2009,20.0
2010,30.0
2011,4061.0
2012,1287.0
2013,39.0
2014,403.0
2015,5.0
2016,37.0
2017,19.0
2018,18.0
2019,12.0
2020,2405.0
2021,59.0
2022,486.0
2023,12.0
2024,4.0
2025,243.0
2026,43.0
2027,2999.0
2028,3091.0
2029,3.0
2030,36.0
2031,2.0
2032,37.0
2033,20.0
2034,2992.0
2035,16.0
2036,36.0
2037,7.0
2038,420.0
2039,1.0
2040,52.0
2041,4624.0
2042,4.0
2043,4.0
2044,3.0
2045,10.0
2046,54.0
2047,45.0
2048,42.0
2049,619.0
2050,59.0
2051,17.0
2052,1656.0
2053,4.0
2054,15.0
2055,1062.0
2056,1290.0
2057,15.0
2058,35.0
2059,6.0
2060,94.0
2061,5.0
2062,440.0
2063,23.0
2064,17.0
2065,712.0
2066,2.0
2067,2700.0
2068,4883.0
2069,640.0
2070,282.0
2071,90.0
2072,2.0
2073,2458.0
2074,2.0
2075,21.0
2076,52.0
2077,15.0
2078,592.0
2079,19.0
2080,6.0
2081,40.0
2082,32.0
2083,2.0
2084,55.0
2085,430.0
2086,4.0
2087,10.0
2088,5467.0
2089,3.0
2090,5514.0
2091,304.0
2092,18.0
2093,1270.0
2094,6.0
2095,1910.0
2096,38.0
2097,252.0
2098,6.0
2099,206.0
2100,10.0
2101,727.0
2102,29.0
2103,2442.0
2104,9.0
2105,3.0
2106,6.0
2107,3.0
2108,3409.0
2109,361.0
2110,3995.0
2111,39.0
2112,6.0
2113,874.0
2114,28.0
2115,101.0
2116,4883.0
2117,18.0
2118,15.0
2119,6.0
2120,32.0
2121,476.0
2122,944.0
2123,721.0
2124,1212.0
2125,9.0
2126,1928.0
2127,6.0
2128,570.0
2129,17012.0
2130,4.0
2131,6.0
2132,2.0
2133,6.0
2134,2090.0
2135,5.0
2136,52.0
2137,5.0
2138,77.0
2139,332.0
2140,3918.0
2141,105.0
2142,16.0
2143,326.0
2144,39.0
2145,43.0
2146,12.0
2147,105.0
2148,994.0
2149,15.0
2150,47.0
2151,12.0
2152,21.0
2153,144.0
2154,28.0
2155,10.0
2156,184.0
2157,5.0
2158,623.0
2159,14.0
2160,238.0
2161,5.0
2162,3.0
2163,8.0
2164,21.0
2165,21.0
2166,47.0
2167,6.0
2168,31.0
2169,43.0
2170,41.0
2171,15.0
2172,11.0
2173,69.0
2174,6.0
2175,3691.0
2176,107.0
2177,1433.0
2178,2690.0
2179,542.0
2180,1083.0
2181,526.0
2182,1.0
2183,7.0
2184,66.0
2185,6.0
2186,16058.0
2187,11.0
2188,106.0
2189,6107.0
2190,14.0
2191,531.0
2192,506.0
2193,112.0
2194,1502.0
2195,7.0
2196,3157.0
2197,3120.0
2198,19.0
2199,24.0
2200,20.0
2201,6066.0
2202,2742.0
2203,44.0
2204,7.0
2205,26.0
2206,25.0
2207,543.0
2208,5379.0
2209,31.0
2210,997.0
2211,7.0
2212,50.0
2213,1203.0
2214,104.0
2215,3278.0
2216,1.0
2217,14.0
2218,15.0
2219,3086.0
2220,18.0
2221,608.0
2222,2493.0
2223,694.0
2224,6.0
2225,15.0
2226,36.0
2227,1437.0
2228,9.0
2229,3146.0
2230,2071.0
2231,16.0
2232,145.0
2233,1138.0
2234,730.0
2235,105.0
2236,1341.0
2237,17423.0
2238,2760.0
2239,2789.0
2240,1059.0
2241,1183.0
2242,22.0
2243,787.0
2244,2965.0
2245,216.0
2246,7.0
2247,19.0
2248,16.0
2249,1.0
2250,1.0
2251,47.0
2252,6268.0
2253,28.0
2254,5312.0
2255,3.0
2256,17.0
2257,1038.0
2258,21.0
2259,3679.0
2260,509.0
2261,97.0
2262,130.0
2263,657.0
2264,13.0
2265,5.0
2266,182.0
2267,1606.0
2268,2747.0
2269,33.0
2270,3186.0
2271,12856.0
2272,14.0
2273,124.0
2274,116.0
2275,38.0
2276,5.0
2277,402.0
2278,31.0
2279,2.0
2280,7.0
2281,3778.0
2282,3278.0
2283,1.0
2284,5.0
2285,47.0
2286,1284.0
2287,336.0
2288,440.0
2289,45.0
2290,41.0
2291,13.0
2292,15.0
2293,23.0
2294,6896.0
2295,74.0
2296,147.0
2297,4.0
2298,45.0
2299,32.0
2300,6568.0
2301,1630.0
2302,42.0
2303,3.0
2304,13.0
2305,54.0
2306,2819.0
2307,412.0
2308,4.0
2309,1105.0
2310,27.0
2311,30.0
2312,36.0
2313,363.0
2314,1234.0
2315,31.0
2316,6987.0
2317,820.0
2318,1475.0
2319,50.0
2320,10.0
2321,101.0
2322,1.0
2323,39.0
2324,581.0
2325,3.0
2326,2472.0
2327,620.0
2328,3863.0
2329,2.0
2330,5413.0
2331,52.0
2332,3425.0
2333,16.0
2334,47.0
2335,1259.0
2336,53.0
2337,1112.0
2338,4777.0
2339,632.0
2340,978.0
2341,1615.0
2342,741.0
2343,1882.0
2344,2436.0
2345,13.0
2346,602.0
2347,22.0
2348,508.0
2349,1.0
2350,2.0
2351,6.0
2352,4.0
2353,19.0
2354,26.0
2355,24.0
2356,34.0
2357,5.0
2358,34.0
2359,22.0
2360,52.0
2361,3749.0
2362,83.0
2363,3616.0
2364,813.0
2365,4.0
2366,30.0
2367,5.0
2368,53.0
2369,108.0
2370,1666.0
2371,7.0
2372,6069.0
2373,297.0
2374,1910.0
2375,52.0
2376,35.0
2377,1849.0
2378,673.0
2379,550.0
2380,874.0
2381,1.0
2382,5112.0
2383,3.0
2384,45.0
2385,34.0
2386,7.0
2387,5651.0
2388,630.0
2389,1262.0
2390,31.0
2391,15.0
2392,48.0
2393,43.0
2394,42.0
2395,67.0
2396,5.0
2397,43.0
2398,17.0
2399,850.0
2400,2948.0
2401,32.0
2402,32.0
2403,37.0
2404,2256.0
2405,5.0
2406,446.0
2407,2692.0
2408,6.0
2409,2.0
2410,33.0
2411,53.0
2412,873.0
2413,114.0
2414,1015.0
2415,16.0
2416,87.0
2417,136.0
2418,18.0
2419,5.0
2420,56.0
2421,99.0
2422,1642.0
2423,11.0
2424,613.0
2425,903.0
2426,4.0
2427,214.0
2428,4306.0
2429,32.0
2430,4704.0
2431,13.0
2432,3644.0
2433,10.0
2434,5.0
2435,24.0
2436,1059.0
2437,232.0
2438,2023.0
2439,4.0
2440,1072.0
2441,128.0
2442,1028.0
2443,5.0
2444,47.0
2445,16.0
2446,23.0
2447,782.0
2448,1195.0
2449,19.0
2450,12.0
2451,150.0
2452,53.0
2453,4615.0
2454,5.0
2455,47.0
2456,156.0
2457,3.0
2458,17.0
2459,5137.0
2460,3.0
2461,1.0
2462,18.0
2463,544.0
2464,7.0
2465,19.0
2466,16.0
2467,359.0
2468,6.0
2469,20.0
2470,32.0
2471,27.0
2472,34.0
2473,7.0
2474,19.0
2475,114.0
2476,1023.0
2477,12.0
2478,713.0
2479,1028.0
2480,85.0
2481,29.0
2482,2933.0
2483,3975.0
2484,1.0
2485,2266.0
2486,17.0
2487,32.0
2488,53.0
2489,5251.0
2490,92.0
2491,4.0
2492,45.0
2493,104.0
2494,30.0
2495,2.0
2496,19.0
2497,2464.0
2498,1219.0
2499,4.0
2500,50.0
2501,128.0
2502,2996.0
2503,22.0
2504,20.0
2505,17809.0
2506,711.0
2507,1785.0
2508,51.0
2509,9.0
2510,3.0
2511,31.0
2512,3857.0
2513,201.0
2514,173.0
2515,6582.0
2516,49.0
2517,2519.0
2518,18.0
2519,1152.0
2520,27.0
2521,1295.0
2522,6189.0
2523,44.0
2524,70.0
2525,50.0
2526,18.0
2527,23.0
2528,43.0
2529,1368.0
2530,1045.0
2531,15.0
2532,1026.0
2533,556.0
2534,4.0
2535,19.0
2536,16.0
2537,5.0
2538,819.0
2539,264.0
2540,34.0
2541,44.0
2542,664.0
2543,583.0
2544,17.0
2545,16.0
2546,16.0
2547,30.0
2548,19.0
2549,446.0
2550,44.0
2551,44.0
2552,2.0
2553,2123.0
2554,4.0
2555,6.0
2556,83.0
2557,33.0
2558,17.0
2559,9.0
2560,393.0
2561,1539.0
2562,1328.0
2563,24.0
2564,1671.0
2565,54.0
2566,13017.0
2567,40.0
2568,19723.0
2569,822.0
2570,37.0
2571,46.0
2572,7.0
2573,2866.0
2574,30.0
2575,30.0
2576,290.0
2577,9.0
2578,31.0
2579,3180.0
2580,127.0
2581,193.0
2582,20.0
2583,530.0
2584,394.0
2585,54.0
2586,1.0
2587,49.0
2588,27.0
2589,1930.0
2590,1172.0
2591,32.0
2592,7.0
2593,11.0
2594,1603.0
2595,867.0
2596,5070.0
2597,96.0
2598,16.0
2599,15.0
2600,366.0
2601,570.0
2602,18399.0
2603,8.0
2604,4272.0
2605,387.0
2606,13.0
2607,27.0
2608,17.0
2609,3602.0
2610,15.0
2611,1.0
2612,4.0
2613,1269.0
2614,3.0
2615,88.0
2616,1081.0
2617,3363.0
2618,5937.0
2619,46.0
2620,1.0
2621,8.0
2622,38.0
2623,1232.0
2624,14.0
2625,43.0
2626,27.0
2627,40.0
2628,12228.0
2629,3969.0
2630,339.0
2631,4461.0
2632,119.0
2633,4313.0
2634,8182.0
2635,11.0
2636,49.0
2637,72.0
2638,6534.0
2639,12341.0
2640,1087.0
2641,2087.0
2642,18893.0
2643,365.0
2644,19.0
2645,4.0
2646,43.0
2647,609.0
2648,14.0
2649,28.0
2650,8627.0
2651,63.0
2652,18.0
2653,15547.0
2654,2908.0
2655,2915.0
2656,4793.0
2657,50.0
2658,28.0
2659,3.0
2660,36.0
2661,6374.0
2662,4.0
2663,20.0
2664,2944.0
2665,222.0
2666,30.0
2667,1.0
2668,54.0
2669,5109.0
2670,478.0
2671,3246.0
2672,1167.0
2673,3226.0
2674,53.0
2675,4.0
2676,11220.0
2677,3447.0
2678,17.0
2679,573.0
2680,5378.0
2681,3825.0
2682,1435.0
2683,17.0
2684,657.0
2685,19.0
2686,309.0
2687,64.0
2688,5296.0
2689,7.0
2690,463.0
2691,20.0
2692,38.0
2693,1469.0
2694,8826.0
2695,382.0
2696,4.0
2697,1438.0
2698,13.0
2699,12.0
2700,1225.0
2701,3057.0
2702,3414.0
2703,17.0
2704,6642.0
2705,8.0
2706,16.0
2707,74.0
2708,16.0
2709,115.0
2710,4.0
2711,15.0
2712,5.0
2713,6202.0
2714,28.0
2715,41.0
2716,5067.0
2717,31.0
2718,1742.0
2719,101.0
2720,4919.0
2721,5.0
2722,39.0
2723,14.0
2724,51.0
2725,46.0
2726,53.0
2727,20.0
2728,16144.0
2729,20.0
2730,2843.0
2731,1312.0
2732,2232.0
2733,543.0
2734,138.0
2735,9.0
2736,27.0
2737,84.0
2738,72.0
2739,18.0
2740,1360.0
2741,6.0
2742,706.0
2743,34.0
2744,32.0
2745,20.0
2746,104.0
2747,85.0
2748,6109.0
2749,2.0
2750,579.0
2751,25.0
2752,724.0
2753,493.0
2754,4098.0
2755,4625.0
2756,6851.0
2757,3330.0
2758,2507.0
2759,12.0
2760,727.0
2761,1.0
2762,128.0
2763,1258.0
2764,17.0
2765,45.0
2766,1309.0
2767,37.0
2768,37.0
2769,22.0
2770,20.0
2771,4972.0
2772,15.0
2773,2605.0
2774,2107.0
2775,6.0
2776,17115.0
2777,19.0
2778,4421.0
2779,6.0
2780,24.0
2781,31.0
2782,6064.0
2783,54.0
2784,28.0
2785,46.0
2786,4.0
2787,14.0
2788,7308.0
2789,35.0
2790,21.0
2791,3.0
2792,54.0
2793,20.0
2794,3.0
2795,1486.0
2796,1.0
2797,5.0
2798,7.0
2799,145.0
2800,3.0
2801,1389.0
2802,6260.0
2803,13.0
2804,8.0
2805,44.0
2806,4789.0
2807,2846.0
2808,6651.0
2809,48.0
2810,169.0
2811,91.0
2812,36.0
2813,14.0
2814,22.0
2815,3.0
2816,438.0
2817,50.0
2818,1113.0
2819,2987.0
2820,5776.0
2821,32.0
2822,24.0
2823,12.0
2824,1008.0
2825,848.0
2826,5420.0
2827,17.0
2828,36.0
2829,7.0
2830,5750.0
2831,461.0
2832,2116.0
2833,3264.0
2834,1045.0
2835,10.0
2836,2.0
2837,15.0
2838,58.0
2839,3275.0
2840,34.0
2841,5499.0
2842,5668.0
2843,4.0
2844,12.0
2845,15.0
2846,381.0
2847,5.0
2848,8.0
2849,1033.0
2850,17.0
2851,44.0
2852,2065.0
2853,551.0
2854,10.0
2855,997.0
2856,50.0
2857,49.0
2858,4308.0
2859,10.0
2860,338.0
2861,26.0
2862,27.0
2863,1789.0
2864,1030.0
2865,3.0
2866,54.0
2867,4091.0
2868,13.0
2869,64.0
2870,1633.0
2871,105.0
2872,2830.0
2873,613.0
2874,29.0
2875,53.0
2876,20.0
2877,36.0
2878,1990.0
2879,952.0
2880,7.0
2881,3965.0
2882,42.0
2883,22.0
2884,4360.0
2885,1001.0
2886,25.0
2887,18.0
2888,59.0
2889,19.0
2890,16.0
2891,40.0
2892,1175.0
2893,400.0
2894,354.0
2895,509.0
2896,15.0
2897,17.0
2898,28.0
2899,372.0
2900,2551.0
2901,3.0
2902,1012.0
2903,18.0
2904,10.0
2905,72.0
2906,194.0
2907,402.0
2908,13.0
2909,1050.0
2910,369.0
2911,2677.0
2912,1.0
2913,4.0
2914,3484.0
2915,6549.0
2916,4218.0
2917,7.0
2918,946.0
2919,15.0
2920,1402.0
2921,43.0
2922,2970.0
2923,2805.0
2924,732.0
2925,5110.0
2926,6.0
2927,43.0
2928,23.0
2929,51.0
2930,7.0
2931,122.0
2932,5635.0
2933,7.0
2934,152.0
2935,2971.0
2936,12.0
2937,20.0
2938,26.0
2939,1200.0
2940,49.0
2941,4702.0
2942,958.0
2943,3956.0
2944,1084.0
2945,32.0
2946,1790.0
2947,108.0
2948,2885.0
2949,42.0
2950,20.0
2951,10414.0
2952,482.0
2953,40.0
2954,64.0
2955,2.0
2956,79.0
2957,596.0
2958,38.0
2959,2866.0
2960,40.0
2961,1254.0
2962,4142.0
2963,2577.0
2964,6.0
2965,5907.0
2966,1427.0
2967,18.0
2968,11.0
2969,71.0
2970,6.0
2971,1112.0
2972,98.0
2973,215.0
2974,174.0
2975,32.0
2976,16.0
2977,1.0
2978,55.0
2979,20.0
2980,126.0
2981,632.0
2982,7.0
2983,44.0
2984,873.0
2985,1279.0
2986,2780.0
2987,8491.0
2988,88.0
2989,490.0
2990,2.0
2991,30.0
2992,1085.0
2993,757.0
2994,1223.0
2995,2378.0
2996,3000.0
2997,839.0
2998,12479.0
2999,2225.0
3000,6450.0
