time,CharnySim1.flowGenerator3.flowCompletionTime:vector
0.000096470905,9.64709e-05
0.005907514478,0.003247
0.011977411187,4.94977e-05
0.014728840947,7.0601e-05
0.0170259505,0.0142755
0.024862695568,0.00010348
0.029060267885,7.56278e-05
0.030963089254,0.000111949
0.032241207833,6.74371e-05
0.033724908278,0.000178792
0.034217177822,9.69704e-05
0.035080189106,0.000176327
0.039165900821,0.000154392
0.042976782466,0.00022296
0.044375140468,0.0424151
0.044569493156,0.00225299
0.046549330611,0.000304176
0.050979335878,0.00024368
0.054220710584,0.000163271
0.056574305376,0.0092669
0.061642158734,0.0176693
0.062101204919,0.00220842
0.062660997231,0.000190388
0.066487841702,8.50011e-05
0.067054512809,0.000156983
0.071836438861,0.000109924
0.074814218256,6.28422e-05
0.075733463276,0.000284308
0.077252904844,0.00799291
0.077616689064,0.0509015
0.080536065042,0.000733187
0.086237268528,0.000144675
0.090567987384,0.00549899
0.092783287365,0.000105874
0.095546559821,0.000164978
0.097815155252,0.000100501
0.099566352227,6.1456e-05
0.106672043981,8.51883e-05
0.110114736241,0.00324383
0.114630996989,0.00871078
0.120690625186,0.0018602
0.122326632877,0.00108781
0.123974354904,0.000136377
0.125817256755,6.66824e-05
0.126758923991,0.00408286
0.126835271211,0.000314531
0.128939935376,0.00276662
0.136043530301,7.42584e-05
0.137768892288,6.43587e-05
0.138312731936,0.000221087
0.14322334657,0.000138866
0.144011017452,7.48336e-05
0.145061735002,0.0173891
0.145842310661,0.0186352
0.147229202251,0.0141149
0.149068959462,8.34318e-05
0.150749604014,0.0139035
0.15175056773,0.00339379
0.151788338232,0.0217823
0.151955074205,0.000810933
0.152907522363,0.000195774
0.155287677215,0.0328427
0.155517021921,0.0020341
0.158143179323,0.0112598
0.159291355134,0.000143646
0.162982602511,0.000199904
0.165126238937,8.52122e-05
0.16537069091,0.00972345
0.171319394573,0.000886321
0.172916382226,7.49784e-05
0.176643598328,7.90082e-05
0.17830038525,6.1456e-05
0.182335641894,0.000847366
0.188580341777,0.00169095
0.205724964838,0.0027696
0.206020886447,9.64709e-05
0.206409410121,4.9488e-05
0.207027480866,6.1456e-05
0.208909210905,0.00139274
0.212045715457,0.000400053
0.230896726703,0.00127573
0.234558134763,0.000126655
0.234810885542,0.00275176
0.235368322481,9.8442e-05
0.240573544126,0.0223825
0.242912565989,0.000103187
0.261441580055,8.70679e-05
0.26172227415,0.00179824
0.262712311229,6.1456e-05
0.265578143193,6.1456e-05
0.266644552619,0.000103187
0.268557731116,0.000107217
0.276146034035,6.18842e-05
0.277679072007,0.000101161
0.279296528043,0.00517699
0.284967230858,0.000101364
0.287510065596,0.00480317
0.287552773181,6.17872e-05
0.288649161349,6.1456e-05
0.299226153653,0.000119307
0.304633978073,4.9488e-05
0.307335069539,6.1456e-05
0.314291246931,0.00125841
0.319415575003,0.00608956
0.32351889104,6.8262e-05
0.330206362706,0.00519423
0.331008614622,7.22918e-05
0.337523655182,7.49784e-05
0.34003879185,0.00011259
0.341914418201,0.000203934
0.342626682186,6.1456e-05
0.3428353406,0.000175725
0.34754621457,0.000187814
0.348657650866,0.000327516
0.350324689125,6.1456e-05
0.358377736277,0.000374598
0.358843829947,0.00834272
0.375501533967,7.22918e-05
0.386069633505,0.000942739
0.397264546901,6.96052e-05
0.399649375092,6.1456e-05
0.40522666736,0.000126023
0.409341087943,9.64709e-05
0.418350590636,0.00175833
0.421006235596,0.00861003
0.421660628074,0.00011259
0.423889303545,9.64709e-05
0.424564122636,0.000136769
0.435532361094,6.1456e-05
0.438188779698,0.0015311
0.438687788183,0.000130053
0.441160321936,6.1456e-05
0.443118121483,0.000684829
0.444004161486,6.1456e-05
0.448972608495,0.000117963
0.450786209368,0.00177154
0.465625383073,0.00737841
0.472284582524,6.1456e-05
0.476680767393,0.00020662
0.483672849573,0.000312454
0.484198859098,0.00573199
0.487382439827,0.00642183
0.490808423936,6.1456e-05
0.49218795543,0.000103187
0.49490686631,6.1456e-05
0.500637442104,0.000170753
0.501622113555,0.00574735
0.502319277489,0.00013872
0.502342256592,0.00354989
0.50841866721,0.00013274
0.517283894322,6.1456e-05
0.522946565201,0.00115632
0.523565872496,0.000124878
0.528045552519,0.000142345
0.528300133045,0.000352081
0.528963689312,0.00715442
0.530852292041,0.00139946
0.535416471417,0.000499456
0.536873852979,6.31132e-05
0.536955962095,0.00121946
0.543039347018,0.00169936
0.543286511109,0.00493749
0.549222533723,0.000674083
0.549496322656,0.000859287
0.55158308403,0.0014008
0.553982474072,8.57246e-05
0.556375449061,8.43814e-05
0.559479877703,0.00151095
0.563034014424,7.22918e-05
0.565399771991,8.57246e-05
0.578349009303,0.00278479
0.579548672323,0.00581886
0.581655544139,9.91575e-05
0.587642440139,5.07978e-05
0.58925826235,0.00622293
0.592318092685,0.00131582
0.596400473021,0.0115492
0.603466696425,0.000113934
0.605168725131,0.000383933
0.605255777288,6.1456e-05
0.606901212893,6.1456e-05
0.609849109991,0.00172319
0.619567407484,6.15576e-05
0.623229398551,0.000159605
0.627174774178,0.00781505
0.627744877298,8.57246e-05
0.638690748532,0.000194531
0.647873376181,0.00014199
0.648688749018,0.000130461
0.649540247195,9.01663e-05
0.649557853164,0.00739436
0.652803566915,0.00150826
0.664448827693,0.0059196
0.664838191849,0.00277565
0.665322757765,0.000187814
0.668918435194,7.63217e-05
0.674171096901,4.9488e-05
0.676356864632,0.00159557
0.677711357454,0.000350351
0.684726514374,6.1456e-05
0.696556940776,8.03515e-05
0.701822374703,0.000194531
0.704675293979,0.000119307
0.705097690652,4.9488e-05
0.711414708657,0.00414916
0.715244484575,0.00102468
0.716176582467,8.57246e-05
0.720927320644,0.00010856
0.729018039858,0.00507199
0.730556858126,0.000740944
0.731334593449,0.00190436
0.73260578129,0.000107217
0.734121812243,4.9488e-05
0.734998653662,7.22918e-05
0.742168270371,0.0064099
0.747029055241,0.00269169
0.750850947989,0.000879605
0.753193171935,0.000152889
0.76003432768,6.1456e-05
0.762815210315,7.47455e-05
0.763956968939,0.000168451
0.77157318919,6.63049e-05
0.782504852773,0.00260454
0.78536602003,0.0268478
0.790904517086,8.19169e-05
0.795619583718,0.00665975
0.804749983711,0.000921247
0.806595049167,0.000107217
0.815097363971,6.1456e-05
0.818314524672,6.96052e-05
0.819825769946,0.0014411
0.824489792813,0.000115277
0.830317996269,0.00142632
0.832302393687,6.69187e-05
0.840721701979,6.20334e-05
0.84602533826,0.00603117
0.847933099779,0.00104752
0.850065554488,0.000117963
0.852640432767,6.1456e-05
0.854940129449,6.1552e-05
0.85625463828,4.9488e-05
0.859014608295,9.24411e-05
0.860716295985,6.1456e-05
0.864831428376,6.1456e-05
0.865943582522,6.1456e-05
0.866964276679,0.00011662
0.876339910421,7.09485e-05
0.877037388855,6.1456e-05
0.879610606571,0.000100893
0.882622247078,0.00351361
0.886189318223,0.000134083
0.887221022516,6.96052e-05
0.888316508641,0.000346322
0.891525230587,0.000122448
0.891807320111,7.08488e-05
0.893044618398,0.00011095
0.893714948846,0.000122405
0.894172810313,0.00616694
0.894364931813,6.26411e-05
0.897141715742,0.000363876
0.897461417209,0.000340853
0.900482571978,0.0124771
0.905666086263,0.00014699
0.91106333992,0.000286771
0.911732320461,0.000127591
0.913664104715,0.00928721
0.91423698051,4.9488e-05
0.918594100261,0.00325556
0.918717513504,0.000101849
0.918822585762,0.000115409
0.919483455464,0.00304978
0.922536148018,0.0010999
0.930442036399,0.0020308
0.9351152058,0.000320799
0.935988192008,9.10978e-05
0.951282001295,9.91575e-05
0.954823416141,0.00293211
0.955404506719,0.000199707
0.956987691269,0.000386133
0.957365894956,0.00306504
0.958210164685,0.00649033
0.960228944007,9.91575e-05
0.960794881864,6.1456e-05
0.961423198864,8.70679e-05
0.962244831888,6.1456e-05
0.969231330744,6.1456e-05
0.975429650243,6.1456e-05
0.980630082455,6.19263e-05
0.98314098975,0.00693382
0.985444307747,6.16944e-05
0.992313555818,0.00330826
0.992436914718,9.04642e-05
0.99253646096,0.00733476
0.998180711355,0.000344978
0.999160241674,6.16209e-05
1.000079160417,0.00108919
1.004999277178,0.000166322
1.006343248332,0.000617665
1.008476716907,4.9488e-05
1.012662485288,6.1456e-05
1.012725592746,6.1456e-05
1.013052738303,7.49784e-05
1.013264626752,0.000124953
1.021959808912,0.00892646
1.022674918339,0.000178411
1.024082272682,7.36351e-05
1.025770573056,6.69187e-05
1.028814785584,6.1456e-05
1.037090491033,7.09485e-05
1.037264566844,6.1456e-05
1.043366394741,7.20844e-05
1.043700703408,8.22215e-05
1.045180832972,0.00211897
1.045640067063,0.000351347
1.047152409393,0.000142938
1.050915836983,6.26411e-05
1.053913644786,0.00015336
1.058784671813,0.00512993
1.059381505628,0.0156108
1.061038585395,0.00012656
1.062191316994,0.00929186
1.062230084276,0.000239301
1.064031614751,0.000102605
1.064661644837,0.000723784
1.06566773369,0.0185927
1.073484927768,9.01027e-05
1.076397589442,0.00720498
1.080995368207,0.00433146
1.082474045849,0.0121072
1.09165938947,0.0244132
1.093231565946,4.9488e-05
1.104288624475,0.000593486
1.105713757612,6.1456e-05
1.107747523099,6.1456e-05
1.10933773721,0.000111247
1.112232634376,0.00221214
1.117360272533,0.000273784
1.120486867644,0.00150423
1.12143387916,0.000179754
1.123371155012,0.000104531
1.128007211231,7.90082e-05
1.130476378733,0.000123337
1.137770371132,6.18804e-05
1.139269637152,7.42437e-05
1.139424226031,0.000377217
1.143875641553,0.00013054
1.144544539009,0.00018466
1.145319613404,0.000257126
1.14719752308,8.75244e-05
1.150245433202,0.00265057
1.153916495801,0.00207457
1.157207260229,0.000220552
1.158704574997,0.000119989
1.163469870449,0.0283145
1.163635711127,0.0118281
1.163783369907,6.1456e-05
1.163820825907,6.17448e-05
1.167669458553,0.00151901
1.172696842021,8.84112e-05
1.18342574708,6.8262e-05
1.184751387337,0.000440351
1.185752711169,6.1456e-05
1.189659522469,6.8262e-05
1.191900390525,6.1456e-05
1.197125111019,0.00141692
1.200492053493,6.1456e-05
1.207919028915,6.1456e-05
1.214619906105,8.57246e-05
1.215177081594,7.22918e-05
1.216998039214,6.1456e-05
1.22893802037,0.00196766
1.233494821353,6.1456e-05
1.234689207957,6.55754e-05
1.2421741112,0.000972099
1.24364243082,0.00700632
1.245698988269,0.000191844
1.247895413918,0.000179442
1.249535231555,0.00108625
1.253430948082,0.00568594
1.254557905009,9.52935e-05
1.25724866971,0.00888705
1.264197655218,8.03515e-05
1.266834181867,6.1456e-05
1.268336738451,0.00119528
1.269896267507,0.00125841
1.272469255233,0.000119307
1.280778455736,9.57306e-05
1.281104392658,0.00243943
1.283868589798,0.0040638
1.285377039436,0.00277187
1.286042022311,5.08069e-05
1.292026495449,0.0121111
1.293919324498,0.0129966
1.294996954394,9.91575e-05
1.298416266265,6.96052e-05
1.302437981321,0.00120065
1.306611050833,0.000347665
1.316219105743,0.00144916
1.321047565434,0.000138164
1.324503969449,0.00774109
1.332012090704,0.000385008
1.334144412718,0.000103114
1.34084700861,0.0132458
1.341646236465,0.0116644
1.346389175656,5.04563e-05
1.351046450988,0.00555292
1.352529787011,0.00100427
1.353577378969,0.000136092
1.355393372184,0.000100501
1.356920447255,0.000173705
1.358482685404,0.00694117
1.359644366583,6.1456e-05
1.362493512362,0.000259008
1.369455882262,6.1456e-05
1.371475777004,0.000150202
1.375304085311,0.000104531
1.386624557486,0.00620169
1.388809528597,0.00206438
1.396236763745,0.00572483
1.399518945371,8.84112e-05
1.403560384962,9.24411e-05
1.413455026485,0.000293934
1.420459355858,6.21598e-05
1.423203994395,0.00860083
1.423393544283,6.1552e-05
1.423899832009,8.57246e-05
1.425733450392,6.1456e-05
1.427190106525,6.1456e-05
1.427433328458,6.1456e-05
1.428705077325,0.000181642
1.429171138997,0.000998988
1.435487328475,4.9488e-05
1.436365425999,4.9488e-05
1.441801318055,0.000105874
1.454109531356,0.000180699
1.454438387664,5.16893e-05
1.45871886009,0.00767168
1.460213470409,0.000229511
1.460340702346,9.26536e-05
1.464870024351,0.0164203
1.466439010921,6.21974e-05
1.467246653134,0.0173279
1.467807990105,8.16948e-05
1.468630157249,0.000115277
1.473418191381,6.1456e-05
1.483788864924,0.00414112
1.484069579092,0.00622302
1.485342342193,0.000127366
1.490132772549,8.30381e-05
1.490274256406,7.36351e-05
1.491788643158,0.000122053
1.498443378445,0.00716483
1.498750036597,0.000199904
1.504930518038,0.00442587
1.513942188522,9.24411e-05
1.517007660522,0.00401214
1.521719954617,0.00304229
1.526013509901,6.1456e-05
1.541298199316,0.000219386
1.541469581997,0.00543661
1.545501000726,0.000149886
1.549782043666,0.00939617
1.560441755547,0.000146172
1.565407842807,8.43814e-05
1.567176968823,0.000337845
1.567468435698,0.00200376
1.568635211787,7.49784e-05
1.569510038718,6.1456e-05
1.572684763071,0.00011259
1.576904068557,0.000404539
1.578438097792,0.000106663
1.579037090752,4.95738e-05
1.583971114383,0.00802977
1.589374755536,0.000386302
1.592602690175,9.42403e-05
1.592722242401,0.000168186
1.594343416188,0.000114978
1.598296699523,0.00406298
1.598733409798,0.0102959
1.601098954171,0.000109251
1.602720102407,8.99437e-05
1.604521613763,0.00367615
1.609642735703,0.00444266
1.611094993479,0.00656707
1.616809749823,0.000194531
1.621965377242,0.000142143
1.622577895745,6.42321e-05
1.624766401778,6.55754e-05
1.630778813435,0.000372526
1.631302837107,0.00192468
1.632140726447,0.000314083
1.635923064901,6.1456e-05
1.639526777879,6.1456e-05
1.652987740762,4.9488e-05
1.656543299932,9.78142e-05
1.657474480083,6.1456e-05
1.659072002017,0.000794978
1.663716100851,9.37843e-05
1.673623543515,0.000335395
1.674263115074,0.00589274
1.675409206181,4.9488e-05
1.682415494735,0.00661811
1.683885845348,0.000171228
1.685949128787,0.000114575
1.686200510731,0.00349344
1.69078255983,6.16936e-05
1.69310525285,0.000687187
1.695127438518,7.88006e-05
1.698045912455,0.000120949
1.699531889497,0.0230734
1.702935862008,0.000469793
1.703028093159,0.00630684
1.70327381826,0.000146351
1.708710195866,0.0184494
1.715962436594,0.00012003
1.716056635256,0.000496769
1.716867187778,7.49784e-05
1.718617532958,0.00106632
1.718689882328,0.000346528
1.721191356648,0.00092662
1.723547923068,0.00139274
1.725730509294,6.1456e-05
1.730376217628,6.26543e-05
1.733436002831,0.00343538
1.738281893835,0.00143707
1.743181570136,0.00203181
1.744508877511,0.00188095
1.745253367742,5.22433e-05
1.746746398004,0.000142341
1.751000079669,0.000119972
1.751760875285,0.00722063
1.752025476501,0.00903031
1.753398364592,0.00073453
1.760181169965,0.000107217
1.76039137212,0.000104531
1.774345656462,8.57246e-05
1.774821769629,8.97545e-05
1.778424524402,7.09485e-05
1.780950212288,9.51276e-05
1.783139737609,6.1456e-05
1.79053061273,9.37843e-05
1.790874632383,0.000123337
1.791440661163,7.90082e-05
1.79422476343,6.1456e-05
1.799005311094,0.000385277
1.799473045044,0.000169008
1.800244383328,9.91575e-05
1.802679103807,6.1552e-05
1.812144017472,0.0001472
1.813882082966,0.0015221
1.820131704038,0.0016419
1.820149453288,0.000102813
1.821484119025,9.86196e-05
1.82183471591,0.0130512
1.824528622836,9.91575e-05
1.839871308761,4.9488e-05
1.842082220672,8.30381e-05
1.860167058711,6.8262e-05
1.863476399065,0.00181856
1.867707188806,6.1456e-05
1.883699299275,0.00398931
1.895219148485,0.00256084
1.896478091541,0.00558406
1.896941549891,0.013177
1.897576922769,0.0112109
1.899900530248,0.000117963
1.900000360015,7.36351e-05
1.910334069709,4.9488e-05
1.911479394112,7.09485e-05
1.918028342973,7.49784e-05
1.925027186536,0.00331498
1.925394814126,0.000177068
1.925455073947,0.000173315
1.929777963262,9.44692e-05
1.930244108134,0.00048197
1.930287118752,0.0039458
1.931083389011,0.00554036
1.931314913202,6.1456e-05
1.932119440441,6.15849e-05
1.932711614773,0.00127001
1.934112502987,0.000117963
1.941752082364,0.000103187
1.944388266293,0.00157946
1.948821470305,4.9488e-05
1.949874766,0.000179754
1.952316140761,6.1456e-05
1.95680563193,0.000107217
1.959728854099,0.00011779
1.961051962319,0.00222272
1.962398266688,0.000487366
1.962735621112,6.1456e-05
1.965304947012,0.00159692
1.967815665655,8.97545e-05
1.970484419435,0.000995127
1.970533843435,6.19224e-05
1.972505662971,6.96052e-05
1.973077845955,6.17346e-05
1.973575003214,7.72314e-05
1.981242351341,9.8553e-05
1.989758876864,0.0167947
1.993639941813,6.71052e-05
1.996869532622,0.0058202
2.000373509411,0.0025622
2.00066100408,0.000651595
2.000725567414,0.0032592
2.000854360233,9.42043e-05
2.001581738098,0.0104312
2.002278876441,0.0103031
2.003745673495,6.1456e-05
2.013573360663,0.000119307
2.015403913361,0.000107217
2.017494386985,0.000120372
2.021727046183,0.00484212
2.021951126783,0.00010856
2.023286163296,6.96052e-05
2.024595158045,0.00038322
2.028735326411,0.00505722
2.029854093238,0.0046517
2.031483106282,7.76649e-05
2.038758913702,6.1456e-05
2.046089830566,0.00556901
2.048656933519,0.000140799
2.049946173151,0.000165769
2.053872563824,0.00525295
2.056355410247,7.22918e-05
2.068038129017,6.8262e-05
2.068928269963,6.1456e-05
2.072743400177,0.000101844
2.080796680469,6.55754e-05
2.083233948545,0.000109904
2.084519808444,0.000113934
2.086112637893,8.16948e-05
2.08938730806,0.00120065
2.089644628261,4.9488e-05
2.100653597681,6.69187e-05
2.111095325836,0.000115277
2.117979287074,7.09485e-05
2.122705711179,0.000751993
2.125475398721,6.2576e-05
2.12605975884,0.003261
2.129684870314,9.64709e-05
2.129802032491,6.1456e-05
2.132124480068,0.000347665
2.133014630455,0.000264381
2.133144393242,6.96052e-05
2.142968511953,7.90082e-05
2.145409981962,6.1456e-05
2.149675695932,0.000187008
2.153982236796,0.00584824
2.154243931508,0.00324107
2.15798435129,8.8009e-05
2.158023449795,0.000159605
2.162641855598,6.1456e-05
2.163648140541,6.69187e-05
2.165520850373,0.000383933
2.166945232195,0.000804381
2.171013446725,0.000142143
2.171573301116,6.1456e-05
2.174547132769,0.000616321
2.175495455147,0.00011662
2.177151173575,6.1456e-05
2.179160612949,7.40451e-05
2.181661494705,0.00279728
2.184871915562,8.75389e-05
2.185199567999,6.23423e-05
2.190352290374,0.000187565
2.19891349977,5.21503e-05
2.202389149182,0.00419158
2.204040964287,0.00609052
2.204212515802,0.0116978
2.20650586312,0.0286411
2.208302061582,7.76649e-05
2.211476367881,8.03515e-05
2.212278352607,9.24411e-05
2.215798887984,6.15548e-05
2.217436597087,0.00383496
2.226379322226,0.000119709
2.227534714457,0.00310811
2.227827821685,0.00013274
2.228923197666,4.9488e-05
2.234551253982,0.000758715
2.235481961499,0.000101912
2.238377523118,0.00592272
2.245393166171,0.00112783
2.245630337743,0.011064
2.247128072756,0.00398831
2.25057542294,0.000109312
2.253400321559,0.00336048
2.256563124072,6.1456e-05
2.260563248236,6.1456e-05
2.264713014107,0.000594829
2.268811724218,0.00115363
2.273729535847,0.000976321
2.275505453777,0.00147468
2.278711342126,0.00030065
2.285770958775,9.51276e-05
2.294281592583,0.00196766
2.29511418257,0.0011288
2.306890292703,6.1456e-05
2.310266341438,0.000205277
2.313964653505,0.00157274
2.317714644332,0.000130054
2.318700808798,0.00246169
2.321287803062,9.55574e-05
2.325223791105,0.0102972
2.330360996647,7.76649e-05
2.330716086561,7.22918e-05
2.337185648647,8.97545e-05
2.337604317179,0.000501974
2.343700308994,0.000119468
2.344212074284,0.000813615
2.355791300462,0.00165065
2.357974053184,0.000184537
2.359686882311,0.00190587
2.361147375784,0.000103187
2.363699879186,0.000336919
2.367694017664,0.00168557
2.375581781126,6.1456e-05
2.384129697314,0.000156995
2.385228359565,0.000103366
2.389575288656,7.38988e-05
2.392067079526,0.000158568
2.398504029569,0.000479973
2.402274294717,0.000407557
2.403493579063,0.000242079
2.410040742552,0.00269658
2.410071685356,0.0159305
2.411249127195,0.0251623
2.412584414847,0.000122907
2.423229445816,0.000625863
2.431547976785,0.00367089
2.433450998651,0.000469893
2.444313759914,0.000111234
2.447169347802,0.0122731
2.447986624621,0.00039042
2.448766807464,0.000268618
2.452601945574,0.0458556
2.453105596384,6.24013e-05
2.453910545289,0.000512572
2.457873135329,0.000115788
2.462948667977,0.07947
2.465866476551,0.0603722
2.466419072568,0.000646895
2.47026472395,0.0175826
2.474043243138,0.00402237
2.476954637473,6.35436e-05
2.478666033676,0.000164263
2.482215098026,0.00020174
2.486303472545,0.000536526
2.490006311343,0.00725144
2.490453186065,0.00594931
2.495532258455,0.0118002
2.49840520791,0.0045071
2.49856920622,0.000396596
2.500993858485,0.0250598
2.501250800212,0.000110201
2.5019037792,0.0183937
2.508247732404,0.095563
2.508820288191,0.000207908
2.509598492419,0.0970281
2.510236551949,0.00027092
2.511604014061,0.00472176
2.515359442418,0.000199904
2.516083461748,7.22918e-05
2.517834496032,0.000173605
2.520046857622,8.51102e-05
2.531472711578,9.87115e-05
2.535916259785,9.25416e-05
2.536259945885,9.04653e-05
2.537416681403,0.0211131
2.538348707109,7.22918e-05
2.53944463769,0.00056259
2.547053812768,0.00139408
2.550793496025,0.000163412
2.551229894202,8.45604e-05
2.552425169982,6.1456e-05
2.556295236976,0.00025143
2.558186580137,0.00847135
2.559838792695,0.00641376
2.561714108852,0.000107217
2.566947751093,6.8262e-05
2.569271612369,0.00116841
2.573422987033,0.00182796
2.574781918562,7.63217e-05
2.579779445686,7.49784e-05
2.582728002539,0.00011259
2.588830072782,6.1456e-05
2.589891336755,6.69187e-05
2.593812633183,0.000217366
2.594635543704,6.1456e-05
2.596296237058,7.15133e-05
2.597178774043,0.000130174
2.598188922875,0.00313481
2.604306601856,0.000115277
2.60854196118,0.00268735
2.608961039944,0.00304162
2.612330853616,0.00011662
2.612892036756,0.000224146
2.614184275042,8.80023e-05
2.619156583906,0.00661341
2.62040602549,0.00316255
2.623549095319,0.000118462
2.624491522728,0.00389299
2.624571432435,6.15554e-05
2.627461318917,0.000297779
2.62919549729,0.0128037
2.630289499247,0.00102871
2.631662941387,6.1456e-05
2.634471587407,0.000107217
2.635677185379,8.84112e-05
2.642778185935,6.26952e-05
2.647869094318,0.00760518
2.650782373261,6.8262e-05
2.656109784306,0.000115277
2.6568614649,7.22918e-05
2.663078251619,6.26353e-05
2.663459609807,0.00094115
2.665726304907,0.000105874
2.666965808646,9.91575e-05
2.672572185825,8.70679e-05
2.674814865047,6.1456e-05
2.6771426772,0.0022699
2.700288911492,0.000469904
2.70045309635,6.1456e-05
2.706534679127,0.00191931
2.709426306208,9.10978e-05
2.712894145463,0.000921247
2.713741838994,0.000105874
2.716092272091,0.0017739
2.716097508391,0.000152065
2.717163915359,0.00153617
2.721655642239,0.000122799
2.723492820621,0.000199136
2.726155317164,0.00621697
2.727174779432,0.00832482
2.735224121654,0.00179458
2.736490618052,0.00497357
2.737015698517,0.00526094
2.737309851958,0.000532908
2.743019135682,4.9488e-05
2.743209302583,6.1456e-05
2.747560073108,0.0012611
2.747600147019,6.1456e-05
2.756109820305,0.000252292
2.756677761746,4.9488e-05
2.759694815591,0.000801694
2.772371582018,6.1456e-05
2.783405826503,0.000203934
2.784406090364,0.000105874
2.78743034346,0.000187814
2.788734636103,6.1456e-05
2.788856545004,8.70679e-05
2.792333697301,6.1456e-05
2.803457573053,0.00282199
2.806570058227,0.00970229
2.813303675859,0.000135621
2.813656984899,0.000133844
2.817712188447,0.00268024
2.829656636565,0.0222576
2.830818388449,0.00446179
2.852989619965,0.000104531
2.858000811247,0.00016006
2.862821659691,0.000361297
2.86586553904,0.000170927
2.867985096868,0.00142252
2.873072084055,0.0173504
2.878991392962,0.00010856
2.888641311881,6.1456e-05
2.891287731356,0.00192468
2.893644611866,0.000138335
2.90076367532,0.00457495
2.907724213644,0.0109248
2.922705090496,6.14663e-05
2.927168944768,0.00173901
2.934956919855,6.30793e-05
2.936486243475,0.0435948
2.936872020399,0.00457442
2.938235508589,6.28888e-05
2.94050946278,0.00218009
2.948422743192,0.000673614
2.948443035728,0.0405059
2.951072252613,4.97993e-05
2.951342365667,0.000887698
2.955981951059,0.000291247
2.957448318027,0.000134083
2.958948344035,6.1456e-05
2.961468107776,4.9488e-05
2.96538476784,7.36351e-05
2.971771798977,0.00320385
2.975142038495,0.009416
2.979755895377,0.000319985
2.982429315935,0.00570215
2.984987710647,9.3341e-05
2.986374590548,6.99241e-05
2.987133163398,9.79868e-05
2.987655790226,0.00425899
2.989381851764,0.0141306
2.989767367672,0.0137181
2.991293292708,9.38155e-05
2.991420203749,0.000666171
2.994906167715,0.0137211
2.996018211672,0.00460276
2.999039597274,0.000389307
3.001162569641,0.000915874
3.00814535676,0.000267387
3.013089983081,0.00716063
3.02688108904,0.00303285
3.030435111481,0.00913289
3.031672275451,0.000142595
3.032364040823,0.00419845
3.032483567496,0.00453521
3.038465798438,0.000229838
3.040793501493,0.000602975
3.042533403738,0.0337048
3.049045285373,0.0119724
3.049921274764,9.25795e-05
3.052383344036,0.000966616
3.054056969853,7.46341e-05
3.063810483787,0.000176497
3.066855706379,6.38715e-05
3.075645671526,0.0379926
3.077859546012,0.00535581
3.078125659349,0.00927015
3.08127459945,6.61139e-05
3.082999543677,0.00388453
3.087961234825,0.00312423
3.088923495915,7.22918e-05
3.096656836119,0.000569307
3.098302128784,0.000361609
3.100463614429,0.00253453
3.103940769532,7.76649e-05
3.112792279109,7.36351e-05
3.135259314811,0.000118192
3.136230359018,0.000383738
3.136418164138,0.000338919
3.139797865028,0.000164684
3.141482237564,0.00576496
3.145644352762,8.35682e-05
3.146164085725,0.000240474
3.14689202501,0.00595256
3.150021308667,0.000308344
3.151731315005,6.3601e-05
3.153222380875,0.000385446
3.153743450688,0.0304725
3.160684106126,0.0181379
3.1612924576,0.000110978
3.165238680401,0.0167735
3.170734645956,6.24454e-05
3.17858335824,0.00886616
3.180113437411,0.000131439
3.183395914946,0.000296742
3.18342283435,0.00326149
3.185093761808,0.0182649
3.187090751229,0.00166171
3.191111166737,0.0574976
3.192541737595,0.00781358
3.194560141617,6.1456e-05
3.208324636053,6.1456e-05
3.20846543458,0.000119307
3.230688019324,8.03515e-05
3.230750965711,9.86153e-05
3.239748369548,0.000508273
3.241036434988,0.00790293
3.241632438538,0.0089559
3.24289106923,0.000186888
3.24465765523,0.00660501
3.247817704137,9.63655e-05
3.247949320338,0.000929138
3.249801295487,0.000104531
3.253963202472,0.000813472
3.25699230571,0.000207825
3.257009793946,0.000126325
3.257230801405,0.00457151
3.260048024538,8.16948e-05
3.262454007899,4.9488e-05
3.266395938971,0.000334574
3.269213977907,8.5397e-05
3.269688131275,0.00461494
3.275263310557,7.76649e-05
3.280903727388,0.000186972
3.281880268598,0.00246988
3.288645088514,0.00288378
3.297575403543,0.000223926
3.297632327946,0.000194065
3.302786648121,0.00575438
3.30587648868,6.1456e-05
3.306923533029,7.09485e-05
3.312435485361,0.000128537
3.31645162408,6.24111e-05
3.316661531225,0.00776518
3.322976780979,0.000609654
3.328748169995,0.000252028
3.333857571475,0.0137993
3.336331467381,0.000174241
3.337016621202,0.0122496
3.337020317202,0.0186405
3.337679827054,0.00203584
3.338981009785,6.96826e-05
3.340357952013,6.17955e-05
3.341546114551,0.000188811
3.343493876554,0.0213061
3.345593512699,0.0115074
3.345653171244,8.88538e-05
3.346430373516,8.57246e-05
3.347851308568,7.76649e-05
3.349037314674,6.1456e-05
3.357815318407,6.1552e-05
3.36742258,0.00335662
3.373130784887,0.000279157
3.38173362526,6.1456e-05
3.385500986794,9.64709e-05
3.405746747521,8.29116e-05
3.407481947131,9.49192e-05
3.408420233406,0.00458744
3.408827190625,0.010268
3.412566586983,0.000101844
3.416949974656,7.11105e-05
3.417073419899,9.39591e-05
3.417308605725,0.00105944
3.425615461953,0.00396916
3.426741670143,0.000187814
3.428552999823,0.000109904
3.429594135137,8.43814e-05
3.435964219322,9.37843e-05
3.437861873305,6.1456e-05
3.438625037166,7.36351e-05
3.441285887541,6.96052e-05
3.447126078058,6.1456e-05
3.449077242432,6.64011e-05
3.449484231649,0.000730332
3.451821063798,0.000113934
3.45976030971,0.00164796
3.46252232096,0.000117963
3.464353175001,6.28888e-05
3.468688625925,6.1552e-05
3.469348807116,0.00020259
3.480320750192,0.000182441
3.487713356937,0.00632527
3.495904830941,6.23295e-05
3.498226877091,0.000214875
3.500162548542,0.000557232
3.500594267199,7.98898e-05
3.500833158173,0.00484421
3.502630139999,0.000130465
3.50904571252,0.000910891
3.513612223861,0.00190613
3.51416482251,0.00650045
3.514827405322,6.37598e-05
3.515656884849,7.84074e-05
3.519037622332,0.00404789
3.520503287738,0.0168825
3.521407238234,9.92534e-05
3.524310073867,6.35417e-05
3.524826665434,6.32088e-05
3.527839312566,0.000216987
3.530148117499,0.000201227
3.530149349499,0.000250379
3.538293975856,0.036728
3.539258058182,0.000895139
3.541325253506,0.0127611
3.543763869712,8.7883e-05
3.549687303623,0.0580739
3.560625242909,0.000240314
3.562898469985,0.000133424
3.564404290756,0.000115453
3.567806286641,0.00717118
3.568131536552,0.00257509
3.569053987244,6.93318e-05
3.570031467793,0.00227424
3.570282454527,0.00044352
3.571311779542,5.46521e-05
3.571351043112,0.000245131
3.571756911072,0.00394664
3.572417540727,0.03647
3.572695359699,0.000234681
3.576158462291,0.0122407
3.579510123048,0.0293199
3.587259253992,0.0359628
3.587523492069,0.00454742
3.591315363436,0.000175725
3.592958135082,8.49357e-05
3.595650669484,0.000534086
3.59580416964,0.000246805
3.59773603769,0.00263171
3.598052157278,0.000154774
3.598864700274,0.000162301
3.599160197002,0.0269505
3.603150081561,0.000324829
3.607959947035,6.1456e-05
3.613757628384,7.90082e-05
3.616467743723,4.9488e-05
3.62127098675,6.1456e-05
3.625329493655,0.00146662
3.628085893209,7.76649e-05
3.628167252977,7.90082e-05
3.630905316234,8.25163e-05
3.632242767615,0.000106509
3.634464558493,0.000222747
3.635783662869,0.000151253
3.6373876199,0.000332314
3.637572648888,0.00143611
3.639027073659,6.36263e-05
3.649312098117,0.000137635
3.653054434388,0.00424623
3.654748203567,0.000223905
3.656829448581,7.95844e-05
3.663025546556,8.43046e-05
3.665896818399,0.00016405
3.666014918688,0.0111781
3.666417556044,5.14117e-05
3.668610176236,0.000247339
3.670760215491,0.0414123
3.672315094444,0.00176081
3.67677762387,0.0479338
3.679697223994,0.000757366
3.686517529415,0.00309637
3.687604356667,0.00530841
3.69307746476,8.57246e-05
3.694126602095,6.1456e-05
3.695409363677,9.24411e-05
3.696908783786,6.1456e-05
3.698866044615,0.000186743
3.701164376293,0.00363317
3.711677316346,4.98028e-05
3.711766302274,0.000232277
3.715457376656,0.00964963
3.715460238506,0.00516451
3.717778162524,0.00210967
3.719263254611,0.00303803
3.719625008336,0.00280776
3.721969769984,0.00313936
3.725822025577,0.000156938
3.72690319969,0.00033703
3.730654963576,0.0179143
3.733645996098,6.33244e-05
3.735310381681,0.00104201
3.738010167905,4.96774e-05
3.739723044165,0.00406536
3.740164178573,0.00810284
3.741377808673,6.1456e-05
3.748455080734,0.000111247
3.750444985527,8.16948e-05
3.754815916774,0.00343319
3.755433557588,0.000173038
3.761292752481,0.000729176
3.76237020875,0.00303154
3.762960014837,0.000580053
3.763817774606,0.000105874
3.765303488788,0.000756023
3.788635701221,0.00230348
3.788697253221,0.000327875
3.789371822464,7.09485e-05
3.792101141385,7.36351e-05
3.797050677312,9.78142e-05
3.799244569241,0.000167665
3.805136105955,0.00143317
3.805909836983,0.00271705
3.807423755651,0.000148859
3.8085986835,8.43814e-05
3.809028839165,7.09485e-05
3.812756123859,5.03694e-05
3.816053816071,0.00336719
3.817701579099,6.55754e-05
3.822391203843,7.09485e-05
3.824670972509,9.25049e-05
3.825705274885,0.00142347
3.826895355546,7.49784e-05
3.82811285261,0.000340948
3.836484848809,0.00160498
3.850458727066,7.22918e-05
3.851292149357,9.91575e-05
3.862896634833,0.000119307
3.86803735643,0.00204692
3.874781648214,8.97545e-05
3.878579833509,8.57246e-05
3.881551291135,6.1456e-05
3.88255553244,6.8262e-05
3.888702576567,0.000216002
3.888851298712,0.00427893
3.889190026526,0.0028272
3.891012538382,7.76649e-05
3.897849262235,0.00243585
3.906456994164,0.0141014
3.907186701559,6.1456e-05
3.910159402474,0.00134304
3.914671115365,6.1456e-05
3.915053246567,6.8262e-05
3.931542285158,6.42321e-05
3.935796736419,6.8262e-05
3.937091620779,0.000138113
3.948696665903,6.69187e-05
3.951671186811,7.36351e-05
3.961093817571,6.1456e-05
3.965066853884,0.00011259
3.968798728771,8.97545e-05
3.971612808611,0.00124766
3.97291975271,6.1456e-05
3.975925765701,6.42321e-05
3.984752883058,6.1456e-05
3.989758490398,0.00155569
3.991047249422,0.00155524
3.991798119266,6.70829e-05
3.993525463906,0.00257053
3.995139059504,0.00468026
3.995328325607,7.41684e-05
3.995392914493,0.00995265
4.006822846566,6.96052e-05
4.008987097681,0.000841993
4.011159949788,6.69187e-05
4.013226219678,0.000240202
4.017158144624,0.00119471
4.017699150148,0.000256082
4.019394568302,0.00213697
4.019931712773,0.000265135
4.021829746117,0.00750551
4.027469592596,6.1456e-05
4.029674181249,7.63217e-05
4.034155751197,0.00010856
4.042038462277,0.000173176
4.043245904922,0.000151797
4.043485009315,0.00296001
4.051286201217,0.000355725
4.060508727018,6.1927e-05
4.062661161712,0.00606758
4.067494419653,0.000999157
4.082943742382,6.1456e-05
4.086327188205,0.000109904
4.088408061994,6.1456e-05
4.089718597635,6.1456e-05
4.090144225524,8.97545e-05
4.100877639125,0.00314516
4.102476088376,6.8456e-05
4.10724608637,0.000141828
4.107645041457,8.51396e-05
4.112757577392,0.0154688
4.11839917808,0.00788045
4.123882019507,0.000100501
4.124742586776,0.00012468
4.125003041656,9.37843e-05
4.12772710138,0.000103187
4.129204323679,6.1456e-05
4.131805856109,8.03515e-05
4.140415341784,0.00120737
4.145966101558,8.30381e-05
4.149295444517,6.42321e-05
4.149479320237,6.1456e-05
4.158735530515,0.000157229
4.158801325849,0.000633615
4.165995653523,0.00143035
4.169051667845,8.78975e-05
4.172464931898,0.000606728
4.173414464495,0.0068488
4.175582134508,0.00610449
4.18991643022,0.00270244
4.191665028391,0.00140854
4.192205702751,0.00327548
4.193668537983,0.0001038
4.194098331147,0.000399745
4.197606799108,0.000126729
4.202750135621,6.1816e-05
4.204041578787,0.000201029
4.204335941288,0.0146495
4.20564933473,6.80861e-05
4.207349877704,0.00369437
4.207932403746,0.000199228
4.209780994419,0.0140756
4.211293251433,0.000185425
4.211920278193,6.43203e-05
4.215815807871,0.00512082
4.220976084813,0.00561231
4.224692113306,0.000132523
4.226297591651,0.0220585
4.227378030389,0.0050804
4.228674891196,0.00899216
4.228743541933,0.018839
4.230667674838,0.000107217
4.231298709215,9.24411e-05
4.233266146896,6.1456e-05
4.2343803863,7.63217e-05
4.235567444745,6.69187e-05
4.24357351198,6.1456e-05
4.244872828802,6.1456e-05
4.259887637799,0.000166605
4.264005587403,0.00875453
4.264444055285,0.00827327
4.270103654069,0.00113214
4.270321784391,0.000121993
4.275789320043,0.000103187
4.279826361377,0.00011259
4.281345697093,0.000191844
4.28544802774,6.1456e-05
4.287498553929,6.69187e-05
4.291677867838,6.69187e-05
4.293068678628,6.14629e-05
4.293140285953,0.00116452
4.299165676984,0.00311214
4.30184085707,0.000115277
4.306345685606,9.55639e-05
4.306427769168,0.000234829
4.307409339547,0.000273784
4.308112904299,8.57246e-05
4.310172695302,6.19442e-05
4.315228841312,0.00520489
4.319022247033,0.00506645
4.320651461401,0.00183176
4.321051119723,0.000230799
4.325672632034,6.1456e-05
4.331250529116,0.00290231
4.332492983238,9.01173e-05
4.333857201667,0.00388636
4.341625354898,0.000469489
4.341783862342,6.25474e-05
4.344103334557,0.00255012
4.345184652218,7.48631e-05
4.345254502959,0.000137648
4.345910782773,0.000412774
4.346341683729,0.000407661
4.350933208461,0.00700098
4.353224760362,0.000668976
4.363333136286,0.0194343
4.365334205199,0.000217926
4.367049084422,8.20664e-05
4.36824723561,0.00389551
4.36925358132,0.000118417
4.372752978108,0.0435239
4.372962163542,0.000285068
4.375983321889,0.0381567
4.37605701454,0.000132966
4.388140951471,6.8262e-05
4.389295485045,0.000147516
4.395135602939,0.00147468
4.398969959918,0.00307319
4.400926459071,0.0011496
4.404283472058,7.699e-05
4.40467839728,0.00231406
4.406292768762,7.22918e-05
4.416966312794,5.1034e-05
4.419755846973,0.00605988
4.432372559709,0.000181993
4.434420894321,0.010329
4.434616370373,0.0166889
4.443191863514,0.0279515
4.448058943582,0.000164978
4.451317500078,0.000985724
4.455706688713,9.37843e-05
4.460764121836,0.00101528
4.461782142439,0.00192394
4.462538543242,6.69187e-05
4.46526323868,0.00109587
4.466663646825,0.00134304
4.477895448245,0.000123765
4.483893074843,0.000190833
4.483964545411,5.09934e-05
4.491123888292,6.61524e-05
4.499214393455,0.0292835
4.50311638652,0.000118324
4.506302479694,0.0386007
4.507562620143,0.000112099
4.508419857577,0.0150964
4.510936982008,0.00431895
4.51486887482,0.00120334
4.517191120291,0.000186946
4.517627492957,0.000189898
4.518006467617,0.00289167
4.520228635237,0.00100722
4.534493657043,6.1456e-05
4.536984573554,0.00166543
4.540220800271,0.00148946
4.540943127365,8.84112e-05
4.545129198015,9.78142e-05
4.553296885193,0.00157408
4.55371397766,6.28888e-05
4.559795855077,0.00180513
4.560324863107,0.00137885
4.563976888585,0.000322142
4.565555046808,0.000224083
4.567805387626,9.37843e-05
4.568951094593,7.36351e-05
4.573499092636,0.000925277
4.575236887668,6.1456e-05
4.57577761174,4.9488e-05
4.582514321136,0.000988411
4.585760634011,0.00161438
4.590332597587,8.57246e-05
4.595812102963,0.000109923
4.59663090361,0.000259603
4.597838703406,0.00239411
4.598808843895,6.38912e-05
4.600036579026,0.00574598
4.60320155704,6.1456e-05
4.603346172054,6.8262e-05
4.605210462219,8.57246e-05
4.606021892226,7.63217e-05
4.61147217169,9.00006e-05
4.615391917589,0.00875899
4.615888906766,0.00768014
4.617961682716,0.000140799
4.618295059913,6.55754e-05
4.625440050611,7.49784e-05
4.625775844474,6.55754e-05
4.625799763141,9.10978e-05
4.625838500474,8.67356e-05
4.62763247537,7.49784e-05
4.628792009804,0.000440351
4.636215901933,0.000327516
4.641242672725,0.000111351
4.641799832169,6.23628e-05
4.645937455177,0.00781753
4.646545727236,0.000105874
4.646790617174,0.000107217
4.649820191793,0.000103187
4.652099877869,6.1456e-05
4.65654382276,0.00259632
4.662156191861,0.00021871
4.664671085556,0.000126023
4.664852240848,0.000267589
4.675401704988,8.43814e-05
4.676287694471,8.43814e-05
4.684173826998,0.000765426
4.691406771998,7.22918e-05
4.695105663908,6.8262e-05
4.698557330317,7.76649e-05
4.700981648844,0.000107217
4.707400763077,0.000106341
4.711851059673,0.00490257
4.715604584771,9.51276e-05
4.724454766413,0.000420202
4.726303063771,0.00142363
4.729777891418,0.00435344
4.730180237075,0.000151546
4.730798658667,0.000103187
4.73183523837,0.000104531
4.733785487082,0.00170035
4.741732904794,0.000107217
4.742683308909,0.000105874
4.75341989784,6.1456e-05
4.754063342071,0.000633784
4.754453925334,6.39239e-05
4.760178803128,6.41032e-05
4.761856732449,0.00782958
4.763220390459,0.000100501
4.763346571892,6.1456e-05
4.767246779955,7.11222e-05
4.769209290881,0.00516451
4.770749363237,0.000267068
4.776160748409,0.0030351
4.779253947934,0.000246999
4.779772500011,0.00703942
4.784312433466,0.000244059
4.791222907064,0.000171199
4.793996663005,0.000292359
4.800271197013,0.00895993
4.801064631238,0.0171745
4.802097481699,6.24403e-05
4.803706623975,0.00140971
4.806483190065,0.00032426
4.808389451942,0.0321314
4.819593728784,0.00504739
4.824574684151,0.000255676
4.828223093231,0.0127952
4.829723683644,0.0145104
4.829795439519,6.1456e-05
4.83383533326,6.55754e-05
4.834273544908,6.1456e-05
4.839294690981,0.00312826
4.845400752383,0.00126244
4.847126075492,7.09485e-05
4.857088869462,0.000434283
4.857390693925,0.00200694
4.860135164396,0.00963591
4.865049873105,0.000136769
4.87902462997,0.00175697
4.879632577125,0.000133002
4.881474276221,5.26049e-05
4.882967440406,0.00486881
4.884918829549,0.00166902
4.886282593476,0.000735748
4.89191574209,0.0201455
4.892424692982,0.0142748
4.892494719004,0.016047
4.900399639361,0.0246327
4.902728643995,6.19145e-05
4.911360716408,6.20484e-05
4.91480360033,0.00010856
4.915571928625,0.0308696
4.916783833133,0.000101844
4.928527938085,0.00747915
4.932226530806,5.05616e-05
4.933225687899,5.02594e-05
4.934937201166,0.0035082
4.94009610152,6.17596e-05
4.940357828234,0.00248702
4.944685400693,0.00348423
4.94683614954,9.91575e-05
4.952196877112,0.000101844
4.9678452457,0.000209307
4.971862963095,7.22918e-05
4.977770401302,0.000942702
4.977853879261,0.000281835
4.978816675854,0.00416191
4.979558012157,0.00572285
4.987363995471,0.00012468
4.988644590604,6.1456e-05
4.993339545317,0.00281931
4.999482301139,0.0026293
5.004859321481,0.00999347
5.006906459242,0.00679479
5.010667496793,8.03515e-05
5.013245440373,0.00011259
5.015554859223,7.09485e-05
5.01750279039,0.000195364
5.017609021063,0.00126118
5.019927696377,0.00404169
5.027311677284,0.000291247
5.031720804148,0.000825874
5.033338799517,6.1456e-05
5.034859256369,9.37843e-05
5.036387766536,9.10978e-05
5.037180033315,0.000115277
5.045099378169,0.000130053
5.046702685921,6.42321e-05
5.054813448781,0.00811582
5.058094649544,0.000126948
5.058387440679,0.000106326
5.059167286128,6.6231e-05
5.059780354467,0.000410627
5.062338927211,0.0150618
5.062962274191,6.55754e-05
5.06707934742,0.00970816
5.072718415856,6.1456e-05
5.074722944702,4.9488e-05
5.077893098577,7.83289e-05
5.07833086567,0.000446432
5.078856038408,0.00195788
5.079174090836,0.00203729
5.091734113891,4.9488e-05
5.095870805795,5.02932e-05
5.09624306591,0.00181994
5.097281413297,0.000115277
5.106940560997,6.8262e-05
5.109810671471,0.00176617
5.113900295582,6.29515e-05
5.114072029145,0.00180479
5.115914252312,0.00576408
5.117579607028,0.00164125
5.118928480441,7.49784e-05
5.129897987516,9.51276e-05
5.13812541385,6.1456e-05
5.141231065056,0.00057065
5.154661608935,0.000597515
5.158868063406,6.28888e-05
5.16293882306,6.1456e-05
5.163843370328,7.90082e-05
5.165414151722,7.76649e-05
5.172365081386,6.1552e-05
5.185591768535,0.000141852
5.187230548261,0.00810899
5.198066459969,9.25784e-05
5.199984836947,0.00570065
5.201720863495,0.000141438
5.203877001562,0.00322363
5.205953708407,0.000119307
5.214548595789,6.17712e-05
5.218782378362,0.000109298
5.21969440999,0.0122299
5.222682517735,6.1456e-05
5.242675953314,0.000143486
5.246224635144,0.000925624
5.2471285214,0.000189471
5.252317454845,0.000130494
5.255424500469,9.80286e-05
5.256184909949,0.0172497
5.259534795582,9.51276e-05
5.261925949422,0.0034399
5.263852031363,0.000367814
5.264027136754,0.000105874
5.264257674968,7.09485e-05
5.265302918956,9.24411e-05
5.268483814918,0.00177557
5.269943741466,0.00121274
5.271310520702,0.000100501
5.272705358865,4.9488e-05
5.274710649948,8.57246e-05
5.279094327352,0.000326172
5.283844331487,8.16948e-05
5.285474152611,6.1456e-05
5.287062718816,0.000925277
5.288604635055,6.1456e-05
5.291661893483,7.22918e-05
5.292838194252,7.22918e-05
5.299747418679,0.000383005
5.300357294755,0.000101724
5.301367586875,0.00232229
5.304634804235,6.1456e-05
5.305832448881,0.000142143
5.308991136384,0.000173038
5.310136840534,0.00357809
5.311023113788,6.1456e-05
5.314816521212,0.000111921
5.315014152669,0.00339423
5.321476633868,0.0045747
5.321742603938,8.02437e-05
5.323271371293,0.00254773
5.325992557294,0.000361108
5.326844198754,9.2719e-05
5.332001232248,0.00850542
5.334847403454,0.00611025
5.336537366812,0.000158262
5.339072454938,0.000103187
5.342674412717,0.000167665
5.34764584757,0.000171202
5.34939883193,9.86649e-05
5.352581180659,0.00608214
5.354405071169,0.000103187
5.360823596735,0.000291247
5.369002536466,0.00158892
5.369412043453,0.000135463
5.369786845002,9.04348e-05
5.37010892992,6.18308e-05
5.370963612909,0.00779725
5.370976908909,5.06043e-05
5.371858452744,7.22918e-05
5.376257972013,9.64709e-05
5.376643288656,0.000100501
5.381786489027,0.00010152
5.382972607966,0.000117163
5.384710790636,0.00711496
5.38770586886,0.000138113
5.390978383928,0.00165871
5.392250387865,7.48282e-05
5.39322437965,0.00194617
5.397756428581,0.00538981
5.410428031238,8.30381e-05
5.412568616196,0.00158617
5.414019184886,6.1456e-05
5.42405294732,0.000174381
5.427649508489,0.00109453
5.434231054277,6.1552e-05
5.436921742453,0.000938709
5.437820581008,9.91575e-05
5.439329603615,0.00116944
5.440388085084,0.00170601
5.445475446036,7.09485e-05
5.447471671171,6.1456e-05
5.450013180603,0.000889008
5.451179147451,0.000109904
5.452339159644,6.96052e-05
5.452456394386,0.000119307
5.456749806545,9.91575e-05
5.461126466958,0.000131396
5.46205917158,8.84112e-05
5.465698749319,6.1456e-05
5.466235981769,8.57246e-05
5.469674157642,0.000500799
5.478000632897,6.1456e-05
5.483638001333,6.96052e-05
5.490943202466,0.000455127
5.496434010695,6.1456e-05
5.512697091524,0.000133943
5.512827364445,0.00108899
5.516918476977,0.000372907
5.516970976315,0.000176085
5.51865035706,0.00057468
5.519711805946,6.1456e-05
5.523045327118,6.1552e-05
5.530439795251,0.000162292
5.531653354591,6.1456e-05
5.538825823452,0.0021208
5.541434087499,0.00011662
5.542388105293,6.1456e-05
5.54907727884,0.00386304
5.551359228558,0.00161975
5.551574430758,6.42321e-05
5.55913109521,0.000166095
5.565566546156,0.000199512
5.569882334537,0.000150654
5.572053345225,0.000244061
5.575535494447,0.002585
5.575611113285,0.0155384
5.579101105819,0.0247289
5.586109007535,6.1456e-05
5.588150541751,0.000672739
5.59347291813,8.30381e-05
5.596754924115,0.00259095
5.60198991307,7.22918e-05
5.607652263463,0.000377018
5.610467540189,0.00575671
5.610959350622,0.00571991
5.614459365917,0.00184811
5.616403200434,0.000193187
5.616482450035,0.000236269
5.616963488651,0.000927963
5.624236853038,0.000277814
5.625789694145,4.9488e-05
5.627689183487,6.1456e-05
5.628811610852,0.00105289
5.630891759314,0.00011662
5.632137274632,0.00011662
5.633481090309,7.49784e-05
5.633780452462,6.55754e-05
5.639582931253,0.00415319
5.642246319325,0.00143304
5.64306296374,0.00493408
5.65075916681,0.000886069
5.652140230587,0.00266349
5.657601649723,0.00113483
5.661599402098,6.1456e-05
5.663912365202,6.1456e-05
5.664387401379,0.00010856
5.665772201714,4.9488e-05
5.675205305914,0.00100229
5.677156456383,5.07275e-05
5.677844324232,0.00206875
5.679371500559,8.32547e-05
5.681323259268,0.000337658
5.682986413071,0.00194658
5.684760954405,0.000389822
5.685468832793,0.000556638
5.686139105693,0.000528861
5.686642636145,0.000282398
5.691865217228,0.000299269
5.695939045422,0.00111621
5.696507840338,6.79418e-05
5.696582679015,0.00297226
5.698215376174,0.0275531
5.70387169486,0.000185957
5.710334135737,0.0128731
5.713931709962,0.0247529
5.71460303955,0.000304162
5.715249015626,0.00544524
5.71529335043,0.000637482
5.715447776916,0.000202756
5.724637080309,0.0553085
5.729139741044,0.0598187
5.729838287157,0.00010856
5.730774431361,6.25802e-05
5.73092572541,0.000207283
5.732443199531,6.41914e-05
5.732796015285,0.01137
5.734689521372,6.20146e-05
5.735196150789,6.40905e-05
5.73544580708,8.52517e-05
5.74140181432,0.00019486
5.745884038727,0.00412895
5.746678771579,6.65681e-05
5.747807712861,6.56217e-05
5.750108731807,0.00109435
5.751282827218,0.000517556
5.754105116945,0.0173153
5.755007803151,6.15001e-05
5.760035247068,0.000122822
5.762505551682,0.00151674
5.762615344153,6.28994e-05
5.764964470774,0.00217109
5.766938902906,0.000130121
5.767222472532,0.00307552
5.769344860455,0.0122038
5.770950726056,0.0395253
5.775338356426,0.000718411
5.778115681823,6.1456e-05
5.782911266297,8.97545e-05
5.786534639538,6.1456e-05
5.792600820999,6.42321e-05
5.79268566486,4.9488e-05
5.809761877569,0.00232095
5.810218262626,0.000117013
5.813940196815,6.2512e-05
5.819950114631,0.00447863
5.820205370466,0.000237726
5.820216228016,0.00511513
5.820468765309,0.000265272
5.820577545696,0.0127537
5.821369109731,0.000119307
5.823420345722,0.000113934
5.823827069001,6.1456e-05
5.825379936741,6.1456e-05
5.84000470298,0.000545127
5.843338308317,4.9488e-05
5.844967277888,8.43814e-05
5.84508517595,6.1456e-05
5.847693272539,6.96052e-05
5.84854690115,4.9488e-05
5.849605828487,0.000100501
5.855892785326,0.000130559
5.857174349202,6.55754e-05
5.857419818079,0.000228472
5.857817124283,0.000598516
5.860302198732,0.000192336
5.861171271143,0.000194665
5.865395123776,0.00225596
5.866218779125,0.00519738
5.868064281595,0.0061486
5.868463743292,0.0178094
5.869698490569,0.000262267
5.882459030998,0.0250888
5.883200185734,0.00265884
5.884957232529,0.000158502
5.888390582038,0.000110788
5.889881709817,0.00992974
5.890400328356,0.0127295
5.8963286037,7.09485e-05
5.898445193037,0.000100501
5.912511318846,0.00523184
5.916258370029,0.00011662
5.917782540623,6.1456e-05
5.921368028162,5.06345e-05
5.923856129665,0.000385019
5.936197762843,0.0156554
5.937657952777,0.0179482
5.94214822354,6.1456e-05
5.944007180587,8.97545e-05
5.951412000837,0.00308931
5.967037534678,6.39844e-05
5.974052056033,0.00450748
5.974301970733,0.000257298
5.976982641418,0.00168653
5.979025066581,6.25412e-05
5.98033208329,0.0170299
5.990280250698,0.000454151
5.990477933295,5.12183e-05
5.990895560255,0.0046215
5.991365877411,7.6485e-05
5.994916142419,9.29307e-05
5.996299529849,0.0008501
5.999354155409,0.0365273
6.006346823079,8.16948e-05
6.019310716547,6.23821e-05
6.026998739789,0.00765667
6.028294839451,0.00105531
6.028717999215,0.000159874
6.031087524894,0.0200361
6.035065510092,0.000159668
6.035722487,0.00205229
6.035961477861,0.00367481
6.036083436541,8.80711e-05
6.037538323331,0.00180942
6.042630116649,0.00011259
6.04327146296,0.00010856
6.048153342005,0.00012065
6.05576902614,6.8262e-05
6.057378795991,6.1456e-05
6.06161644852,8.70679e-05
6.064682713347,8.84112e-05
6.066149185117,6.60564e-05
6.066307666976,0.00133615
6.07843041952,0.000105874
6.088169763045,0.00118453
6.089487377926,6.1456e-05
6.09138325681,0.000109904
6.092000211849,8.16948e-05
6.092350356031,0.000103187
6.094783278133,0.00030065
6.101206431167,0.000261817
6.101900325567,0.00200953
6.102818739122,0.000188257
6.104886030438,0.00673888
6.106111075444,5.04895e-05
6.10713051861,0.00536229
6.109413370415,7.22918e-05
6.111971795193,7.49784e-05
6.114808346695,6.1456e-05
6.117228026429,0.00138468
6.118126025724,9.78142e-05
6.127011986411,6.27933e-05
6.127153176295,0.00356889
6.130961031343,0.000101457
6.132416981341,0.000138231
6.134063846372,0.000181111
6.134274741821,0.00467673
6.134572405665,0.000101844
6.142230248378,0.000133563
6.148551712643,0.00882361
6.14912479629,6.1456e-05
6.149705162379,6.96052e-05
6.152456850248,0.00075065
6.160227711052,6.1456e-05
6.166824736625,0.000113934
6.169097998336,4.9488e-05
6.172834262698,0.00163453
6.181084194835,0.00153781
6.183016233125,6.1456e-05
6.187806393942,6.17874e-05
6.193210479226,0.000182999
6.194951562571,0.00509644
6.195629318269,8.0078e-05
6.200344099657,0.00357777
6.203471236944,0.0191972
6.206094942451,0.00150423
6.21274369093,6.55754e-05
6.213206988575,6.42321e-05
6.216338084609,0.00155125
6.216610339946,8.30381e-05
6.223031299063,7.49784e-05
6.22354789396,0.000289904
6.225955498975,6.8262e-05
6.235169015233,0.000871545
6.237489665699,4.9488e-05
6.243335305331,9.10978e-05
6.249901167492,9.37843e-05
6.251631187952,7.22918e-05
6.258074247075,8.97545e-05
6.26688974565,0.00125655
6.268424962226,6.23255e-05
6.268427362226,0.000113817
6.269841561755,0.00807468
6.271804920139,0.000203934
6.273747627661,6.1456e-05
6.28032840576,9.91575e-05
6.283459604218,4.9488e-05
6.298221825991,8.30381e-05
6.298977180368,6.1456e-05
6.299300880525,9.64709e-05
6.303155598731,0.000598859
6.306917929538,0.00148946
6.32881376508,9.37843e-05
6.337108343898,0.000108855
6.338914916324,0.000186917
6.340399218506,0.00368539
6.340842295417,0.000163635
6.341759408304,7.49784e-05
6.346280970117,8.78614e-05
6.35549156272,6.41894e-05
6.355515479488,0.000764306
6.355604840903,0.0083035
6.356440794722,0.00482977
6.360214353244,7.49528e-05
6.363909444067,0.00672664
6.369704088541,0.00621284
6.37330309413,0.000346987
6.379484932077,0.0263607
6.383741479862,0.000151659
6.385222866818,0.0345626
6.389210900224,0.000156484
6.407371911463,0.00025355
6.407526068099,0.000406378
6.410128720731,0.000566316
6.413130758299,0.0674189
6.414270824589,0.00034854
6.416285685835,0.00811451
6.41839761039,0.0140387
6.421207701592,0.000143043
6.42190978341,0.000265767
6.42280192439,7.44478e-05
6.432070834714,0.026168
6.432155162348,0.0150945
6.434012022643,0.0815898
6.435444476984,0.00946337
6.436030606161,6.1456e-05
6.43632526655,7.09485e-05
6.441858525382,7.22918e-05
6.442612806413,7.36351e-05
6.443389448354,9.24411e-05
6.443632570347,8.03515e-05
6.447207755781,0.00130677
6.447635180709,0.000147516
6.447898096105,7.90082e-05
6.449943922724,6.8262e-05
6.452537084382,0.000113934
6.453285590901,0.000739903
6.456263283725,6.63745e-05
6.458378617339,6.65995e-05
6.458640647163,6.33674e-05
6.460740886818,0.00531139
6.461806271968,6.74023e-05
6.463255181248,0.000112314
6.465543645346,0.000110956
6.468322800251,0.000176542
6.468502456351,0.000159204
6.468705422537,0.00764608
6.470051255391,0.000318398
6.470452829993,6.55754e-05
6.475629766517,0.0001897
6.479538526918,0.00335986
6.486500820285,6.17259e-05
6.486660918089,0.0297792
6.488445981004,8.84112e-05
6.496501305237,6.17884e-05
6.49767300301,0.00386311
6.505209627754,0.00226952
6.508942106077,0.00015638
6.509601387235,0.00436393
6.510563098622,9.80987e-05
6.512592878536,0.0112206
6.519779321904,0.000111247
6.53378902679,0.00012065
6.535480920575,0.00011662
6.535650294269,0.00107438
6.551273242326,0.000140799
6.565285117953,0.000158262
6.56658724678,7.09485e-05
6.576593630039,0.000135093
6.578181298925,0.000201114
6.578413272647,0.00291237
6.586026719947,0.013649
6.586245649543,0.00122332
6.589424205391,0.000111737
6.596382073853,0.00745584
6.600298893883,0.00317471
6.60257430403,6.2158e-05
6.606598925067,0.0107198
6.607834489931,8.03515e-05
6.611192234347,0.000109904
6.614639936456,6.22652e-05
6.616013185008,0.00428899
6.618426175442,0.000147309
6.6192040156,0.00149214
6.623524732409,0.00150557
6.62782694148,6.1456e-05
6.632628656245,0.00010856
6.646721801185,0.000162292
6.649152935756,6.8262e-05
6.653209591884,0.000688859
6.653349660089,6.1456e-05
6.656847499744,0.000109041
6.657403475668,0.000114463
6.659157500263,6.15092e-05
6.660389458916,0.000184939
6.663476187074,0.00184668
6.666878835457,0.0106099
6.668070931984,0.000116811
6.668685111751,0.00145942
6.669692717303,0.00653299
6.674187399869,0.000100501
6.690878610847,0.000893038
6.692098123896,0.00188325
6.699063424103,6.1456e-05
6.701205793614,0.000130053
6.70275407478,8.57246e-05
6.706396697788,6.1456e-05
6.708634154304,0.00176214
6.716123374064,6.1456e-05
6.717846517906,6.1456e-05
6.718987494645,6.55754e-05
6.720006130524,0.000469904
6.732698442142,8.16948e-05
6.736780199257,0.00151901
6.73935682454,6.1456e-05
6.74223223455,0.00226453
6.748394636359,0.000323486
6.748403851413,0.000160591
6.753996949029,0.00011662
6.758190135558,0.00104886
6.75943322047,0.000353038
6.760783270999,6.1456e-05
6.76368328691,0.000100501
6.767871563041,0.000351695
6.77204689336,0.00368035
6.774972207036,0.000160517
6.775318942903,0.0044225
6.782238398721,0.00404572
6.782328650773,4.9488e-05
6.783690671178,9.91575e-05
6.788063917952,9.79424e-05
6.788841790114,0.00386304
6.7990207875,0.000631098
6.805365381569,0.000115865
6.805583136773,0.0048581
6.806352981234,0.00419119
6.808237501681,6.1901e-05
6.809694718281,6.23838e-05
6.816056695366,0.00790749
6.821197824155,0.000101844
6.823221808087,6.96052e-05
6.824187464865,0.000117963
6.825696602889,6.1456e-05
6.82596966873,6.1456e-05
6.839323622014,9.78142e-05
6.840527180339,0.000105874
6.846916806836,0.00355408
6.847478631323,7.49784e-05
6.862665827394,6.1456e-05
6.871958635649,0.00011662
6.873990767296,0.00010856
6.88033930788,9.51276e-05
6.882088705916,6.1456e-05
6.88675635087,0.0031453
6.889909004151,0.000189442
6.891759742557,8.60234e-05
6.895226926095,6.30281e-05
6.89566067168,0.000163333
6.89605153517,0.0126705
6.896773021439,0.00529073
6.904812047753,0.000111247
6.905492319998,8.57246e-05
6.905887810474,6.96052e-05
6.911217095543,9.37843e-05
6.926649970889,0.00144158
6.92769473333,0.0161988
6.939388995695,0.000285278
6.939893927015,6.53785e-05
6.940828000944,0.00578003
6.945081959863,0.00036988
6.951918620483,0.000408673
6.953485408459,0.0375805
6.95435819217,0.0362946
6.956553314275,0.000171497
6.966654074649,0.00498743
6.968517638725,0.000256948
6.969636148749,0.0287257
6.971264739299,7.18546e-05
6.972034115767,0.00609522
6.973703766057,0.0442808
6.974458500764,0.0178157
6.97888709915,0.000382737
6.988671009321,0.0701263
6.989899569965,0.0046111
6.990082479079,0.0367921
6.992168820918,0.00458832
6.992348626504,0.0622104
6.994650040708,0.000792208
6.994820468873,0.0356477
6.995527147032,0.01305
6.998864425094,0.000263038
7.000781743011,0.000113934
7.002327354089,0.00123423
7.005445244479,4.9488e-05
7.005576385225,7.09485e-05
7.017599710949,0.00010856
7.019556949064,9.58231e-05
7.01973020708,0.000342123
7.022122155258,0.00255624
7.022443231929,6.25959e-05
7.022809814001,0.00118966
7.024443069159,0.000139456
7.025634485908,6.1456e-05
7.03247940768,0.00172319
7.040622384057,0.000331836
7.041691468749,0.000670148
7.043727860243,0.00350136
7.044274905605,0.000195076
7.045038001652,0.00104886
7.046439355222,9.32773e-05
7.048083508078,0.00288496
7.04868234577,0.00012065
7.051007216496,7.49784e-05
7.059526605828,0.000134297
7.061643015712,0.000195782
7.064260524558,0.00827008
7.065775579506,0.00336107
7.06616052242,6.17636e-05
7.06707265715,0.000186983
7.068587854919,0.0133323
7.072910294141,0.00456738
7.074912269936,6.1456e-05
7.078971626319,6.69187e-05
7.081405298381,7.63217e-05
7.084765235503,0.00254393
7.095941140714,0.000405426
7.101979552043,0.00436542
7.102030284693,0.000235024
7.10228833833,0.00094636
7.102732052264,6.1456e-05
7.106239322175,0.000225426
7.106741416948,9.24411e-05
7.107193974162,0.000119307
7.108477573961,6.1456e-05
7.109804715224,0.000405426
7.114453173091,0.00011662
7.123661971337,7.99448e-05
7.124840030546,0.00336854
7.127921354114,7.36351e-05
7.13205876758,0.00133901
7.137024011962,0.000144381
7.137953538265,0.00416914
7.148244460636,0.000178411
7.148801641076,7.90082e-05
7.149027742925,6.1456e-05
7.150713428714,9.02715e-05
7.151006238877,0.000601377
7.152391788722,0.00057468
7.152706707506,0.000221396
7.163076789646,0.00116841
7.169066141486,8.00394e-05
7.173442598594,0.00443054
7.177218534389,6.1456e-05
7.187951172081,8.97545e-05
7.192334188836,6.1456e-05
7.19290219204,0.00010856
7.196380559098,0.000629808
7.19648672314,0.00358869
7.199904821781,0.000125894
7.201457285043,0.000192525
7.203339069061,0.00775249
7.205539641099,0.00874651
7.206957485803,0.000770206
7.209732514246,0.00039354
7.212061766988,0.0135252
7.213455493028,9.64709e-05
7.220262214966,0.000226769
7.225212260135,0.00021468
7.227663131191,0.000340948
7.228188209168,0.000148859
7.230205996685,6.1456e-05
7.230995059719,7.49784e-05
7.236804732704,0.00139543
7.242038085402,0.00177692
7.243917693757,0.000184387
7.248558736607,0.000206437
7.251115004172,0.00782421
7.256560941454,7.22918e-05
7.258130678622,6.55754e-05
7.267424571676,0.000551844
7.273934024947,0.00141826
7.275588136388,0.00066468
7.276512311788,4.9488e-05
7.280721710164,0.000100501
7.282613633364,8.03515e-05
7.284027418161,0.000100501
7.288761560615,7.71716e-05
7.289425142562,0.000499059
7.290280282095,0.00126748
7.291676096431,0.00645776
7.298055156944,0.00576378
7.30096983558,0.00783126
7.307438517226,0.000261695
7.309307530568,6.1456e-05
7.313472759371,0.00255871
7.314596899328,0.00137686
7.319079682272,0.00397587
7.329728892084,8.03515e-05
7.339629718738,7.90082e-05
7.367207822432,6.41045e-05
7.367654998868,6.17037e-05
7.367964201084,0.00509345
7.369159335744,0.00113483
7.369192640348,6.20556e-05
7.376448022088,0.000101844
7.376760491454,0.000119307
7.377105411736,6.1456e-05
7.379300460995,0.000375092
7.385593741867,0.00712033
7.398107426244,0.00900244
7.398397400528,6.1456e-05
7.401312456771,8.97545e-05
7.401326836286,8.43814e-05
7.404589516826,0.00320751
7.409343290157,0.00173528
7.410759653453,0.000635127
7.41263787984,4.9488e-05
7.422397785062,0.000553187
7.428404984464,7.63217e-05
7.443991483664,0.00332707
7.459188866603,4.9488e-05
7.473965317787,0.00651333
7.481444862889,0.000155029
7.481798003162,0.000351535
7.482500237168,6.20327e-05
7.485490571316,0.000101439
7.493535324465,0.000246525
7.49740916519,0.000102558
7.502815594681,0.000249391
7.508630423463,0.0322144
7.508805413486,0.0127057
7.513027829806,0.00327199
7.516868233226,0.000104531
7.518142447377,0.000439857
7.518441875407,0.00153347
7.524719180165,0.00681786
7.529473937039,7.22918e-05
7.535075683136,0.000111247
7.536968855135,7.63217e-05
7.540452525842,0.00012802
7.54441669805,0.00713796
7.544603057662,9.26097e-05
7.546010709628,6.17574e-05
7.547676793874,0.0053727
7.548217107229,0.000203934
7.552759064581,7.09406e-05
7.552962972632,0.00181325
7.558855786336,0.00972824
7.559886452132,6.1456e-05
7.562199685765,9.91575e-05
7.572218272137,0.000272435
7.572892457093,0.0042329
7.577641807199,0.00904854
7.577745214472,0.0153485
7.57889520802,0.003658
7.583441215876,6.1456e-05
7.585310900109,0.00140617
7.59018473219,7.76649e-05
7.605433706864,6.1456e-05
7.606021489592,0.00010856
7.611437697783,0.000109904
7.614104197913,0.000895724
7.619541459411,0.000103187
7.622553207634,0.000508859
7.624827912433,0.00074662
7.625167238842,7.49784e-05
7.625466015109,0.000103187
7.628306264602,8.43814e-05
7.63382514057,0.000983038
7.645423712691,6.1456e-05
7.657646408014,0.000812441
7.657823929687,0.00011662
7.659335296145,0.000923933
7.663948381051,0.000283187
7.668464528475,0.000361098
7.686268956385,6.69187e-05
7.7003563342,6.1456e-05
7.70980597369,0.00292998
7.713576425819,6.63657e-05
7.722109585266,0.00330965
7.722821668722,0.00467557
7.731797752085,0.000133101
7.732163705228,0.00163919
7.732294910217,0.0105017
7.733800705249,0.0325027
7.735076409809,7.73512e-05
7.735232230658,0.00232619
7.736440091218,0.000326172
7.744289470079,9.24411e-05
7.753422799154,0.00117916
7.753939966372,7.90082e-05
7.755168814214,0.000130053
7.765336382733,0.00108647
7.766196050193,0.0028057
7.768127201643,0.000324829
7.769149395691,8.03515e-05
7.774401421724,0.0014814
7.776860453045,0.000109904
7.777230952413,9.91575e-05
7.777268286866,6.16913e-05
7.777693079696,6.1456e-05
7.778302403356,9.91575e-05
7.787288555509,6.1456e-05
7.792309160332,0.000128013
7.796306439915,9.9823e-05
7.797511062039,0.00988154
7.800962962961,0.00624601
7.807052047476,0.00474584
7.807883650954,0.0114968
7.811056049412,7.76649e-05
7.816656338243,0.000226769
7.819375787985,0.000784232
7.823862921008,0.000864829
7.826559403143,0.00029259
7.832322117159,0.00011259
7.833043046744,6.69187e-05
7.834523309504,6.1456e-05
7.838596936339,6.1456e-05
7.839016173499,6.96052e-05
7.83910461502,7.49784e-05
7.847997302133,0.000105874
7.848302665274,0.000131396
7.855327665879,6.69187e-05
7.863686321353,8.30381e-05
7.865602324479,6.1456e-05
7.866480821577,0.000111247
7.872509684656,0.00120737
7.8773885992,0.00228475
7.87919903315,0.00559002
7.880283036998,0.0026449
7.884049307175,8.16948e-05
7.884815465309,0.000146172
7.8905640922,0.00300871
7.890665572684,6.28888e-05
7.894824005057,9.91575e-05
7.896713445591,0.000952142
7.907632198686,0.00357826
7.909393003829,0.0016896
7.915262622558,0.000636471
7.915745771334,0.000101844
7.923571124929,0.00019856
7.927840629152,0.00252916
7.930391321446,6.69187e-05
7.932794344481,9.24411e-05
7.932974204186,0.000144829
7.939288813846,0.00639244
7.939723521049,6.15798e-05
7.940603557605,0.000104294
7.940992966465,0.000176779
7.950050491462,0.0107822
7.950727361769,0.000207439
7.954848148702,0.0135379
7.958100380942,0.0147417
7.958556040609,0.0123128
7.959716468304,0.0161125
7.965203382164,0.00180647
7.972170152143,0.000823187
7.972910084734,0.000115277
7.981152093987,6.19743e-05
7.982218842565,0.00477486
7.983683189885,0.00691363
7.992896417519,0.000111247
8.005782246385,0.00524496
8.007590448602,0.00442807
8.008562963107,6.55754e-05
8.02144923778,0.00170007
8.022449951677,0.000149515
8.024056473618,7.027e-05
8.025063671653,0.0042466
8.025112294444,0.00139093
8.029965190208,8.30381e-05
8.032061846591,0.00010856
8.034966589631,6.1456e-05
8.048173246754,6.1456e-05
8.054043587897,0.000671396
8.058040952632,0.00441471
8.074517340859,6.18071e-05
8.075402430169,0.00315757
8.078723140577,0.00242707
8.085650806177,0.00288916
8.089948829762,0.000429605
8.090417329613,8.70679e-05
8.099290611968,0.000634151
8.100550357186,0.000123919
8.105060533456,0.0003002
8.105495282799,9.44578e-05
8.106584873649,0.00769967
8.107189781005,0.0146389
8.109723334273,0.00014663
8.11235459381,0.0106347
8.113026378613,0.0150988
8.125532590884,0.00341841
8.132856499316,0.000170762
8.134637406569,0.000832494
8.135345045933,0.00396624
8.148351785356,0.000323571
8.152355708866,0.000111982
8.153837414559,8.72313e-05
8.154443282693,7.34676e-05
8.157306084662,0.0109663
8.158746771463,0.00795608
8.158820483217,0.000229125
8.160418767056,0.000167437
8.168422497629,7.78073e-05
8.176299654388,0.0122018
8.176832989031,0.0486493
8.187858372397,0.000289632
8.188266307161,0.00024041
8.188825029931,0.0014725
8.190076107817,0.0524884
8.19326671622,0.013708
8.195277162288,7.22918e-05
8.209240754676,0.00563304
8.220472807378,8.4676e-05
8.22229578616,0.000115702
8.228324298508,0.000225006
8.228378100294,7.84062e-05
8.232664141328,0.000279103
8.235113201418,0.0191685
8.237945861547,0.0214306
8.238497270032,0.0385006
8.23944261921,6.1456e-05
8.239669233363,0.000167665
8.239964836375,0.000101844
8.243944642202,6.16864e-05
8.244741241035,0.00170548
8.245140675606,0.000111247
8.249434292072,0.000183784
8.255019568395,9.78142e-05
8.259900139155,8.03515e-05
8.264850345467,7.22918e-05
8.265676876538,6.1456e-05
8.26803373787,0.00093065
8.272103715371,5.01966e-05
8.272326845581,0.00580126
8.273012222704,0.000871441
8.274214322355,0.000375532
8.276155366306,0.00260153
8.286793457775,6.42321e-05
8.294147372257,9.37843e-05
8.301694688526,0.000984102
8.30446591341,0.000122744
8.306197347687,8.54007e-05
8.311126939736,0.00974082
8.315042472918,0.000182263
8.322098680988,0.012269
8.322698110596,6.1456e-05
8.336671172594,7.36351e-05
8.344371412753,6.42321e-05
8.353956968741,0.00260035
8.366498651272,0.00424319
8.371091783444,7.09485e-05
8.377218546565,0.00020259
8.383182312194,6.1456e-05
8.388166691965,7.76649e-05
8.389618812282,6.1456e-05
8.389869576561,4.9488e-05
8.393351357547,6.1456e-05
8.402222275039,6.96052e-05
8.406439164873,8.16948e-05
8.411119192752,6.1456e-05
8.412977638793,9.78142e-05
8.422419409646,6.69187e-05
8.426509856209,0.000992441
8.431472794896,0.00442722
8.439208436284,6.1456e-05
8.449956366725,0.00329
8.45077316209,0.0054602
8.454835975244,0.000946769
8.462628339936,7.22918e-05
8.464914360679,0.00010856
8.47981965489,6.1456e-05
8.491554734317,0.00256945
8.497691760773,0.000179494
8.506130264651,0.000179227
8.50720369107,0.0151923
8.510790291435,8.70679e-05
8.515430457016,6.8262e-05
8.518472378917,7.36351e-05
8.52281375743,7.36351e-05
8.525065831148,0.000174445
8.53054026799,0.000305279
8.530962033414,5.22006e-05
8.531596366838,0.000136392
8.534671199946,0.00508577
8.536352446178,5.06292e-05
8.537135607835,0.000340499
8.537250882096,0.000244859
8.538820616265,0.014485
8.544333550355,0.000182467
8.544770407614,0.000127987
8.545452894249,0.000102333
8.545778013502,0.00919387
8.553775784453,0.00215377
8.553951865831,0.0292053
8.55841071666,0.000104531
8.561416568464,6.55754e-05
8.56914318102,6.1456e-05
8.570241526885,6.1456e-05
8.570612835865,6.28888e-05
8.579910831504,0.00140647
8.581631577045,0.00354854
8.588124584895,0.00133901
8.600294295395,0.000868859
8.607249325743,0.000213337
8.621306158853,7.09485e-05
8.621721238536,7.09485e-05
8.622079850729,8.30381e-05
8.62346614434,0.00039468
8.628626952792,0.00209662
8.629737421359,0.000502142
8.63194072342,0.000112356
8.632293838119,0.000257439
8.633036648087,0.00222389
8.633801315838,6.1456e-05
8.640348428616,7.49784e-05
8.645176422074,0.00424959
8.647807719151,0.000163411
8.648005239368,0.00014717
8.658940830741,0.00342925
8.659875485017,0.00229712
8.663316832795,0.0186615
8.66430293275,7.09485e-05
8.666509201247,0.000381035
8.669886189178,0.0038669
8.681786546919,0.000148953
8.690942507151,0.0104424
8.699543895528,6.69187e-05
8.702364294398,8.97545e-05
8.703215468013,6.1456e-05
8.704130714544,6.1456e-05
8.709109007021,0.000111247
8.714505857593,7.09485e-05
8.718323799284,0.000169008
8.721733535924,6.1456e-05
8.723671478874,4.9488e-05
8.724889159129,7.63217e-05
8.727921972539,0.000174381
8.729542557304,0.00131752
8.730093459159,6.1456e-05
8.733489932013,0.000101723
8.733648439427,0.000397198
8.735107653724,0.00074662
8.741144626663,5.0098e-05
8.748881576002,0.00227156
8.755628474698,0.00909869
8.758062290765,0.000246995
8.760397617427,6.25804e-05
8.763413866775,0.0242409
8.763616676996,9.08161e-05
8.764168792021,0.000407077
8.765667759046,7.463e-05
8.767345630816,0.0113745
8.774596437068,6.1456e-05
8.777407243272,6.42321e-05
8.778418165081,8.57246e-05
8.790009512812,0.00224262
8.791442770242,0.00415973
8.793651134423,6.15572e-05
8.806680864613,0.000199447
8.814254491364,0.0108343
8.815036113288,0.000120042
8.815142401497,0.02209
8.816701832765,8.97545e-05
8.819230770488,0.00166274
8.821878064802,9.64709e-05
8.822175534068,0.000146172
8.822692415042,0.000365128
8.841983001992,0.00102011
8.843709095114,0.00280302
8.845649972958,0.000111247
8.856665070143,8.70679e-05
8.858535078482,0.000211993
8.862863825768,0.00421498
8.866105285476,9.56347e-05
8.866338991185,0.00178078
8.870024194408,6.1456e-05
8.870089103333,6.1456e-05
8.871190720723,0.000131396
8.878477651766,6.1456e-05
8.883873115511,8.70679e-05
8.890281263831,7.36351e-05
8.891107593375,0.000259008
8.894073122931,0.000185128
8.906587508315,9.35454e-05
8.907950746227,0.000135756
8.913428654342,7.93014e-05
8.914374325591,0.0084715
8.920585692299,9.24411e-05
8.928398827812,0.00766587
8.932713865915,0.00175543
8.935154935812,0.00105243
8.935463613449,6.21139e-05
8.941498136013,0.00844905
8.941904544618,9.24411e-05
8.962293616978,0.000441695
8.965610970569,0.000864829
8.977841121524,7.22918e-05
8.983390026692,9.37843e-05
8.989444016593,6.1456e-05
8.992467365342,6.1456e-05
8.994536266661,7.76649e-05
8.995054869726,0.000104531
8.997995754726,0.000655277
8.998085465033,8.16948e-05
9.000810270089,6.1456e-05
9.00402614248,6.8262e-05
9.006938526249,0.000178411
9.008609145854,0.000187518
9.010348315343,0.000122172
9.011197458444,0.00174051
9.012383837564,0.000401473
9.015126990306,0.00739328
9.016285995674,0.000112278
9.017618675712,0.00139223
9.022748161014,0.000115277
9.023848323736,0.000139456
9.034839450776,0.000155575
9.03584159516,0.000949456
9.039880962669,9.24411e-05
9.044804251413,0.00197957
9.049664087796,0.00960927
9.04991103201,8.28219e-05
9.052582755953,0.00244852
9.053287896673,0.000119111
9.054104924178,6.89482e-05
9.0560459686,0.00968289
9.056827902874,0.0101586
9.058277337253,4.94892e-05
9.061878636663,0.000162889
9.06295736995,0.000110632
9.065032379698,0.011297
9.066063607102,0.0013333
9.073674332375,0.000215376
9.074249405353,0.00135643
9.076753148058,6.26266e-05
9.079130726531,0.0185306
9.079940837485,0.00232534
9.080986126986,6.8262e-05
9.08512953134,0.000182043
9.088317010853,0.00011662
9.092408335679,6.18654e-05
9.094901500941,0.0123977
9.105556982716,0.000133784
9.106198591127,0.000300554
9.106364769508,0.000475996
9.107262082625,0.000176045
9.110911925838,0.00554799
9.11613431039,8.30381e-05
9.135570958696,6.1456e-05
9.136045718883,0.000159605
9.143314846549,8.16948e-05
9.144851598122,0.000131396
9.155840834541,0.000467217
9.159998502901,9.24411e-05
9.16323724038,0.000753336
9.169930445959,0.000917217
9.170363106433,0.000429605
9.177087658501,0.000789605
9.177200255255,0.000132225
9.179466153435,0.000852739
9.184250157428,6.1456e-05
9.186088329321,0.000169008
9.195151987852,6.1456e-05
9.204114938802,8.57246e-05
9.20742689674,0.000113934
9.209300705883,0.000322142
9.213617585741,0.000670053
9.227650340338,0.00681289
9.229247313944,0.00104617
9.229978187587,0.00022274
9.232388167223,0.00161438
9.234144792742,0.000326343
9.234419996989,0.000154903
9.238083130016,0.000956073
9.24021712654,0.00276366
9.246308914985,8.5209e-05
9.247396805412,6.14722e-05
9.248348026945,0.0175106
9.248735712937,6.1456e-05
9.250821640926,6.21208e-05
9.251803892167,0.00155262
9.254243885902,0.000117963
9.254563789025,6.28888e-05
9.255329394014,4.9488e-05
9.257940590761,9.8743e-05
9.258167573632,9.57554e-05
9.259158819466,0.000205277
9.260268162682,6.27367e-05
9.264130320278,0.00309134
9.266080710364,0.00208487
9.2678619292,6.14952e-05
9.270030039992,0.000208623
9.271300954565,0.0148819
9.277227595936,0.000150202
9.283548031401,0.000196304
9.283875735017,0.00325153
9.284243769024,0.00343317
9.286409584046,0.000582739
9.292264498991,0.00159826
9.294487939479,6.26017e-05
9.297040228836,6.20649e-05
9.298977656248,0.00661443
9.302626859424,9.82018e-05
9.303607456035,0.00154302
9.30484188241,0.000115277
9.310672548604,0.000106385
9.311950154036,0.00581751
9.314506896959,0.00152707
9.320162609197,0.000407142
9.323647254153,0.00556229
9.326448043383,9.91575e-05
9.332980833583,0.00354921
9.33426599912,0.00543552
9.336370942991,0.000812672
9.337856588457,0.00669566
9.341291788775,0.00254359
9.345364343425,8.27965e-05
9.348281929295,0.000146671
9.351709956371,6.72545e-05
9.352810863059,0.00762138
9.354268389487,6.71547e-05
9.354590375851,0.00025516
9.358183573045,5.07035e-05
9.359145267405,7.64263e-05
9.364534624979,0.0258242
9.366464707058,0.000127342
9.368228128599,7.28998e-05
9.37240834707,0.000127416
9.374494290906,0.000258503
9.3819156802,0.000484072
9.38255051598,0.00451382
9.387595079836,0.014083
9.389678683995,0.000179195
9.390486309722,0.0002243
9.391774139836,0.00017889
9.392861358868,0.0411161
9.397655088158,0.000195144
9.401894178246,0.0370583
9.402665283125,0.000239124
9.40359085655,0.0238273
9.405705015202,9.31653e-05
9.408688181696,6.1456e-05
9.410219324289,0.000700197
9.413232391913,0.00355897
9.415071458302,0.0716299
9.418104014629,0.00877235
9.423811609449,0.00180781
9.426704460323,6.1456e-05
9.427092458632,4.9488e-05
9.432004865874,0.000105874
9.43339155658,6.1456e-05
9.433957229898,7.36351e-05
9.445095373423,0.000825874
9.445620842073,6.1456e-05
9.447439951774,0.00092662
9.451817448809,0.00411423
9.461279027314,0.00336871
9.464667777365,0.0015808
9.466882096726,9.78142e-05
9.470444108086,8.03515e-05
9.471157285077,6.28888e-05
9.481518134376,0.0030635
9.481915714193,0.000112489
9.483175688114,0.00419989
9.495623690959,6.1456e-05
9.49581185196,7.76649e-05
9.497831218914,6.1456e-05
9.508768366862,0.00812765
9.510200281007,0.00507206
9.515978276511,0.00188975
9.518280634139,0.000189493
9.52068108093,0.000170908
9.522209281768,0.000180193
9.532419875248,0.000372722
9.532470830469,0.000457463
9.533453735473,0.00026003
9.533572042801,0.000232244
9.539064649376,0.00498791
9.540352648089,0.0171503
9.542632343211,0.0170841
9.542993265908,0.000517401
9.54386604341,0.030265
9.54517033927,0.000159634
9.545616283693,0.0239272
9.552621724889,6.96052e-05
9.570937681881,0.000265725
9.577040454605,0.00130005
9.586522526873,0.000233058
9.590957828538,0.00358059
9.591119951518,0.00436542
9.59254832681,0.000114762
9.597460544079,0.000440142
9.600836246286,6.23733e-05
9.60362489509,9.54411e-05
9.603841106165,0.000107099
9.606323611772,0.000259704
9.61063893794,0.000238488
9.612168244163,0.00480608
9.617259982024,0.000143971
9.619354005061,0.0356453
9.620939060299,0.00680699
9.626020781057,0.012606
9.632920804849,0.000565989
9.636281700151,8.99795e-05
9.638058864199,0.00016446
9.639810591609,0.0135455
9.647043089987,6.43069e-05
9.656861383598,0.000568566
9.657820965195,7.3578e-05
9.658079544763,0.0144334
9.658134797299,0.000257597
9.663832941909,0.0211061
9.666600334734,5.07691e-05
9.668914241891,0.0673158
9.670587973103,0.000220419
9.672617101209,0.000286661
9.675301481746,0.0320199
9.678320753195,6.55721e-05
9.679242299387,0.000278372
9.681326960825,0.0366934
9.683532492064,0.000154952
9.685231407818,0.0417241
9.685672030351,0.0417937
9.686535735788,0.0165061
9.6872719146,6.1456e-05
9.687573310358,8.57246e-05
9.692929892758,0.00199267
9.699377847935,0.00879826
9.700006147674,0.000171433
9.703428944061,0.0127285
9.7036307694,6.42321e-05
9.709736419485,7.36351e-05
9.710138726096,0.000203934
9.715136296395,0.000115277
9.715992348301,0.000104531
9.721256004544,0.000538411
9.723675585714,6.1456e-05
9.728073026262,0.000146838
9.730628061831,0.00702491
9.732229694166,0.00146393
9.733822935307,0.000101844
9.737355879637,0.00323572
9.744117885735,0.00219602
9.746812323519,0.00336092
9.747625800062,4.9488e-05
9.75418682667,0.00427139
9.764030585715,0.000130053
9.7642306662,0.00231138
9.767586132614,0.000157467
9.772597863958,0.00759988
9.781857333886,9.37843e-05
9.788206484586,6.1456e-05
9.793948128816,0.00506259
9.794769030207,6.96052e-05
9.79549327362,6.1456e-05
9.797650431048,0.000241112
9.800002519624,9.81533e-05
9.800491331418,0.000157007
9.806503504346,0.000508034
9.806965619419,0.00106588
9.815033210899,0.0183442
9.81602595487,9.79216e-05
9.817900089915,0.0153622
9.818845592554,0.00312902
9.820744319878,0.0147644
9.82266535856,0.00360952
9.824622140083,0.000167347
9.826399978393,0.00127081
9.826620244879,0.0165441
9.829149621235,0.0059296
9.83279620799,8.57246e-05
9.839431049212,6.8262e-05
9.845862094555,0.000166322
9.85338142799,8.43814e-05
9.864843614774,6.83329e-05
9.865210331102,0.000165817
9.870883184062,0.0141674
9.875477500595,0.000103187
9.886893435787,6.1456e-05
9.888170430771,6.1456e-05
9.891790707357,7.11543e-05
9.899479490446,7.93205e-05
9.900403812453,0.00899555
9.9116035564,6.55754e-05
9.912362910731,0.000216023
9.913855291567,0.000465841
9.914352449739,0.00180079
9.914771385264,0.000165081
9.915699227371,0.00305328
9.919014424282,0.00433252
9.921177711653,9.24411e-05
9.923435864201,0.00351378
9.927131464095,0.00011259
9.927627315863,0.000440351
9.934834053145,0.000109904
9.937088230607,6.1456e-05
9.938581587901,6.69187e-05
9.939398591358,0.000117963
9.945648146832,0.000534381
9.952082899772,6.38602e-05
9.955023320726,0.00358078
9.960295306041,5.02381e-05
9.960562154019,0.000139221
9.961161452838,0.00343078
9.967723701512,9.35423e-05
9.97208265489,9.56582e-05
9.972958475444,8.73633e-05
9.974390583976,0.0193896
9.974470749305,6.1456e-05
9.977531887443,6.1456e-05
9.97810793141,4.9947e-05
9.982568807585,0.00470768
9.985638209316,0.000176101
9.987424641535,6.2587e-05
9.9911748742,0.00937456
9.993097347375,6.1456e-05
9.994424488637,7.22918e-05
9.995512189248,7.36351e-05
9.997079825997,8.70679e-05
9.997894053069,0.000514232
10.002875211027,0.000539754
10.00430668157,7.49784e-05
10.006099101422,7.36351e-05
10.006408606071,7.22918e-05
10.013696118105,8.16948e-05
10.014414791124,0.000213337
10.014881110461,0.00011259
10.015282087812,8.97545e-05
10.016939467674,7.22918e-05
10.021707219608,0.000966918
10.027811101285,0.000111247
10.031691347604,0.000113934
10.034830180008,0.000140799
10.039898544947,0.000465874
10.04389898585,4.9488e-05
10.050598644338,8.57246e-05
10.056878969195,8.30381e-05
10.056945945434,9.32376e-05
10.059476202673,7.49784e-05
10.063068204852,6.1456e-05
10.063518387264,6.1456e-05
10.066825768624,8.45713e-05
10.071339031567,0.00198861
10.072856916364,0.0045604
10.074986019941,0.00958106
10.083018045718,9.38726e-05
10.089888271464,0.00823565
10.092807200953,0.00670047
10.094645668587,0.000158865
10.094923196215,0.0138483
10.10303830908,0.000248058
10.104218925606,0.000124184
10.106032023291,0.0123682
10.10631181498,0.000139165
10.107985714451,0.0119671
10.109141531997,7.36351e-05
10.117922622038,0.00330289
10.120972129971,0.000152889
10.127945478291,7.99263e-05
10.133526625487,0.000207617
10.13402906461,0.00246907
10.137305306317,0.0100754
10.13950067135,0.000332889
10.141653171303,6.42321e-05
10.147014294411,9.24411e-05
10.164556665225,9.51642e-05
10.166375276095,0.000176885
10.167836624828,0.000281605
10.169359882216,0.00786148
10.174369114694,0.0022427
10.178049516126,0.00105239
10.181021903207,0.000236278
10.182996472396,0.0126891
10.184760248272,0.00171053
10.187372720919,0.000135055
10.203189928777,0.0177161
10.203668280827,0.0254329
