time,PerHopSim1.flowGenerator3.flowCompletionTime:vector
0.000357994651,0.000357995
0.005762541558,0.00310203
0.012170509876,0.000242596
0.015000277366,0.000342037
0.016238700002,0.0134883
0.025116150484,0.000356934
0.029351581504,0.000366941
0.031205996465,0.000354857
0.032513077882,0.000339307
0.033906784658,0.000360669
0.03447198569,0.000351778
0.035291707218,0.000387845
0.039384315286,0.000372807
0.039500771432,0.0375407
0.043133030046,0.000379208
0.043945357242,0.00162885
0.04676180317,0.000516648
0.051164165964,0.00042851
0.05442151327,0.000364073
0.056039547374,0.00873214
0.059749419682,0.0157766
0.061605805622,0.00171302
0.062860365956,0.000389757
0.066756445714,0.000353605
0.067278604556,0.000381075
0.070085145758,0.04337
0.072081246031,0.000354731
0.073734751774,0.00447476
0.075052704034,0.000301328
0.07580844982,0.000359294
0.080661591433,0.000858713
0.086462544697,0.000369951
0.090401000009,0.005332
0.093035950749,0.000358537
0.095741530139,0.000359949
0.098072905568,0.000358251
0.099849081359,0.000344185
0.106940241042,0.000353385
0.110010979542,0.00314007
0.11422274699,0.00830253
0.120706792122,0.00187637
0.122417748188,0.00117893
0.124195281741,0.000357304
0.126089264217,0.00033869
0.126631579083,0.00395552
0.127011097097,0.000490356
0.128885620639,0.00271231
0.136301616027,0.000332344
0.138010826417,0.000306293
0.138488254679,0.000396609
0.143307610605,0.015635
0.143434874603,0.000350394
0.144063197057,0.016856
0.144259049581,0.000322866
0.146049945253,0.0129356
0.148843189211,0.0119971
0.149176486759,0.0191704
0.149324441517,0.000338914
0.150861056449,0.00250428
0.151852123395,0.000707982
0.152329818097,0.0298848
0.153085347365,0.000373599
0.154973978469,0.00149106
0.155637423555,0.00875409
0.159539201797,0.000391493
0.163193547181,0.000410848
0.163816318757,0.00816908
0.165393783335,0.000352757
0.171430061634,0.000996988
0.173196731826,0.000355328
0.1769207007,0.000356111
0.178583114382,0.000344185
0.182450108022,0.000961832
0.188612932183,0.00172354
0.205652888209,0.00269753
0.206282410193,0.000357995
0.206601282117,0.00024136
0.207267352861,0.000301328
0.208970737901,0.00145427
0.212203567408,0.000557905
0.231006064805,0.00138507
0.234707270185,0.00264814
0.234787574164,0.000356094
0.235636511739,0.000366631
0.239230453845,0.0210395
0.243167779825,0.000358401
0.261708629498,0.000354117
0.261784632704,0.0018606
0.262988183221,0.000337328
0.265848015186,0.000331328
0.266899766455,0.000358401
0.268809114639,0.000358601
0.27642183268,0.000337683
0.277934143534,0.000356232
0.279382374642,0.00526283
0.285221259663,0.000355393
0.287425182002,0.00471828
0.287832313977,0.000341328
0.28892903334,0.000341328
0.299465910733,0.000359064
0.304825850069,0.00024136
0.307604941532,0.000331328
0.314282078876,0.00124924
0.319184812952,0.0058588
0.32380395706,0.000353328
0.329899013352,0.00488688
0.331290984129,0.000354661
0.337804004782,0.000355328
0.340285029498,0.000358828
0.342091300522,0.000380816
0.34288655418,0.000321328
0.343128976338,0.00046936
0.347724661031,0.000366261
0.348822541447,0.000492406
0.350607418257,0.000344185
0.358075813943,0.0075747
0.358537996943,0.000534859
0.375783903474,0.000354661
0.386174826076,0.00104793
0.397548769637,0.000353828
0.399925247084,0.000337328
0.40545990323,0.000359259
0.409602611689,0.000357995
0.418378355822,0.00178609
0.420526452156,0.00813025
0.421906865722,0.000358828
0.424150827291,0.000357995
0.424786863002,0.00035951
0.435792233088,0.000321328
0.438236881159,0.0015792
0.438917095979,0.000359361
0.44142019393,0.000321328
0.443248340294,0.000815048
0.444286890618,0.000344185
0.44921366535,0.00035902
0.45099100116,0.00197634
0.465106092749,0.00685912
0.472524454519,0.000301328
0.476857389024,0.000383242
0.483453208293,0.00498634
0.483838246257,0.000477851
0.487042294033,0.00608169
0.491091153068,0.000344185
0.492443169266,0.000358401
0.495189595442,0.000344185
0.500861938994,0.00039525
0.500866738994,0.00499198
0.502071617944,0.00327925
0.502538356197,0.000357799
0.508645350842,0.000359423
0.517570432982,0.000347995
0.522953845663,0.0011636
0.523799049158,0.000358054
0.52827408202,0.000370874
0.528555275764,0.000607224
0.52909173665,0.00728246
0.530913167312,0.00146033
0.535564677838,0.000647662
0.536995489548,0.00125898
0.537152499827,0.00034176
0.542864737975,0.00451572
0.543070939633,0.00173095
0.549310579392,0.000762128
0.549817177634,0.00118014
0.551643828956,0.00146154
0.554253791705,0.000357042
0.556647951243,0.000356884
0.559529934339,0.001561
0.563316383931,0.000354661
0.565671089624,0.000357042
0.578294061984,0.00272985
0.579355374572,0.00562556
0.581914556742,0.00035817
0.5878576443,0.000266002
0.588697304358,0.00566197
0.592422295096,0.00142002
0.595783288154,0.010932
0.603711641829,0.000358879
0.605328141222,0.00054335
0.605526094899,0.000331774
0.607181084884,0.000341328
0.609878572117,0.00175265
0.619829447055,0.000323597
0.623429039145,0.000359246
0.626984143559,0.00762442
0.628016194931,0.000357042
0.638868543268,0.000372325
0.648109116766,0.000377731
0.64893871068,0.000380422
0.649320965082,0.00715747
0.649803908903,0.000353828
0.652853884241,0.00155858
0.663665389435,0.00513617
0.664592626899,0.00253008
0.665501204226,0.000366261
0.66919772723,0.000355614
0.674362968897,0.00024136
0.676398709533,0.00163742
0.67787403217,0.000513026
0.685011386368,0.000346328
0.69683291724,0.000356328
0.702000169439,0.000372325
0.704915051059,0.000359064
0.705289562648,0.00024136
0.711208767713,0.00394321
0.715341726101,0.00112192
0.7164479001,0.000357042
0.721177421492,0.000358661
0.728722551899,0.0047765
0.730721226457,0.000905312
0.731543123507,0.00211289
0.732857164813,0.000358601
0.734313684239,0.00024136
0.735281023169,0.000354661
0.741742958792,0.00598459
0.746964538622,0.00262718
0.750962266775,0.000990924
0.753400072637,0.000359789
0.760308754478,0.000335883
0.763097068254,0.000356603
0.764148629822,0.000360112
0.771858124514,0.00035124
0.782483609672,0.0025833
0.783921846678,0.0254036
0.791175810161,0.00035321
0.795367707025,0.00640787
0.804857261802,0.00102852
0.80684643269,0.000358601
0.815357235965,0.000321328
0.818598747408,0.000353828
0.819940774954,0.0015561
0.824733443893,0.000358928
0.83037626464,0.00148459
0.832588231568,0.000352757
0.840981398689,0.00032173
0.845848940793,0.00585478
0.84802812544,0.00114254
0.850306611343,0.00035902
0.852920304758,0.000341328
0.855227905436,0.000349328
0.856446510276,0.00024136
0.859279858851,0.000357692
0.86095616798,0.000301328
0.865107300368,0.000337328
0.866183454517,0.000301328
0.867206631575,0.000358975
0.876623231057,0.000354269
0.877313260847,0.000337328
0.879869107484,0.000359394
0.88266367782,0.00355504
0.886414688327,0.000359453
0.887505245252,0.000353828
0.888382975,0.000412788
0.89177075421,0.000367971
0.892077799296,0.000341328
0.89330518813,0.00037152
0.893950582154,0.000358038
0.89408516432,0.00607929
0.894639960902,0.00033767
0.897358352394,0.000580512
0.897722162978,0.000601598
0.900573636734,0.0125682
0.905890502886,0.000371407
0.911272223314,0.000495654
0.91198778303,0.000383053
0.91346411652,0.00908723
0.914428852506,0.00024136
0.918280414075,0.00294188
0.918986925933,0.000371261
0.919061883404,0.000354706
0.919648156199,0.00321448
0.922626090224,0.00118985
0.93044164952,0.00203041
0.935280748106,0.000486341
0.9362546722,0.000357578
0.951541013898,0.00035817
0.954612838827,0.00272153
0.955610102821,0.000405303
0.957165916335,0.000564358
0.957448480205,0.00314763
0.958363363047,0.00664353
0.96048795661,0.00035817
0.961077610996,0.000344185
0.961693320976,0.00035719
0.962504703882,0.000321328
0.969516202738,0.000346328
0.975709522234,0.000341328
0.980871459522,0.000303303
0.982880682886,0.00667351
0.985721987264,0.000339374
0.992063210264,0.00686151
0.992189358014,0.00318406
0.992700278517,0.000353828
0.998343907451,0.000508174
0.999399948778,0.000301328
1.000385984648,0.00139602
1.005192919885,0.000359964
1.006479984393,0.000754401
1.008668588903,0.00024136
1.012942357279,0.000341328
1.012995464739,0.000331328
1.013334095296,0.000356335
1.013496863466,0.00035719
1.021552102118,0.00851876
1.022856598015,0.000360091
1.024363649786,0.000355012
1.026056410937,0.000352757
1.029084657577,0.000331328
1.037373811669,0.000354269
1.037547295976,0.000344185
1.043642795938,0.000348486
1.043970696204,0.000352214
1.04543677005,0.00237491
1.045924371126,0.000635651
1.047374204418,0.000364733
1.051176381926,0.000323186
1.054140887362,0.000380603
1.058549637528,0.0048949
1.05900953553,0.0152388
1.061272933988,0.000360908
1.06181707854,0.00891762
1.062357062588,0.00036628
1.064313771268,0.000384761
1.064920394014,0.000982533
1.065509526852,0.0184345
1.073749210665,0.000354386
1.075912674661,0.00672007
1.080772842957,0.00410894
1.081797678309,0.0114308
1.089998475261,0.0227523
1.093423437942,0.00024136
1.104427706746,0.000732568
1.105983629605,0.000331328
1.107987395094,0.000301328
1.109585264974,0.000358775
1.112214650922,0.00219416
1.117530376914,0.000443889
1.120537576005,0.00155494
1.121614228138,0.000360103
1.123625095227,0.000358471
1.128284313603,0.000356111
1.130712227299,0.000359185
1.138045982361,0.000337492
1.139570060111,0.000374667
1.139589260111,0.000542251
1.144109176985,0.000364075
1.144744506749,0.000384628
1.145520016913,0.000457529
1.147464131491,0.000354133
1.150221533667,0.00262667
1.153930956267,0.00208903
1.157403595725,0.000416887
1.158954232873,0.000369647
1.162277726421,0.0271224
1.162948462667,0.0111408
1.164063241898,0.000341328
1.164080409142,0.000321328
1.167718733119,0.00156828
1.172965758781,0.000357328
1.1837108131,0.000353328
1.184905328938,0.000594293
1.186022583162,0.000331328
1.189944588489,0.000353328
1.192176262517,0.000337328
1.197184291805,0.0014761
1.200778592153,0.000347995
1.208178900909,0.000321328
1.214891223738,0.000357042
1.215459451101,0.000354661
1.217273911206,0.000337328
1.228943759706,0.0019734
1.233777550485,0.000344185
1.234975729785,0.000352097
1.24232543136,0.00112342
1.24331207588,0.00667596
1.245877043695,0.000369899
1.248077620651,0.000361649
1.249676156539,0.00122718
1.253345067181,0.00560006
1.254818149109,0.000355538
1.257123382159,0.00876176
1.264473631682,0.000356328
1.267094053861,0.000321328
1.268417426162,0.00127596
1.269970829003,0.00133297
1.272709012313,0.000359064
1.280657761006,0.0019928
1.281031343922,0.000348619
1.283392210674,0.00358742
1.285259415492,0.00265425
1.286234500634,0.000243285
1.291320330606,0.0114049
1.293278025476,0.0123553
1.295255966997,0.00035817
1.298700489001,0.000353828
1.302518147652,0.00128082
1.306773986239,0.0005106
1.316275158249,0.00150521
1.32127613395,0.000366733
1.324119267434,0.00735639
1.332184139254,0.000557057
1.334394790368,0.000353492
1.339725593274,0.0121244
1.34090819096,0.0109264
1.346581508422,0.000242789
1.350918955648,0.00542543
1.352553433085,0.00102791
1.35379995008,0.000358663
1.355659330556,0.000366459
1.357142413416,0.000395671
1.358672245558,0.00713073
1.359930905243,0.000347995
1.362665050538,0.000430546
1.369695754257,0.000301328
1.3716853238,0.000359749
1.375558025526,0.000358471
1.386219449382,0.00579658
1.388805883093,0.00206073
1.395877928116,0.00536599
1.399787862131,0.000357328
1.403825635518,0.000357692
1.413623175691,0.000462083
1.420699929742,0.000302734
1.422781929386,0.00817876
1.42368132027,0.000349328
1.424171149642,0.000357042
1.426013322383,0.000341328
1.427459978518,0.000331328
1.42771605759,0.000344185
1.42888772669,0.000364291
1.42941897447,0.00124682
1.435679200471,0.00024136
1.436557297995,0.00024136
1.442053981439,0.000358537
1.454321121975,0.00039229
1.454630167349,0.000243469
1.458235028373,0.00718785
1.460407983485,0.000424024
1.460598912389,0.000350864
1.463602871365,0.0151532
1.466135953569,0.0162172
1.46671414147,0.000337328
1.468082823285,0.000356528
1.468873808329,0.000358928
1.473698063372,0.000341328
1.483584911784,0.00393717
1.483678320948,0.00583176
1.485574269859,0.000359294
1.49040644707,0.000356713
1.49055563351,0.000355012
1.492043716496,0.000377126
1.49812065913,0.00684211
1.498927309953,0.000377177
1.504697726024,0.00419308
1.514219264917,0.000369517
1.517006629129,0.00401111
1.521621417953,0.00294375
1.526253381896,0.000301328
1.540629963986,0.00459699
1.54144383072,0.000365017
1.545734968554,0.000383854
1.549189603922,0.00880373
1.560655267287,0.000359684
1.565680344989,0.000356884
1.567370780733,0.000531657
1.567674547415,0.00220988
1.568915561387,0.000355328
1.569789910709,0.000341328
1.572931000719,0.000358828
1.577079233228,0.000579704
1.578687895449,0.000356461
1.579230749462,0.000243233
1.58395994586,0.0080186
1.589554964961,0.000566511
1.592863466593,0.000355017
1.592933845071,0.000379789
1.594625667529,0.000397229
1.598225978023,0.00399226
1.598678389451,0.0102408
1.601362026025,0.000372323
1.60298470752,0.000354549
1.604734035365,0.00388857
1.609408673011,0.0042086
1.611103145199,0.00657522
1.616987544559,0.000372325
1.622182848376,0.000359614
1.622864991617,0.000351328
1.625052923606,0.000352097
1.630962649315,0.000556362
1.631499509989,0.00212135
1.632306920478,0.000480277
1.636182936895,0.000321328
1.639786649873,0.000321328
1.653179612758,0.00024136
1.656803570488,0.000358085
1.657734352077,0.000321328
1.659191532538,0.000914509
1.663980115071,0.000357799
1.673787314533,0.000499166
1.673924374329,0.005554
1.675601078177,0.00024136
1.681828063728,0.00603068
1.684141126836,0.000426509
1.686128577,0.00342151
1.686189888366,0.000355335
1.691054829614,0.000333963
1.693234507274,0.000816441
1.695397069458,0.000348432
1.696560001846,0.0201016
1.698328321326,0.000403358
1.701757444064,0.00503619
1.702982130592,0.000516062
1.703489392346,0.000361925
1.707293391306,0.0170326
1.716160640517,0.000600775
1.716199366259,0.00035696
1.717147537378,0.000355328
1.718607433084,0.00105622
1.71887205665,0.000528703
1.721298113359,0.00103338
1.723609450064,0.00145427
1.726000381287,0.000331328
1.73061489598,0.000301333
1.733514432701,0.0035138
1.738339119446,0.00149429
1.742947690885,0.00179793
1.744390960531,0.00176303
1.745497603913,0.000296479
1.746984325455,0.000380269
1.751235910767,0.000355803
1.751620425051,0.00708018
1.751744114925,0.00874895
1.753523760638,0.000859926
1.760432553488,0.000358601
1.76064644686,0.000359605
1.774616974095,0.000357042
1.775089472145,0.000357457
1.778707845038,0.000354269
1.781212984076,0.000357899
1.783379609604,0.000301328
1.79079462695,0.000357799
1.791110480949,0.000359185
1.791717763535,0.000356111
1.794504635421,0.000341328
1.79916459684,0.000544562
1.79966403149,0.000359995
1.800503395931,0.00035817
1.802966879794,0.000349328
1.812356793411,0.000359976
1.813978031447,0.00161805
1.820152286333,0.00166249
1.820399725685,0.000353085
1.821203916517,0.0124204
1.821740511643,0.000355012
1.824787635439,0.00035817
1.840063180757,0.00024136
1.842355895193,0.000356713
1.860452124731,0.000353328
1.863496606696,0.00183877
1.867947060801,0.000301328
1.883508869386,0.00379888
1.895145473841,0.011381
1.895166083047,0.00250777
1.896000584391,0.00510656
1.896758653777,0.0103927
1.900141587103,0.00035902
1.900281951931,0.000355227
1.910525941705,0.00024136
1.911762714748,0.000354269
1.918308692573,0.000355328
1.924902189837,0.00318998
1.925586374542,0.000368628
1.925649232203,0.000367474
1.929921692272,0.00358038
1.93003568037,0.000352186
1.930494183872,0.000732046
1.931335975782,0.00579295
1.931584785195,0.000331328
1.932361509754,0.000303654
1.933014668434,0.00157306
1.934353559842,0.00035902
1.9420072962,0.000358401
1.944431675334,0.00162286
1.949013342301,0.00024136
1.950055114978,0.000360103
1.952576012755,0.000321328
1.957057015453,0.000358601
1.959969380216,0.000358316
1.96121380285,0.00238456
1.962547646214,0.000636746
1.963005493105,0.000331328
1.965346661568,0.00163863
1.968083368171,0.000357457
1.970584528551,0.00109524
1.970803248995,0.000331328
1.972789885707,0.000353828
1.973318893234,0.000302782
1.973851582912,0.000353811
1.981516468202,0.00037267
1.9887238173,0.0157596
1.99390900697,0.00033617
1.996465599562,0.00541627
2.000264786566,0.00245348
2.000561957754,0.00309559
2.000845798184,0.000836389
2.001111483891,0.000351328
2.001149839058,0.00999926
2.002272669198,0.0102969
2.004032212155,0.000347995
2.013813117743,0.000359064
2.015655296884,0.000358601
2.017759176172,0.000385161
2.021634713964,0.00474979
2.022201227631,0.000358661
2.023570386032,0.000353828
2.024784535586,0.000572597
2.028595284116,0.00491717
2.029802159624,0.00459977
2.03176131478,0.000355873
2.039041642834,0.000344185
2.045746114957,0.00522529
2.048879002926,0.000362869
2.050151399728,0.000370996
2.053941876604,0.00532227
2.056637779754,0.000354661
2.068323195037,0.000353328
2.069204141955,0.000337328
2.072999884097,0.000358328
2.081083202297,0.000352097
2.083482764081,0.000358719
2.084764753848,0.000358879
2.086387471073,0.000356528
2.089467474391,0.00128082
2.089836500257,0.00024136
2.100939435562,0.000352757
2.111338976916,0.000358928
2.11826260771,0.000354269
2.12282941274,0.000875695
2.125735221938,0.000322399
2.12613914323,0.00334038
2.12994639406,0.000357995
2.130086904485,0.000346328
2.132287415474,0.0005106
2.133185647251,0.000435398
2.133428615978,0.000353828
2.143245614325,0.000356111
2.145685853954,0.000337328
2.149895871488,0.000407184
2.15371952857,0.00558553
2.154294267845,0.00329141
2.158222563823,0.000358719
2.158249670237,0.000353328
2.162926727592,0.000346328
2.163933978422,0.000352757
2.165680266464,0.00054335
2.167063850301,0.000922999
2.171230917859,0.000359614
2.17185817311,0.000346328
2.174683999175,0.000753188
2.175737810043,0.000358975
2.177433902707,0.000344185
2.179461087074,0.000374519
2.18171700965,0.00285279
2.185137919636,0.000353543
2.185458884606,0.000321659
2.190563746086,0.000399021
2.19914860617,0.000287257
2.202261695358,0.00406412
2.203178620808,0.0106639
2.20373891777,0.00578847
2.20508531095,0.0272205
2.20858027008,0.000355873
2.211752344345,0.000356328
2.212543603163,0.000357692
2.216069902964,0.00033257
2.217469616552,0.00386798
2.226633989268,0.000374376
2.227610488798,0.00318389
2.228054505317,0.000359423
2.229115069662,0.00024136
2.234719617863,0.000927079
2.235733908617,0.000353859
2.238001890573,0.00554709
2.244036108123,0.00946975
2.245186918983,0.000921578
2.246720946833,0.00358119
2.250822908721,0.000356798
2.253451759875,0.00341192
2.256838996064,0.000337328
2.26082312023,0.000321328
2.264851966033,0.000733781
2.268896452624,0.00123836
2.273831469793,0.00107826
2.275559029728,0.00152826
2.278878839607,0.000468147
2.286033730563,0.000357899
2.294168463897,0.00185454
2.295311023889,0.00132564
2.307130164698,0.000301328
2.310443093414,0.000382029
2.314008714271,0.0016168
2.31796001308,0.000375423
2.31877166672,0.00253255
2.321560142568,0.000367897
2.32493091702,0.0100043
2.330639205145,0.000355873
2.330998456068,0.000354661
2.337449722123,0.000353828
2.337953749619,0.000851406
2.343939404676,0.000358564
2.34451064672,0.00111219
2.355827801218,0.00168715
2.358206123695,0.000416608
2.359912094533,0.00213109
2.36140258962,0.000358401
2.363863857352,0.000500897
2.36772712945,0.00171869
2.37584165312,0.000321328
2.384373322016,0.000400619
2.385482303486,0.00035731
2.389846588878,0.000345199
2.392287947746,0.000379436
2.398671581092,0.000647524
2.402448104676,0.000581367
2.403668783872,0.000417284
2.407861602234,0.0217748
2.408038575168,0.0138974
2.40949775252,0.00215359
2.412817440002,0.000355932
2.423368314093,0.000764731
2.431387701352,0.00351061
2.433607993745,0.000626888
2.444553973937,0.000351448
2.446228753661,0.0113325
2.447046034007,0.0402997
2.448108657523,0.000512453
2.448905438457,0.000407249
2.452666930147,0.0691883
2.453372680571,0.000329485
2.454007972041,0.000609999
2.457465383689,0.0519711
2.458112127665,0.000354781
2.46563733541,0.0129552
2.466440228648,0.000668051
2.473793130522,0.00377226
2.47721306263,0.000321969
2.4788692905,0.00036752
2.482398761146,0.000385403
2.486470665306,0.000703719
2.489389433154,0.00663456
2.490137854714,0.00563398
2.494534607944,0.0108026
2.496871386422,0.0841867
2.49789995392,0.00400185
2.498664713456,0.000492104
2.49879757078,0.0228635
2.499169912944,0.0865996
2.499837578742,0.0163275
2.50149192759,0.000351328
2.508993736707,0.000381356
2.509986082059,0.00310383
2.510325513788,0.000359882
2.515536715774,0.000377177
2.516365831255,0.000354661
2.51805705667,0.000396165
2.520314638674,0.000352891
2.531729251556,0.000355252
2.536002738224,0.0196992
2.536178748242,0.00035503
2.536523308545,0.000353828
2.538631076616,0.000354661
2.539586717896,0.00070467
2.547115209419,0.00145548
2.551003220666,0.000373137
2.551510393708,0.00036506
2.55268725504,0.000323541
2.556476655994,0.000432849
2.558026232222,0.008311
2.55978376252,0.00635873
2.561965492375,0.000358601
2.567232817113,0.000353328
2.56935490698,0.00125171
2.573442282249,0.00184726
2.575061210598,0.000355614
2.580059795286,0.000355328
2.582974240187,0.000358828
2.589069944777,0.000301328
2.590177174636,0.000352757
2.593988212054,0.000392945
2.594905415697,0.000331328
2.596573866282,0.000349143
2.597407159776,0.00035856
2.598458725268,0.00340461
2.604550252936,0.000358928
2.608405438232,0.00255083
2.609058425126,0.00313901
2.612573208512,0.000358975
2.613123128469,0.000455237
2.614450245815,0.000353973
2.618885937463,0.00634277
2.620317987429,0.00307451
2.623814878769,0.000384245
2.624426225769,0.0038277
2.624811922719,0.000302046
2.627645275211,0.000481736
2.628861885749,0.0124701
2.630386349738,0.00112556
2.631942813378,0.000341328
2.63472297093,0.000358601
2.635946102139,0.000357328
2.643048762944,0.000333272
2.647535403742,0.00727149
2.651067439281,0.000353328
2.656353435386,0.000358928
2.657143834407,0.000354661
2.663350723928,0.000335108
2.663703453112,0.00118499
2.665978968291,0.000358537
2.667224821249,0.00035817
2.672842307937,0.00035719
2.675090737039,0.000337328
2.677359220833,0.00248645
2.700439985503,0.000620978
2.700712968344,0.000321328
2.706545110883,0.00192974
2.7096927864,0.000357578
2.713001423554,0.00102852
2.713994502378,0.000358537
2.715932136822,0.00161377
2.716302851574,0.000357409
2.717387030656,0.00175929
2.721938359164,0.000405516
2.723690457994,0.000396774
2.725998968948,0.00606062
2.726993546108,0.00814359
2.73524677521,0.00181724
2.736293551444,0.0047765
2.73693762372,0.00518286
2.737591369698,0.000814426
2.743211007678,0.00024136
2.743492031715,0.000344185
2.747634373914,0.0013354
2.747870019012,0.000331328
2.756282010206,0.000424482
2.756869633742,0.00024136
2.759813694387,0.000920573
2.772631454012,0.000321328
2.783582708824,0.000380816
2.784658753748,0.000358537
2.787608789921,0.000366261
2.789014508094,0.000341328
2.789126667116,0.00035719
2.792573569296,0.000301328
2.803393039893,0.00275746
2.805984135071,0.00911637
2.813562788121,0.000394734
2.813880899127,0.000357758
2.817650615087,0.00261867
2.826604569193,0.0192056
2.829332501643,0.0029759
2.85324356018,0.000358471
2.858210488323,0.000369738
2.863033390425,0.000573028
2.866106202269,0.00041159
2.868075628939,0.00151306
2.872279329269,0.0165577
2.87924149381,0.000358661
2.888911183874,0.000331328
2.891297641732,0.00193459
2.893897827929,0.000391551
2.900444256983,0.00425553
2.906949306381,0.0101499
2.922946747861,0.000303124
2.927196895551,0.00176696
2.930794456721,0.037903
2.935195547156,0.000301707
2.935436355781,0.00313875
2.938514520927,0.000341901
2.940548043756,0.00221867
2.944401093642,0.036464
2.948271858446,0.00052273
2.951266095096,0.000243642
2.95155960703,0.00110494
2.956150360955,0.000459657
2.957673688131,0.000359453
2.959224216027,0.000337328
2.961659979772,0.00024136
2.965666144944,0.000355012
2.971658457923,0.00309051
2.974588929069,0.00886289
2.979940498787,0.000504589
2.982035333737,0.00530817
2.985239695599,0.000345326
2.986638175459,0.000333509
2.987385536231,0.00035036
2.987623159781,0.00422636
2.988335075721,0.0130838
2.989048328203,0.0129991
2.991552337767,0.000798305
2.991559537767,0.000360061
2.993543427567,0.0123584
2.995407110531,0.00399166
2.999198491985,0.000548201
3.001270369112,0.00102367
3.008360001391,0.000482032
3.012540672783,0.00661132
3.026791561297,0.00294332
3.029258333935,0.00795611
3.031888643307,0.000358963
3.031907996363,0.00374241
3.032087511187,0.00413916
3.036775499693,0.0279469
3.038609717961,0.000373758
3.040823026455,0.0006325
3.046312995681,0.00924012
3.050184683037,0.000355988
3.052502465843,0.00108574
3.054332871393,0.000350536
3.064031146713,0.00039716
3.067133500718,0.000341666
3.068259749041,0.0306066
3.072978283925,0.00412277
3.075028126501,0.00252439
3.081552732998,0.000344247
3.08302181151,0.0039068
3.087854747116,0.00301774
3.089205865422,0.000354661
3.0967982646,0.000710735
3.098513889182,0.00057337
3.100612027132,0.00268294
3.10421897803,0.000355873
3.113073656213,0.000355012
3.135522821174,0.000381699
3.136411273864,0.000564653
3.136612154982,0.00053291
3.140006911062,0.00037373
3.141292830152,0.00557556
3.145902984306,0.0003422
3.146335977296,0.000412365
3.146492489038,0.00555302
3.147984398852,0.0247135
3.150156992098,0.000444027
3.151969427875,0.000301714
3.153329830848,0.000492896
3.15825068922,0.0157045
3.161536514584,0.000355035
3.163006548774,0.0145413
3.170988070826,0.00031587
3.17802271509,0.00830551
3.180340596868,0.000358599
3.182799897656,0.0491863
3.183308610188,0.00314726
3.183508281522,0.000409109
3.183636850752,0.016808
3.186640912591,0.00121187
3.189515543651,0.00478739
3.194800013612,0.000301328
3.208608062868,0.000344883
3.208713601412,0.000367474
3.230963281508,0.000355614
3.231008678402,0.000356328
3.239898000289,0.000657904
3.240292533071,0.00715903
3.240831017939,0.00815448
3.243086810355,0.000382629
3.244313295481,0.00626065
3.248031726393,0.00101154
3.248077137385,0.000355799
3.250055235702,0.000358471
3.254127872579,0.000978142
3.257007620141,0.00434833
3.257144555153,0.000360075
3.25723925212,0.000355783
3.260322857718,0.000356528
3.262645879895,0.00024136
3.266603226322,0.000541862
3.269481987484,0.000353407
3.269782955642,0.00470976
3.275541519055,0.000355873
3.28108895655,0.000372201
3.28204484006,0.00263445
3.28856193256,0.00280063
3.297755972754,0.000404496
3.297820804754,0.000382542
3.302724540494,0.00569227
3.30616302734,0.000347995
3.307206853665,0.000354269
3.312675754579,0.000368807
3.316250315553,0.00735397
3.316710540951,0.000321328
3.323139733174,0.000772606
3.328937608898,0.000441467
3.332560184536,0.0125019
3.334139436626,0.0157597
3.335184965504,0.0104179
3.336524104516,0.000366879
3.337284546516,0.00164056
3.339258209776,0.000346883
3.340629742312,0.000333586
3.341740724784,0.000383422
3.341785698102,0.0195979
3.344354607454,0.0102684
3.345918145377,0.000353828
3.346701691149,0.000357042
3.348129517066,0.000355873
3.349320043806,0.000344185
3.358103094394,0.000349328
3.367293542606,0.00322758
3.373300367888,0.00044874
3.382009497252,0.000337328
3.38576251054,0.000357995
3.406017645247,0.000353809
3.407739855825,0.000352828
3.408006728061,0.0094475
3.408421582659,0.00458879
3.412823070903,0.000358328
3.417229321427,0.000350457
3.417334932344,0.000355472
3.417427134849,0.00117797
3.425426987239,0.00378068
3.426920116604,0.000366261
3.428801815359,0.000358719
3.429866637319,0.000356884
3.436228233542,0.000357799
3.438121745299,0.000321328
3.43890641427,0.000355012
3.441570110277,0.000353828
3.447385950052,0.000321328
3.449361634823,0.000350793
3.449788489419,0.00103459
3.452066009202,0.000358879
3.459797071156,0.00168472
3.462763377815,0.00035902
3.464640705067,0.000350419
3.468976401912,0.000349328
3.469525819782,0.000379603
3.480499737095,0.000361428
3.487296257093,0.00590817
3.496182769299,0.000340268
3.498419960218,0.000407958
3.500328403812,0.000723088
3.500774603828,0.00478566
3.500861463701,0.000347086
3.50285669106,0.000357016
3.50916062035,0.0010258
3.513622690404,0.0019166
3.513820425174,0.00615605
3.515066039488,0.000302394
3.51593298107,0.000354504
3.518926885778,0.00393715
3.519503031328,0.0158822
3.521668087668,0.000360103
3.524568099898,0.000321568
3.525097519802,0.000334063
3.528019944421,0.000397619
3.530327732789,0.000428762
3.530350532789,0.000403642
3.535059711241,0.0334937
3.539388623581,0.0010257
3.539558511221,0.0109944
3.544027072665,0.000351086
3.544960058229,0.0533467
3.556341000495,0.0203935
3.560762962053,0.000378033
3.563117639667,0.000352594
3.564663831341,0.000374994
3.565549167915,0.00491406
3.567306767137,0.00175032
3.569317571613,0.000332916
3.569630687421,0.00187346
3.570373858481,0.000534924
3.571066825075,0.00325655
3.571463450497,0.000357538
3.571499894315,0.000242767
3.572234878245,0.0220447
3.572879554815,0.000418876
3.573341059459,0.00942329
3.578688916039,0.0273925
3.585990777393,0.0030147
3.591366516411,0.0191568
3.591498573818,0.000358935
3.593225955919,0.000352757
3.59569041272,0.000573829
3.59595611372,0.000398749
3.596978273888,0.00187394
3.598255710849,0.000358328
3.599060936199,0.000358537
3.603315232832,0.00048998
3.608242676167,0.000344185
3.614034730756,0.000356111
3.616659615719,0.00024136
3.621546858742,0.000337328
3.625383851676,0.00152098
3.628364101707,0.000355873
3.628444355349,0.000356111
3.631201118325,0.000378318
3.632497153849,0.000360895
3.634646110217,0.000404299
3.636004886103,0.000372476
3.637598566095,0.00054326
3.637650230095,0.0015137
3.639267100987,0.000303654
3.649577605175,0.000403142
3.652926804899,0.0041186
3.654933597651,0.000409299
3.657093233991,0.00034337
3.663288064157,0.000346822
3.665368278703,0.0105315
3.666096032963,0.000363265
3.666609090599,0.000242946
3.668438169103,0.0390903
3.668782658631,0.000419822
3.672311219391,0.00175694
3.674484563849,0.0456407
3.679820404175,0.000880546
3.686423153021,0.00300199
3.687439940151,0.00514399
3.693348782393,0.000357042
3.694406474086,0.000341328
3.695674614233,0.000357692
3.697148655781,0.000301328
3.699070086289,0.000390785
3.701216068985,0.00368486
3.711913117369,0.000285604
3.711975549369,0.000441524
3.713872163439,0.00806442
3.714977512647,0.00468178
3.717663800167,0.00199531
3.719133665855,0.00290844
3.719632683211,0.00281544
3.722016095641,0.00318569
3.726039309683,0.000374222
3.727121756815,0.000555588
3.729780094915,0.0170394
3.733924903829,0.000342232
3.735433493804,0.00116512
3.738239217442,0.000278727
3.73966640072,0.00400871
3.740223119784,0.00816178
3.741653680665,0.000337328
3.748702608498,0.000358775
3.750719818707,0.000356528
3.754679449715,0.00329672
3.755620557172,0.000360038
3.761460611587,0.000897035
3.762475275213,0.00313661
3.763279915382,0.000899953
3.76407043799,0.000358537
3.765426799314,0.000879333
3.788502115675,0.0021699
3.788873276901,0.000503899
3.7896551431,0.000354269
3.792382518489,0.000355012
3.797310947868,0.000358085
3.799436883965,0.00035998
3.805225836133,0.00152291
3.806028561815,0.00283577
3.807634624631,0.000359728
3.808871185682,0.000356884
3.809312159801,0.000354269
3.812947383956,0.000241629
3.816139787908,0.00345316
3.817988100927,0.000352097
3.822674524479,0.000354269
3.82493431021,0.000355843
3.825955587142,0.00167378
3.827175705146,0.000355328
3.828276439741,0.000504536
3.836525781295,0.00164591
3.850741096573,0.000354661
3.85155116196,0.00035817
3.863136391913,0.000359064
3.868035405411,0.00204497
3.87504935073,0.000357457
3.878851151142,0.000357042
3.88179116313,0.000301328
3.88284059846,0.000353328
3.888362753846,0.00379038
3.88884549243,0.000358918
3.889254111008,0.00289128
3.89129074688,0.000355873
3.897819551316,0.00240614
3.905438325224,0.0130827
3.907446573553,0.000321328
3.910225752235,0.00140939
3.914957654025,0.000347995
3.915338312587,0.000353328
3.93182938103,0.000351328
3.936081802439,0.000353328
3.937313045001,0.000359537
3.948982503784,0.000352757
3.951952563915,0.000355012
3.961376546703,0.000344185
3.965313091532,0.000358828
3.969066431287,0.000357457
3.971688418991,0.00132327
3.973159624705,0.000301328
3.976212861573,0.000351328
3.98502875505,0.000337328
3.989778707301,0.0015759
3.991103136919,0.00161113
3.992063006494,0.00033197
3.993637216213,0.00268228
3.994698553827,0.00925829
3.995172825523,0.00471403
3.995603485232,0.000349328
4.007107069302,0.000353828
4.009102066127,0.000956961
4.011445787669,0.000352757
4.013399582684,0.000413565
4.017248827538,0.00128539
4.01787861496,0.000435547
4.019499793344,0.0022422
4.020161298548,0.00049472
4.021812806506,0.00748858
4.027739464589,0.000331328
4.029953473285,0.000355614
4.034405852045,0.000358661
4.042269917073,0.000404631
4.043475806403,0.000381698
4.043531793421,0.0030068
4.051448354553,0.000517878
4.060789244037,0.000342444
4.062473826971,0.00588025
4.067594137734,0.00109888
4.083183614377,0.000301328
4.086576003741,0.000358719
4.088677933987,0.000331328
4.089998469626,0.000341328
4.09041192804,0.000357457
4.100768617197,0.00303614
4.102755394505,0.000347762
4.107463990019,0.000359731
4.107920635881,0.000360734
4.111242266413,0.0139535
4.117242691481,0.00672396
4.124139769823,0.000358251
4.124977129652,0.000359223
4.125267055876,0.000357799
4.127982315216,0.000358401
4.129487052811,0.000344185
4.132081832573,0.000356328
4.14049485639,0.00128688
4.146239776079,0.000356713
4.149582540389,0.000351328
4.149739192231,0.000321328
4.158868256489,0.000700546
4.158937299847,0.000358998
4.166053530859,0.00148823
4.169318974953,0.000355205
4.172640636493,0.000782432
4.173011171163,0.00644551
4.175332417951,0.00585478
4.189555849228,0.00234186
4.191791956522,0.00153547
4.191896452522,0.00296623
4.193930025722,0.000365288
4.194332638043,0.000634052
4.197863518641,0.000383448
4.202991282707,0.000302963
4.203059835073,0.0133734
4.204253401899,0.000412852
4.205936924311,0.000355676
4.207028477075,0.00337296
4.208143851777,0.000410676
4.208471828357,0.0127664
4.211547190455,0.000439364
4.212178530865,0.000322573
4.215633955455,0.00493897
4.220546643995,0.00518287
4.222000876913,0.0177618
4.224912215911,0.000352626
4.226277590031,0.00397996
4.226897467077,0.0169929
4.227388871688,0.00770614
4.230919058361,0.000358601
4.231563959771,0.000357692
4.233536018889,0.000331328
4.234659678336,0.000355614
4.235853282626,0.000352757
4.243843383973,0.000331328
4.245142700795,0.000331328
4.260098989462,0.000377957
4.263313398416,0.00806234
4.264076319554,0.00790554
4.270190467995,0.00121896
4.270558937277,0.000359146
4.276044533879,0.000358401
4.280072599025,0.000358828
4.281523752519,0.000369899
4.285727899731,0.000341328
4.28778439181,0.000352757
4.291963705719,0.000352757
4.293191086418,0.00121532
4.293339309637,0.000332094
4.29906036238,0.00300683
4.30208450815,0.000358928
4.306563858563,0.000370918
4.306604783041,0.000354661
4.307579443928,0.000443889
4.308384221932,0.000357042
4.310448416329,0.000337665
4.314910774823,0.00488683
4.318678185993,0.00472239
4.320577197834,0.0017575
4.321225395144,0.000405075
4.325948504026,0.000337328
4.330823545476,0.00247533
4.332755838164,0.000352972
4.333777026256,0.00380619
4.341781329226,0.000625463
4.342022689223,0.000301374
4.344141817106,0.0025886
4.345447240366,0.000337451
4.345470104366,0.00035325
4.346067947984,0.000569939
4.3465567598,0.000622737
4.350769291276,0.00683706
4.35337151255,0.000815728
4.362110276712,0.0182115
4.365532456798,0.000416178
4.367312327398,0.000345309
4.368258661632,0.00390693
4.369494606074,0.000359442
4.369535792014,0.0403067
4.373155898946,0.000478803
4.37329902054,0.0354724
4.376282449689,0.000358401
4.388426017491,0.000353328
4.389507675715,0.000359706
4.39518917889,0.00152826
4.398868425319,0.00297165
4.401011578512,0.00123472
4.404557208856,0.000350727
4.404685851606,0.00232152
4.406575138269,0.000354661
4.417158860194,0.000243581
4.419055522486,0.00535956
4.432565505688,0.000374939
4.43277542008,0.014848
4.433574746222,0.00948286
4.441158017734,0.0259177
4.4482539139,0.000359949
4.451418521609,0.00108675
4.455970702933,0.000357799
4.460829526127,0.00108068
4.461983221044,0.00212502
4.462824381123,0.000352757
4.465353571921,0.00118621
4.466729996586,0.00140939
4.478128173927,0.00035649
4.484093136747,0.000390895
4.484156415021,0.000242863
4.491395358505,0.000337623
4.496162011815,0.0262311
4.502117550333,0.0344158
4.503352855701,0.000354793
4.504830865035,0.0115074
4.50780515313,0.000354632
4.510122135959,0.0035041
4.514948780461,0.00128324
4.51738397487,0.0003798
4.517806243288,0.000368648
4.518075528462,0.00296073
4.520327571248,0.00110615
4.534733529038,0.000301328
4.537019640515,0.00170049
4.540272942427,0.0015416
4.541212044125,0.000357328
4.545389468571,0.000358085
4.553340815614,0.00161801
4.554001507726,0.000350419
4.559708201435,0.00171747
4.560546313989,0.0016003
4.564142300546,0.000487554
4.565729973954,0.00039901
4.568069401846,0.000357799
4.569232471697,0.000355012
4.573605979692,0.00103216
4.575496759662,0.000321328
4.575969483736,0.00024136
4.582615081977,0.00108917
4.585800654082,0.0016544
4.59060391522,0.000357042
4.596078193587,0.000376014
4.596821075479,0.000449775
4.598039711505,0.00259511
4.599092648083,0.000347695
4.600292107569,0.00600151
4.603477429032,0.000337328
4.603631238074,0.000353328
4.605481779852,0.000357042
4.606301184262,0.000355614
4.611748159483,0.000365988
4.614592176577,0.00795925
4.615464251395,0.00725548
4.618180472308,0.000359589
4.618581581741,0.000352097
4.625720400211,0.000355328
4.626055250487,0.000344981
4.626061421915,0.000352757
4.626093092828,0.000341328
4.62791282497,0.000355328
4.628945951405,0.000594293
4.636380792514,0.000492406
4.641512277526,0.000380956
4.642040652724,0.000303183
4.645772248048,0.00765232
4.64679839062,0.000358537
4.647042000697,0.000358601
4.650075405629,0.000358401
4.652369749862,0.000331328
4.656488560636,0.00254106
4.662331640387,0.000394158
4.664903232479,0.00035817
4.665143770043,0.000559118
4.67567420717,0.000356884
4.676560196653,0.000356884
4.684296225109,0.000887824
4.691689141505,0.000354661
4.695390729928,0.000353328
4.698835538815,0.000355873
4.701233032367,0.000358601
4.707651935419,0.000357513
4.711757713685,0.00480922
4.715867356559,0.000357899
4.724610663189,0.000576099
4.726262099044,0.00138267
4.729700783228,0.00427633
4.730388461079,0.00035977
4.731053872503,0.000358401
4.732089178585,0.000358471
4.733817165073,0.00173203
4.741984288317,0.000358601
4.742935972293,0.000358537
4.75369634472,0.000337903
4.754602392542,0.00117283
4.754731511371,0.00034151
4.760456872677,0.000342173
4.762002138825,0.00797499
4.763478140775,0.000358251
4.763626443883,0.000341328
4.767533179932,0.000357522
4.769107508764,0.00506273
4.770920119343,0.000437824
4.776078437737,0.00295279
4.779042962747,0.00630988
4.779369004221,0.000362055
4.784538176685,0.000469803
4.791430338637,0.00037863
4.794174191433,0.000469888
4.799675880421,0.00836462
4.79983726392,0.0159472
4.802366404039,0.000331363
4.803808995826,0.00151208
4.80601346714,0.0297554
4.806523977513,0.000365048
4.819020462934,0.00447412
4.824767138472,0.00044813
4.827320018546,0.0118921
4.828894138172,0.0136808
4.830065311512,0.000331328
4.834121855088,0.000352097
4.834553416899,0.000341328
4.839187812237,0.00302138
4.845474922844,0.00133661
4.847409396128,0.000354269
4.857267771852,0.000613185
4.857408089774,0.00202434
4.859636269818,0.00913702
4.865272613471,0.00035951
4.879030744968,0.00176308
4.879857032132,0.000357457
4.881664911938,0.000243241
4.882861252892,0.00476262
4.88492441549,0.0016746
4.886415092658,0.000868247
4.888365178772,0.0165949
4.890896550576,0.0144488
4.89102634788,0.0128765
4.89823606429,0.0224692
4.902999229076,0.0003325
4.911620723804,0.000322056
4.912679640588,0.0279773
4.915051150454,0.000356111
4.917040317053,0.000358328
4.927998871886,0.00695009
4.932418732805,0.000242764
4.933418163915,0.000242735
4.935224179733,0.00379518
4.940280845919,0.00241004
4.940366022238,0.00033168
4.944543980524,0.00334281
4.947095162143,0.00035817
4.952453361032,0.000358328
4.968021606641,0.000385668
4.972145332602,0.000354661
4.977857959174,0.00103026
4.978031792012,0.000459747
4.978803268836,0.0041485
4.97959287461,0.00575771
4.987598538347,0.000359223
4.988924462595,0.000341328
4.993262645923,0.00274241
4.999426832185,0.00257383
5.003888849923,0.009023
5.006338986881,0.00622732
5.010943473257,0.000356328
5.013491678021,0.000358828
5.015838179859,0.000354269
5.017655777244,0.00130794
5.017679880746,0.000372454
5.020002401614,0.0041164
5.02748008718,0.000459657
5.031837336734,0.000942406
5.03360867151,0.000331328
5.035123270589,0.000357799
5.036654246728,0.000357578
5.037423684395,0.000358928
5.045328685965,0.000359361
5.046989781793,0.000351328
5.05456102725,0.0078634
5.058377725456,0.000410023
5.058636475252,0.00035536
5.059438465824,0.000337411
5.059968764868,0.000599037
5.060999470344,0.0137223
5.063241935446,0.000345237
5.066341232432,0.00897004
5.072998287847,0.000341328
5.074914816698,0.00024136
5.078163183005,0.000348413
5.078573760785,0.000689327
5.078966271081,0.00206811
5.079576642727,0.00243984
5.091925985887,0.00024136
5.096064206529,0.000243694
5.096371060781,0.00194793
5.097525064377,0.000358928
5.107225627017,0.000353328
5.109835962557,0.00179146
5.114077419354,0.00181018
5.11415978735,0.000322443
5.115815760342,0.00566559
5.117617020199,0.00167866
5.119208830041,0.000355328
5.130160759304,0.000357899
5.138408142982,0.000344185
5.141372363192,0.000711948
5.154800300171,0.000736207
5.159155593472,0.000350419
5.163221552192,0.000344185
5.1641204727,0.000356111
5.16569236022,0.000355873
5.172652857373,0.000349328
5.185809643565,0.000359727
5.186810306675,0.00768874
5.198328218083,0.000354337
5.199819961889,0.00553577
5.201937954014,0.000358529
5.203930649782,0.00327728
5.206193465487,0.000359064
5.214824719198,0.000337895
5.21884782465,0.0113833
5.21902932104,0.000356241
5.222965246867,0.000344185
5.242890792009,0.000358325
5.246331642706,0.00103263
5.247327193108,0.000388143
5.252562375834,0.000375415
5.255380128186,0.0164449
5.25568148402,0.000355012
5.259795292811,0.000355625
5.261980444999,0.0034944
5.264013011594,0.000528794
5.264279800138,0.000358537
5.264540995604,0.000354269
5.265568169512,0.000357692
5.268508193589,0.00179995
5.270022734692,0.00129173
5.271568271018,0.000358251
5.272897230861,0.00024136
5.274981967581,0.000357042
5.279259348278,0.000491193
5.284119164667,0.000356528
5.285714024606,0.000301328
5.287169605872,0.00103216
5.288864507049,0.000321328
5.29194426299,0.000354661
5.293120563759,0.000354661
5.299925031473,0.000560618
5.300631602163,0.000376031
5.301706375547,0.00266108
5.304904676228,0.000331328
5.306049920015,0.000359614
5.309183476345,0.000365378
5.310139265363,0.00358052
5.311292985781,0.000331328
5.314820818665,0.0032009
5.315060928347,0.000356328
5.320904586026,0.00400265
5.322014021521,0.000351661
5.323319488178,0.00259585
5.326164912193,0.000533463
5.327122341103,0.000370861
5.331571443313,0.00807563
5.334539504797,0.00580235
5.336738969419,0.000359865
5.339327668774,0.000358401
5.342866727441,0.00035998
5.347880079675,0.000405434
5.349659889563,0.000359723
5.352528449117,0.00602941
5.354660285005,0.000358401
5.360992006631,0.000459657
5.369068564878,0.00165495
5.369667507964,0.000390927
5.370052270802,0.000355861
5.370368808846,0.00032171
5.370792788554,0.00762643
5.371167664586,0.00024136
5.372140822251,0.000354661
5.376519495759,0.000357995
5.376901038972,0.000358251
5.382061685728,0.000376717
5.383214074206,0.000358629
5.384584677282,0.00698884
5.387927293082,0.000359537
5.391014102614,0.00169443
5.39252626131,0.000350702
5.393099669124,0.00182146
5.397481818286,0.0051152
5.410701705759,0.000356713
5.412611373512,0.00162893
5.414301914018,0.000344185
5.424238617332,0.000360051
5.427739972075,0.00118499
5.434518830264,0.000349328
5.437027326059,0.00104429
5.438079593611,0.00035817
5.439304889757,0.00114473
5.440550788011,0.00186872
5.445758766672,0.000354269
5.447711543166,0.000301328
5.450123586974,0.000999414
5.451427962987,0.000358719
5.45262338238,0.000353828
5.452704561218,0.000367474
5.457008819148,0.00035817
5.461354463154,0.000359392
5.46232808834,0.000357328
5.465985287979,0.000347995
5.466507299402,0.000357042
5.469822233718,0.000648875
5.478260504891,0.000321328
5.483922224069,0.000353828
5.491095710272,0.000607635
5.496718882689,0.000346328
5.512874852419,0.00113648
5.512920754182,0.000357605
5.517035550143,0.00048998
5.517155633203,0.000360742
5.518791264161,0.000715587
5.519998344606,0.000347995
5.523333103105,0.000349328
5.530637419651,0.000359916
5.531936083723,0.000344185
5.538816703458,0.00211168
5.541676442395,0.000358975
5.542670834425,0.000344185
5.548899101381,0.00368486
5.551398727249,0.00165925
5.55186152663,0.000351328
5.559360652445,0.000395653
5.565769728469,0.000402695
5.570093644865,0.000361965
5.572246427521,0.000437144
5.574185242179,0.0141126
5.575198243829,0.00224775
5.577694100853,0.0233219
5.586395546195,0.000347995
5.588281933667,0.000804131
5.593746592651,0.000356713
5.596700183371,0.00253621
5.602272282577,0.000354661
5.607836838566,0.000561593
5.610082885338,0.00537206
5.610819140902,0.0055797
5.614476705958,0.00186545
5.616605244551,0.000395231
5.616667708551,0.000421527
5.617312002623,0.00127648
5.624406566384,0.000447527
5.625981566141,0.00024136
5.627971912619,0.000344185
5.628931536239,0.00117281
5.63113411421,0.000358975
5.632379629528,0.000358975
5.633761439909,0.000355328
5.63406697429,0.000352097
5.639061457143,0.00363171
5.642331579135,0.0015183
5.642912285411,0.00478341
5.650903520253,0.00103042
5.652270065277,0.00279332
5.657688202959,0.00122138
5.661879274089,0.000341328
5.664172237196,0.000321328
5.664637502227,0.000358661
5.66596407371,0.00024136
5.675351166304,0.00114815
5.677349188958,0.00024346
5.677919252954,0.00214367
5.679633631445,0.000345386
5.681496116682,0.000510515
5.683062620109,0.00202278
5.684941303036,0.000570171
5.685611015785,0.000698821
5.686313018457,0.000702774
5.686823260567,0.000463022
5.69204400033,0.000478052
5.695654310755,0.024992
5.696027150876,0.00120432
5.696463765816,0.00285334
5.696762725017,0.000322826
5.704051341783,0.000365604
5.709138318493,0.0116773
5.711151810709,0.021973
5.714101656863,0.00429789
5.714741281357,0.000442404
5.715383829493,0.000727961
5.715657856317,0.000412835
5.720153004545,0.0508244
5.723030713045,0.0537097
5.728038299817,0.00661225
5.730085837281,0.000356111
5.731033179157,0.000321328
5.731077216994,0.000358775
5.732701298707,0.000322291
5.734948881793,0.000321375
5.735478019299,0.000345959
5.735714343861,0.000353789
5.741595503071,0.000388549
5.745684182316,0.00392909
5.746950724039,0.000338521
5.748080463862,0.000338373
5.750207131315,0.00119275
5.751439085203,0.000673814
5.753322635811,0.0165329
5.755268188363,0.000321885
5.760316831371,0.000404406
5.762579664905,0.00159085
5.762875692759,0.000323248
5.764923813857,0.00213043
5.767149126067,0.00300218
5.767164758067,0.000355977
5.768640785661,0.0372154
5.768787449422,0.0116463
5.775465316612,0.000845371
5.778385553816,0.000331328
5.783178968813,0.000357457
5.78681051153,0.000337328
5.792877536856,0.00024136
5.792887916871,0.000351328
5.809613177709,0.00217225
5.810459874581,0.000358625
5.814199332633,0.000321648
5.819644940303,0.011821
5.819712028887,0.00424055
5.819840692605,0.00473959
5.820326419056,0.000358775
5.820609218297,0.000405725
5.821608866811,0.000359064
5.823665291126,0.000358879
5.824066940996,0.000301328
5.825649808734,0.000331328
5.840148477671,0.000688902
5.843530180313,0.00024136
5.84523978007,0.000356884
5.845345047944,0.000321328
5.847977495275,0.000353828
5.848738773146,0.00024136
5.849863578803,0.000358251
5.856124657195,0.000362431
5.857454011365,0.000345238
5.857597710029,0.000406364
5.858090818951,0.000872211
5.860488462499,0.000378599
5.861368678339,0.000392072
5.865372766989,0.0022336
5.866038710963,0.00501731
5.866891374377,0.016237
5.867702719703,0.00578703
5.869905506841,0.000469283
5.878573053195,0.0212028
5.882704324419,0.00216298
5.885176094539,0.000377364
5.888257092781,0.0105863
5.888633621883,0.000353828
5.888673086047,0.00872112
5.896611924336,0.000354269
5.898702943353,0.000358251
5.912200319832,0.00492084
5.916500724925,0.000358975
5.918022412618,0.000301328
5.921560677119,0.000243283
5.924038351023,0.000567241
5.935134279895,0.014592
5.936551328997,0.0168416
5.942408095534,0.000321328
5.944274883103,0.000357457
5.951308902098,0.00298621
5.96729529197,0.000321742
5.973811178042,0.0042666
5.97449432253,0.00044965
5.977015687696,0.00171958
5.979267379454,0.000304854
5.97941237279,0.0161102
5.990454742262,0.000628643
5.99066472042,0.00439066
5.990668075012,0.00024136
5.991640797244,0.000351405
5.995177906104,0.000354694
5.996432824944,0.000983395
5.997720024416,0.0348931
6.006621656259,0.000356528
6.019587051322,0.000338717
6.026612129456,0.00727006
6.028391898839,0.00115237
6.028953663117,0.000395538
6.029873879477,0.0188225
6.035290455318,0.000384614
6.035709533434,0.00342286
6.03582597768,0.00215578
6.036355938578,0.000360573
6.037646478732,0.00191758
6.042876354297,0.000358828
6.043521563808,0.000358661
6.048391797768,0.000359106
6.05605409216,0.000353328
6.057661525123,0.000344185
6.061886570632,0.00035719
6.064951630107,0.000357328
6.066337138807,0.00136562
6.066427966141,0.000344837
6.078683082904,0.000358537
6.088251493516,0.00126626
6.089757249919,0.000331328
6.091632072346,0.000358719
6.092275045029,0.000356528
6.092605569867,0.000358401
6.094950775614,0.000468147
6.101411516852,0.000466902
6.101988467054,0.00209768
6.103025197054,0.000394715
6.10451503597,0.00636788
6.10630422142,0.000243636
6.107242986568,0.00547476
6.109695739922,0.000354661
6.112252144793,0.000355328
6.115078218688,0.000331328
6.117290335495,0.00144699
6.11838629628,0.000358085
6.126978038796,0.00339375
6.127250521061,0.000301328
6.131216013066,0.000356439
6.13265921349,0.000380463
6.134262687724,0.000379953
6.134405995538,0.00480798
6.134828889585,0.000358328
6.14245454894,0.000357864
6.148062121393,0.00833402
6.149400668282,0.000337328
6.149989385115,0.000353828
6.152580682154,0.000874482
6.160510440184,0.000344185
6.167069682029,0.000358879
6.169289870332,0.00024136
6.172872327594,0.00167259
6.181131644571,0.00158526
6.183298962257,0.000344185
6.188077796558,0.00033319
6.193402482334,0.000375002
6.19475301071,0.00489789
6.195901216856,0.000351977
6.200194987574,0.00342866
6.202652383098,0.0183783
6.206145650812,0.00155494
6.213030212758,0.000352097
6.213494084447,0.000351328
6.216384230895,0.00159739
6.216884014467,0.000356713
6.223311648663,0.000355328
6.223716434201,0.000458444
6.226240564995,0.000353328
6.235281116089,0.000983646
6.237681537695,0.00024136
6.243601785523,0.000357578
6.250165181712,0.000357799
6.251913557459,0.000354661
6.258341949591,0.000357457
6.267001260476,0.00136807
6.268669933354,0.000356388
6.268694165171,0.000331528
6.269708512076,0.00794163
6.27198180246,0.000380816
6.274032499655,0.000346328
6.280587418363,0.00035817
6.283651476214,0.00024136
6.298495500512,0.000356713
6.299257052359,0.000341328
6.299562404271,0.000357995
6.303294159622,0.00073742
6.306970071694,0.0015416
6.3290777793,0.000357799
6.337361478336,0.000361989
6.339106717184,0.000378718
6.340631546244,0.00391771
6.341038592938,0.000359933
6.342039757904,0.000355328
6.346563198914,0.00037009
6.354039914122,0.00673858
6.355551344662,0.000800171
6.355731811468,0.000304438
6.356052056316,0.00444103
6.360471973172,0.000332573
6.363461822016,0.00627902
6.369235415218,0.00574417
6.373474465936,0.000518359
6.377352334512,0.0242281
6.38241878555,0.0317585
6.383956730642,0.00036691
6.389411659012,0.000357243
6.403372233822,0.0576604
6.407544424954,0.000426064
6.407675384954,0.000555694
6.410202100358,0.000639695
6.414434116468,0.000511832
6.414975203126,0.00680403
6.415148570246,0.0107897
6.419928790856,0.0675066
6.421431612546,0.000366954
6.422069026712,0.000425011
6.423065624738,0.000338148
6.424733204594,0.0188304
6.42595592997,0.00889523
6.429708415699,0.00372731
6.436306478153,0.000337328
6.436608587186,0.000354269
6.442140894889,0.000354661
6.442894183517,0.000355012
6.44365469891,0.000357692
6.443908546811,0.000356328
6.447277624857,0.00137664
6.447847371379,0.000359706
6.448175198477,0.000356111
6.450228988744,0.000353328
6.452782029786,0.000358879
6.453588716861,0.00104303
6.456541470807,0.000344562
6.458664387641,0.00035237
6.458898607767,0.000321328
6.460687511027,0.00525802
6.462077499631,0.00033863
6.463508785535,0.000365919
6.465795182677,0.000362493
6.468441312045,0.00738197
6.468504668212,0.00035841
6.468715881701,0.000372629
6.470217410009,0.000484553
6.470732663527,0.000345409
6.475837783501,0.000397717
6.479409048173,0.00323038
6.485574380027,0.0286927
6.486770422393,0.000331328
6.488714897764,0.000357328
6.496760907597,0.000321391
6.497706982373,0.00389709
6.505221800973,0.0022817
6.509177104509,0.000391379
6.509439447177,0.00420199
6.510820666725,0.000355667
6.512173392565,0.0108011
6.520026849668,0.000358775
6.534027482553,0.000359106
6.535708914986,0.001133
6.535721037784,0.000356737
6.551492031918,0.000359589
6.56548672056,0.000359865
6.566870567416,0.000354269
6.57685065848,0.000392122
6.578369310888,0.000389126
6.57842656941,0.00292566
6.584840095542,0.0124624
6.585870129658,0.000847797
6.589685387338,0.000372919
6.595824138058,0.0068979
6.60019607949,0.00307189
6.602815278086,0.000303132
6.605925849154,0.0100467
6.608110466395,0.000356328
6.611441049883,0.000358719
6.614910520527,0.000332849
6.616002147863,0.00427796
6.618638520575,0.000359654
6.619420826769,0.00170895
6.623575310425,0.00155615
6.628109670612,0.000344185
6.632878757093,0.000358661
6.646919425585,0.000359916
6.649438001776,0.000353328
6.65333941966,0.000818686
6.653589532084,0.000301328
6.657095691786,0.000357233
6.657646802098,0.00035779
6.659397588113,0.000301597
6.660581877446,0.000377358
6.663417911596,0.0017884
6.667061668602,0.0107927
6.668362804902,0.000408684
6.668860470792,0.00163478
6.669882975328,0.00672325
6.674445150185,0.000358251
6.690934043735,0.000948471
6.692293749431,0.00207888
6.699349962763,0.000347995
6.70143510141,0.000359361
6.703025392413,0.000357042
6.706636569783,0.000301328
6.708659836425,0.00178782
6.716403246055,0.000341328
6.718086389901,0.000301328
6.719274016473,0.000352097
6.720157204535,0.000620978
6.732973275322,0.000356528
6.736829473823,0.00156828
6.739616696534,0.000321328
6.742209167641,0.00224146
6.748515947775,0.000444797
6.748601860795,0.0003586
6.754239303925,0.000358975
6.758285030874,0.00114375
6.759595634496,0.000515452
6.761069809659,0.000347995
6.763941037226,0.000358251
6.768034107412,0.000514239
6.771566683659,0.00320014
6.774906630421,0.00401018
6.775170160916,0.000358471
6.782042494342,0.00384982
6.782520522769,0.00024136
6.783949683781,0.00035817
6.788321551156,0.000355576
6.78885037526,0.00387162
6.799156220111,0.00076653
6.805103698018,0.00437866
6.805604783742,0.000355267
6.806261975612,0.00410018
6.808509633441,0.000334033
6.809954387115,0.000322053
6.815905833987,0.00775663
6.821454308075,0.000358328
6.823506030823,0.000353828
6.82442852172,0.00035902
6.825956474883,0.000321328
6.826229540724,0.000321328
6.83958389257,0.000358085
6.840779843723,0.000358537
6.846768608727,0.00340588
6.847758980923,0.000355328
6.862935699387,0.000331328
6.872200990545,0.000358975
6.874240868144,0.000358661
6.880602079668,0.000357899
6.882368577907,0.000341328
6.886647433854,0.00303638
6.890099274272,0.000379712
6.892055110124,0.000381391
6.895005787414,0.0116248
6.895465450374,0.000301552
6.895864298626,0.00036696
6.896534060206,0.00505177
6.905059575517,0.000358775
6.905763637631,0.000357042
6.90617203321,0.000353828
6.911481109763,0.000357799
6.924385750524,0.0128898
6.926460959744,0.00125257
6.93956753991,0.000463822
6.940130261069,0.000301713
6.940569960778,0.00552199
6.945248116446,0.000536037
6.947568621836,0.0316637
6.948856768806,0.0307932
6.951992361072,0.000482413
6.956743373018,0.000361556
6.962967394524,0.022057
6.965560594166,0.0361376
6.965942669636,0.00427602
6.968658182076,0.000397492
6.970505660838,0.00456676
6.971514855056,0.00032197
6.971566977662,0.0149242
6.977499394928,0.0589547
6.978992718226,0.000488356
6.981492547734,0.0513543
6.982104884588,0.0288145
6.985278996797,0.0261063
6.986855816197,0.00156735
6.988907918919,0.00643075
6.98943067337,0.00185018
6.994322341357,0.000464509
6.999035572235,0.000434185
7.001026688415,0.000358879
7.002404261795,0.00131114
7.005637116475,0.00024136
7.005859705861,0.000354269
7.017849811797,0.000358661
7.019816193846,0.000355068
7.01983803747,0.000449953
7.022278989734,0.00271307
7.022702921028,0.000322285
7.023060649946,0.00144049
7.024663176429,0.000359563
7.025914357899,0.000341328
7.032508869806,0.00175265
7.040811864987,0.000521317
7.041878705307,0.000857384
7.043896748333,0.00367024
7.044465524427,0.000385695
7.045335457533,0.00134631
7.046702427919,0.00035635
7.048372626681,0.00317408
7.048920801533,0.000359106
7.051287566096,0.000355328
7.05977635126,0.000384043
7.061839058384,0.000391824
7.063678902044,0.00768846
7.065570349318,0.00315584
7.066422135146,0.000323376
7.067260966106,0.000375292
7.068340608106,0.013085
7.072554185102,0.00421127
7.075182141929,0.000331328
7.0792574642,0.000352757
7.081684590417,0.000355614
7.084715056834,0.00249375
7.096098471285,0.000562757
7.101455455538,0.00384133
7.10205737741,0.000715399
7.102154394394,0.000359134
7.103001924257,0.000331328
7.106414118976,0.000400223
7.107006667504,0.000357692
7.107433731242,0.000359064
7.108737445955,0.000321328
7.109962045795,0.000562757
7.114695527987,0.000358975
7.123934908525,0.000352882
7.124906454999,0.00343496
7.128202731218,0.000355012
7.132125508376,0.00140575
7.137237816705,0.000358186
7.13791559244,0.00413119
7.148426140312,0.000360091
7.149078743448,0.000356111
7.149307614916,0.000341328
7.150977021377,0.000353864
7.151304815688,0.000899953
7.152532695823,0.000715587
7.152881895342,0.000396584
7.163160084257,0.00125171
7.169339930069,0.000353828
7.173427074316,0.00441502
7.17749840638,0.000341328
7.188218874597,0.000357457
7.192620727496,0.000347995
7.193152685687,0.000359054
7.196439783853,0.00354176
7.196523847853,0.000773097
7.200175582657,0.000396655
7.201649502341,0.000384742
7.203187687347,0.0076011
7.205165972361,0.00837284
7.207091424819,0.000904145
7.209893258681,0.000554285
7.211730363015,0.0131938
7.213717016774,0.000357995
7.220436881422,0.000401436
7.225388099696,0.000390519
7.227826718322,0.000504536
7.228399078148,0.000359728
7.230465868679,0.000321328
7.231275409319,0.000355328
7.23686599901,0.00145669
7.242062333728,0.00180117
7.24411414121,0.000380834
7.248784609114,0.000432309
7.25096136809,0.00767057
7.256843310961,0.000354661
7.25841720045,0.000352097
7.267567694642,0.000694967
7.273993075388,0.00147731
7.275720310374,0.000796854
7.276704183784,0.00024136
7.28097946048,0.000358251
7.282889609828,0.000356328
7.284285168477,0.000358251
7.289035334695,0.000350946
7.289573222857,0.00064714
7.290509525228,0.00149672
7.291661416787,0.00644308
7.297498752903,0.00520738
7.300472595587,0.00733402
7.307609794712,0.000432972
7.309567402562,0.000321328
7.313319260031,0.00240521
7.314725247672,0.00150521
7.318890555833,0.00378675
7.330004868548,0.000356328
7.33990682111,0.000356111
7.367485919853,0.000342202
7.367756417965,0.00488567
7.367924623148,0.000331328
7.36924588898,0.00122138
7.369451912725,0.000321328
7.376704506008,0.000358328
7.377000248534,0.000359064
7.377385283727,0.000341328
7.379472158715,0.00054679
7.385285196185,0.00681178
7.397430548815,0.00832556
7.398637272523,0.000301328
7.401576530247,0.000353828
7.401595211475,0.000352757
7.404584152831,0.00320215
7.409371579178,0.00176357
7.410894695029,0.000770169
7.412829751836,0.00024136
7.422540777683,0.00069618
7.4286842765,0.000355614
7.44386531386,0.0032009
7.459380738599,0.00024136
7.473529969643,0.00607799
7.481660711416,0.000370877
7.482081662891,0.000635195
7.482761222764,0.000323018
7.485744641295,0.000355509
7.493737002508,0.000448203
7.497660517658,0.00035391
7.50299321853,0.000427015
7.505776285816,0.0293603
7.50722087811,0.0111212
7.512907004147,0.00315117
7.517122173441,0.000358471
7.51829847537,0.000595885
7.518739626208,0.00183122
7.524618178412,0.00671686
7.529756306546,0.000354661
7.5353232109,0.000358775
7.537248147171,0.000355614
7.540696661081,0.000372155
7.543747258715,0.00646852
7.544865729881,0.000355282
7.546281303376,0.000332351
7.547638306413,0.00533421
7.54839398955,0.000380816
7.552957724699,0.00180801
7.553030721615,0.000342598
7.558370087629,0.00924254
7.560156324125,0.000331328
7.562458698368,0.00035817
7.572413979738,0.000468142
7.572732115656,0.00407256
7.575236858502,0.0128401
7.576356780008,0.00776352
7.577906539436,0.00266933
7.583721087867,0.000341328
7.585371123655,0.0014664
7.590462940688,0.000355873
7.605703578857,0.000331328
7.60627159044,0.000358661
7.611686513319,0.000358719
7.614213952559,0.00100548
7.619796673247,0.000358401
7.62270050164,0.000656153
7.624952135374,0.000870843
7.625447588442,0.000355328
7.625721228945,0.000358401
7.628578766784,0.000356884
7.633926422791,0.00108432
7.645703584682,0.000341328
7.65776424405,0.000930277
7.658066284583,0.000358975
7.659442313546,0.00103095
7.664117573017,0.000452379
7.668626160431,0.00052273
7.686554794266,0.000352757
7.700639063332,0.000344185
7.709724270253,0.00284828
7.713855292447,0.000345232
7.721944268347,0.00314433
7.722417530877,0.00427143
7.729877158343,0.0285791
7.730627979903,0.00883477
7.731412334228,0.000887824
7.732018479107,0.000353828
7.734754506811,0.00184847
7.735349477486,0.000350419
7.736605112144,0.000491193
7.744554720635,0.000357692
7.753505051005,0.00126141
7.754217068744,0.000356111
7.75539812201,0.000359361
7.76546899094,0.00121908
7.766284369304,0.00289402
7.768292352914,0.00048998
7.769425372155,0.000356328
7.77445434595,0.00153432
7.777109268581,0.000358719
7.777489965016,0.00035817
7.777507923601,0.000301328
7.777968951688,0.000337328
7.778561415959,0.00035817
7.7875684275,0.000341328
7.792539005557,0.000357858
7.795962970944,0.00833345
7.796560270686,0.000353654
7.799978915522,0.00526197
7.806415181342,0.0100284
7.806788334788,0.00448213
7.81133425791,0.000355873
7.816831004699,0.000401436
7.819496361266,0.000904805
7.823975673589,0.000977581
7.826727682694,0.00046087
7.832568354807,0.000358828
7.833328884625,0.000352757
7.834793181497,0.000331328
7.838883474999,0.000347995
7.839300396235,0.000353828
7.83938496462,0.000355328
7.848249965517,0.000358537
7.84853066147,0.000359392
7.85561350376,0.000352757
7.863959995874,0.000356713
7.865842196474,0.000301328
7.866728349341,0.000358775
7.872589199262,0.00128688
7.877376182854,0.00227233
7.878739372534,0.00513036
7.88017942518,0.00254129
7.884324140355,0.000356528
7.885028977049,0.000359684
7.890468814161,0.00291343
7.89095310275,0.000350419
7.89508301766,0.00035817
7.896817725747,0.00105642
7.907481654367,0.00342772
7.90942572458,0.00172233
7.915397533789,0.000771382
7.916002255254,0.000358328
7.92374852863,0.000375964
7.927791884278,0.00248041
7.930677159327,0.000352757
7.933059595037,0.000357692
7.933189846881,0.000360472
7.939147743819,0.00625137
7.939985443731,0.000323503
7.940866805149,0.000367542
7.941176140953,0.000359954
7.949817764159,0.0105495
7.950907992309,0.00038807
7.953530359445,0.0122201
7.956899910221,0.0135413
7.957609398557,0.0113662
7.958783492739,0.0151796
7.9652247629,0.00182785
7.972286945419,0.00093998
7.973153735814,0.000358928
7.981424739485,0.00033462
7.982088229509,0.00464425
7.983517083411,0.00674753
7.993143945283,0.000358775
8.005185214647,0.00464793
8.007319957923,0.00415758
8.008849484935,0.000352097
8.021352085242,0.00160292
8.022684184812,0.000383748
8.024375961408,0.000389758
8.025187876788,0.00437081
8.025315205476,0.00159384
8.030238864729,0.000356713
8.032311947439,0.000358661
8.035249318763,0.000344185
8.048443118747,0.000331328
8.054083132702,0.000710941
8.05792427377,0.00429803
8.074777417704,0.000321884
8.075503950702,0.00325909
8.078684301923,0.00238823
8.085567128843,0.00280548
8.090103814123,0.000584589
8.090687451725,0.00035719
8.099431495464,0.000775035
8.100779409414,0.000352972
8.104404894034,0.011854
8.105190287926,0.000429954
8.105749351256,0.000348526
8.106039865842,0.00715466
8.10993707665,0.000360372
8.111324725988,0.00960484
8.11207770637,0.0141501
8.12539755762,0.00328338
8.133063198271,0.000377461
8.134766324469,0.000961412
8.135361741261,0.00398294
8.148535423237,0.000507209
8.152605401697,0.000361675
8.154094149457,0.000343966
8.154703087543,0.000333272
8.156609770401,0.01027
8.158341816063,0.00755113
8.158979522621,0.000388164
8.160613570743,0.00036224
8.168688282339,0.000343592
8.171703411123,0.0435198
8.174363273961,0.0102654
8.181804746151,0.0442171
8.187984370999,0.00041563
8.188396939017,0.000371042
8.188566765473,0.00121423
8.189219323919,0.00966057
8.195559531795,0.000354661
8.208895245098,0.00528753
8.220732940504,0.000344809
8.222534153434,0.000354069
8.228509971714,0.000410679
8.228637107708,0.000337414
8.232842288806,0.000457251
8.23381932466,0.0178746
8.234632006058,0.0346353
8.23587311277,0.0193579
8.239718491202,0.000337328
8.239862470836,0.000360902
8.240221320295,0.000358328
8.244225766211,0.00034281
8.244976386885,0.00194062
8.24538820337,0.000358775
8.249613135692,0.000362628
8.255279838951,0.000358085
8.260176115619,0.000356328
8.265132714974,0.000354661
8.26595274853,0.000337328
8.268143933721,0.00104085
8.272034674227,0.00550909
8.272294878801,0.00024136
8.273282079539,0.0011413
8.274408001722,0.000569212
8.276285301204,0.00273146
8.287080553647,0.000351328
8.294411386477,0.000357799
8.301687584797,0.000976998
8.304701094949,0.000357925
8.306465743341,0.000353796
8.310439361747,0.00905324
8.315226860029,0.00036665
8.321090209133,0.0112605
8.322977982587,0.000341328
8.336952549698,0.000355012
8.344658508625,0.000351328
8.353901315582,0.0025447
8.366283586178,0.00402812
8.37137510408,0.000354269
8.377395559231,0.000379603
8.383442184188,0.000321328
8.388444900463,0.000355873
8.389901541414,0.000344185
8.390061448557,0.00024136
8.39362122954,0.000331328
8.402506497775,0.000353828
8.406713998053,0.000356528
8.411401921884,0.000344185
8.413237909349,0.000358085
8.422705247527,0.000352757
8.426610226015,0.00109281
8.431239872537,0.00419429
8.439488308275,0.000341328
8.449847095737,0.00318072
8.450625582707,0.00531262
8.45494077678,0.00105157
8.462910709443,0.000354661
8.465164461527,0.000358661
8.480099526881,0.000341328
8.491502079093,0.0025168
8.497880716431,0.00036845
8.505992865525,0.0139815
8.506309916251,0.000358879
8.511060413547,0.00035719
8.515715523036,0.000353328
8.518753756021,0.000355012
8.523095134534,0.000355012
8.525302845392,0.00041146
8.530734644012,0.000499655
8.53115351663,0.000243684
8.531825609738,0.000365635
8.53458205956,0.00499663
8.536544489172,0.000242672
8.537336101257,0.000540992
8.537441861257,0.0131062
8.537461061257,0.000455038
8.544541881147,0.000390797
8.544856332079,0.00827219
8.544997749,0.000355328
8.545703325311,0.000352765
8.551424883589,0.0266783
8.552813069974,0.00119106
8.558664656875,0.000358471
8.561703090292,0.000352097
8.569423053011,0.000341328
8.570521398876,0.000341328
8.570900365931,0.000350419
8.579987939553,0.00148358
8.581680534773,0.0035975
8.588191325691,0.00140575
8.600406656941,0.00098122
8.607425295649,0.000389306
8.621589479489,0.000354269
8.622004559172,0.000354269
8.62235352525,0.000356713
8.623624517671,0.000553053
8.628620179008,0.00208985
8.62988536709,0.000650088
8.632187052466,0.000358685
8.632528716766,0.000492318
8.633281062453,0.00246831
8.634061187832,0.000321328
8.640628778216,0.000355328
8.644739049537,0.00381222
8.648003743919,0.000359436
8.648230996099,0.000372927
8.658677536315,0.00316595
8.659878356099,0.00229999
8.662047553795,0.0173922
8.664586253386,0.000354269
8.666669963056,0.000541797
8.66988848733,0.0038692
8.682012430357,0.000374836
8.690290829585,0.00979076
8.699829733409,0.000352757
8.702631996914,0.000357457
8.703491340005,0.000337328
8.704410586535,0.000341328
8.709356534785,0.000358775
8.714789178229,0.000354269
8.71851478573,0.000359995
8.722003407917,0.000331328
8.72386335087,0.00024136
8.725168451165,0.000355614
8.728107642551,0.000360051
8.72961138362,0.00138634
8.73037333115,0.000341328
8.733759327909,0.000371119
8.733773727909,0.000522486
8.735231876665,0.000870843
8.741338084814,0.000243556
8.748888085868,0.00227807
8.75505174561,0.00852196
8.758262559218,0.000447264
8.760649905962,0.0214769
8.760657725352,0.000322688
8.763880213505,0.000354353
8.764405469164,0.000643754
8.765894575445,0.00992345
8.765942545634,0.000349417
8.774866309061,0.000331328
8.777694339144,0.000351328
8.778689482714,0.000357042
8.790025382513,0.00225849
8.791415469355,0.00413243
8.793921048673,0.000331471
8.806879735166,0.000398317
8.813275625754,0.0202232
8.813533983746,0.0101138
8.815272954517,0.000356884
8.816969535281,0.000357457
8.819266098139,0.00169807
8.822139588548,0.000357995
8.822389045808,0.000359684
8.822853655963,0.000526368
8.842102480555,0.00113959
8.843824359573,0.00291828
8.845897500722,0.000358775
8.856935192255,0.00035719
8.858711178733,0.000388093
8.862831012743,0.00418216
8.866324658974,0.00176645
8.866364762494,0.000355112
8.8703000664,0.000337328
8.870348975327,0.000321328
8.871418716919,0.000359392
8.878760380898,0.000344185
8.884143237623,0.00035719
8.890562640935,0.000355012
8.891279131551,0.000430546
8.894251830082,0.000363835
8.90684900782,0.000355045
8.908173353244,0.000358363
8.913701894846,0.000352542
8.914307134044,0.00840431
8.920850942855,0.000357692
8.927971673928,0.00723872
8.932740199761,0.00178176
8.935253365113,0.00115086
8.935741943907,0.000340444
8.941036244755,0.00798716
8.942169795174,0.000357692
8.962447428234,0.000595506
8.96572372315,0.000977581
8.978123491031,0.000354661
8.983654040912,0.000357799
8.989713888586,0.000331328
8.992750094474,0.000344185
8.994814475159,0.000355873
8.995308809941,0.000358471
8.998128853375,0.000788375
8.998360485349,0.000356715
9.001080142082,0.000331328
9.0043112085,0.000353328
9.007120205925,0.000360091
9.008802086812,0.000380459
9.010613634926,0.000387492
9.011342151102,0.00188521
9.012576955842,0.000594591
9.015269621358,0.00753591
9.016532049373,0.000358332
9.017892978747,0.00166653
9.022991812094,0.000358928
9.024068431006,0.000359563
9.035043703336,0.000359828
9.036125682639,0.00123354
9.040146213225,0.000357692
9.044845822695,0.00202114
9.048095018841,0.0080402
9.050177245195,0.000349035
9.052557318897,0.00242308
9.053531059779,0.000362274
9.054393040887,0.000357065
9.054868915255,0.00850584
9.055699767045,0.0090305
9.058471332573,0.000243484
9.062134577499,0.00041883
9.063071957543,0.00933656
9.063201440858,0.000354703
9.066066342131,0.00133603
9.073907708131,0.000448752
9.074441898357,0.00154892
9.076808353333,0.0162082
9.077021849416,0.000331328
9.079223804625,0.00160831
9.081271193006,0.000353328
9.085345321392,0.000397833
9.088563591306,0.000363201
9.092684089782,0.000337619
9.094432936484,0.0119291
9.105789583698,0.000366385
9.106392383394,0.000494346
9.106511318422,0.000622545
9.107481788062,0.000395751
9.111182779224,0.00581884
9.116407984911,0.000356713
9.135810830691,0.000301328
9.136245995879,0.000359882
9.143589679729,0.000356528
9.145079594318,0.000359392
9.155992169242,0.000618552
9.160263753457,0.000357692
9.163360811596,0.000876908
9.170038115085,0.00102489
9.170697605618,0.000764104
9.177207710402,0.000909657
9.177426872088,0.000358842
9.179580079121,0.000966665
9.184535029422,0.000346328
9.186279315767,0.000359995
9.195411859846,0.000321328
9.204386256435,0.000357042
9.207671842144,0.000358879
9.209466117844,0.000487554
9.213749238347,0.000801705
9.227185925259,0.00634847
9.22934246995,0.00114133
9.230153245078,0.000397797
9.232366490735,0.0015927
9.234318246212,0.000499797
9.23464833586,0.000383242
9.238196453076,0.0010694
9.24027274171,0.00281927
9.246589682274,0.000365976
9.24763823968,0.000302906
9.24802579474,0.0171884
9.249020584931,0.000346328
9.251063262549,0.000303742
9.252065747373,0.00181448
9.254484942757,0.00035902
9.254851319091,0.000350419
9.25552126601,0.00024136
9.258198328292,0.000356481
9.258427524989,0.000355707
9.259388642464,0.0004351
9.260544120582,0.000338695
9.264001029084,0.00296205
9.266079254148,0.00208341
9.268122458828,0.000322025
9.270231277538,0.00040986
9.271342831128,0.0149238
9.277437142732,0.000359749
9.283607395809,0.00298319
9.283725129111,0.000373401
9.284414590143,0.00360399
9.286549715201,0.000722871
9.292306083202,0.00163985
9.294768622049,0.000343284
9.297310707211,0.000332543
9.298945730771,0.00658251
9.302884007778,0.00035535
9.303840102892,0.00177566
9.30508553349,0.000358928
9.310923686285,0.000357523
9.311769087207,0.00563645
9.314555389455,0.00157556
9.320321913123,0.000566446
9.323473971629,0.00538901
9.326707055986,0.00035817
9.332759508147,0.00332789
9.333785281843,0.00495481
9.336506485333,0.000948215
9.337632037713,0.00647111
9.341258557295,0.00251036
9.345646693553,0.000365147
9.348502702077,0.000367444
9.351975329123,0.000332627
9.352300123207,0.00711064
9.354534451773,0.000333217
9.354768986963,0.000433771
9.358374988713,0.000242119
9.3594129694,0.000344128
9.362014977527,0.0233046
9.366698979707,0.000361615
9.368495573115,0.000340344
9.372636575447,0.000355644
9.374700424283,0.000464636
9.382071435921,0.000639828
9.382262451415,0.00422575
9.386480989485,0.0129689
9.387590841383,0.0358456
9.389863907767,0.000364419
9.390644824979,0.000382815
9.391957443841,0.000362194
9.397848407613,0.000388463
9.398481766747,0.0336459
9.400690541981,0.0209269
9.402786507859,0.000360348
9.405966945549,0.000355096
9.407220953507,0.0637794
9.40894805369,0.000321328
9.410150148307,0.000631021
9.412146517287,0.0024731
9.415733503019,0.00640184
9.42383285984,0.00182906
9.426944332318,0.000301328
9.427284330628,0.00024136
9.432257529258,0.000358537
9.433631428575,0.000301328
9.434238607002,0.000355012
9.445211906009,0.000942406
9.445860714068,0.000301328
9.447546708485,0.00103338
9.451614896835,0.00391168
9.461148816815,0.0032385
9.464711056061,0.00162408
9.467142367282,0.000358085
9.47072008455,0.000356328
9.471444815143,0.000350419
9.481292241845,0.00283761
9.482159854894,0.00035663
9.483260186793,0.00428439
9.495863562954,0.000301328
9.496090060458,0.000355873
9.498107090906,0.000337328
9.507665564272,0.00702485
9.509643069242,0.00451485
9.516031306775,0.00194278
9.518493540373,0.000402399
9.520891751683,0.000381579
9.522441817617,0.000412728
9.532599682195,0.000552528
9.532618914195,0.000605547
9.533629593389,0.000435888
9.533756032459,0.000416234
9.538777803477,0.00470106
9.539051914527,0.0158496
9.541523861381,0.0159756
9.541664575127,0.0280635
9.542974567229,0.000498702
9.544121974577,0.0224328
9.545369175761,0.000358471
9.552905947625,0.000353828
9.571108568332,0.000436611
9.577110975406,0.00137057
9.586724525727,0.000435057
9.590856360937,0.00347913
9.590887592937,0.00413306
9.592790269751,0.000356705
9.597620147293,0.000599746
9.601110000601,0.000336128
9.603893521319,0.000364067
9.604089531661,0.000355525
9.606528017345,0.00046411
9.610831978721,0.000431529
9.611989792839,0.00462763
9.614128394313,0.0304197
9.617471182229,0.000355171
9.619393583375,0.00526152
9.624048759025,0.010634
9.633082781111,0.000727965
9.636543162041,0.000351441
9.638267936019,0.000373531
9.639031040139,0.012766
9.644994233825,0.0433958
9.647281505877,0.000302723
9.655162699499,0.0115166
9.656896310575,0.000603493
9.658069376449,0.000321989
9.658263586151,0.000386386
9.659512778425,0.0167859
9.666793623286,0.000244058
9.668281103301,0.0249995
9.670759346955,0.000391793
9.672757508069,0.000427068
9.673462729499,0.0288292
9.676987523401,0.0334802
9.677550302955,0.033672
9.678577622667,0.000322442
9.679341642461,0.000377716
9.680592304793,0.0105626
9.683732867963,0.000355328
9.687554643732,0.000344185
9.687844627991,0.000357042
9.69297301471,0.00203579
9.698691690728,0.0081121
9.70024494506,0.000410231
9.70276957142,0.0120691
9.703917865272,0.000351328
9.710017796589,0.000355012
9.710315608417,0.000380816
9.715379947475,0.000358928
9.716246288516,0.000358471
9.72140043096,0.000682837
9.723956224205,0.000342094
9.728286211979,0.000360024
9.730518001035,0.00691485
9.732284312877,0.00151855
9.734079419227,0.000358328
9.737238573293,0.00311842
9.743917247016,0.00199538
9.746744460284,0.00329305
9.747817672058,0.00024136
9.753969024331,0.00405359
9.764136494406,0.0022172
9.764258690304,0.000358158
9.76782133473,0.000392669
9.772216100552,0.00721812
9.782121348106,0.000357799
9.788482356578,0.000337328
9.793653553272,0.00476801
9.795053252943,0.000353828
9.795769145612,0.000337328
9.797824305011,0.000414986
9.800259884515,0.000355518
9.800708364852,0.00037404
9.806676311631,0.000680842
9.807110702353,0.00121096
9.813068685809,0.0163796
9.815777131425,0.0132392
9.816275651141,0.000347618
9.818349764439,0.00263319
9.818979292199,0.0129994
9.822039662267,0.00298383
9.823376205387,0.0133
9.824831593067,0.0003768
9.826107707345,0.000978534
9.828035042839,0.00481502
9.833067525623,0.000357042
9.839716115232,0.000353328
9.846055737262,0.000359964
9.853653930172,0.000356884
9.865129988638,0.000354707
9.865404038922,0.000359525
9.86992486609,0.013209
9.875732714431,0.000358401
9.887173307778,0.000341328
9.888440302764,0.000331328
9.892068039108,0.000348486
9.899751971536,0.000351802
9.900078264796,0.00867
9.911890078228,0.000352097
9.912538619947,0.000391732
9.914023620482,0.000634169
9.914444670918,0.00189301
9.914968852997,0.000362549
9.916068807838,0.00342286
9.919239429968,0.00455752
9.921439560207,0.00035429
9.923483190803,0.00356111
9.927377701743,0.000358828
9.927956575207,0.000769611
9.935082868681,0.000358719
9.937328102602,0.000301328
9.938867425782,0.000352757
9.939639648213,0.00035902
9.945792964283,0.000679199
9.952361889922,0.00034285
9.955075215364,0.00363267
9.960488329139,0.000243261
9.960780183825,0.000357251
9.961147702497,0.00341703
9.967997633135,0.000367474
9.972341716149,0.000354719
9.973224584813,0.000353473
9.973751771153,0.0187507
9.974757287965,0.000347995
9.977791759437,0.000321328
9.978301392976,0.000243409
9.982321836904,0.00446071
9.985849173122,0.000387065
9.987695478578,0.000333424
9.990895192158,0.00909487
9.993357219369,0.000321328
9.994706858144,0.000354661
9.995793566352,0.000355012
9.997349948109,0.00035719
9.998040825695,0.000661005
10.003019507098,0.00068405
10.00458703117,0.000355328
10.006380478526,0.000355012
10.006690975578,0.000354661
10.013970951285,0.000356528
10.01459076103,0.000389306
10.015127348109,0.000358828
10.015549790328,0.000357457
10.017221837181,0.000354661
10.021810065969,0.00106976
10.028058629049,0.000358775
10.031936293008,0.000358879
10.0350489696,0.000359589
10.040050009993,0.000617339
10.044090857846,0.00024136
10.050869961971,0.000357042
10.057152643716,0.000356713
10.057208035829,0.000355328
10.059756552273,0.000355328
10.063348076843,0.000341328
10.063804925924,0.000347995
10.067105445616,0.000364248
10.07137795433,0.00202753
10.072728577318,0.00443206
10.074715399564,0.00931044
10.083275979799,0.000351807
10.089188799314,0.00753618
10.092295159408,0.00618843
10.093582686958,0.0125078
10.094845179226,0.000358375
10.103222240924,0.00043199
10.104102305178,0.0104385
10.10445005881,0.000355318
10.106539088858,0.000366439
10.106893303368,0.0108747
10.109422909101,0.000355012
10.117798798444,0.00317906
10.121179030673,0.000359789
10.128218407605,0.000352856
10.133752593593,0.000433585
10.134074457603,0.00251447
10.136983050927,0.00975313
10.139665040551,0.000497258
10.141940267175,0.000351328
10.147279544967,0.000357692
10.16481693733,0.000355436
10.16660552751,0.000407136
10.16803843933,0.000483419
10.169302335388,0.00780394
10.174378005829,0.00225159
10.178151820837,0.0011547
10.181258560583,0.000472935
10.181776909895,0.0114695
10.184831071655,0.00178136
10.187613673779,0.000376008
10.200993488827,0.0227581
10.201613272541,0.0161395
