time,CharnySim1.flowGenerator3.flowSynSize:vector
0.000035799454,36
0.000576253407,803
0.001217047206,1
0.001500019188,6
0.001590324473,4884
0.002511842106,21
0.002932967341,7
0.003122349812,16
0.003252197519,5
0.003394863436,33
0.003449681214,12
0.003530090141,32
0.003753089125,18749
0.003936963553,27
0.004316005556,33
0.004385400178,506
0.00467182495,64
0.005118108298,37
0.005443076793,22
0.005586821296,2260
0.005931630562,5026
0.006159162099,588
0.006285921064,53
0.006675666998,14
0.006728034867,41
0.006733271022,19574
0.007208120864,16
0.007313401607,2896
0.007505270402,2
0.007580844935,59
0.008066158735,510
0.008646253686,36
0.009028088764,3999
0.009303595044,43
0.009574153013,87
0.009807290544,39
0.009984908131,7
0.010694023613,14
0.010999683844,1190
0.011414625032,5197
0.012070678133,1349
0.012241774199,774
0.012419767632,22
0.01261048697,5
0.012640144289,1389
0.012691139021,52
0.012866044348,626
0.013630084937,4
0.013804194066,2
0.013853492856,19
0.014269111798,2634
0.014330378317,2862
0.014343597407,10
0.014431439208,3
0.01453810712,1917
0.014780009106,1926
0.014802104922,3226
0.014937263966,5
0.015019290483,6584
0.015046682919,510
0.015171893266,126
0.015308551638,37
0.015331262068,2897
0.015434890948,516
0.015953917745,36
0.016318510006,57
0.016357729253,6090
0.016539378322,14
0.017143005664,624
0.017319673183,20
0.017692070067,23
0.017858311434,7
0.018245010326,595
0.01886129224,1223
0.0205652872,2026
0.020628241008,36
0.020660128211,1
0.020726735285,2
0.020897072989,1001
0.021220356531,262
0.023100597988,457
0.023470710264,988
0.023478740792,20
0.023562527256,19
0.023878285873,15050
0.024316777945,41
0.026170862085,15
0.026178462275,1262
0.026298818321,5
0.026584801518,4
0.026689976608,41
0.026880911454,44
0.027642182051,5
0.027793412176,20
0.027914218396,3743
0.028522124622,20
0.028730507338,3494
0.028783231397,6
0.028892903333,6
0.029946591072,53
0.030482585006,1
0.030760494152,4
0.031428207098,554
0.031906833746,4137
0.032380395706,15
0.03298989827,3831
0.033129098402,18
0.033780400479,20
0.034028502953,48
0.034209129959,116
0.034288655417,3
0.034301968008,95
0.03477246602,104
0.034882253978,208
0.035060741821,7
0.035806486765,6026
0.035839123047,122
0.037578390336,18
0.038617482075,666
0.039754876964,16
0.039992524708,5
0.040545990293,58
0.040960261157,36
0.041837832429,637
0.042040635679,5712
0.042190686576,48
0.042415082718,36
0.042478686293,66
0.043579223308,3
0.043823687232,1104
0.043891709579,61
0.044142019392,3
0.04432483365,474
0.044428689057,7
0.044921366524,52
0.045093152758,1283
0.046510604909,5457
0.047252445451,2
0.047685738808,118
0.048345318616,2996
0.048372726228,66
0.048679463072,3496
0.049109115302,7
0.04924431689,41
0.04951895954,7
0.050086550449,3177
0.050086670448,31
0.050184598776,1482
0.050253835615,34
0.050864535077,63
0.051757043295,9
0.0522953838,413
0.052380327143,29
0.052827767629,27
0.052849422372,101
0.05285752632,4644
0.053091315926,1006
0.053556467515,336
0.053699548283,840
0.053715249353,6
0.054286471502,3000
0.0543070917,615
0.05493105752,260
0.054971040707,388
0.05516438209,1007
0.055425379159,28
0.055664795113,27
0.055952992562,1089
0.056331638382,18
0.056567108951,28
0.057829399715,1019
0.057924736976,3252
0.058191455658,38
0.058785754529,1
0.058860980188,2961
0.059238700623,472
0.059537927279,6421
0.060371164139,49
0.060532813922,250
0.060552609298,4
0.060718108488,6
0.060987856214,1247
0.06198294454,3
0.062342901561,42
0.06267439373,5690
0.062801619481,28
0.063886854239,109
0.06481090789,35
0.064893866863,31
0.06490807614,5326
0.064980390891,16
0.065285387554,1087
0.066366535478,3495
0.066447861015,1144
0.066550120339,104
0.066919772712,21
0.067436296889,1
0.067639870031,1152
0.067787403037,225
0.068501138636,8
0.069683291725,24
0.070200016856,109
0.070491505105,53
0.070528956264,1
0.071120874329,3053
0.071534172028,727
0.071644789998,28
0.072117742122,45
0.072872252198,3740
0.073072121837,258
0.073142664386,1098
0.073285716472,44
0.073431368423,1
0.073528102306,18
0.07417429209,4736
0.074696452288,1968
0.075096226182,619
0.075340007255,78
0.076030874409,4
0.076309704073,10
0.076414859665,45
0.07718580418,7
0.07824834543,952
0.078333221268,18811
0.079117579734,13
0.079524758756,4886
0.08048572566,650
0.080684643259,44
0.081535723596,3
0.081859874741,16
0.081991895198,1037
0.082473344344,50
0.083037625643,1026
0.083258823145,14
0.084098139508,3
0.084572882498,4430
0.084802811949,744
0.085030661123,52
0.085292030475,6
0.085522790543,10
0.085644651027,1
0.085927985874,33
0.086095616797,2
0.086510730036,5
0.086618345451,2
0.086720663151,51
0.0876623231,17
0.087731326084,5
0.087986910385,20
0.088254357718,2534
0.088641468838,64
0.088750524526,16
0.088838297387,80
0.08917880715,19
0.089207942488,6
0.089330942761,16
0.089379583937,2174
0.089394795609,19
0.089464486289,5
0.089731744687,118
0.08976692404,100
0.089984353178,6556
0.090589049426,37
0.091122534866,89
0.091198892038,30
0.091310500546,6648
0.09144288525,1
0.091828039347,1594
0.091899654123,20
0.091906190006,16
0.091937513682,1346
0.092262608396,783
0.093044163771,1476
0.093528074648,203
0.093625467222,32
0.095154101374,38
0.095462601692,1013
0.095561063891,38
0.095719445646,981
0.095719685644,84
0.095785825323,2605
0.096048795645,38
0.096107761095,7
0.096169332097,29
0.096250470387,3
0.096951620273,8
0.097570952223,6
0.098087143023,2
0.098276056167,5105
0.098572198557,5
0.09918230182,4115
0.099210806074,1214
0.099270027852,16
0.099834390568,221
0.099939994877,2
0.100026589824,754
0.100519291935,88
0.1006479981,424
0.100866858889,1
0.101294235727,6
0.101299546473,4
0.101333409513,20
0.101349686346,29
0.102140597277,6537
0.102285659772,97
0.102436364961,19
0.102605641082,14
0.102908465757,4
0.103737381161,17
0.103754729593,7
0.10436427941,9
0.104397069402,13
0.10452880883,959
0.104580400191,113
0.104737300338,30
0.105117486313,3
0.105416644313,16
0.105748793548,5177
0.105827582063,940
0.10610198808,2270
0.106126837668,20
0.106236896002,48
0.106380883271,6676
0.106428227505,14
0.106458915985,240
0.107375396184,8
0.107580002607,1913
0.108078891426,1063
0.108147094024,3194
0.108954210953,11892
0.109342343793,1
0.11044277035,406
0.11059836296,4
0.110798739508,2
0.110958526492,47
0.111221463803,1611
0.111753037557,168
0.112053756733,1084
0.112161422725,98
0.112362509513,42
0.112828431357,23
0.11307122269,56
0.113804596471,5
0.113957003338,7
0.113958923322,111
0.114410914419,31
0.114474207104,51
0.114548635865,78
0.11474652647,15
0.115018963389,969
0.115394645501,503
0.115737417548,43
0.11589672625,18
0.116019198036,14941
0.116158997669,4117
0.116406324189,6
0.116408040913,3
0.116771872436,1095
0.11729657588,30
0.11837108131,15
0.11849053266,292
0.118602258315,4
0.118994458849,15
0.119217626251,5
0.119718428365,1019
0.120077859212,9
0.12081789009,3
0.121489122362,28
0.121545945099,18
0.12172739112,5
0.122894374827,1429
0.123377755044,7
0.123497572967,13
0.124232539389,344
0.124319559614,4811
0.124587704284,107
0.124807761991,53
0.124967617481,258
0.125310683951,2127
0.125481821353,18
0.125671831261,4515
0.126447363169,24
0.126709405385,3
0.126841741933,854
0.126997082179,901
0.12727090123,53
0.128065774839,1148
0.128106844438,9
0.128327954575,913
0.12851325276,598
0.128625233588,1
0.129087706697,3706
0.129271326447,4856
0.129525596684,38
0.129870048901,16
0.130251814079,858
0.130677398445,223
0.13162751499,1043
0.132127610555,34
0.132399914172,5668
0.133218771673,84
0.133441034237,14
0.133948311111,5723
0.134057594566,4534
0.134658150283,1
0.135079884237,4077
0.135255342655,356
0.135379994111,33
0.135566291001,20
0.135714598433,47
0.135819552648,4589
0.135993090521,9
0.136266504928,157
0.136969575425,2
0.137168532326,76
0.137555802543,42
0.138621941273,4581
0.138880587108,1501
0.139587789431,4226
0.139978786215,30
0.140382563541,33
0.141362317422,183
0.142069989101,2
0.142266179825,6346
0.142368132027,10
0.142417114952,28
0.142601332238,6
0.142745997851,4
0.142771605754,7
0.142888649135,50
0.142929888905,631
0.143567920046,1
0.143655729798,1
0.144205398113,43
0.14543246776,25
0.145466825874,1
0.145811309475,1876
0.146038273249,45
0.14605986555,11
0.146320229222,5618
0.146560679552,6254
0.146671414146,5
0.146808282306,25
0.146887380788,50
0.147369806337,6
0.148358489075,1524
0.148367829969,3048
0.148557426938,59
0.149040644696,26
0.149055563334,19
0.14920437128,28
0.149800053681,5244
0.149892730905,113
0.150469769995,3259
0.151421925821,17
0.151688652548,2910
0.152162140012,2229
0.152625338189,2
0.154062993524,3591
0.154144379818,43
0.154573490897,38
0.154882928288,6464
0.156065526692,73
0.156568034487,27
0.156737078769,108
0.156760420482,1325
0.15689155614,20
0.15697899107,6
0.157293100076,48
0.157707922672,133
0.157868788265,22
0.157923073293,1
0.158360087215,5717
0.158955495861,126
0.159286517462,15
0.159291246902,39
0.15946281434,17
0.159790157112,5850
0.159810586384,1481
0.160136202397,23
0.160298469783,16
0.160449385374,2610
0.160940992809,1636
0.161069319223,3192
0.161698754368,109
0.162218284802,70
0.162286499162,12
0.162505292349,13
0.16309626399,121
0.163138063273,1253
0.163230691889,198
0.163618293689,3
0.163978664986,3
0.165317961275,1
0.165680357037,37
0.165773435207,3
0.165919152809,556
0.166398011503,34
0.167378728224,107
0.167392434089,4220
0.167560107817,1
0.168182804643,2684
0.168410275662,31
0.168601880821,1242
0.168618931785,17
0.169107104137,4
0.169326309467,159
0.169540472491,8
0.169543117617,9671
0.16982823124,14
0.17016361651,1911
0.170301570752,105
0.170349788091,37
0.17061506189,8349
0.1716160638,284
0.171619936507,27
0.171714753739,20
0.171860742766,667
0.171887205149,119
0.172129810812,654
0.172360944205,1001
0.172600038128,4
0.17306148947,2
0.173339433233,2500
0.173833911117,1034
0.174294768047,1263
0.174438732736,657
0.17454506445,1
0.174699634094,24
0.175123648615,3359
0.175124128611,18
0.175124371809,2623
0.175352375655,511
0.176043255339,44
0.176064644669,42
0.177461697398,28
0.177508947192,31
0.177870784498,17
0.178121298403,35
0.178337960959,2
0.179079462691,34
0.179111048055,56
0.17917177635,23
0.179450463542,6
0.179916459483,251
0.179966403121,90
0.180050339577,38
0.180296687979,10
0.181235677179,37
0.181393113142,549
0.182015344858,586
0.182039951884,14
0.182091757026,8357
0.182174051147,19
0.182478763528,38
0.184006318075,1
0.184235589508,26
0.186045212473,15
0.186349659615,1318
0.186794706079,2
0.188350884591,2934
0.18951654209,468
0.189516662089,4994
0.189586233294,1214
0.189644042492,3517
0.190014158699,52
0.190028195173,19
0.191052594169,1
0.191176271469,17
0.191830869258,20
0.192490217038,2432
0.192558757396,66
0.192564082244,53
0.192992167953,1377
0.193003567938,12
0.193036518712,102
0.193087821815,2532
0.193158478519,4
0.193236151417,2
0.193288731229,888
0.193435355973,52
0.194200729583,41
0.194443166621,1140
0.194901334229,1
0.195005511409,98
0.195257601275,3
0.195705701536,44
0.195996937408,26
0.196109370993,1569
0.19625476436,327
0.19630054931,4
0.196534665234,1153
0.196808336795,31
0.197058452291,705
0.197080324899,4
0.197278988571,16
0.197331889237,2
0.197384832945,11
0.198151635564,19
0.198856476489,12364
0.199390578858,4
0.199635090019,1571
0.20002960186,456
0.20005243047,605
0.200065804677,2636
0.200068695066,99
0.200112364536,12
0.20015638337,2833
0.200403221212,9
0.201381311773,53
0.201565529679,44
0.201775917174,27
0.202151460544,3519
0.202220122736,45
0.202357038604,16
0.20247845293,125
0.202835510726,2274
0.202957165064,2109
0.203176131466,22
0.203904164279,7
0.204574608207,4110
0.204887900277,66
0.205015142227,44
0.205376114909,3793
0.205663777964,18
0.206832319504,15
0.206920414195,5
0.207299988413,40
0.208108320218,13
0.208348276385,46
0.208476475341,49
0.208638747085,25
0.208946746752,858
0.208983650025,1
0.210093943545,14
0.211133897646,50
0.211826260765,17
0.212282940855,524
0.212573520437,3
0.21260311435,2367
0.212994639394,36
0.213008690448,8
0.213228741369,223
0.213318564596,161
0.213342861598,16
0.214324561429,23
0.214568585395,5
0.214989226119,52
0.215348052725,3144
0.215404818274,1270
0.215822256359,46
0.215824967024,15
0.216292672759,8
0.216393397831,14
0.216568026446,250
0.216706384579,563
0.21712309175,70
0.217185817311,8
0.217468399579,423
0.217573780998,51
0.217743390266,7
0.217946107751,7
0.218160254431,1011
0.218513784331,15
0.218545880663,3
0.219057083541,52
0.219913884487,1
0.220221961405,769
0.220300034934,3315
0.220343375524,1236
0.220425321052,14696
0.220858026996,22
0.221175234436,24
0.221254360306,33
0.221606988853,4
0.221734951384,2792
0.222663397606,27
0.22274903906,2228
0.222805450524,63
0.222911506965,1
0.223471960332,265
0.223574013095,14
0.223779186736,2666
0.224339461688,5706
0.224518653435,268
0.224618323126,1862
0.225082290666,23
0.225333166017,2416
0.225683899606,5
0.226082312022,3
0.226485196277,407
0.226889644604,823
0.227383146426,691
0.227555902123,1062
0.22788788381,188
0.228603373052,35
0.229416845325,1331
0.229519092771,696
0.230713016469,2
0.231044309248,117
0.231400870519,1135
0.231795999994,21
0.231868562717,879
0.232156368824,18
0.232457545351,6646
0.233063920503,22
0.233099845596,18
0.233744972213,16
0.23378336668,306
0.234393940249,27
0.234439056219,520
0.235582779167,1193
0.235820492218,51
0.235979200348,1311
0.236140258925,41
0.236386385563,215
0.23677271197,1219
0.237584165311,3
0.238437331742,41
0.238548229347,21
0.238984640428,7
0.239228306087,28
0.239866182974,81
0.240244166013,67
0.240370455446,36
0.240673772234,6573
0.240745375939,3396
0.240918298141,329
0.241281614278,14
0.242336844932,72
0.24313883443,450
0.24336258925,53
0.24445471208,7
0.24457123116,6479
0.244607270044,1515
0.244813409848,43
0.244894808625,28
0.24494191686,15766
0.245336098056,2
0.245402652252,58
0.245477134832,8774
0.245810821906,9
0.24646786801,3080
0.246644195227,108
0.24737932134,971
0.247720037863,2
0.247890415995,22
0.24823994683,29
0.248650012731,46
0.248939991119,841
0.249002732997,16812
0.249008979345,628
0.24926701762,17295
0.249317880371,1439
0.249517174423,4167
0.249602499358,619
0.249628587498,2581
0.249853138451,47
0.250149192759,12
0.250899372412,40
0.250986598439,2162
0.251032551353,83
0.251553671487,113
0.251636583114,18
0.251805704642,47
0.252031568285,14
0.253172915536,19
0.253564237354,15446
0.25361779873,17
0.253652330855,16
0.25386310765,18
0.253958671483,383
0.25471152014,1002
0.255100321353,43
0.255149921681,14
0.255268716989,3
0.255647897031,51
0.255759236025,4340
0.255937035054,2931
0.256196549228,44
0.256723281712,15
0.256935490031,834
0.257344227165,1325
0.257506121049,21
0.258005979529,20
0.258297424022,48
0.258906994477,2
0.259017717452,14
0.259398821104,126
0.259490541569,4
0.259657385816,9
0.259740714693,31
0.259821854684,2211
0.260455025248,50
0.26084054191,1000
0.260894925309,1251
0.261257320845,51
0.261310272602,66
0.261445105464,15
0.261817015585,3505
0.261998193276,921
0.262379125138,18
0.262433838655,1413
0.262481343638,2
0.262761378055,93
0.262815562995,6164
0.26303863439,730
0.263194281337,6
0.263472297083,44
0.263594610216,30
0.264304874625,4
0.264741527859,5598
0.265106743928,15
0.265635343493,50
0.265714383429,18
0.266335071986,4
0.266365631453,637
0.266597896799,43
0.266722482109,38
0.267284230793,29
0.267509073703,5
0.267723912723,1654
0.270043998299,314
0.270071296834,3
0.270654509974,1393
0.270969278642,32
0.271300141835,650
0.271399450207,43
0.271593212765,1109
0.271630284312,26
0.271726693549,905
0.272194313729,19
0.272369171897,38
0.27257786419,2251
0.27266538983,3793
0.273524676853,434
0.273620599686,1689
0.273670163677,1814
0.273735061442,275
0.274321100767,1
0.274349203167,7
0.274763436669,903
0.2747870019,4
0.275628200899,152
0.275686963373,1
0.27598136899,561
0.2772631454,3
0.278358270789,116
0.278465875344,43
0.278760878909,104
0.278901450809,6
0.278912666711,29
0.279257356929,2
0.280339299408,1033
0.280587495362,6129
0.281356274878,33
0.281391694439,32
0.281765054721,980
0.282637400336,14197
0.282909171123,2057
0.285324356009,42
0.285821047327,42
0.28630333445,117
0.286610733864,46
0.28680767514,512
0.287180500638,12064
0.287924149354,45
0.288891118387,4
0.289129763055,1397
0.289389782261,34
0.290044180311,1197
0.290682914122,3557
0.292294597143,2
0.292722064165,420
0.292984981616,16201
0.293522802033,2
0.293542407556,1160
0.293851459972,6
0.294050140783,794
0.294331294386,17496
0.294827185658,233
0.295126609132,1
0.295155604508,604
0.29561503595,181
0.295767368818,64
0.295922421602,5
0.296165997976,1
0.296566614477,19
0.297165843195,1175
0.297447847851,5772
0.29799428631,51
0.298190480098,1307
0.298525737986,7
0.298665790185,4
0.298741343959,8
0.298747950304,772
0.298774846161,3591
0.29883482892,3137
0.299155200274,215
0.299155920268,12
0.29917982471,4061
0.299436866743,2090
0.299919848995,254
0.300127036394,646
0.300832155484,82
0.301230523869,3610
0.302678425584,741
0.302903812028,2558
0.303181360117,879
0.303184963287,969
0.303188571621,18
0.303601330135,15536
0.303860970817,34
0.304082891164,104
0.304611283389,3776
0.30501835469,17
0.305252637242,342
0.305433166376,10
0.3063998614,48
0.306713901042,6
0.30673147478,19898
0.307297825791,3121
0.307490920395,1586
0.308155271994,7
0.308290170855,2824
0.308785472879,2290
0.308920586531,18
0.309679826149,388
0.309851388633,117
0.310049196274,1716
0.310421897791,22
0.311307365604,19
0.313552750702,18
0.313645283307,58
0.313664742345,49
0.313999944354,22
0.314098580635,1332
0.314591694871,6
0.314622136302,1149
0.314635475391,29
0.314702345794,12186
0.315018808363,39
0.315198954917,2
0.315335898152,51
0.315696659961,3847
0.316154207809,16
0.31621693647,4335
0.317099040553,2
0.317794952255,2184
0.317871722919,16291
0.318033952968,21
0.318105728273,5186
0.318184201229,780
0.31834579473,47
0.318664092234,401
0.318939910717,3154
0.31948000136,2
0.320860736514,7
0.320870519165,53
0.32309632814,21
0.323100867841,24
0.323989916723,86
0.324022705532,2524
0.324067942767,3072
0.324308506874,52
0.324391487696,3071
0.324803172151,615
0.324807713343,18
0.325005523561,42
0.32541278632,285
0.325688994694,2941
0.32571439969,49
0.325723879691,20
0.326032285749,25
0.326264587988,1
0.326660321729,107
0.32694819637,14
0.32695427689,3228
0.327554151894,22
0.328108534687,52
0.328192592912,1726
0.328856191567,2111
0.329774753735,53
0.329781480079,38
0.330248434621,4115
0.330616302731,9
0.330720685361,17
0.331267573101,30
0.331613018985,5666
0.331671054094,3
0.33231397109,105
0.332894631353,31
0.333228630618,3064
0.333382303743,4851
0.333474290237,2220
0.333655383229,16
0.333720156883,352
0.333925496204,6
0.334055804537,5089
0.33406286387,4
0.334174248193,35
0.334327825373,4296
0.334591814538,16
0.334670169103,28
0.334812951695,22
0.334932004376,7
0.335810309439,10
0.33672935229,2463
0.337330036651,172
0.338200949725,5
0.338576251042,36
0.340601760578,9
0.340776226291,12
0.340781623801,5863
0.340814406836,1661
0.341282307093,40
0.341722931636,9
0.341733489793,17
0.341742607309,680
0.342542696388,2919
0.342692011577,104
0.342880181512,46
0.34298666372,27
0.34362282335,34
0.343812174529,3
0.34389064141,19
0.344157011028,16
0.344738595004,3
0.344936163221,7
0.34496926342,476
0.345206600876,49
0.345979706163,1191
0.34627633777,52
0.346464070506,11
0.346897640191,10
0.346952581886,115
0.348049973629,100
0.348729621971,4673
0.349618274057,5
0.349839945574,42
0.350033060529,127
0.350054438687,1671
0.350086070537,8
0.350286386277,21
0.35091633649,129
0.351363470243,277
0.35136743021,1095
0.351511790808,2
0.351591663923,5
0.351881153129,741
0.351896216261,3408
0.352166079469,13
0.35245697483,3
0.352512209011,4
0.352801546107,42
0.353032744199,31
0.353036587367,23
0.353295755374,9329
0.353796008306,2927
0.353924150592,158
0.354134614032,18558
0.354403213301,10
0.355033444115,9045
0.356077036749,36
0.356312247476,13
0.356467362776,9
0.356518296752,1117
0.356588009875,5963
0.356697207901,308
0.356929229704,266
0.356933436069,3
0.35702700179,500
0.357033251338,46
0.357087058352,1819
0.357146619191,24
0.357149890055,1
0.357285703034,28
0.357306190224,7906
0.358599176576,1144
0.358809257418,11295
0.359149846677,48
0.35932259558,14
0.359569040986,117
0.35959179866,44
0.359671985249,868
0.359825571088,40
0.359906093589,43
0.360331523118,206
0.360824267612,7
0.361403473072,23
0.361665961571,1
0.362154685874,5
0.362538384323,1056
0.362836410159,22
0.362844435532,23
0.363120590153,9
0.363252820371,15
0.363464997709,44
0.363602500043,26
0.363760773501,53
0.363765939858,323
0.363927924596,2
0.364956038968,17
0.365285734565,1033
0.365492041828,44
0.365709249209,6
0.366328617695,7
0.366505794827,2738
0.366612022184,22
0.366663030686,1
0.366683304196,13060
0.366877450734,50
0.367230252327,612
0.367252052907,17306
0.367982039995,528
0.36864231226,1135
0.368733199883,2755
0.369334878228,28
0.369440647408,6
0.369567461413,33
0.369714865577,2
0.369906647749,52
0.370109715111,2592
0.37119250762,1
0.3711949108,42
0.37136370238,4870
0.371454579734,1534
0.371766522861,520
0.371903293752,656
0.371945578945,597
0.372172319491,1025
0.372605169458,41
0.372707416805,108
0.3728588132,8886
0.373392489458,6
0.373543344084,370
0.373820354386,1
0.373956015316,1488
0.373982559583,4038
0.374165368066,5
0.374870260844,47
0.375071981848,25
0.375467942955,2520
0.375562055698,93
0.376146059804,254
0.376235760539,1942
0.376310039739,396
0.376407043769,43
0.37654267951,527
0.378850210294,1591
0.378886970626,109
0.378965514304,17
0.379238251832,19
0.379731094775,37
0.37994368836,89
0.380522582208,516
0.380591335213,1446
0.380763462469,75
0.380887118557,27
0.380931215974,17
0.381294738382,1
0.381601968794,2450
0.381798810081,13
0.382267452442,17
0.38249343077,17
0.382583549891,983
0.382717570515,20
0.382827643799,218
0.383652577202,1159
0.385074109646,18
0.38515511618,38
0.38631363919,53
0.38680353935,1488
0.387504935051,31
0.387885115102,28
0.388179116312,2
0.388284059846,15
0.388836273764,2206
0.388885632871,42
0.388910138771,1116
0.389129074676,22
0.389781948111,889
0.390532905681,9548
0.390744657354,3
0.391022574452,964
0.391495765399,9
0.391533831259,15
0.393182938103,12
0.393608180244,15
0.393731304473,67
0.394898250367,14
0.395195256374,19
0.396137654666,7
0.396531309157,48
0.396906643107,31
0.397168841184,893
0.39731596247,2
0.397621286157,12
0.398502875504,5
0.398977867795,532
0.399099121603,454
0.399206414827,4
0.399345694345,614
0.399428895362,4319
0.399472125055,1332
0.399560348523,10
0.400710706931,16
0.40091020614,591
0.401144578755,14
0.401339958154,143
0.401724880802,427
0.401791756103,52
0.401939914118,743
0.402010536515,81
0.40214658449,4159
0.402773946458,4
0.402995347317,21
0.403440585177,45
0.404226990686,47
0.404335572657,2031
0.404345342068,39
0.405144835272,229
0.406078921777,5
0.406235371099,4451
0.406759413207,708
0.408318361437,2
0.408657600351,46
0.408867793398,4
0.408999846962,6
0.409041192782,31
0.410076860814,1153
0.410275537266,8
0.410746999193,35
0.41079139069,14
0.411074729566,9353
0.411700116721,4998
0.41241397697,39
0.412497712947,57
0.412526705583,34
0.412798231485,41
0.412948705276,7
0.413208183259,24
0.414049484948,863
0.414623977597,26
0.414958254039,12
0.414973919222,3
0.415886825337,368
0.415893729756,41
0.416605352262,1029
0.416931895882,15
0.417262740698,139
0.417270065624,3488
0.417500277922,2962
0.41895558347,1593
0.419175748047,338
0.419177908029,993
0.419393125992,21
0.419428933217,131
0.41978704532,20
0.420215353732,6202
0.420298979032,2
0.42042291942,29
0.420594505672,4
0.420684800249,4680
0.420689603409,878
0.42081328888,38
0.421153498674,26
0.421221125311,3
0.42153904861,1215
0.421828998403,5491
0.421963671691,1274
0.422405327035,4545
0.4224929658,13
0.422545783481,2039
0.422555170864,995
0.423091905826,44
0.423156395966,33
0.423353601888,4
0.423465967823,21
0.423585328251,14
0.424384338397,4
0.424514270079,4
0.426010497325,30
0.426319635622,3554
0.426379958826,3183
0.427019046154,807
0.427055893683,55
0.427604453351,41
0.428007259906,48
0.428152375166,107
0.428572789973,6
0.42877843917,14
0.42919637056,14
0.429319107998,804
0.429333930361,4
0.429906034413,2281
0.43020845077,50
0.430656385753,98
0.430660478293,18
0.430757944258,168
0.430838422181,28
0.431044841537,5
0.431467301821,3347
0.431844040129,3200
0.432057718782,1251
0.432122539405,136
0.432594850402,5
0.433082352839,1227
0.433278299718,11
0.433356967023,1256
0.434178059051,102
0.434202455003,2
0.434404348875,596
0.434545854973,4
0.434548144554,12
0.434613753708,55
0.434654610968,54
0.435033953882,1248
0.435338294898,116
0.436161885642,4284
0.436551860629,32
0.436733167803,7
0.436750602637,13649
0.436793323836,934
0.436950505121,18
0.437163621636,11449
0.437303688538,78
0.437628244932,41
0.438842601749,15
0.438950767563,74
0.439518917039,1062
0.43988684073,2252
0.440101157195,820
0.440455719749,11
0.440468583854,1650
0.440657513816,18
0.441715884577,1
0.441890452519,2573
0.443238510242,4670
0.443254762562,25
0.443327461579,2539
0.444060863879,12025
0.444825391389,87
0.445141851602,698
0.445597070289,34
0.446082952355,396
0.446186552887,1059
0.446282438101,14
0.446535356568,780
0.446672998887,964
0.447813657058,19
0.448408344424,36
0.448415650491,1
0.449139693578,5
0.449547818987,10097
0.450130112809,14368
0.45033570671,18
0.45040047344,4948
0.450780514843,16
0.451000203565,2492
0.451494877358,860
0.451738156127,52
0.451783974906,53
0.451807669675,1963
0.452032756553,714
0.453473352903,2
0.453701963088,1204
0.454027293384,1073
0.454121204414,30
0.454538946845,37
0.455334080652,1136
0.455400150772,11
0.455970819382,1005
0.456042625271,675
0.456414229891,204
0.45657299729,131
0.45680694018,34
0.456923247152,19
0.457360597447,653
0.457549675965,3
0.457596948373,1
0.458261507637,700
0.458580064475,1166
0.45906039151,28
0.459607938269,16
0.45968454964,53
0.459782319214,822
0.459908727284,6
0.459981501735,3262
0.460347742903,5
0.460363123808,15
0.460548177973,28
0.460630118415,21
0.461175772153,11
0.461448381172,3809
0.46151913122,2994
0.46181804723,69
0.461858158162,13
0.462572040022,20
0.462605525036,7
0.46260614218,14
0.462609309282,6
0.462791282498,20
0.462894594907,292
0.463638079085,208
0.464151225649,24
0.464204062963,2
0.46455320416,5713
0.464679839032,43
0.46470420006,44
0.465007540526,41
0.465236974985,4
0.465648854546,1897
0.466233163937,127
0.466490323232,38
0.466511294102,132
0.467567420706,27
0.467656019654,27
0.468429622083,534
0.469168914139,18
0.469539072993,15
0.46988355387,22
0.470123303227,44
0.470765193278,22
0.471163760477,3568
0.471586735651,35
0.472461066097,277
0.472626209047,710
0.472958313288,2881
0.473038846099,77
0.473105387213,41
0.473208917849,42
0.473381715523,1230
0.474198428822,44
0.474293597199,43
0.475369634464,5
0.475436129515,434
0.475473712314,6
0.476045647704,6
0.476162395739,5716
0.476347814065,39
0.476362644388,6
0.476753315831,9
0.476898739818,3777
0.477092011804,163
0.477607841255,1112
0.477891483569,2735
0.477938515377,50
0.478449782259,49
0.479142598389,31
0.479417177134,46
0.479955694319,2192
0.479956809003,5184
0.480237109886,4
0.480376693845,507
0.480527702096,14268
0.480652397669,103
0.481902042883,1590
0.482475993346,52
0.482709541216,4193
0.48285016448,5370
0.48300653115,4
0.483412185497,13
0.483455341689,6
0.483918779389,2293
0.484547491561,904
0.484740939607,17
0.485727253885,96
0.48574032018,672
0.485945784381,6328
0.48652726134,66
0.487903310636,264
0.487990077914,11
0.488170569212,1
0.488261053259,690
0.488495620522,237
0.488644170572,86
0.48877450116,5582
0.489009737772,2472
0.489037887708,2093
0.489740435549,5659
0.490299874349,4
0.491144889186,15263
0.491162107753,3
0.491505115042,23
0.491704031708,40
0.492799882763,5532
0.493241872786,1
0.493341815367,1
0.493498399873,2533
0.49402808316,1788
0.494036600875,4
0.494454396006,2558
0.494709516198,38
0.495245336106,40
0.496802160568,120
0.497214533249,18
0.497786154171,212
0.497803177586,46
0.49786141821,1388
0.497925507935,2525
0.498759853817,57
0.498892446259,6
0.499326262942,2063
0.499942679964,961
0.500364865568,4660
0.500605387049,3253
0.501094347327,24
0.501349167806,48
0.50158381798,17
0.501765817083,425
0.501767140272,37
0.501976583308,2468
0.502748008573,181
0.50318373321,579
0.50336086715,4
0.503512327055,34
0.503665424675,32
0.503742368394,50
0.504532868577,61
0.504698978179,12
0.505432084607,3192
0.505832350886,20
0.505867128045,15
0.505947223864,5
0.505993538857,90
0.506042743658,6429
0.506324114789,7
0.506575553582,5207
0.507299828784,6
0.507491481669,1
0.507816317982,8
0.507849140344,93
0.507890650765,726
0.507931936468,773
0.509192598588,1
0.509606419728,1
0.50963667624,1298
0.509752506393,50
0.510722562702,15
0.510983595232,1279
0.511407736032,645
0.511416006884,3
0.511566211721,3565
0.511761701071,1186
0.511920883005,20
0.513016075926,35
0.513840814294,7
0.514137236008,389
0.51548002969,409
0.515915559346,11
0.516322155215,7
0.516412047267,23
0.51656923601,22
0.517265285737,10
0.518580960137,35
0.518669017876,5942
0.519832819448,17
0.519969984818,4167
0.520193794865,35
0.520381055097,2305
0.520619346548,53
0.521482467366,5
0.521872767237,8988
0.521902919048,23
0.522296524682,7
0.524289076896,36
0.524633160085,327
0.524732354437,53
0.525256226455,31
0.525490089249,12219
0.525568148385,19
0.525979528719,18
0.526186034475,2484
0.526401300969,238
0.526427979983,43
0.526454099555,17
0.526556816941,33
0.52685081833,1286
0.527002272775,867
0.527156827089,39
0.527289723085,1
0.527498196746,28
0.527925934662,207
0.528411916444,25
0.52857140246,2
0.528716960065,653
0.528886450704,3
0.529194426288,18
0.529312056365,18
0.52999250267,125
0.530063279533,20
0.530146623252,1499
0.530490467622,4
0.530604991966,70
0.53091834604,47
0.531001916455,2555
0.531129298577,4
0.531482079913,2441
0.531506092836,24
0.532090456121,3102
0.532201399299,12
0.532307929066,1545
0.532616489566,117
0.532712352082,17
0.53310924982,4912
0.533419009455,3298
0.533673896908,82
0.53393276684,41
0.534286672708,89
0.534788007186,46
0.534965987138,19
0.535228825337,4375
0.535466028463,41
0.536099200518,181
0.536906852508,574
0.536963477283,33
0.537005571461,16
0.537037019117,3
0.537068080984,5042
0.537116766458,1
0.537214082214,18
0.537651949564,36
0.537690103885,39
0.538206165762,20
0.53832140404,26
0.538434447521,5166
0.538792729281,67
0.539101409302,1199
0.539252625485,10
0.539315867276,1071
0.539741003642,3657
0.541070170565,26
0.541261136435,1145
0.541430191397,7
0.542423861686,94
0.542773996584,779
0.543451883026,10
0.543702732075,663
0.543807959345,38
0.543930488313,606
0.544043193977,995
0.544575876661,17
0.544771154316,2
0.545012358196,626
0.545142796275,46
0.545262338238,16
0.545269615146,53
0.545700881899,38
0.546135446296,62
0.546232808836,30
0.546598528794,9
0.546650729928,28
0.546982223102,337
0.547826050488,3
0.548392222407,16
0.549109570785,303
0.549671888269,8
0.551287484673,716
0.551292074955,32
0.551703554849,206
0.551715436392,50
0.551879126102,392
0.551999834457,9
0.55233331031,10
0.55306374193,85
0.553193608368,7
0.553881669111,1543
0.554167644233,51
0.554267083438,7
0.554889907866,2840
0.555139871789,1170
0.555186152663,12
0.555936062086,44
0.556574807763,38
0.557009337252,26
0.557222587646,49
0.557370018553,5360
0.557494756252,630
0.557703545203,12111
0.558639554616,9
0.558828192994,465
0.559374659254,26
0.559670016822,1893
0.560227228246,18
0.560784398339,82
0.56099714399,2264
0.561059834018,2224
0.561447669524,1340
0.561661727401,38
0.561664850575,49
0.561715192402,524
0.562440656501,171
0.562598156613,1
0.562797191257,7
0.562892063217,748
0.563113411415,51
0.563237962947,51
0.563376143992,20
0.563406697417,13
0.563906143357,2527
0.564233390823,516
0.56426817625,2556
0.565090351106,312
0.565215361145,1609
0.565768819648,809
0.566187927408,6
0.566417223719,3
0.566463750195,45
0.56659640737,1
0.567535591807,178
0.567738780835,1
0.567790288754,374
0.567964752672,7
0.568152015591,45
0.568303737528,343
0.568497233784,64
0.568560972983,95
0.568633958117,90
0.568686133122,44
0.569206727188,38
0.569453486734,5634
0.569590271389,133
0.569609610428,405
0.569677041506,3
0.570404724708,21
0.570906720568,2333
0.571019049865,4387
0.571374885785,1008
0.571473740085,48
0.57152949908,110
0.571560655421,36
0.571845092884,12354
0.572051596865,14033
0.572713648281,4510
0.573008583725,23
0.573103317915,3
0.573107721694,47
0.573270129319,3
0.573494886158,3
0.573547458727,6
0.573571419307,14
0.574159305504,37
0.574569458602,1013
0.5746965827,5
0.574808723223,5
0.575024282836,260
0.575145995554,117
0.575266059574,5659
0.57552693599,3
0.576026863392,19
0.57625834052,365
0.576287462377,3
0.576488809153,478
0.576557479609,16155
0.57666145287,691
0.576717307127,16
0.576753814564,3693
0.577546531262,499
0.577838555381,4
0.578317896859,31
0.578681051152,5
0.579287753685,1
0.579288791687,12
0.580961313028,981
0.581045839406,26
0.58142016734,3
0.581857918006,6068
0.581941394101,1100
0.58194617386,1303
0.5820326419,47
0.582056349466,72
0.58216088668,53
0.582366529068,49
0.582406694099,2
0.582564980873,4
0.584014847471,370
0.58435301803,1
0.584523977996,27
0.584534504794,3
0.584797749528,16
0.584873877314,1
0.584986357868,39
0.585612462249,31
0.585745499456,7
0.585756078568,45
0.585799596407,133
0.586050442557,36
0.586138828365,29
0.586539862072,329
0.586566203865,7602
0.586589825996,919
0.586705903969,1163
0.586988068635,80
0.587712515423,10882
0.588270444025,529
0.588520085388,28
0.588687975354,4331
0.588783269496,3116
0.588863362189,16
0.589661192428,17
0.589870294323,39
0.591220028896,3859
0.591650072486,51
0.591802241261,2
0.592156066966,1
0.592406478105,84
0.593489503924,5751
0.593621835982,7432
0.594240809553,3
0.594427488288,31
0.595130888398,2264
0.596729526441,3
0.597381177897,1107
0.597453796251,52
0.597704719286,407
0.597890749957,5500
0.597926389677,2
0.599045236822,101
0.599066117734,1636
0.599066850223,1
0.599163988071,11
0.599517818044,17
0.599645828931,299
0.5996495489,17802
0.600662165603,25
0.601958699644,5
0.602649191787,2832
0.602840018732,375
0.602893340776,42
0.602954846217,11522
0.603529400267,28
0.603561480886,1840
0.60357058842,724
0.603635593582,15
0.603752638889,1184
0.604287635433,48
0.604352156353,45
0.604839179765,54
0.605605409216,15
0.605766152508,7
0.606188657062,29
0.606495163013,30
0.606633713136,927
0.606642795955,7
0.60786830826,43
0.608825148675,846
0.608975724991,4
0.609163207211,46
0.60922750448,25
0.60926055695,41
0.609495077411,188
0.610141389467,53
0.610189614779,683
0.6103027989,35
0.610418426972,3054
0.610630419163,1
0.610664396489,2730
0.610969573981,18
0.61122521448,20
0.611507821868,4
0.611729032753,995
0.611838629616,37
0.612697801799,2600
0.612725052105,2
0.613121600448,20
0.613265919593,34
0.613404453171,3268
0.613424216853,50
0.613482888961,40
0.614245453413,32
0.614794198923,6474
0.614940066828,5
0.614998938512,16
0.615258067797,523
0.616051044014,7
0.616706968159,49
0.616928987032,1
0.617287231814,1181
0.61811316357,1109
0.618329896221,7
0.618807777338,4
0.619340963753,34
0.619469349741,1854
0.619590077563,12
0.6200194893,1314
0.620209917749,10924
0.620614564214,1084
0.621303021264,13
0.621349408445,12
0.621638422194,1119
0.621688401436,26
0.622331164867,20
0.622371643276,180
0.6226240565,15
0.623528111118,613
0.623768153768,1
0.624360178554,32
0.625016518167,34
0.625191355735,18
0.625834194937,31
0.626700122558,450
0.626866986683,21
0.626869505265,4
0.626943304678,5441
0.627198180153,116
0.627403249965,8
0.62805874182,38
0.62836514762,1
0.62984955004,26
0.629925705235,6
0.629956240416,36
0.630329415634,410
0.630697006311,1073
0.632907777926,34
0.633736147544,23
0.633910310407,52
0.634039254806,2585
0.634103859225,86
0.634203975791,20
0.634656319465,15
0.635396886161,2024
0.635557717562,76
0.635573349432,2
0.635595438838,665
0.636048021329,4
0.636340022067,983
0.636923493548,908
0.637347729038,45
0.637683122678,4203
0.638160673289,6102
0.638395743788,20
0.638943233255,27
0.640208709455,17094
0.640751602843,26
0.640765415528,48
0.641022633376,65
0.641444115916,45
0.641475720139,2509
0.641476920129,1289
0.641599786964,19023
0.642143534355,18
0.64216948472,5108
0.642200354349,41
0.642307032948,5
0.642382701132,3239
0.64297083927,2875
0.643630647815,5
0.643660858713,17
0.644214089478,18
0.644289418334,19
0.64436546988,33
0.644390854682,24
0.644727761736,937
0.64478473713,74
0.644817519844,23
0.645022898875,15
0.645278202934,49
0.645352687058,515
0.645654146649,7
0.645866796648,5
0.645892942906,3
0.646038230245,2443
0.646209253587,5
0.646351720906,16
0.646579818289,16
0.646806835783,2738
0.646853428707,32
0.646870065227,28
0.647025400022,101
0.647073231316,7
0.647581315952,53
0.647941078279,1233
0.648435952119,16214
0.648677042239,4
0.648871489778,30
0.649676088999,3
0.649758687947,2816
0.650522174163,827
0.650918565016,27
0.650940556625,1584
0.651082700946,19
0.651189922814,5769
0.652002684961,47
0.653402748244,54
0.653570890892,714
0.653572103327,26
0.655149203191,69
0.656548672023,82
0.656687056736,17
0.657685302862,22
0.657829042223,1019
0.657835645368,38
0.658454793235,8624
0.658587012565,501
0.658968538369,24
0.659570401537,5290
0.660019604769,1164
0.660281521679,2
0.66056977674,6549
0.660811046641,24
0.661144104965,46
0.661491050135,4
0.661588204245,3130
0.661863851584,37
0.66193007383,1012
0.662357530174,1085
0.662810967057,7
0.663287875682,45
0.664691942524,85
0.664943800178,15
0.665333941584,477
0.665358953207,2
0.665709568944,23
0.665764679568,25
0.665939757283,2
0.666057945424,51
0.666341786871,634
0.666603337689,5685
0.666832773034,17
0.666876437397,509
0.666901819505,2836
0.667444515006,39
0.669093404099,391
0.669217605585,1119
0.669934996273,9
0.670143510122,61
0.670302539229,28
0.670663656977,2
0.670865982621,1276
0.671640324605,6
0.671808638989,2
0.671927401635,13
0.672015720202,314
0.67329732751,25
0.673682946506,1095
0.673961669653,3
0.674220915444,1650
0.674851594637,161
0.674860186036,42
0.675423930386,51
0.675828502491,745
0.675959563268,227
0.676106980962,9
0.67639410371,39
0.67680341056,226
0.677156666339,2288
0.677478775481,2761
0.677517016082,42
0.678204247053,2976
0.678252052276,1
0.678394968362,38
0.67883215311,19
0.678873027253,2795
0.679915621664,434
0.680510368184,2300
0.680560476765,17
0.680620132972,1794
0.680850963248,4
0.680995437794,3
0.681566562685,5799
0.68214543081,40
0.682350603083,16
0.682442852161,52
0.682595647487,3
0.682622954072,3
0.683958389245,37
0.684077984342,43
0.684676858784,2610
0.684775898093,20
0.686293569938,4
0.687220099048,51
0.687424086787,45
0.688060207962,35
0.68823685779,6
0.68866474262,1153
0.689009681421,53
0.689203940893,10
0.689441717289,6409
0.689546711834,2
0.689587629601,29
0.689604871213,2162
0.690505957546,47
0.690576363751,28
0.690617203321,16
0.691148110972,34
0.692436875436,5833
0.692649907744,208
0.693956657469,26
0.694015865798,2
0.694039907198,705
0.694525050971,35
0.694691889202,6117
0.694802685786,5424
0.695199519894,39
0.695674859684,16
0.696200930048,3291
0.696413410515,5335
0.696548440665,453
0.696868213836,18
0.697048190693,583
0.697092144926,1876
0.697154164266,3
0.697557237679,9819
0.697900319163,50
0.697978265864,8217
0.698057625919,4815
0.698231213817,5278
0.698651220517,2742
0.698679872564,547
0.698864055377,676
0.699432233987,185
0.699903557095,160
0.700102668797,49
0.700240425473,883
0.700563711646,1
0.70058597058,17
0.701784981152,45
0.701981619343,18
0.701983803645,136
0.702197645015,1626
0.702270453001,3
0.70229224933,636
0.702466317608,68
0.702591435789,6
0.703250885983,1247
0.704081186222,106
0.704184220195,232
0.704372086256,2183
0.704445832267,55
0.704521655508,664
0.704670146726,17
0.704807190803,2071
0.704892080142,54
0.70512875661,20
0.705978831678,22
0.706186567492,37
0.706334543005,2788
0.706533581217,1004
0.706642054326,3
0.706728976033,52
0.706765283636,5785
0.707255415891,3274
0.707518214192,4
0.707925746409,14
0.708168459031,21
0.708471504197,1858
0.709609846915,266
0.710145543178,2969
0.710205737424,386
0.710215439214,47
0.710300192425,4
0.710641411792,132
0.71070066674,33
0.710743373123,53
0.710873744595,3
0.710996204366,266
0.711469552793,51
0.712393489411,12
0.712478635515,2435
0.712820273105,19
0.713212550069,961
0.713723779697,36
0.7137795488,3009
0.714842614001,97
0.714907874342,23
0.714930761491,6
0.715097702073,16
0.715121623893,371
0.715253269268,392
0.715288189431,129
0.716316007758,834
0.716933993007,16
0.717330696799,3244
0.717749840637,6
0.718821887438,31
0.719262072746,9
0.719315268564,45
0.719607587704,2231
0.719646104123,145
0.720018509823,15
0.720168519774,27
0.720203547844,2279
0.720451405307,2618
0.720710154005,269
0.720990571707,129
0.721069862173,6361
0.721371701666,36
0.722043688036,133
0.72253880987,124
0.722782671658,218
0.722839907821,75
0.723046586867,3
0.723127540933,20
0.723686599098,1003
0.724206232343,1287
0.724411173714,51
0.724877257572,59
0.725072234535,5630
0.725684331085,18
0.725841720033,13
0.726756769164,375
0.727399306723,1020
0.72757203067,459
0.727670418377,1
0.728097946036,39
0.728288960984,24
0.728428516835,39
0.728903531261,11
0.728957199646,121
0.729041194524,403
0.72914237414,4172
0.7297498681,2438
0.730031259783,3967
0.730760979344,159
0.730956740255,3
0.731331924575,1785
0.731455297113,895
0.731889053244,2924
0.733000486856,24
0.733990682108,23
0.73674858912,6
0.736772401617,3697
0.73679251917,4
0.736924588251,809
0.736945191272,3
0.737670450604,40
0.737700024852,53
0.737738528372,6
0.737947215318,122
0.738516628799,5120
0.739743049548,6666
0.739863727251,2
0.740157653025,16
0.740159521136,14
0.740454291209,2352
0.740937156913,1256
0.741089469153,437
0.741282975183,1
0.742254077467,376
0.742868427639,21
0.744386529433,2441
0.745938073859,1
0.747352993114,4813
0.748166067818,40
0.748203570969,113
0.748276232201,3
0.748574451093,20
0.749370798704,74
0.749766148371,14
0.750300858317,50
0.750451009845,18883
0.750634607556,4712
0.751290698494,2400
0.751712217335,42
0.751829848562,120
0.751853860181,809
0.752433804623,4811
0.752975630643,18
0.753532321084,47
0.753724814706,21
0.754069663989,30
0.754350706267,4448
0.754486920889,17
0.754628251557,4
0.754716156782,3108
0.754839398862,116
0.755295767524,645
0.75530307042,6
0.755821356807,6514
0.756015632412,4
0.756245869821,38
0.757241390906,42
0.757272296551,1021
0.757504696821,7149
0.757602811981,2510
0.757760813451,1457
0.758372108786,6
0.758537111556,1011
0.759046294057,22
0.760570357885,4
0.760627159017,45
0.761168651308,46
0.761421394751,631
0.761979667288,41
0.762270049889,343
0.762495213121,520
0.762544758845,20
0.762572122857,41
0.762857876667,27
0.763392641722,696
0.764570358468,6
0.76577642395,569
0.765806628452,51
0.765944230833,652
0.766411757161,175
0.766862615856,233
0.768655479415,14
0.770063906329,7
0.770972417974,1073
0.771385522413,7
0.772196094024,792
0.772242331277,1207
0.772927752088,16697
0.773014111143,3529
0.773123281631,386
0.773201847911,16
0.77347544962,1326
0.773534947748,11
0.773660511049,207
0.774455472053,33
0.775350504427,842
0.775421706871,23
0.775539812182,61
0.776546897712,387
0.776616791501,1643
0.776829235126,206
0.776942537217,24
0.777445433741,1067
0.777710926835,46
0.777748996486,38
0.777750792359,2
0.777796895168,5
0.77785614158,38
0.778756842749,6
0.779253897634,30
0.779572519109,6088
0.779656002719,13
0.77994655026,2149
0.780567634834,4905
0.780630400309,1749
0.781133425779,22
0.781683100363,133
0.781949635688,548
0.782397566872,608
0.782672768124,182
0.783256835484,48
0.783332888451,14
0.783479318149,4
0.783888347496,9
0.783930039624,16
0.783938496463,20
0.784824996521,43
0.784853066128,62
0.785561350365,14
0.786395999576,26
0.786584219646,2
0.786672834928,47
0.787258919236,863
0.787737615607,833
0.787851122198,2701
0.787994166272,1352
0.788432414013,25
0.788502897668,73
0.789046879653,2204
0.789095310274,11
0.78950830175,38
0.789681772036,673
0.790748163334,2628
0.79094257148,1222
0.791539753028,438
0.791600225528,40
0.792374852773,112
0.79277918695,1847
0.793067715921,14
0.793305959493,33
0.793318975554,54
0.793898641979,4692
0.793998544044,3
0.794086679726,21
0.794117613266,48
0.794865041014,3222
0.795091103273,24
0.795313917562,2753
0.795639727865,2797
0.795700412362,2410
0.79580757377,3750
0.796522475243,1309
0.79722869408,577
0.797315373536,50
0.798142352876,4
0.798199129353,1749
0.798328937435,3318
0.799314394523,47
0.800518519285,2906
0.800720229959,2288
0.800884948482,13
0.802135207574,1006
0.802268537035,38
0.80243783366,6
0.802462083867,2329
0.802502237361,492
0.803023886462,26
0.803231194716,45
0.803524931872,7
0.804844311874,4
0.805408312922,322
0.805780531676,3097
0.807477740262,3
0.807538385201,2290
0.807868428775,1771
0.808556711192,2115
0.809010381185,284
0.809068745171,29
0.809943504945,122
0.810079557779,14
0.810416375031,6015
0.810522076465,38
0.810546058695,1549
0.810574644886,7
0.810994756566,25
0.811079727319,2921
0.811136078756,4397
0.812539753755,2509
0.813306553315,31
0.81347965987,195
0.81351467819,1328
0.814853489825,52
0.8152615335,10
0.81541146862,6
0.815473302645,4
0.815622255105,2272
0.815793056806,1537
0.815900442461,36
0.816066048769,30
0.81686869695,6
0.816923458672,16421
0.81732805035,3010
0.817927360723,16756
0.818711647662,6033
0.818793346904,45
0.818810964989,318
0.818838389187,36
0.819555953168,18
0.820889511524,2079
0.822074204634,7
0.82225536237,13
0.822851344032,33
0.822864017656,5
0.823285070661,43
0.823330560373,4760
0.823378025366,15963
0.823501304441,5599
0.82397184912,5
0.823986247047,89
0.824022132032,40
0.824422575977,5
0.824485629689,1203
0.824538820331,47
0.824961313488,101
0.825527983883,37
0.826017611563,24
0.826513271486,18
0.826595274852,5
0.826814392324,329
0.827191820248,3848
0.827229487879,1
0.82731619948,545
0.82744079971,122
0.827616641992,1756
0.828708055365,12
0.829441138643,34
0.830168757983,591
0.830470104327,28
0.830646568245,14
0.830997845733,6537
0.831522554309,50
0.832066916831,8539
0.832297798258,6
0.833695254953,19
0.834465850863,12
0.835390130038,1900
0.836628356119,3123
0.837137510402,17
0.837739555831,115
0.838344218418,3
0.838844490035,22
0.838990154137,7
0.839006144855,1
0.839362122953,4
0.840250649778,16
0.840671399783,25
0.841140192184,7
0.841323790923,37
0.842270524741,14
0.842661022039,703
0.843123984645,3260
0.843948830827,6
0.844984706232,1207
0.845052000782,2796
0.845494077143,669
0.846291070933,18
0.846516446125,45
0.848009952688,6
0.849150206407,1877
0.849788067908,49
0.850587269611,11130
0.850630991581,49
0.851106041354,29
0.851571552304,15
0.851875375585,19
0.852309513436,19
0.852530284005,32
0.853074000546,48
0.853118773741,1
0.853185806899,17
0.853438306871,1216
0.853655731516,1
0.853666248012,4512
0.853718439285,51
0.853736421132,32
0.854438171052,3033
0.854451028177,34
0.854499781794,20
0.854570371456,14
0.855049113332,11997
0.85528130637,784
0.855866465678,42
0.856170309017,13
0.856942305301,6
0.857052139887,6
0.857090036592,11
0.857998792642,506
0.858156532007,2074
0.8588191318,961
0.860040665205,611
0.860742529466,123
0.862158947943,17
0.862200455911,17
0.862235352514,26
0.86236245156,258
0.862862016681,1525
0.862988536438,338
0.863218704478,24
0.863252148717,78
0.863316937267,1466
0.863406118782,3
0.864062877822,20
0.864473902597,2945
0.864800372469,43
0.864821673542,37
0.865867384237,1093
0.865973871187,668
0.866156046966,11730
0.866458625333,17
0.866666995982,124
0.866976959854,2694
0.868201242173,38
0.869017068781,7675
0.869982973329,14
0.870263199669,31
0.870349134,5
0.870441058653,6
0.870935653473,47
0.871478917817,17
0.871851478545,90
0.872200340791,4
0.872386335086,1
0.872516845105,21
0.872810764208,94
0.872961137606,945
0.873037333114,6
0.873375932591,20
0.873377372579,214
0.87352318725,520
0.874133807211,1
0.87488880207,552
0.875493161822,3084
0.875825762154,50
0.875982182121,11509
0.876065856581,3
0.876388091465,16
0.876435405824,134
0.876520423691,5386
0.876594245704,10
0.877486630905,4
0.877769433914,12
0.87786894826,28
0.879002536251,817
0.879130504653,2219
0.879392104591,4
0.880687720928,38
0.881291529318,12263
0.881325127882,3988
0.88152729544,27
0.881696953506,31
0.881926608852,1202
0.882213958843,36
0.882238904544,73
0.882285365407,236
0.884210247269,362
0.884370908855,1663
0.884589750067,47
0.885693519224,29
0.885871117775,122
0.886270723574,3102
0.886632464878,1249
0.88663647536,18
0.887030006639,5
0.887034897532,3
0.887141871673,62
0.887876038085,7
0.888414323761,29
0.889056264076,19
0.889127913029,157
0.889425182926,102
0.890684900465,17
0.890817334158,33
0.891370184802,12
0.891394684635,6134
0.892085094275,33
0.892792919367,5671
0.893274018959,1271
0.893525335058,374
0.893574049079,5
0.894102399814,5827
0.894216979507,33
0.896244742589,293
0.896572371828,608
0.897812349092,18
0.898365404087,34
0.898971388858,4
0.899275009443,7
0.899481447504,22
0.899530880985,42
0.899812884975,452
0.899836048154,25
0.900108014207,4
0.90043112085,15
0.900712020563,97
0.900879968113,52
0.90106159879,19
0.901124942291,612
0.901258167445,132
0.901479648245,4561
0.90165320492,37
0.901777289026,978
0.902299181164,50
0.902406843066,68
0.90350437034,80
0.903606621404,671
0.904014621312,33
0.904484578959,719
0.904778155141,4789
0.905018164542,9
0.90525513235,596
0.90535436267,18
0.905403192718,2586
0.905439738656,4
0.905491845908,2761
0.905847115617,1
0.906119897578,5201
0.906209385818,29
0.906320108855,16
0.906606843621,441
0.907387616956,42
0.907435426239,457
0.907539934419,10522
0.907702184941,4
0.90792237956,1128
0.908127119301,15
0.908534410397,50
0.9088563522,26
0.909268402823,5
0.909407262305,9040
0.910578958225,32
0.910643189033,63
0.910652795353,122
0.910748172389,48
0.911070237192,3739
0.91164079848,26
0.913581083068,2
0.913624599562,83
0.91435896795,25
0.914507959412,62
0.915599216674,312
0.916026375335,33
0.916336080739,525
0.917003810991,647
0.917063814007,284
0.917720770598,552
0.91774268677,44
0.917958007433,599
0.918453502942,8
0.918627931549,90
0.919541185984,3
0.920438625632,28
0.92076718417,49
0.920946611621,204
0.921374923464,463
0.922718588497,5036
0.9229342464,743
0.923015324404,130
0.923236647958,601
0.923432423112,104
0.92346234221,40
0.923818558504,263
0.924017343556,931
0.924657729645,14
0.924715478073,10929
0.92476366612,2
0.924902058493,8
0.925106325867,2
0.925194565821,1099
0.925448494264,52
0.925485131908,11
0.9255521266,1
0.925819831854,19
0.925842751611,18
0.925937662651,59
0.926054305076,5
0.926400091951,1120
0.926603499415,742
0.926812241786,3
0.927023118479,60
0.927063677807,8834
0.92774371422,76
0.92836061733,1228
0.928371106629,37
0.928412590199,1354
0.928654971201,398
0.929230607397,1154
0.929476860759,5
0.929731067754,4
0.929870553138,4831
0.930288400533,19
0.930372001398,1067
0.930508553304,50
0.93109236567,22
0.931164897283,4250
0.931455538064,1101
0.932032189939,134
0.932335507282,3947
0.932670705583,38
0.933275707848,1082
0.933368465934,1993
0.933650881594,285
0.93372789735,3255
0.934125853814,929
0.934567068558,7
0.934850989394,19
0.935196917926,1794
0.935197525689,4
0.935457100567,4
0.93547355963,39
0.935838561612,1
0.935943422384,6
0.936085973297,7876
0.936670225433,15
0.936851483464,5
0.937263526929,15
0.937471015609,32
0.93820689173,47
0.938226242157,588
0.938443337908,8433
0.938591145229,2169
0.93898588253,20
0.939067093677,27
0.939199113157,20
0.939664114451,7476
0.939787435409,28
0.939904335897,4853
0.940282286602,48
0.940446914385,19343
0.940596611901,17
0.940894805368,3
0.941015014382,130
0.941204545296,838
0.941550177355,3858
0.942383284936,1310
0.942694433231,2
0.942728433062,1
0.943225752895,43
0.943363142857,2
0.943423860683,19
0.944521190137,579
0.944586071406,2
0.944754670325,654
0.945161487262,3027
0.946114879704,2472
0.946471104693,1141
0.946714236716,37
0.947072008456,24
0.947144481513,11
0.948129222111,1311
0.948216736568,24
0.948302974135,2095
0.949586356294,2
0.949609006034,22
0.94981070909,5
0.950766548354,4672
0.950953388883,2385
0.951603128938,686
0.951849714667,53
0.952090011415,46
0.952245497047,33
0.953260380278,41
0.953262306662,52
0.953366340017,30
0.953378959112,25
0.953874490988,3094
0.953877829464,736
0.954000436868,9741
0.954073311353,3069
0.954262666819,5807
0.954297250937,107
0.954536917567,42
0.955290594763,16
0.957110856703,162
0.957711096795,932
0.958670167527,69
0.959083384891,877
0.959086511265,1160
0.959279055665,25
0.959762280271,146
0.960110902284,4
0.960388274175,12
0.960408955732,15
0.960651432855,53
0.961083958944,36
0.961189225914,1165
0.961234542036,15737
0.961750177245,15
0.961929833449,1347
0.962359691997,3410
0.963307409404,129
0.96365517412,11
0.963829535279,29
0.963870260798,4915
0.964164862978,17699
0.96473214965,2
0.965481931102,1540
0.965691295995,49
0.965710521435,2535
0.965810725873,3
0.965826108145,20
0.96667925191,1
0.966704067832,4063
0.967074907032,22
0.967189384722,4960
0.967274124835,30
0.967493493807,6067
0.967554943524,6166
0.967836813752,3607
0.967857650908,3
0.96793218263,35
0.968373286797,20
0.968755464369,7
0.968784462787,28
0.969297299699,483
0.969857157092,3047
0.970020474188,46
0.970242930264,5890
0.970391786527,12
0.971001779642,19
0.971031560749,116
0.971537994702,50
0.971624628842,42
0.972140042804,365
0.972395622328,5
0.972828618444,37
0.973027780194,5105
0.973228430444,1054
0.973407941926,40
0.973723855431,2373
0.974391723505,1362
0.974662553619,2219
0.974781767205,1
0.975396899918,3144
0.976413648136,1630
0.97642586778,31
0.976782131743,41
0.977209597575,5554
0.978212134806,34
0.978848235657,5
0.979365352341,3733
0.979505325295,16
0.979576914561,5
0.979779498985,72
0.980025986438,19
0.980072171798,41
0.980668926266,69
0.980701760401,174
0.981171894011,7254
0.981510087251,3686
0.981631698788,8
0.981790708664,3145
0.981819104126,625
0.982200634574,1117
0.982240053234,4405
0.982483061169,30
0.982610673191,304
0.982761679822,2928
0.98330675255,28
0.983971611524,15
0.984605573673,88
0.985365393006,27
0.986512993453,8
0.986540398436,44
0.986982509847,10411
0.987573271406,41
0.988717330777,6
0.988844030276,4
0.989206803658,9
0.989975191961,12
0.989983805094,6593
0.991189007811,13
0.991253861894,125
0.991402601037,104
0.991434329925,619
0.991500348458,37
0.991566355196,1131
0.991884031779,2800
0.992143955327,17
0.992336309012,2539
0.992737770178,48
0.992789594368,292
0.993508286845,46
0.993732810259,2
0.993886742567,14
0.99396396481,52
0.994579296138,362
0.995236188576,6
0.995495511421,2598
0.996048830477,1
0.99607801593,23
0.996110952372,1232
0.996800463052,17
0.997234704419,18
0.997293649085,12946
0.997322444011,15
0.997475728793,9
0.997779175943,3
0.997830139165,1
0.998208408385,3171
0.998584912563,48
0.998769542048,4
0.999041479394,6555
0.999335721936,3
0.999470685803,18
0.999579356618,19
0.99973499481,29
0.999804082292,347
1.000301950417,366
1.000458703118,20
1.000638047835,19
1.000669097547,18
1.001397095106,25
1.001459076004,123
1.001512734815,48
1.001554979011,31
1.001722183707,18
1.00218100605,684
1.002805862899,47
1.003193629257,49
1.003504896959,69
1.00400500075,311
1.004409085784,1
1.005086996185,28
1.005715264361,26
1.005720803584,20
1.005975655228,20
1.006334807684,6
1.006380492589,9
1.006710543577,14
1.007138031287,482
1.007263496233,1431
1.007436300474,5100
1.008327633564,12
1.008905108071,2566
1.009217535857,2007
1.00932921566,5145
1.009484517342,28
1.010322940808,50
1.010376919936,4913
1.010447104119,19
1.010638397314,5036
1.010653076991,34
1.010942290893,19
1.011779877906,2423
1.012117903059,78
1.012821840277,12
1.013374175015,40
1.01340413029,873
1.013669039068,6472
1.013966503885,212
1.014194026718,12
1.014727954486,33
1.016481691733,18
1.016660549641,48
1.016799276832,87
1.016894323279,5590
1.017437797708,817
1.01781613485,374
1.018117855577,47
1.018144956567,6378
1.018479220873,619
1.018762793921,22
1.019999269278,9827
1.020091813302,6557
