time,RcpSim1.flowGenerator3.flowSynId:vector
0.00024852956,0
0.000773538783,2
0.00143292094,4
0.002457126236,5
0.003022300723,6
0.003171296163,8
0.003380696531,9
0.003467599598,10
0.003634097794,11
0.003665710354,12
0.003757776182,13
0.004153902524,14
0.004564295218,16
0.004724973879,15
0.005017953627,18
0.005341519109,3
0.005341939586,20
0.005658576785,21
0.006399848651,19
0.006550207398,23
0.006564007283,22
0.006886706481,24
0.006949082403,25
0.007392015533,17
0.007512254531,27
0.007716037522,28
0.007822031421,29
0.00846856015,30
0.008542239536,26
0.008870751461,32
0.009556434274,33
0.009838506411,34
0.010030088739,35
0.010193735349,36
0.010399088212,31
0.010931967422,38
0.01291458738,45
0.013040255041,44
0.013277777723,1
0.013325776378,47
0.013841964102,52
0.013907606755,39
0.014018046358,54
0.014085605795,55
0.014347683611,46
0.014564404804,56
0.014566112608,41
0.014637134183,57
0.015190186007,60
0.01537342768,40
0.015430430405,43
0.015628137286,62
0.015647669549,61
0.01593104177,59
0.016206214396,65
0.016386212896,63
0.016464575443,51
0.016609959375,66
0.016762179861,67
0.016763164444,53
0.017177054297,49
0.017390808937,48
0.017408211992,7
0.017545502186,69
0.017734775659,50
0.017827693311,68
0.017912546085,70
0.018068040214,71
0.018175769452,58
0.018223843835,37
0.018627253539,72
0.019129583472,42
0.019296142084,73
0.019456762846,64
0.020778670046,74
0.020836870559,75
0.020876233431,76
0.020936852083,77
0.021111778785,78
0.021436015593,79
0.023311789861,81
0.023701076217,83
0.02373551593,82
0.023775757535,84
0.024243592179,80
0.024525867421,85
0.02637917482,87
0.026385654766,86
0.026506261159,88
0.026792158311,89
0.026899066084,90
0.027090340946,91
0.027849725441,93
0.028003807357,94
0.028104126521,92
0.02873150094,96
0.028932382466,95
0.02899227841,97
0.029099518419,98
0.030157054236,99
0.030698578602,100
0.030967850945,101
0.031646852321,102
0.032204965152,103
0.032586872488,104
0.033200940107,105
0.033335801893,106
0.033987277256,107
0.034238389702,108
0.034424977945,109
0.034496892211,110
0.0345173711,111
0.034988329534,112
0.035097982916,113
0.035267172901,114
0.036013240827,115
0.036055004798,116
0.037785093793,117
0.038832618361,118
0.039961423745,119
0.0401994015,120
0.04075703396,121
0.041168791263,122
0.042052148546,124
0.04227361553,123
0.042409829834,125
0.042627377144,126
0.042697655734,127
0.043787460102,128
0.044038259946,129
0.044103183603,130
0.044350256186,131
0.044540221584,132
0.044635144991,133
0.04513171405,134
0.045295434769,135
0.04671954485,136
0.047462562246,137
0.047901584206,138
0.048556135568,139
0.048729542497,141
0.049316395685,142
0.049333674338,140
0.049455601029,143
0.04972539062,144
0.050298008292,145
0.050386567554,146
0.050390290723,147
0.050523045319,148
0.051076162299,149
0.051963333419,150
0.052516236345,151
0.052681954964,153
0.053036727875,154
0.053060847674,155
0.053121271411,152
0.053329260812,156
0.053772030821,157
0.053914459413,158
0.053921803567,159
0.054495630936,160
0.054508710827,161
0.055148374242,162
0.05517261724,163
0.055401459531,164
0.055633044511,165
0.055872356339,166
0.056167581486,167
0.056538341839,168
0.056774774303,169
0.058041030708,171
0.058125510004,170
0.058512206521,172
0.058999409708,175
0.059510106919,176
0.059770435977,173
0.060587007419,177
0.060609930428,174
0.060754053425,178
0.06075992172,179
0.060924705279,180
0.061202240686,181
0.062191221625,183
0.062557701771,184
0.062867061636,182
0.063009424018,185
0.064102711283,186
0.065021561837,188
0.065099684386,187
0.065103404355,189
0.065191247896,190
0.065499979066,191
0.066578211162,192
0.066649610567,193
0.066797114467,194
0.067126740928,195
0.067652290485,196
0.067854377433,197
0.068003109977,198
0.068707475425,199
0.069890548498,200
0.0704158739,201
0.070701968269,202
0.07074494986,203
0.07133292206,204
0.07174923258,205
0.071852555917,206
0.07232728557,207
0.073083414562,208
0.073283457413,210
0.073345856893,209
0.073495145964,211
0.073647362019,212
0.073734805763,213
0.074384164433,214
0.074909903786,215
0.075311423286,216
0.075553397832,217
0.076238358463,219
0.076517242539,220
0.076631001591,221
0.077392457309,222
0.07845857883,223
0.078490258566,218
0.07932547442,225
0.079726035221,224
0.08070088265,226
0.080894072751,227
0.08174396039,228
0.082066421522,229
0.082202915834,230
0.08268346114,231
0.083252296089,232
0.083465237082,233
0.084306625589,235
0.084771865555,234
0.085017847303,236
0.085241008649,237
0.085498627266,238
0.08572906733,239
0.085860644623,240
0.086136186286,241
0.086305733592,242
0.086717606828,243
0.086828462246,244
0.086930895197,245
0.087868945768,246
0.087938202876,247
0.088195752523,249
0.088457350343,248
0.088853213071,250
0.088957071307,251
0.089058628118,252
0.090978227356,259
0.091083221664,256
0.091426299804,257
0.091474704252,258
0.091484886584,255
0.091658878846,266
0.091707024119,263
0.091747043579,265
0.091766616964,254
0.092002874998,261
0.092007732156,264
0.092055038352,260
0.092141194076,270
0.092155567869,269
0.092933467953,271
0.093097761348,268
0.093236052059,267
0.093802158442,272
0.093813678346,273
0.093852318024,274
0.094311859273,253
0.0947562697,262
0.09536285394,275
0.095672153991,277
0.09589576164,279
0.095952727847,276
0.095982502348,280
0.096270719645,281
0.096309022035,278
0.096315423791,282
0.096382852281,283
0.096459109445,284
0.097157957062,285
0.097777549014,286
0.098297406759,288
0.098473565291,287
0.098779379082,290
0.099367497381,289
0.099400257108,291
0.09952972933,292
0.100068286344,293
0.100150429801,295
0.100240858348,294
0.100733865063,296
0.100863447534,297
0.101082852485,298
0.101500832518,299
0.101506903266,300
0.101540185568,301
0.101560864077,303
0.102338040485,302
0.102501300216,304
0.102643153335,305
0.102812055019,306
0.10311582255,307
0.103944003829,308
0.103961160673,309
0.104571515209,311
0.104605954922,312
0.104708077271,310
0.104874515884,314
0.105005823768,315
0.105365595807,317
0.105662962929,313
0.105696922646,320
0.106007960054,319
0.106338570727,321
0.106453537712,318
0.106455337697,322
0.106637376754,323
0.106694716924,324
0.106885769108,316
0.10773044477,326
0.109558337389,330
0.109817368004,328
0.11081141221,332
0.111010256052,333
0.111197839768,334
0.111209891016,331
0.111534393853,329
0.111600831629,327
0.111980795017,335
0.112004169984,336
0.112415124061,337
0.112423043995,338
0.112593151646,339
0.113038360658,340
0.113148493167,325
0.113282033756,341
0.114012106245,343
0.114172671307,344
0.114175791281,345
0.114621900514,346
0.114688188348,347
0.114770027666,348
0.114964552445,349
0.115238695922,350
0.115698489729,352
0.115953963238,353
0.116104822874,354
0.116359845629,342
0.116613562737,355
0.116616610042,356
0.116649422895,351
0.116987336374,357
0.117504452647,358
0.118577558092,359
0.118706156102,360
0.118809719437,361
0.119200935631,362
0.119424503043,363
0.119933107869,364
0.120284149336,365
0.121026126884,366
0.121696787714,367
0.121752648556,368
0.121934267912,369
0.123108523791,370
0.123584186124,371
0.123703932839,372
0.124442779482,374
0.12452221882,373
0.124803563916,375
0.125021326669,376
0.125189805265,379
0.125497722699,377
0.127032526351,382
0.127278047373,380
0.12740695658,381
0.127762079355,385
0.128314858927,389
0.128636819444,383
0.128681939068,384
0.128911384554,392
0.129181754639,387
0.129209038413,391
0.129347655471,386
0.129747816032,393
0.129958949122,378
0.130080867583,394
0.130463211065,388
0.13060660987,395
0.130784134856,390
0.130926418407,396
0.131842166638,397
0.132339209894,399
0.132600567716,398
0.133686528479,402
0.13487400153,405
0.135655305494,403
0.136007139644,409
0.136026819264,408
0.136222640104,410
0.13622978574,411
0.136698465526,412
0.136725563055,406
0.137180196044,413
0.137423673997,414
0.137530473107,400
0.1377811605,415
0.137910348915,401
0.138460912796,404
0.138584751764,407
0.139285145671,417
0.139487566051,416
0.14016000914,418
0.140186780102,419
0.140590763953,420
0.14157807871,421
0.142280285797,423
0.142462087482,422
0.142574652929,424
0.142624780304,425
0.142807929029,426
0.142953354644,427
0.142978036834,428
0.143104264271,430
0.143138943982,429
0.143783913642,431
0.143871723394,432
0.144414713969,433
0.145937703402,436
0.146046666692,438
0.147946119474,441
0.148089779787,444
0.148199510555,440
0.148482780486,437
0.148514083268,442
0.148690956984,439
0.148730588844,443
0.149007422482,447
0.149282669067,448
0.149287395561,449
0.149429034676,451
0.15011789964,446
0.150195945981,452
0.150669023228,434
0.151034854711,445
0.151550435729,435
0.15163911499,455
0.151841793301,453
0.152054710112,450
0.152477597272,454
0.152664715602,456
0.152835477586,457
0.154274229404,458
0.154358230279,460
0.154785492584,461
0.155071644111,459
0.15627832784,462
0.156775595713,463
0.156949918597,465
0.156958438526,464
0.157098510114,466
0.157185587861,467
0.157502986825,468
0.157921863746,470
0.158110388575,471
0.158170028078,472
0.158585488422,469
0.159169084702,474
0.159509413427,475
0.159520333336,476
0.15966857498,477
0.159993892269,473
0.16000817215,478
0.160348035678,480
0.160507207241,481
0.161018672458,479
0.163042492722,486
0.163105749634,487
0.163531344744,485
0.163658079777,484
0.163763937177,489
0.163818364273,483
0.163830097138,491
0.163927133758,490
0.164188069686,492
0.164505578074,482
0.164513550873,488
0.165533954871,493
0.165888998133,494
0.165981672001,495
0.166134431435,496
0.166606321213,497
0.167594607065,499
0.167596287051,498
0.167776101413,500
0.169718379626,507
0.17006061527,509
0.170132093672,505
0.17027889046,511
0.170340708666,504
0.170721598585,513
0.170805723156,501
0.170847535854,512
0.170862689759,508
0.171675576168,503
0.171841077558,515
0.17193923994,516
0.171941159924,514
0.1719800428,510
0.172140245267,518
0.172285042864,517
0.172549007223,519
0.172819163156,521
0.172860464962,520
0.173278948571,523
0.17445935305,522
0.174461873029,502
0.174537472399,524
0.174785156735,529
0.174791036686,506
0.174841679464,526
0.174930755032,530
0.174975808787,525
0.175334363233,531
0.175693107396,532
0.175739667008,528
0.175803155152,527
0.176256596068,533
0.176277463024,534
0.17766936275,535
0.177716931078,536
0.178077407166,537
0.178329718027,538
0.178548077754,539
0.179287772401,540
0.179321859121,541
0.179378934866,542
0.179657060333,543
0.180132132779,544
0.180181213191,545
0.180259092143,546
0.180502964766,547
0.18144860701,549
0.181612285646,550
0.182230818866,551
0.182250498702,552
0.182383053055,553
0.182492711791,548
0.182688128333,554
0.184222311671,555
0.184443047829,556
0.186251689255,557
0.186563952213,558
0.187004822874,559
0.18856308946,560
0.191198806856,566
0.191268587765,567
0.191506290341,565
0.191526235957,568
0.192056862467,569
0.192212637608,564
0.192433592395,561
0.192609744633,563
0.192724458733,562
0.19278510532,571
0.192786425309,572
0.193326990858,570
0.193352797043,575
0.193361316972,574
0.193379800018,576
0.193455975006,577
0.193495519166,579
0.19367890813,580
0.193894271781,573
0.193970944699,578
0.194409819059,581
0.194657689551,582
0.195117327825,583
0.195221270652,584
0.195465838069,585
0.195915131028,586
0.196207293214,588
0.196314332322,587
0.196474622571,589
0.196507915712,590
0.196749171342,591
0.197016320681,592
0.197273538111,593
0.197287681692,594
0.197485535352,595
0.197542068533,597
0.197592588112,598
0.198359055225,599
0.199033171217,596
0.199807542074,600
0.201369060266,603
0.201836994752,608
0.201903015697,607
0.202322290499,612
0.202379245106,610
0.202415808824,609
0.202593379677,606
0.202620692185,614
0.202621536465,613
0.202911633874,616
0.203118203389,601
0.203135075713,605
0.203268502328,604
0.203396504448,618
0.20357560518,602
0.204108348613,617
0.20411350857,619
0.204139546404,615
0.204487406973,611
0.205054504315,620
0.205099577807,621
0.205228683268,623
0.205568668997,622
0.205870481421,624
0.207038796286,625
0.207127290987,626
0.20750896517,627
0.20831468009,628
0.208557934031,629
0.208686477033,630
0.208846103881,631
0.20916163779,632
0.209199681671,633
0.210300357482,634
0.211344014442,635
0.212032883433,636
0.212498260889,637
0.212782086475,639
0.21280428629,638
0.2132031695,640
0.213215027237,641
0.213444454097,642
0.213534354352,643
0.21354945742,644
0.214531719945,645
0.214775462187,646
0.215201371137,648
0.215521771667,647
0.215589331104,649
0.216033157596,651
0.21603387759,650
0.216499009548,652
0.216599811768,653
0.216783701036,654
0.216921654147,655
0.217335539945,656
0.2173921541,657
0.217683853507,658
0.21778405687,659
0.217949821346,660
0.218173609386,663
0.218369807751,662
0.218747739038,664
0.218758019558,665
0.219284269283,666
0.220195822252,670
0.220473139941,667
0.220504219682,669
0.220691702922,668
0.221067620907,671
0.221385302763,672
0.221466575466,673
0.222038017104,661
0.222054816964,675
0.223127500561,679
0.224003055397,677
0.224014103112,683
0.224284397476,678
0.224747685582,681
0.22496150784,685
0.225191331777,674
0.225302591125,687
0.225906876778,688
0.225943192233,684
0.226088181198,676
0.22629134181,689
0.22634588686,680
0.226603250412,686
0.226773032671,690
0.227185155214,682
0.227196675118,691
0.227598253562,692
0.227770576324,693
0.228103638628,694
0.228811792676,695
0.229631124301,696
0.229722087741,697
0.230923133264,698
0.23126015594,699
0.231615403119,700
0.232074889888,702
0.232123729481,703
0.232371136589,704
0.233198929897,701
0.233271028605,705
0.233306632779,706
0.233952718984,707
0.233988238688,708
0.234604455295,710
0.234645494953,709
0.235797233515,711
0.2360311904,713
0.236181549147,712
0.236349348401,714
0.236602105443,715
0.236987132674,716
0.237792402105,717
0.238647034234,719
0.238762476472,720
0.239445093108,722
0.239677737723,723
0.240238310194,725
0.240505949504,726
0.240595534606,727
0.241243126348,730
0.241569817861,731
0.242570441933,734
0.243399867453,724
0.243461070143,735
0.243604618095,736
0.244402296052,721
0.244666058254,738
0.245023258377,737
0.245035738273,739
0.245110737353,740
0.24555106619,742
0.245640825442,743
0.24606455381,744
0.246815016226,729
0.246909695437,745
0.247890592972,741
0.247935748852,748
0.248002761158,746
0.248108891242,749
0.248354267341,728
0.248459618956,750
0.249090400177,755
0.250040010985,751
0.250128647651,754
0.250163490585,757
0.250366708374,758
0.250640997578,756
0.25084371264,753
0.250864870002,718
0.251129808085,760
0.251297450072,761
0.251566247832,752
0.251832609615,762
0.25185173978,763
0.251957610095,747
0.252034243809,765
0.252244266207,766
0.252246786186,759
0.253389346212,767
0.253831464793,768
0.253868064488,769
0.254089589042,770
0.25412582874,733
0.254283253709,771
0.254306743701,732
0.255061198403,772
0.255326940472,774
0.255359248993,775
0.255477452206,776
0.256033808629,778
0.2564424184,779
0.256935344593,780
0.257016943913,777
0.257195026627,773
0.257330751466,781
0.257444796008,764
0.257715604096,783
0.257737695373,782
0.258212856306,784
0.258507310771,785
0.259117111272,786
0.259224131389,787
0.25961465615,788
0.259697898362,789
0.25986458326,791
0.259953502519,792
0.260015542002,790
0.260665142044,793
0.261058868503,794
0.261095588197,795
0.261468151841,796
0.261521852587,798
0.26165906639,799
0.261972630177,797
0.262232068015,801
0.262606818536,803
0.26269250704,804
0.263038655837,805
0.26339634046,802
0.263410500342,807
0.263431260169,806
0.263688213833,808
0.263806130191,809
0.263947104257,800
0.264512522435,811
0.264939359447,810
0.26531322071,812
0.265845460289,813
0.265921086886,814
0.266542495109,816
0.26656877489,815
0.266807215855,817
0.266931299019,818
0.267492001357,819
0.267715950495,820
0.267925765382,821
0.270259590073,822
0.270279533628,823
0.270868705522,824
0.271177370407,825
0.271515302025,826
0.271608785444,827
0.271806852049,828
0.271842851749,830
0.271916651134,829
0.272614595147,833
0.274537094363,839
0.274694582939,840
0.274900745073,834
0.275010417864,842
0.275481860456,832
0.27555040556,838
0.275722970398,837
0.27590303774,844
0.275935930445,843
0.276056212859,831
0.276072894552,841
0.276396464534,845
0.27642564997,835
0.276469785205,836
0.277471382194,846
0.278574118775,847
0.2786751912,848
0.278976742423,849
0.2791080476,850
0.279120437275,851
0.279467473724,852
0.280551504543,854
0.281231796406,853
0.281564854979,856
0.281599936947,857
0.281984905233,858
0.283373818895,859
0.285077149024,855
0.28553355849,860
0.286034175816,862
0.286514169719,863
0.286827160397,864
0.287019124489,865
0.287481185539,861
0.288133692802,866
0.28909847518,867
0.289343953427,868
0.289598753452,870
0.290234514554,871
0.292521524339,874
0.293564309391,875
0.293730156282,877
0.294066062761,878
0.294149222068,876
0.294342660456,872
0.29448878428,879
0.295100595464,880
0.2953842795,882
0.295537278225,881
0.295882773524,883
0.295994292993,884
0.296130371765,885
0.296382176141,886
0.296795699095,887
0.297478770053,869
0.297913310361,889
0.298367392977,893
0.29873698967,896
0.298873539088,897
0.29895064216,898
0.299008074766,892
0.299299276815,895
0.299369564357,900
0.29949040335,899
0.300326540529,891
0.300329900501,902
0.300582140417,890
0.300722180698,888
0.300837773018,903
0.30106377016,901
0.301083823521,905
0.30154836343,894
0.301738128656,873
0.302374029241,904
0.302910307972,908
0.30316366137,907
0.303401330518,911
0.303580621583,910
0.303608828942,909
0.304128789166,914
0.306326577913,918
0.306459914537,916
0.3069229086,919
0.306938766783,920
0.307013900876,915
0.307409605726,917
0.308396745406,924
0.308537744231,922
0.308598716277,912
0.309147742304,926
0.309362660513,921
0.31001664455,923
0.310075204062,927
0.310133643575,925
0.310142763499,929
0.310636757228,930
0.310851886355,906
0.310890320314,928
0.311516673957,931
0.312764789666,913
0.313834416855,934
0.314040815135,936
0.31411581451,937
0.314306972917,935
0.315646916988,945
0.315853215215,941
0.316336948899,938
0.316417273924,942
0.316525484561,944
0.316538782818,947
0.316624390642,946
0.317308327762,950
0.317927798065,939
0.318258224615,951
0.318640187832,953
0.318948948459,952
0.319268687447,949
0.31928546001,955
0.319691169657,956
0.320299352397,940
0.320665363261,943
0.321070246695,957
0.321107086388,958
0.321165165904,954
0.32119999276,948
0.321405084327,932
0.322698890902,933
0.323303296356,959
0.323308124614,960
0.325929737746,967
0.32616024508,972
0.326188627013,968
0.326235897759,965
0.326327670113,971
0.326371888485,973
0.326387032476,964
0.326480719761,974
0.326809785326,970
0.326968304855,976
0.326993203796,962
0.327114442044,966
0.327131020888,961
0.327162487707,977
0.327769650398,978
0.328136970537,969
0.328174726143,963
0.328333364983,980
0.328349791276,975
0.328727208745,979
0.329105516683,981
0.329987876136,983
0.329999276041,984
0.330467180825,982
0.330822592855,985
0.330927308029,986
0.331478004785,988
0.331815123301,987
0.331879659914,989
0.334343736847,999
0.33438935088,1000
0.334504543525,998
0.334671776338,995
0.334797048743,1001
0.334882071984,1002
0.335018007581,1003
0.335048135092,993
0.335100599448,1004
0.335154615079,1005
0.335469659631,997
0.335983684721,991
0.336021836873,1006
0.336202268383,990
0.33657476007,994
0.337335622869,996
0.337598542501,1008
0.337603327289,1007
0.337674850633,992
0.338407826517,1009
0.338784781148,1010
0.340975532397,1011
0.340998812203,1012
0.340999895394,1013
0.342544998168,1017
0.3425959626,1014
0.342738659185,1018
0.342993849131,1015
0.343289672167,1021
0.343309747418,1022
0.343364634398,1020
0.34384477988,1023
0.343892500279,1016
0.344020968751,1024
0.34410081319,1025
0.344365476508,1026
0.344450669563,1019
0.344946831798,1027
0.345142759365,1029
0.34517335911,1028
0.345416602568,1030
0.346194163099,1031
0.346486685296,1032
0.346670358202,1033
0.347103916978,1034
0.347168431166,1035
0.348265843613,1036
0.348939643914,1037
0.349825552393,1039
0.350240632134,1040
0.350279635009,1041
0.351775715868,1050
0.351804230158,1043
0.351982700036,1052
0.352191886615,1045
0.352469684006,1053
0.35267039105,1054
0.352724791052,1055
0.352742723479,1042
0.352748580165,1048
0.353023008668,1049
0.353064416362,1056
0.35325612644,1059
0.353258406421,1058
0.353433644109,1051
0.353670097354,1047
0.354211437593,1061
0.354616749273,1062
0.355156163928,1057
0.355219169136,1046
0.356303862248,1065
0.356570386427,1067
0.356762631225,1069
0.357146571507,1073
0.357187491166,1070
0.357278740697,1074
0.357280180685,1066
0.357349543395,1071
0.357367832504,1076
0.357377392944,1075
0.357517052858,1078
0.357609822567,1072
0.358419606773,1068
0.359399701717,1080
0.359539179917,1079
0.359540739904,1081
0.359850337923,1084
0.359870257757,1083
0.360064662537,1044
0.360113742128,1085
0.360158501755,1063
0.360186806879,1086
0.360551729893,1082
0.360675618377,1087
0.360906162726,1060
0.36103298853,1088
0.361419652898,1064
0.361616170689,1089
0.361836425035,1038
0.361882106771,1090
0.362362161214,1091
0.362600231496,1077
0.362753114582,1092
0.3630434724,1093
0.363051594048,1094
0.363528314242,1097
0.364514496257,1103
0.365361658426,1098
0.365541843711,1105
0.365552908385,1100
0.365720963239,1099
0.365790674278,1102
0.365927415147,1106
0.365938575617,1108
0.36637445014,1101
0.366538775519,1109
0.366826142963,1110
0.366856382711,1104
0.366876934118,1111
0.367100065604,1112
0.367591437377,1113
0.367627677075,1107
0.368342753422,1114
0.369395559677,1116
0.369568015604,1117
0.369651917049,1118
0.369795031321,1119
0.36992542472,1120
0.370154665466,1122
0.370274064471,1115
0.371270720012,1121
0.371437922692,1126
0.371464972176,1125
0.37227789176,1096
0.372278251757,1128
0.372915571382,1129
0.372926783493,1132
0.372930772423,1130
0.373054217813,1124
0.373082999695,1133
0.373610411841,1131
0.373612571823,1135
0.373905972578,1136
0.374108054094,1138
0.374375483845,1139
0.37463217348,1123
0.374849148457,1137
0.375096807736,1140
0.375267015261,1095
0.375285291761,1141
0.375627553223,1134
0.375810199099,1143
0.376171289989,1142
0.376387775501,1145
0.376507657702,1127
0.376633375978,1146
0.376653227035,1147
0.376684990699,1144
0.376867917076,1148
0.37906415603,1149
0.379090076812,1150
0.379172159328,1151
0.379445040206,1152
0.379939735871,1153
0.38015837994,1154
0.380734127062,1156
0.380794726557,1155
0.380979212475,1157
0.381094782261,1158
0.381137838642,1159
0.381510712568,1161
0.381802790134,1160
0.382005169953,1162
0.38247407511,1163
0.382701910232,1165
0.382788189513,1164
0.382924447292,1166
0.383043359797,1167
0.383867075546,1168
0.385280813103,1169
0.385363868746,1170
0.386524102354,1171
0.387017611968,1172
0.387712918937,1173
0.388092780454,1174
0.388389233107,1175
0.388490536628,1176
0.389047406804,1177
0.3890958896,1178
0.389184920353,1179
0.389337218417,1180
0.389994752555,1182
0.390953252855,1183
0.391365592424,1184
0.391703539451,1185
0.39174297451,1186
0.391781286123,1181
0.393389254888,1187
0.393814657026,1188
0.393943400339,1189
0.395104664304,1190
0.395402044748,1191
0.396344085746,1192
0.396741195906,1193
0.397114626993,1194
0.39738368312,1195
0.397526079265,1196
0.397827602942,1197
0.398709752296,1198
0.39918807947,1200
0.399360284435,1201
0.399420647132,1199
0.399508880487,1204
0.399658843085,1203
0.399768970685,1205
0.399852100901,1202
0.400917253712,1206
0.401125439476,1207
0.401350992692,1208
0.401555774402,1209
0.401938945007,1211
0.402119543502,1213
0.402192262896,1212
0.402373265506,1214
0.402499404312,1210
0.402981586004,1215
0.403202315533,1216
0.403650128625,1217
0.404437834443,1219
0.404541873576,1218
0.404556997648,1220
0.405360537036,1221
0.406285887576,1223
0.406434086341,1222
0.406974495145,1224
0.408528478232,1225
0.408867257997,1226
0.409075150191,1227
0.409206443753,1228
0.409249176668,1229
0.410289881175,1231
0.411689170594,1232
0.41189328694,1234
0.412201827164,1233
0.412702509838,1236
0.412781004588,1238
0.412786682671,1237
0.413033376321,1239
0.413157056436,1240
0.413421014447,1241
0.414336105974,1235
0.414432105174,1242
0.414834553271,1243
0.414896422916,1230
0.415164701449,1244
0.415182156016,1245
0.416103940254,1246
0.416105860238,1247
0.416820022026,1248
0.417140069957,1250
0.417444150623,1249
0.418104963933,1252
0.418732228853,1251
0.419271077507,1253
0.419364676727,1254
0.419472075832,1256
0.419772050366,1257
0.420055993844,1260
0.42010801794,1258
0.420509615528,1261
0.420637645807,1263
0.42082177499,1265
0.421024096504,1262
0.421136775565,1266
0.421373048782,1269
0.421427170216,1270
0.422157606482,1268
0.422709518363,1274
0.422858317123,1271
0.42321174035,1255
0.423317706071,1273
0.423332514926,1275
0.423385287443,1276
0.423389608141,1259
0.423562716837,1277
0.423681892198,1278
0.423796541,1279
0.423818269245,1272
0.424104875481,1264
0.424185688665,1267
0.42459169519,1280
0.424721626872,1281
0.428577998958,1284
0.428698876559,1287
0.428760561975,1286
0.428785672109,1288
0.428807902004,1290
0.429011843436,1289
0.429019494532,1291
0.429413912554,1292
0.429542756322,1294
0.429646961751,1282
0.429657964467,1285
0.429826762387,1283
0.429858768861,1293
0.430383520409,1295
0.430419134283,1296
0.43086926352,1298
0.430873223487,1297
0.430973724956,1299
0.431046087533,1300
0.431252244277,1302
0.431652564141,1301
0.432039162173,1303
0.432280126569,1304
0.43233844141,1305
0.432801727194,1306
0.433281113032,1307
0.433597673594,1309
0.434712620529,1314
0.435076896243,1317
0.435309679729,1310
0.435385053119,1318
0.435827251501,1319
0.435828904344,1320
0.436021786406,1312
0.436110557368,1321
0.436642845411,1313
0.436773853163,1323
0.436956494841,1324
0.437048054078,1316
0.43718254782,1325
0.437238926904,1322
0.437545074267,1326
0.437852173964,1327
0.438361654885,1315
0.439058111252,1328
0.439199470074,1329
0.440008978632,1330
0.440669597749,1334
0.440856319393,1332
0.440889319118,1335
0.440984103776,1311
0.441025928217,1308
0.441178697513,1331
0.441395614342,1333
0.442159663845,1338
0.442169983759,1336
0.443470842871,1341
0.444083223766,1340
0.444712883886,1339
0.445050167284,1342
0.445440655632,1343
0.445614654182,1337
0.445813487142,1344
0.446302148993,1345
0.446391071452,1346
0.44650993556,1347
0.446750345338,1348
0.446887749561,1349
0.448631484796,1354
0.449457328385,1355
0.449554037153,1352
0.449768173505,1353
0.450555292111,1357
0.451017058143,1359
0.451989613629,1362
0.452048653137,1363
0.452267534513,1360
0.452654875229,1358
0.452903440506,1364
0.453270803027,1361
0.453453300827,1356
0.453683811924,1365
0.45421031425,1366
0.454394593741,1368
0.454760569564,1369
0.45478847658,1351
0.454801511988,1367
0.455390789894,1350
0.455564820583,1370
0.45560643933,1371
0.456184641172,1372
0.456240680705,1373
0.456629964005,1374
0.456788825866,1375
0.45701524989,1376
0.457130035526,1377
0.457575750555,1378
0.457757912759,1379
0.457812941969,1380
0.458476599927,1381
0.458794553761,1382
0.459268056862,1383
0.459841874217,1386
0.459989472987,1385
0.459990432979,1387
0.46021751539,1388
0.460301172111,1384
0.460556049067,1389
0.460574603392,1390
0.460760461243,1391
0.460840507311,1392
0.463262264325,1401
0.463297730396,1400
0.463336326378,1395
0.463402083413,1397
0.463466324943,1399
0.463568888792,1398
0.463578130767,1402
0.46391869691,1396
0.464339037001,1404
0.464381773968,1403
0.464383180717,1406
0.464414980037,1407
0.46474844544,1393
0.464821881394,1394
0.464900215084,1408
0.464924953086,1409
0.465221449863,1410
0.465444864016,1411
0.465804584172,1405
0.465947382982,1412
0.466467771185,1413
0.466699675793,1414
0.466714915666,1415
0.467774981932,1416
0.46786358088,1417
0.468644929177,1418
0.469375617596,1419
0.469745549775,1420
0.470090616111,1421
0.470332732719,1422
0.470974698362,1424
0.471365655104,1423
0.471795155275,1425
0.472676708949,1426
0.472843631526,1427
0.47315960382,1428
0.473264672336,1429
0.473315666009,1430
0.473419339383,1431
0.473596121993,1432
0.474407858314,1433
0.474502913055,1434
0.475576453775,1435
0.475635044958,1436
0.475680404076,1438
0.476253131698,1439
0.476330651052,1437
0.476556678527,1440
0.476569241179,1441
0.47695984837,1443
0.477098807212,1442
0.477307975876,1444
0.477819434827,1446
0.478220491488,1448
0.478473599348,1445
0.478671001219,1450
0.479379577802,1451
0.47979381755,1453
0.480445074286,1454
0.480471540302,1452
0.480591727357,1449
0.480667515217,1455
0.480885499765,1456
0.482302737586,1457
0.484074496896,1461
0.484295610572,1463
0.484632425971,1462
0.485022107269,1460
0.485074878341,1466
0.485272422757,1447
0.485993438168,1469
0.486092317344,1465
0.486258226783,1468
0.486776051301,1470
0.486971242303,1459
0.486979762232,1464
0.487510340278,1458
0.488233952062,1474
0.488523280249,1478
0.489945046988,1477
0.49052012015,1482
0.490619192785,1481
0.490950462313,1479
0.491098249568,1475
0.491178573969,1467
0.491371593922,1483
0.491727865247,1484
0.491960426509,1485
0.491979266352,1473
0.492064051197,1476
0.492732470029,1471
0.493453925837,1472
0.493477448841,1488
0.493602727797,1489
0.494316622452,1491
0.49447766111,1487
0.494938602681,1493
0.49500810376,1486
0.495041508137,1490
0.495463759149,1494
0.495624948086,1492
0.496510901498,1480
0.497018003378,1495
0.497421236706,1496
0.498038605756,1498
0.498093088502,1497
0.49954911668,1502
0.500118078817,1500
0.500199892243,1501
0.500608420705,1499
0.501188812389,1505
0.501310109663,1507
0.501576791831,1508
0.501648311235,1503
0.501794312121,1509
0.502043176687,1512
0.502096456243,1511
0.502150935789,1506
0.502843457818,1504
0.502965242192,1510
0.502991724167,1513
0.503398982074,1514
0.503568223943,1515
0.503720636765,1516
0.50387351644,1517
0.50395248519,1518
0.504744262053,1519
0.504905294964,1520
0.50687706778,1526
0.507038845245,1528
0.507261057496,1525
0.507364785231,1524
0.507546608345,1529
0.507707475265,1530
0.507809643452,1527
0.508034139669,1533
0.508180019653,1534
0.508518022571,1521
0.508619455007,1531
0.508655064538,1532
0.509414608751,1535
0.509704049539,1522
0.509831855872,1537
0.509901678081,1523
0.509969983308,1538
0.510040705756,1536
0.510929039484,1539
0.511197941496,1540
0.511621548564,1542
0.511731467648,1543
0.511760627405,1541
0.51213010612,1545
0.512164935668,1544
0.51322449555,1546
0.514047245374,1547
0.514352730732,1548
0.515695498534,1549
0.516121847042,1550
0.516528586295,1551
0.516619205783,1552
0.516776298251,1553
0.517471562524,1554
0.518793445705,1556
0.518869405072,1555
0.520041508619,1558
0.520170507544,1557
0.52040620615,1560
0.520587764637,1559
0.520829809712,1561
0.521689896822,1563
0.522065821692,1562
0.522110400604,1564
0.522502955762,1565
0.524501931831,1567
0.524853535301,1568
0.525004974039,1569
0.525466213149,1570
0.525766650283,1566
0.525775054411,1571
0.526188213474,1573
0.526388851802,1572
0.526616991087,1574
0.526637295839,1575
0.526660722223,1576
0.526765017353,1577
0.527065155536,1578
0.527217198467,1579
0.527365691551,1580
0.527505716681,1581
0.527705862098,1582
0.528141664894,1583
0.52861927324,1584
0.528781519255,1585
0.528932113173,1586
0.529094687498,1587
0.529401129745,1588
0.529518759822,1589
0.530206341865,1591
0.530285421206,1592
0.530341820736,1590
0.530697824415,1593
0.530817440161,1594
0.531133125704,1596
0.531208125079,1595
0.531336673103,1597
0.531694922549,1598
0.531713406593,1599
0.532302446623,1600
0.532409127514,1602
0.532499249963,1601
0.532831296569,1604
0.532933295719,1605
0.533279359725,1603
0.533733113031,1606
0.533891051194,1607
0.534141856316,1608
0.534501364288,1609
0.534998512749,1611
0.535185714389,1612
0.535428844135,1610
0.535675117939,1613
0.536314964394,1614
0.537119207308,1616
0.53723057278,1615
0.537240552149,1617
0.537283358272,1618
0.537314358271,1619
0.537350699177,1620
0.537422679352,1621
0.53786047967,1622
0.537898968347,1623
0.5384133562,1625
0.538534195193,1626
0.538625034436,1624
0.539004825147,1627
0.539315859086,1628
0.539459862084,1630
0.539517341605,1629
0.539964913482,1631
0.541277628886,1632
0.541475652895,1633
0.541636622477,1634
0.542639146102,1635
0.542988986648,1636
0.543658159813,1637
0.543917875443,1638
0.544016758817,1639
0.544149264967,1640
0.544248144143,1641
0.544782499329,1642
0.544981271111,1643
0.545227549442,1644
0.545352475799,1645
0.545468999026,1646
0.54548007831,1647
0.545909634465,1648
0.546346956603,1649
0.546440685603,1650
0.546804818918,1651
0.54685839528,1652
0.547197785114,1653
0.548034287282,1654
0.548598769188,1655
0.549325176793,1656
0.549878225058,1657
0.551503126469,1658
0.551503606465,1659
0.551919286375,1660
0.551925498692,1661
0.552094620144,1662
0.552206223412,1663
0.552539587097,1664
0.553277959858,1665
0.553400039448,1666
0.554095670559,1667
0.554377876279,1668
0.554473514518,1669
0.555102234196,1670
0.555354359968,1671
0.555392523848,1672
0.556147155915,1674
0.558646641516,1677
0.558776307094,1676
0.558846377783,1678
0.558889116964,1680
0.559596940594,1682
0.559625039516,1681
0.559681668965,1679
0.560447546641,1683
0.560458106553,1684
0.560763821789,1675
0.561067662457,1687
0.561647580857,1673
0.561714122027,1685
0.561750969428,1686
0.561878722353,1690
0.561886083694,1691
0.562045801063,1689
0.562084907589,1688
0.562656433317,1692
0.562814150209,1693
0.563003622337,1694
0.563105641093,1695
0.563323646661,1696
0.563448209821,1697
0.563583020769,1698
0.563613057289,1699
0.564119344508,1700
0.564415865237,1701
0.564454864912,1702
0.565302163195,1704
0.565418202228,1703
0.565983770892,1705
0.566394524199,1706
0.566625460513,1707
0.566673293643,1708
0.566812400966,1709
0.568064088029,1715
0.569561213088,1716
0.569928006221,1727
0.570179107704,1724
0.570189407327,1722
0.570200060485,1717
0.570319507391,1719
0.570431090791,1721
0.570445944338,1720
0.570591072274,1726
0.570662779763,1729
0.570670480792,1713
0.570935673965,1718
0.570975606052,1714
0.571017252333,1725
0.571762155499,1731
0.571863674653,1733
0.571864994642,1732
0.572009296877,1730
0.572600254729,1728
0.573229208332,1735
0.573293410997,1712
0.573312846268,1736
0.573340326039,1737
0.573482924957,1739
0.573728932507,1740
0.573786292029,1741
0.573816531777,1742
0.573882534427,1723
0.574388821456,1744
0.574942116874,1746
0.57501899428,1747
0.575270134957,1745
0.575369342586,1748
0.575408582259,1749
0.575522357317,1734
0.575736210603,1750
0.576346150917,1752
0.576542928345,1754
0.576768086285,1753
0.576935655372,1757
0.577001534823,1755
0.577265918216,1756
0.578054933978,1743
0.578064893895,1758
0.578108093535,1711
0.578112173501,1759
0.57854586723,1760
0.578667802631,1751
0.578889053487,1761
0.57901571919,1710
0.579496527449,1762
0.579503810021,1763
0.580147394994,1738
0.581181140884,1764
0.581380582422,1766
0.581628453368,1767
0.58220780716,1768
0.582210447138,1769
0.583042325811,1774
0.583440319521,1775
0.584266210091,1770
0.584300316781,1773
0.584316024258,1772
0.584416834865,1771
0.584569011626,1777
0.584745757062,1779
0.584770740384,1778
0.584947787624,1776
0.585008186657,1765
0.585014432754,1780
0.58508987091,1781
0.585206311604,1782
0.585823761178,1784
0.585960092842,1785
0.585980972668,1786
0.586007852444,1787
0.587421174044,1790
0.587464593161,1789
0.587784823855,1794
0.588197844575,1793
0.588708907078,1791
0.588738906828,1797
0.588799746321,1798
0.588817152767,1783
0.588908118963,1792
0.589081874545,1799
0.589893103982,1800
0.590031226031,1796
0.590107331219,1801
0.590412285995,1795
0.591357779928,1788
0.592371868959,1807
0.592372260451,1804
0.593521022173,1803
0.593687830032,1808
0.594450072862,1809
0.594646871703,1810
0.594829150184,1802
0.596026014322,1811
0.596353833014,1806
0.596848975455,1805
0.597086025184,1814
0.59768376897,1816
0.597982801438,1817
0.597997081319,1815
0.598138845029,1818
0.598832174075,1813
0.599273669638,1819
0.599276909611,1820
0.599297549439,1821
0.599395599141,1822
0.599726417854,1823
0.599856634497,1824
0.600815103607,1812
0.600869587375,1825
0.602166071787,1827
0.60451049954,1835
0.604667899274,1833
0.604788615737,1830
0.604918943293,1836
0.604927986825,1837
0.605208785571,1838
0.605510562946,1829
0.605793764323,1832
0.605819488204,1839
0.605865121093,1828
0.605975522257,1840
0.60606624233,1834
0.606344271832,1831
0.606401337174,1841
0.606562756375,1826
0.606705112091,1842
0.606849915079,1844
0.606866892003,1843
0.608077624116,1845
0.609040052041,1846
0.609183081784,1847
0.609372864857,1848
0.609434861276,1849
0.609469646426,1850
0.609710832229,1851
0.610393011578,1853
0.610429251276,1854
0.610509533807,1852
0.610606256639,1856
0.610846197769,1857
0.611178365085,1858
0.61120628105,1855
0.611432091257,1859
0.611715178661,1860
0.611943746513,1861
0.612047309848,1862
0.612910438689,1863
0.612935282681,1864
0.613330853041,1866
0.613480494994,1867
0.613598460411,1865
0.613639921581,1868
0.613696287471,1869
0.614457380844,1871
0.615001965987,1870
0.615146947792,1872
0.615205485293,1873
0.615473389125,1874
0.616257475094,1875
0.616916969851,1876
0.617144980628,1877
0.61750170169,1878
0.618327726614,1879
0.618536327301,1880
0.619015538154,1882
0.619670979092,1883
0.621271183332,1885
0.62163704758,1888
0.621638663536,1884
0.621675856327,1889
0.621981421882,1891
0.622548929623,1892
0.622692587832,1893
0.622813605467,1887
0.622838826351,1894
0.622855770973,1890
0.622929058323,1886
0.623639006599,1881
0.623743328747,1895
0.623984147364,1896
0.624568270319,1897
0.625224827877,1898
0.625398059192,1899
0.626042178823,1900
0.626911336679,1902
0.62712362131,1901
0.627129903712,1903
0.627131119664,1904
0.627424273029,1905
0.627609722498,1906
0.628267494386,1907
0.628581141216,1908
0.630057008361,1909
0.630132302026,1910
0.630164770522,1911
0.630544883184,1912
0.630911615939,1913
0.633116087636,1914
0.633945472609,1916
0.634130874264,1917
0.634230596633,1915
0.634327876031,1918
0.634410852568,1919
0.634862915605,1921
0.636262895722,1928
0.636734098427,1930
0.637368139963,1922
0.637661960313,1927
0.637741552255,1932
0.638477247582,1924
0.638616540858,1933
0.63866826435,1931
0.638726444112,1929
0.639161355832,1934
0.640410595313,1926
0.641099561555,1937
0.641116001418,1938
0.641450256778,1940
0.641709298155,1941
0.641750032249,1923
0.642400308594,1943
0.64241518847,1939
0.642478431143,1944
0.642551390535,1945
0.642695555192,1935
0.643840138684,1947
0.643877231669,1948
0.644168699796,1942
0.644429193628,1949
0.644505084494,1950
0.644564935915,1936
0.64458574514,1951
0.644606868485,1952
0.644614190511,1946
0.645027513401,1954
0.645047913231,1955
0.645195395202,1953
0.645275674533,1956
0.645504196258,1957
0.645700291048,1958
0.645875812285,1960
0.645907732019,1920
0.646123736619,1962
0.646159256323,1963
0.646457103441,1965
0.646569205085,1966
0.646744337256,1959
0.646790598472,1967
0.647069792651,1968
0.647088992491,1969
0.647264158104,1970
0.647293077863,1971
0.647578434613,1964
0.647802973545,1972
0.647989246963,1925
0.648227096076,1973
0.648884933038,1974
0.649084014579,1975
0.649752206962,1961
0.649949436152,1977
0.650152564263,1976
0.650739203607,1979
0.651136167301,1981
0.651295261632,1982
0.651634651845,1980
0.651908496783,1978
0.652212457037,1983
0.653613327221,1984
0.653782560217,1986
0.653786400185,1985
0.655361533835,1987
0.656762535117,1988
0.656893679404,1989
0.657989579032,1992
0.658037338634,1991
0.65826506618,1993
0.659108066715,1994
0.65917952652,1996
0.659976155295,1990
0.66043135465,1998
0.660503680078,1999
0.660904339579,1995
0.661022076903,2000
0.661359256896,2001
0.661754057115,1997
0.661858612246,2003
0.662142253425,2005
0.66281669975,2002
0.662834966952,2004
0.662977641358,2006
0.663018746292,2007
0.66349741913,2008
0.664906160452,2009
0.66515027696,2010
0.665549322436,2011
0.665569070002,2012
0.665919345063,2014
0.665977664577,2015
0.666161389446,2016
0.666278868467,2017
0.666560693305,2018
0.666641212634,2013
0.667041364048,2021
0.667124183418,2020
0.66719187678,2019
0.667653379468,2022
0.669309366294,2023
0.669419765374,2024
0.670141286397,2025
0.670354903598,2026
0.670510204581,2027
0.670873773772,2028
0.671080329567,2029
0.671846921396,2030
0.672018755784,2031
0.672133761507,2032
0.672231311976,2033
0.673504684306,2034
0.673897527666,2035
0.674169906447,2036
0.674434778434,2037
0.675068484476,2038
0.675071484451,2039
0.675634162432,2040
0.676043539751,2041
0.676175302851,2042
0.676313271086,2043
0.676602968172,2044
0.677019116206,2045
0.677372584629,2046
0.677687322583,2047
0.67773938536,2048
0.678416397399,2049
0.678468121166,2050
0.678603720928,2051
0.679041245631,2053
0.679075565345,2052
0.680131058158,2054
0.680720633245,2055
0.680803795752,2056
0.680910100407,2057
0.681059830054,2059
0.681204789968,2060
0.682273262806,2058
0.682354506327,2061
0.682557149864,2062
0.682653199687,2063
0.682803884281,2064
0.682831190866,2065
0.684167030341,2066
0.684287300198,2067
0.684889482734,2068
0.684982846173,2069
0.686500926731,2070
0.687430331094,2071
0.687633630235,2072
0.688268627586,2073
0.688443454581,2074
0.688877750727,2076
0.690023148276,2080
0.690587613703,2079
0.690908366467,2081
0.691005442399,2084
0.691065919521,2083
0.69110175582,2077
0.691158122132,2082
0.691427197828,2085
0.693253519864,2090
0.693527042923,2078
0.694221849462,2094
0.69425569238,2095
0.694470327349,2093
0.694748740641,2097
0.695433250605,2098
0.695542572894,2075
0.695895038235,2100
0.697096801243,2103
0.697117921067,2105
0.69737290464,2106
0.697687548809,2104
0.697790505658,2086
0.698149509281,2107
0.698190548939,2096
0.698264531329,2088
0.698335539183,2101
0.698537230689,2087
0.699032951841,2091
0.699228070215,2109
0.699685649578,2110
0.699788576606,2111
0.700216877818,2112
0.700370599737,2113
0.700468278923,2099
0.700669887745,2108
0.70078009864,2115
0.700803310837,2116
0.70098763872,2114
0.701151180091,2102
0.701170664315,2092
0.70144621487,2089
0.7019945246,2117
0.702190337913,2119
0.702197297855,2118
0.702392422629,2120
0.702479182904,2121
0.702479422902,2122
0.702678534047,2123
0.702798057249,2124
0.703465270455,2125
0.704294459752,2127
0.704410498785,2128
0.704565180696,2126
0.704698267321,2130
0.704797064331,2129
0.704878195389,2132
0.705037917258,2131
0.70510344091,2133
0.705335633387,2134
0.707570047062,2140
0.707935425287,2143
0.708342622989,2137
0.708377544225,2144
0.70848454551,2138
0.708567926265,2145
0.708593579799,2141
0.709526593331,2136
0.709663786722,2139
0.709931431153,2147
0.710104473909,2146
0.710454718472,2150
0.710540997753,2151
0.710566317542,2149
0.710636036961,2135
0.710665676714,2142
0.710913938542,2152
0.71091890136,2153
0.710970233933,2154
0.711082357555,2155
0.711189166422,2148
0.711242346388,2156
0.711679784839,2157
0.712601120118,2159
0.712680799454,2158
0.713027061479,2160
0.713427304625,2161
0.713936690352,2163
0.713983849959,2162
0.715058254445,2164
0.715115032858,2165
0.715137358282,2166
0.715306058818,2168
0.715326938644,2167
0.71546878166,2169
0.715504020595,2170
0.716530926652,2171
0.717140539788,2172
0.717530492295,2173
0.717956437428,2174
0.719029871324,2175
0.71946836287,2176
0.719524772709,2177
0.719797536596,2178
0.719849980361,2180
0.720248260242,2179
0.720411702772,2183
0.720491093923,2184
0.721047078876,2185
0.721087507138,2181
0.721228850413,2186
0.721584880349,2187
0.722062004947,2182
0.722259514156,2188
0.722754647504,2189
0.722998387656,2190
0.723052944543,2191
0.723254823661,2192
0.72333441771,2193
0.723901299306,2194
0.724420565055,2195
0.72462548861,2197
0.725089386493,2198
0.725267465009,2196
0.725891034542,2199
0.726048079905,2200
0.726972282004,2201
0.727613988133,2202
0.727787514085,2203
0.727886517458,2204
0.728306810498,2205
0.728496217757,2206
0.728637381297,2207
0.729111169964,2209
0.729168649485,2210
0.729253968774,2211
0.729326688168,2208
0.730053975326,2212
0.731483353462,2215
0.732631934668,2214
0.733220497817,2219
0.733257097512,2217
0.733617987776,2213
0.733644977627,2216
0.733997005957,2218
0.734198034466,2220
0.736955850857,2222
0.736971450727,2221
0.736999891491,2223
0.737139574332,2224
0.737153428078,2225
0.737879427361,2226
0.737910488016,2227
0.737945125163,2228
0.73816175026,2230
0.738753090642,2229
0.739950425702,2231
0.740073844047,2232
0.740364199806,2233
0.740365935073,2234
0.740660447493,2235
0.741151532939,2236
0.741305015858,2237
0.741498968779,2238
0.742469589013,2239
0.743075395855,2240
0.744599368869,2241
0.746154067455,2242
0.747562765458,2243
0.748378658602,2245
0.748416578286,2246
0.748502977566,2247
0.748793399886,2248
0.749586705953,2249
0.750063828927,2251
0.75073531322,2252
0.751719355961,2244
0.751931259734,2254
0.752082338475,2256
0.752308056594,2255
0.752370576073,2250
0.752384855954,2253
0.753189975821,2258
0.753747613114,2259
0.753823455682,2257
0.753932058975,2260
0.754279763879,2262
0.754532724971,2261
0.7547332497,2264
0.754844683871,2265
0.754937022096,2263
0.755057447718,2266
0.755509720727,2268
0.755615559845,2269
0.756223398836,2270
0.756336418186,2267
0.756454641422,2271
0.75747988401,2274
0.757698165391,2272
0.759483115838,2277
0.759904066017,2279
0.760056441798,2275
0.760779624411,2280
0.760851774368,2273
0.760864708157,2281
0.761113756599,2278
0.761263144307,2276
0.761382672384,2282
0.761654859557,2283
0.762188756764,2284
0.762485604137,2285
0.762710541531,2286
0.762751635622,2287
0.76278122514,2288
0.763065437893,2289
0.763607739188,2290
0.764776955259,2291
0.765991688954,2292
0.766016860498,2293
0.766159451754,2294
0.766627528801,2295
0.767078312444,2296
0.768861893352,2297
0.770270337409,2298
0.771185210028,2300
0.771609448322,2301
0.772504559151,2303
0.77260907828,2302
0.773431797271,2305
0.773463237009,2306
0.773585759188,2304
0.773751484697,2308
0.773937549512,2309
0.774096924429,2307
0.774667641055,2310
0.774786920061,2299
0.775565416169,2311
0.775628899838,2312
0.775751205658,2313
0.776757842696,2315
0.776822642156,2314
0.777049413102,2316
0.777149912614,2317
0.777660051133,2318
0.777920584481,2319
0.777957749052,2320
0.777960909154,2321
0.77800377196,2322
0.778064894146,2323
0.77896343954,2324
0.779465321427,2326
0.77975776219,2325
0.779899247411,2328
0.780081525892,2327
0.78089029955,2330
0.780939979136,2329
0.781342067094,2331
0.781898926351,2332
0.782164924666,2333
0.78261277821,2334
0.782888530706,2335
0.783466722233,2336
0.783539302388,2337
0.783686674942,2338
0.78409463762,2339
0.784136586405,2340
0.78414537324,2341
0.785034312377,2342
0.785064576435,2343
0.785767764302,2344
0.786603457897,2345
0.786794336441,2346
0.786882607004,2347
0.787473800604,2348
0.787950351314,2350
0.788024993892,2349
0.788642928954,2352
0.78869672803,2351
0.788724949088,2353
0.789272115968,2354
0.78930163992,2355
0.789717054316,2356
0.789896899264,2357
0.790960763992,2358
0.791157088215,2359
0.791755184346,2360
0.791809202285,2361
0.792590705935,2362
0.792992795022,2363
0.793274129858,2364
0.793514159905,2365
0.793529427049,2366
0.794092690826,2367
0.794206937322,2369
0.794295379785,2370
0.794336059446,2371
0.794744422443,2368
0.796593594949,2376
0.797567290017,2379
0.79781768699,2372
0.79785128671,2378
0.798168862612,2377
0.798360148416,2382
0.798853366949,2375
0.79907636494,2373
0.7990964818,2381
0.799498474358,2374
0.799531961642,2383
0.799653774708,2380
0.800728497462,2384
0.800925821766,2385
0.801095103246,2386
0.80234956516,2387
0.802507127047,2389
0.802619692509,2388
0.802658509485,2391
0.802697508137,2390
0.803231344783,2392
0.803440738164,2393
0.803731362952,2394
0.805051668667,2395
0.805629068336,2396
0.805987505349,2397
0.807686377223,2399
0.807739656779,2398
0.808082498464,2400
0.808769972472,2401
0.809226011779,2402
0.809276515735,2403
0.810222426871,2406
0.810503707727,2404
0.810638589803,2407
0.812034516765,2411
0.812258881329,2408
0.812477844397,2412
0.812606417375,2410
0.813530485563,2416
0.813768803577,2417
0.814348424873,2415
0.814842067338,2405
0.814849987272,2413
0.815072326516,2409
0.815073526506,2420
0.815486335931,2422
0.815693100608,2423
0.815773379939,2424
0.816065742149,2419
0.816124663244,2425
0.816155665255,2421
0.81628258749,2426
0.817187141675,2428
0.818046172172,2427
0.819023449626,2431
0.819067129262,2432
0.819141888639,2430
0.819770736855,2433
0.82063943969,2429
0.821181898078,2414
0.821705988114,2435
0.821822924747,2418
0.822391400963,2438
0.822521978298,2439
0.823065519902,2440
0.823076199813,2441
0.823524279279,2442
0.823743796637,2436
0.824109436302,2437
0.824179379164,2443
0.824212686203,2444
0.824236345276,2445
0.824681285101,2447
0.824838123794,2446
0.824904843238,2448
0.825238053072,2449
0.82574102723,2450
0.825852750444,2434
0.826224868336,2451
0.826719974943,2452
0.826802151644,2453
0.827029247086,2455
0.827445621955,2456
0.827482176005,2454
0.827553041454,2457
0.827653174828,2459
0.827838134029,2458
0.82891437215,2460
0.829649448353,2461
0.83038534761,2462
0.830685468309,2464
0.830857084208,2465
0.831183594743,2463
0.831738045216,2467
0.832267580412,2466
0.832504395049,2468
0.833902043327,2469
0.834672167648,2470
0.835603669528,2471
0.8368403139,2472
0.83734413307,2473
0.837955405111,2474
0.838552455212,2475
0.839051552276,2476
0.839196585217,2477
0.839222138451,2478
0.839569479746,2479
0.840457196559,2480
0.840878756579,2481
0.841346623264,2482
0.841532432019,2483
0.842476938678,2484
0.842876113647,2485
0.843335834987,2486
0.844155427618,2487
0.845196345347,2489
0.845251664886,2488
0.846062418855,2490
0.84649777439,2491
0.846725989573,2492
0.848216549479,2493
0.849363778859,2494
0.85000302284,2496
0.850799660135,2495
0.850841063988,2497
0.851313811918,2498
0.851778029086,2499
0.852082163959,2500
0.85251630181,2501
0.852755050058,2504
0.853332252646,2507
0.853870311291,2509
0.854974487179,2508
0.855074770247,2515
0.855116405012,2514
0.855189641156,2512
0.855247792731,2513
0.855300924244,2506
0.85532260461,2511
0.856103657799,2517
0.856321839606,2516
0.856382844463,2518
0.856528774069,2505
0.856948546827,2502
0.857150138326,2519
0.857258435067,2510
0.857259702248,2520
0.857298175124,2521
0.858314738597,2523
0.860710797258,2503
0.860913910449,2522
0.861251448311,2526
0.861610707249,2525
0.861764800395,2524
0.862365570611,2527
0.862407078579,2528
0.862442810835,2529
0.862578115798,2530
0.863076044621,2531
0.863204211264,2532
0.863428496793,2534
0.863465336486,2535
0.863509499318,2533
0.86362662254,2536
0.864269754599,2537
0.864686093057,2538
0.865014783381,2540
0.865039863172,2541
0.866053506403,2542
0.866556513127,2543
0.866671838641,2544
0.86686267422,2539
0.866897134056,2546
0.867385016002,2545
0.868412775624,2548
0.869228317423,2547
0.870189387266,2549
0.870471183555,2550
0.870556010792,2551
0.870647655444,2552
0.871145425549,2553
0.871685540485,2554
0.872066288615,2555
0.872407697584,2556
0.872602328682,2557
0.872723813321,2558
0.873026048624,2559
0.873175916066,2560
0.873243959697,2561
0.873583613633,2563
0.873593213553,2562
0.87373851246,2564
0.874349792388,2566
0.875107771596,2568
0.876656925071,2571
0.87720069873,2574
0.877279000497,2572
0.877596602128,2570
0.877705786064,2575
0.877915832605,2573
0.877995567562,2576
0.878110137359,2577
0.878704107607,2567
0.879416177064,2579
0.879624302589,2581
0.880469286166,2565
0.880911992355,2583
0.88093659215,2578
0.881395777443,2569
0.881741219212,2584
0.881912400742,2585
0.882082679323,2582
0.882319080553,2586
0.882445926894,2587
0.882470805301,2588
0.882556809253,2589
0.883481299981,2580
0.884423136566,2591
0.884573615312,2590
0.884799821465,2592
0.885901289788,2593
0.886086957997,2594
0.886477131555,2595
0.886845353187,2597
0.886847873166,2596
0.887236883431,2598
0.887243134326,2599
0.88735338198,2600
0.888082469165,2601
0.888622094325,2602
0.88926305245,2603
0.889343707961,2604
0.889641049028,2605
0.890893411341,2607
0.891033573373,2608
0.891577877992,2609
0.891585197931,2606
0.892293294687,2610
0.892993823948,2611
0.893488375575,2612
0.893740020876,2614
0.893836260074,2615
0.894429121533,2616
0.894440881435,2613
0.896460361537,2617
0.896787583166,2618
0.898019052549,2619
0.898573713797,2620
0.899178745651,2621
0.899481440523,2622
0.899688509745,2623
0.899740083466,2624
0.900028296953,2625
0.900043386595,2626
0.900315371,2627
0.900637597632,2628
0.900927661007,2629
0.901094623522,2631
0.901338824687,2632
0.901353104568,2633
0.901564240529,2634
0.901830656877,2630
0.90186816412,2635
0.902095302766,2636
0.90250929796,2637
0.902619056305,2638
0.903717997057,2639
0.90380974288,2640
0.904222821724,2641
0.904695130679,2643
0.905079893102,2642
0.905226032221,2646
0.905473667174,2647
0.905605432476,2648
0.905666387718,2650
0.905849026196,2644
0.905909873959,2645
0.906062914402,2651
0.906456320368,2653
0.90667687853,2654
0.907202312061,2655
0.907354186995,2649
0.907600813992,2657
0.907679386074,2656
0.907910014733,2658
0.908288949771,2659
0.908441651202,2660
0.908752665095,2662
0.909070880743,2663
0.909280758994,2652
0.909475833399,2664
0.910265863085,2661
0.91078996335,2666
0.91085716599,2668
0.910869525887,2667
0.910990124882,2669
0.911261349854,2665
0.911848256801,2670
0.913791199863,2671
0.91383858088,2672
0.914566324746,2673
0.914719469719,2674
0.915814811036,2675
0.916234575747,2676
0.916551399479,2677
0.917218971863,2678
0.917267439446,2679
0.9179360544,2680
0.917952092555,2681
0.918173230417,2682
0.918659839731,2683
0.918842741619,2684
0.919749422778,2685
0.920646290984,2686
0.920977185862,2687
0.921162345735,2688
0.921590322432,2689
0.922928072245,2690
0.923149286543,2691
0.923231250058,2692
0.923455147044,2693
0.923721071228,2695
0.923737391092,2696
0.924025820916,2697
0.924231259204,2698
0.924865689915,2699
0.924974106457,2700
0.925109332807,2701
0.925302057601,2694
0.925335897319,2703
0.925416776645,2702
0.92565884179,2704
0.925691419604,2705
0.925768120196,2706
0.926028798757,2708
0.926053878548,2709
0.926154080913,2710
0.92627924307,2711
0.926622200212,2712
0.927021160552,2714
0.927133784397,2713
0.927241719856,2715
0.927655297461,2707
0.927956868891,2716
0.928578427632,2717
0.92861227055,2718
0.929307430819,2719
0.929691490961,2723
0.929941176043,2724
0.930056762186,2720
0.930451493366,2721
0.930499475306,2726
0.930730507426,2727
0.930753790432,2725
0.931370399571,2722
0.931384199456,2729
0.931857907682,2730
0.931946642761,2728
0.932247710303,2732
0.932606175342,2731
0.932879458149,2733
0.933442737809,2735
0.933492057398,2734
0.935174547372,2742
0.935442975069,2744
0.935466404,2743
0.935678085593,2746
0.935866224883,2747
0.936053559299,2748
0.936154762753,2749
0.936243344788,2737
0.936803938387,2739
0.936914937462,2751
0.937096259151,2752
0.937298419387,2736
0.937479856474,2753
0.937492693346,2741
0.937685806644,2755
0.938499929103,2758
0.938534488815,2756
0.939208245383,2759
0.939243645088,2754
0.939289847903,2760
0.939417616759,2761
0.940011378206,2762
0.940516727438,2763
0.940813119216,2764
0.941109409547,2765
0.941321087783,2767
0.941841331281,2757
0.941878318073,2738
0.942193217452,2768
0.942364166528,2750
0.942460936287,2745
0.942906783557,2770
0.942948663208,2771
0.943009022705,2769
0.94341990355,2766
0.943440786327,2772
0.943573475574,2773
0.943632860398,2774
0.944612142454,2740
0.94473646889,2775
0.944796232593,2776
0.944969822139,2777
0.945373568769,2778
0.946327679325,2779
0.946685626329,2780
0.946922877812,2781
0.947279265229,2782
0.947350769209,2783
0.948347910459,2784
0.94851123454,2785
0.948540220914,2786
0.949796473089,2787
0.949816068275,2788
0.950017585882,2789
0.95097643896,2790
0.951323194833,2791
0.951860767013,2793
0.952061817872,2794
0.952302135765,2795
0.952491870394,2797
0.95496347656,2803
0.955032853051,2802
0.955120879711,2801
0.955199107793,2800
0.955213301155,2806
0.955446782647,2805
0.955534576699,2807
0.956131713833,2804
0.956667884102,2798
0.957217340212,2799
0.957311620842,2792
0.957363167771,2808
0.957477620566,2796
0.957952661967,2809
0.958885570673,2811
0.959278807396,2812
0.959331966953,2813
0.960637559529,2816
0.961007023266,2818
0.961051132932,2819
0.961106823207,2814
0.96141250244,2820
0.961483493723,2822
0.961669927588,2815
0.961964788543,2825
0.962521050156,2821
0.962696039771,2824
0.963593286823,2827
0.96376216868,2823
0.96386489421,2828
0.964043262117,2829
0.966253672176,2836
0.966773635057,2838
0.966895086153,2840
0.9676010559,2839
0.967743509735,2842
0.967855276609,2843
0.967899538364,2837
0.968072849616,2844
0.968257976602,2845
0.968603166897,2846
0.968988297909,2826
0.968988537907,2847
0.969040737472,2848
0.969399794752,2833
0.970029429629,2851
0.970284390026,2852
0.970484999959,2830
0.970611126735,2853
0.97123144869,2854
0.971377007477,2855
0.971806414573,2856
0.971878222561,2857
0.972409637073,2831
0.972582562032,2841
0.972619401725,2860
0.972725284683,2858
0.972993841043,2849
0.973069351444,2861
0.973168808665,2835
0.973671469794,2863
0.974249692132,2810
0.974374369845,2862
0.974516140659,2832
0.974586184024,2834
0.975006168158,2867
0.975523367048,2865
0.975545686862,2850
0.975788677525,2864
0.976241081715,2866
0.97668290014,2859
0.976688300095,2870
0.977025613601,2872
0.977081172077,2868
0.97722587935,2869
0.977822691975,2817
0.978351780395,2871
0.978420514443,2873
0.979055112449,2874
0.97957652122,2875
0.979711872091,2876
0.979783791353,2877
0.979998194316,2879
0.980248278632,2880
0.980295798236,2881
0.981458016215,2885
0.981780721362,2883
0.98184772235,2888
0.982204880329,2878
0.982394345193,2887
0.982717144093,2891
0.982866782846,2889
0.982919942403,2882
0.982960262067,2892
0.983526760895,2893
0.983729717603,2884
0.984029797506,2890
0.984137753847,2886
0.984179944125,2894
0.984820146801,2895
0.985572954232,2896
0.986719555308,2898
0.986756035004,2899
0.98717971422,2897
0.987782360882,2900
0.988923927568,2901
0.989051387069,2902
0.989414075363,2904
0.990176051639,2903
0.990181536667,2905
0.991395367683,2906
0.991469701434,2907
0.991634254863,2908
0.991668820975,2910
0.991717660568,2909
0.991774821268,2911
0.992235500655,2912
0.992352516478,2914
0.992547634852,2913
0.992947656927,2915
0.992993745755,2916
0.993717944491,2917
0.993942927054,2918
0.994093156504,2919
0.994174312336,2920
0.9947948258,2921
0.995443303356,2923
0.995696744444,2922
0.996308795865,2925
0.996401438293,2926
0.998045928039,2934
0.998092794739,2932
0.998142879995,2931
0.998239168888,2930
0.998268065748,2928
0.998289856358,2929
0.998330610448,2927
0.998929373705,2936
0.998981067002,2937
0.999544770484,2938
0.999683778894,2939
0.999796217957,2940
0.999972862885,2941
1.000164861285,2942
1.000493841769,2933
1.000664660105,2943
1.000672187678,2944
1.000849862642,2945
1.000880028215,2946
1.001539170809,2935
1.001619120624,2947
1.001697140476,2948
1.001728294417,2949
1.001766562867,2950
1.001930988984,2951
1.001988657421,2924
1.002396119044,2952
1.003015634975,2953
1.003403630949,2954
1.003717227603,2955
1.004220596406,2956
1.00462507938,2957
1.005294661537,2958
1.005922722682,2959
1.005927680361,2960
1.006182532005,2961
1.006541404475,2962
1.006586782713,2963
1.006917548048,2965
1.007456709955,2967
1.007473389816,2966
1.009319998892,2970
1.009845829283,2973
1.010560505504,2975
1.010638424054,2964
1.010663661062,2976
1.010881437152,2977
1.011160144761,2978
1.011479702098,2971
1.01181698187,2969
1.012368618762,2980
1.012948764474,2979
1.013026104444,2972
1.013032435816,2982
1.013106374589,2974
1.013119926013,2968
1.013593183164,2984
1.013651862675,2983
1.014207714101,2985
1.014363116006,2981
1.014421839535,2986
1.014936154898,2987
1.016690570146,2989
1.016875731803,2990
1.017029213724,2991
1.017079013309,2988
1.017648751129,2993
1.018107172621,2994
1.01833535949,2996
1.01873374077,2992
1.018757383773,2997
1.018973412074,2999
1.020627993203,2998
1.020734136574,2995
