time,CharnySim1.flowGenerator3.flowSynSize:vector
0.000601455977,36
0.006062084454,803
0.012411696146,1
0.015262143364,6
0.01654060762,4884
0.025362388185,21
0.029588149183,7
0.03145482842,16
0.032777133709,5
0.03414889727,33
0.034724722056,12
0.035505770346,32
0.03961623558,27
0.040987908694,18749
0.043357248982,33
0.04433257303,506
0.046958759479,64
0.051392060807,37
0.054659705039,22
0.056417311387,2260
0.060508385387,5026
0.062000227745,588
0.063079843749,53
0.067005996524,14
0.06751639672,41
0.072331203676,16
0.0742961875,19574
0.075354967781,2
0.076071930316,59
0.07650496212,2896
0.080901719429,510
0.08669534295,36
0.090767436133,3999
0.093278869435,43
0.095983037403,87
0.098316110462,39
0.100106352213,7
0.107189974813,14
0.1102843384,1190
0.114665483394,5197
0.120946920118,1349
0.122657876184,774
0.124440869638,22
0.126353574755,5
0.127063277748,1389
0.127250119064,52
0.129769288946,626
0.136572715594,4
0.138308557552,2
0.138968522428,19
0.143688074236,10
0.144299222818,2634
0.14453941849,3
0.145531583051,2862
0.146699527954,1917
0.149591144542,5
0.149929836892,1926
0.150376104138,3226
0.15150514175,510
0.152171540581,126
0.153327364225,37
0.154544464475,6584
0.155534970989,516
0.157488784703,2897
0.159750916271,36
0.163401730393,57
0.165264803161,6090
0.165643127422,14
0.17167018963,624
0.173442859832,20
0.177166046084,23
0.178840385236,7
0.182690236018,595
0.188853060179,1223
0.205893016205,2026
0.206525871519,36
0.206841410113,1
0.207567480855,2
0.209210865897,1001
0.212443695404,262
0.231210567393,457
0.23503479063,20
0.235054354977,988
0.235871760587,19
0.239813990384,15050
0.243410834621,41
0.261958068172,15
0.262189960128,1262
0.263252311217,5
0.266118143182,4
0.267142821251,41
0.26905196991,44
0.27668712475,5
0.278181474315,20
0.279703896696,3743
0.285468551743,20
0.28773452418,3494
0.288094620171,6
0.289189161336,6
0.299708302913,53
0.305065978065,1
0.307875069528,4
0.314738103578,554
0.319544960008,4137
0.324052085062,15
0.330139141348,3831
0.331537778794,18
0.338050132788,20
0.340527657518,48
0.342331428518,116
0.34316783589,3
0.34326107192,95
0.347964789027,104
0.349062669443,208
0.350864689111,7
0.358332916161,6026
0.358780443617,122
0.376030698139,18
0.386414954072,666
0.397796397633,16
0.40018937508,5
0.405702100212,58
0.409846073015,36
0.418618483818,637
0.420885477878,5712
0.422149493742,48
0.424394288617,36
0.425028809178,66
0.436072361084,3
0.438477009155,1104
0.439159191135,61
0.441700321926,3
0.44348846829,474
0.444544161472,7
0.44945982073,52
0.451291297506,1283
0.465346220745,5457
0.472824582513,2
0.47709751702,118
0.484080203907,66
0.484086268597,2996
0.487404786571,3496
0.491348423922,7
0.492686224062,41
0.495446866296,7
0.501070880564,31
0.501539442366,3177
0.502777505798,1482
0.502783459803,34
0.508887383602,63
0.517823894306,9
0.523271982074,413
0.524056608916,29
0.528506320276,27
0.529001171132,101
0.529570002316,4644
0.531393423304,1006
0.535804805834,336
0.537413758169,6
0.537725398025,840
0.543312265431,615
0.543345027695,3000
0.54965823609,260
0.55005730563,388
0.551883956952,1007
0.554498205411,28
0.556892523679,27
0.559770062335,1089
0.563563178596,18
0.56591550333,28
0.578517187748,1019
0.57971558343,3252
0.582157842651,38
0.588075001436,1
0.589182384206,2961
0.5926283242,472
0.596265925262,6421
0.603954218785,49
0.605631341994,250
0.605797403833,4
0.60744121288,6
0.610118700113,1247
0.620107305848,3
0.623672817867,42
0.627379456939,5690
0.628260608637,28
0.639108671264,109
0.648334861624,35
0.649160999371,31
0.649905829739,5326
0.650052484558,16
0.653094012237,1087
0.664126809843,3495
0.664952833559,1144
0.665741332222,104
0.669443569506,21
0.674603096893,1
0.676638837529,1152
0.678114160166,225
0.685266514363,8
0.697078045252,24
0.702240297435,109
0.705157443239,53
0.705529690644,1
0.711448895709,3053
0.715581854097,727
0.716692313806,28
0.721420216152,45
0.728962679895,3740
0.730922035721,258
0.731903302563,1098
0.733100020084,44
0.734553812235,1
0.735527817834,18
0.741983086788,4736
0.747204666618,1968
0.751202394771,619
0.753641739093,78
0.760576416743,4
0.763343135719,10
0.764391138206,45
0.77211019527,7
0.782690783646,952
0.784504109092,18811
0.791425673661,13
0.795650351115,4886
0.805097389798,650
0.807089287961,44
0.815637363961,3
0.818846375404,16
0.820195441342,1037
0.824975971909,50
0.830616392636,1026
0.832836930997,14
0.841262690759,3
0.846095168219,4430
0.848268253436,744
0.850549047038,52
0.853180432754,6
0.855480033438,10
0.856686638272,1
0.859523623199,33
0.861256295974,2
0.865371428364,5
0.866483582511,2
0.867449112471,51
0.876870417869,17
0.877577388843,5
0.880112737743,20
0.88297289269,2534
0.886656691329,64
0.887752873248,16
0.888740382979,80
0.892006622165,19
0.892338342431,6
0.893537434647,16
0.894196654564,19
0.894826173305,2174
0.894904844968,5
0.897627916161,118
0.897965070185,100
0.901313890819,6556
0.906122247744,37
0.911473836845,89
0.912234049671,30
0.913888946879,6648
0.914668980502,1
0.918724981567,1594
0.91921847313,20
0.919310803017,16
0.920013670368,1346
0.92286621822,783
0.930681777516,1476
0.935520876102,203
0.936498550204,32
0.951784299807,38
0.954915818995,1013
0.955823062891,38
0.957387756837,84
0.957961519251,981
0.958922179085,2605
0.960731242519,38
0.96133488185,7
0.961937586924,29
0.962784831878,3
0.969771330733,8
0.97596965023,6
0.981171521787,2
0.983123268936,5105
0.985985193082,5
0.992430625796,1214
0.992571356406,4115
0.992948467717,16
0.998584035447,221
0.999700689814,2
1.000567923798,754
1.005434411519,88
1.006720112389,424
1.008908716899,1
1.013202485275,6
1.013265592735,4
1.013580193813,20
1.013742328921,29
1.021801423491,6537
1.023097963067,97
1.024610093568,19
1.026305110366,14
1.029354785573,4
1.037620998481,17
1.03780456683,7
1.043896298252,9
1.044221117192,13
1.046156003936,959
1.046179075634,113
1.047612534522,30
1.051456387322,3
1.05436412492,16
1.058820236322,940
1.061038738048,5177
1.061515299761,20
1.062644649836,48
1.063028040039,2270
1.064532004963,14
1.065290095825,240
1.066843882341,6676
1.073998394157,8
1.076301866681,1913
1.081011637479,1063
1.082216165307,3194
1.090549081367,11892
1.093663565938,1
1.104667834742,406
1.106253757601,4
1.108287523088,2
1.109827946154,47
1.112454778918,1611
1.11777050491,168
1.120777704001,1084
1.121855580662,98
1.12386808039,42
1.128529658987,23
1.13095449815,56
1.138311212625,5
1.139797188421,7
1.139930592539,111
1.144348265919,31
1.144963234775,51
1.145759137089,78
1.147712814697,15
1.150426318197,969
1.154152137129,503
1.157622195885,43
1.159188308495,18
1.163579175237,4117
1.164027945433,14941
1.164325017512,6
1.164361375853,3
1.167958861115,1095
1.173209886776,30
1.183958941102,15
1.185145456934,292
1.186292711158,4
1.190192716491,15
1.192440390513,5
1.197424419801,1019
1.201032053477,9
1.208459028905,3
1.215135637444,28
1.215706245766,18
1.217538039202,5
1.229183887702,1429
1.234034821339,7
1.235225088541,13
1.24251753796,344
1.243672284738,4811
1.246117171691,107
1.248324699935,53
1.249867544133,258
1.253905397871,2127
1.255066035136,18
1.257623086221,4515
1.264718759694,24
1.267374181857,3
1.268897682154,854
1.270391975104,901
1.272951404493,53
1.281286436592,9
1.281499226864,1148
1.284163170672,913
1.28565025461,598
1.286475088376,1
1.291936944442,3706
1.293911467508,4856
1.295499252906,38
1.298948116997,16
1.302758275648,858
1.307014114235,223
1.316515286245,1043
1.321512678808,34
1.32447841453,5668
1.332413967084,84
1.334644592066,14
1.34033109158,5723
1.341392395466,4534
1.346821636418,1
1.351162724834,4077
1.352868379968,356
1.354044815206,33
1.355895874459,20
1.357350106706,47
1.359323603996,4589
1.360184366567,9
1.362905178534,157
1.369995882251,2
1.371927030696,76
1.375801010689,42
1.386459577378,4581
1.389046011089,1501
1.396118056112,4226
1.400031990126,30
1.404069399866,33
1.413863303687,183
1.4210001386,2
1.423024515436,6346
1.423933448272,10
1.424415563348,28
1.426273450379,6
1.427730106514,4
1.427973328444,7
1.42912545861,50
1.42983645923,631
1.435919328467,1
1.436797425991,1
1.442296900125,43
1.454532457195,25
1.454873055375,1
1.458595860583,1876
1.460640953947,45
1.460852022023,11
1.464318503329,5618
1.466851101009,6254
1.466979544905,5
1.468327751281,25
1.469116336345,50
1.473958191368,6
1.48382503978,1524
1.484039742744,3048
1.485816431741,59
1.490651190441,26
1.490802077292,19
1.492269461354,28
1.498458984512,5244
1.499167437949,113
1.50493785402,3259
1.514453263169,17
1.517303841732,2910
1.521861545949,2229
1.52655350989,2
1.541022873306,3591
1.541692313778,43
1.545954335444,38
1.549638153964,6464
1.560897039115,73
1.565924917425,27
1.567582283733,108
1.568161786597,1325
1.569161689393,20
1.570050038705,6
1.573173628739,48
1.577303367992,133
1.578934671861,22
1.579469767612,1
1.584371233384,5717
1.589775318593,126
1.593113399827,15
1.593155694181,39
1.594832351533,17
1.598605703539,1481
1.599358055073,5850
1.601591159193,23
1.603233448998,16
1.605405949085,2610
1.609888967933,1636
1.611663509165,3192
1.617227672555,109
1.622424690677,70
1.623115119614,12
1.625302282362,13
1.631180522431,121
1.631858535711,1253
1.632547048474,198
1.636463064891,3
1.640066777869,3
1.653419740754,1
1.657046941724,37
1.658014480073,3
1.659431660534,556
1.664223772483,34
1.674028623467,107
1.674404664049,4220
1.675841206173,1
1.682789813366,2684
1.68431930058,31
1.686438949576,17
1.686908645576,1242
1.691324543778,4
1.693476405069,159
1.69565357198,8
1.698531767584,14
1.699455407394,9671
1.70294213954,1911
1.703327853824,105
1.703729848566,37
1.708658888725,8349
1.716443889831,27
1.716608976943,284
1.717393665384,20
1.719049109672,667
1.71911334872,119
1.721538241355,654
1.72384957806,1001
1.726270509283,4
1.730916188048,2
1.733757018751,2500
1.738579247442,1034
1.743404530815,1263
1.744899990037,657
1.745685992923,1
1.747207032489,24
1.751483895527,18
1.752134061477,2623
1.752535046663,3359
1.753763888634,511
1.760675408759,44
1.760888765776,42
1.774861387801,28
1.775333922877,31
1.77895503185,17
1.781456540632,35
1.783679737598,2
1.791038284362,34
1.7913527518,56
1.791963108919,23
1.794764763417,6
1.799404724836,251
1.799905492795,90
1.80074668184,38
1.803219007796,10
1.812600445619,37
1.814412513659,549
1.820442140861,586
1.820650831925,14
1.821988571553,19
1.822346269162,8357
1.825030921348,38
1.840303308753,1
1.842600638564,26
1.860700252733,15
1.863736734692,1318
1.868247188795,2
1.883748997382,2934
1.895406182969,468
1.896053887935,4994
1.896511178499,1214
1.897298334719,3517
1.900387742483,52
1.900528180901,19
1.910766069701,1
1.91200990156,17
1.918554820579,20
1.925142317833,2432
1.925876291151,66
1.925892999013,53
1.930288290077,12
1.930296446097,1377
1.930874870873,102
1.931856023122,4
1.932152161126,2532
1.932659783109,2
1.933492731066,888
1.934595995537,52
1.942250350996,41
1.94467180333,1140
1.949253470297,1
1.950296467502,98
1.952856140751,3
1.957299870724,44
1.960214357074,26
1.9615437999,1569
1.96278777421,327
1.963275621101,4
1.965586789564,1153
1.968327367127,31
1.970839211803,705
1.971075624046,4
1.973037513703,16
1.973617567307,2
1.974105992671,11
1.981747195854,19
1.988989683347,12364
1.994176786026,4
1.997014487514,1571
2.00054469676,456
2.000961332088,605
2.001064431818,99
2.00136271683,12
2.001783096784,2636
2.002692140096,2833
2.004285673479,9
2.014055509923,53
2.015898152155,44
2.017977574424,27
2.021968366672,3519
2.022444926634,45
2.023818014028,16
2.02499523354,125
2.02967593148,2274
2.030461928242,2109
2.032006897316,22
2.039298913688,7
2.045986242953,4110
2.049155636194,66
2.050384374388,44
2.054397886774,3793
2.056884574419,18
2.068571323039,15
2.069468269951,5
2.073243012129,40
2.081332561053,13
2.083725500772,46
2.085007330804,49
2.086632399069,25
2.089707602387,858
2.090076628253,1
2.101188134991,14
2.111581504932,50
2.118509794522,17
2.123069540736,524
2.126015705806,3
2.126639141814,2367
2.130189855386,36
2.13034203248,8
2.13252754347,223
2.133500977403,161
2.133676742734,16
2.143490959709,23
2.14594998195,5
2.15009522316,52
2.154442333348,3144
2.154564853024,1270
2.158465300514,46
2.158497798239,15
2.163181855587,8
2.164182677851,14
2.16592039446,250
2.167303978297,563
2.17147276016,70
2.172113301105,8
2.174924127171,423
2.175980290939,51
2.177691173561,7
2.179690175586,7
2.181978951132,1011
2.185387162512,15
2.185738914538,3
2.190771681974,52
2.199344700154,1
2.202505611802,769
2.203602058213,3315
2.204106191664,1236
2.206134549623,14696
2.208825852616,22
2.211997472357,24
2.212787367511,33
2.216340239817,4
2.217719485252,2792
2.226863334126,27
2.227944129258,2228
2.228298179572,63
2.229355197658,1
2.234936347341,265
2.235983165625,14
2.238610330415,2666
2.245076426425,5706
2.245677946415,268
2.247302180593,1862
2.251069564779,23
2.253770828009,2416
2.25710312406,5
2.261103248226,3
2.265092094029,407
2.26913658062,823
2.274071597789,691
2.275799157724,1062
2.279118967603,188
2.286277287119,35
2.294582042027,1331
2.295611779723,696
2.307430292692,2
2.31068322141,117
2.314248842267,1135
2.318189296136,21
2.319087148718,879
2.321795494871,18
2.325388395008,6646
2.330884787681,22
2.331246243681,18
2.337697350119,16
2.338248405307,306
2.344182297062,27
2.34484412035,520
2.356067929214,1193
2.358392271703,51
2.360211626689,1311
2.361645644416,41
2.364103985348,215
2.367967257446,1219
2.376121781116,3
2.384576120244,41
2.38572833097,21
2.39010718556,7
2.392511382196,28
2.398896287214,81
2.402669694592,67
2.403904474488,36
2.408887240656,3396
2.4092960137,6573
2.410035794524,329
2.413065269703,14
2.423605684709,72
2.431630456641,450
2.433844107305,53
2.444807836935,7
2.446488687923,1515
2.448321360773,6479
2.448385627425,43
2.449146160341,28
2.453645597262,2
2.454298728525,58
2.457015132262,15766
2.45836018277,9
2.459782230226,8774
2.466775203467,108
2.467335889646,3080
2.474033567408,971
2.477495908162,2
2.479105362559,22
2.482635162252,29
2.486692337518,46
2.489842419058,841
2.490422190484,628
2.494919360263,1439
2.498310705109,619
2.49917596403,47
2.499934037342,4167
2.501122308331,2581
2.501254522499,16812
2.501742055587,12
2.502207090953,17295
2.509215881565,40
2.510491750145,2162
2.510648232085,83
2.51577684377,113
2.51661262592,18
2.518264750936,47
2.520564545523,14
2.531977115768,19
2.536427439043,17
2.536772492887,16
2.537056304363,15446
2.538877871281,18
2.539826845892,383
2.547355337415,1002
2.551233618898,43
2.551747904643,14
2.552967182482,3
2.556711582014,51
2.558999255624,4340
2.56042319817,2931
2.562208347646,44
2.567480945115,15
2.569595034976,834
2.573682410245,1325
2.575307052874,21
2.580305923292,20
2.583216868207,48
2.589370072771,2
2.590425874065,14
2.59422834005,126
2.595175543693,4
2.596828547806,9
2.597650706462,31
2.599076043782,2211
2.604792780952,50
2.608760025514,1000
2.609357987084,1251
2.612815689408,51
2.613547350955,66
2.614699544321,15
2.620406584921,3505
2.621015420193,921
2.624035625073,18
2.624932030375,1413
2.625112634532,2
2.627869766211,93
2.630327184723,6164
2.631167697967,730
2.632202941374,6
2.634965826201,44
2.636190230134,30
2.643319099797,4
2.647785272442,5598
2.651315567283,15
2.656595963402,50
2.657390629072,18
2.663618386193,4
2.664016891696,637
2.666221886977,43
2.667468107158,38
2.673086573885,29
2.675354865035,5
2.677613859007,1654
2.700700733445,314
2.700995349849,3
2.706785238879,1393
2.709936664404,32
2.71324155155,650
2.714237421064,43
2.716493573697,1109
2.716548773685,26
2.717812801055,905
2.722135744554,19
2.723911707084,38
2.726386154084,2251
2.727487501788,3793
2.735488101008,434
2.736855071383,1689
2.737496816807,1814
2.738073533353,275
2.743451135674,1
2.743749302569,7
2.747889057166,903
2.748142433677,4
2.756522138202,152
2.757109761738,1
2.760053822383,561
2.772911582008,3
2.78382283682,116
2.784901672434,43
2.787848917917,104
2.78927463609,6
2.789370933064,29
2.79287369729,2
2.803622527921,1033
2.806343160793,6129
2.813771732979,33
2.814127147951,32
2.817890240928,980
2.82781447204,14197
2.830114183426,2057
2.853486545343,42
2.858444633181,42
2.863224692581,117
2.866298326337,46
2.868285272309,512
2.873070342521,12064
2.87948428847,45
2.88918131187,4
2.891537769728,1397
2.894109026176,34
2.900785200371,1197
2.907229459571,3557
2.923247344602,2
2.927438149423,420
2.931958788411,16201
2.935496954433,2
2.935754833159,1160
2.938775423754,6
2.940759763191,794
2.945492882109,17496
2.948511986442,233
2.951506206228,1
2.951909036473,604
2.956390488951,181
2.957915691133,64
2.959488344023,5
2.961900107768,1
2.965912588726,19
2.971899748265,1175
2.975189236121,5772
2.980162278687,51
2.982429220995,1307
2.985497907469,7
2.986908559562,4
2.987639923459,8
2.987946577891,772
2.989316616713,3591
2.989744764765,3137
2.991802963211,12
2.991920692811,215
2.994888921547,4061
2.996270464743,2090
2.999438619981,254
3.001510497108,646
3.008557680479,82
3.013246898787,3610
3.027025742321,741
3.029872522943,2558
3.032134626437,18
3.032411486677,879
3.032612402213,969
3.038160550283,15536
3.038882199313,34
3.041049068798,104
3.047474654519,3776
3.05043224256,17
3.052727282581,342
3.054585389004,10
3.064236760734,48
3.067395470742,6
3.069873643305,19898
3.074506977059,3121
3.075929766271,1586
3.081811314522,7
3.08328260486,2824
3.088094875112,2290
3.089452660087,18
3.097038392596,388
3.098703376985,117
3.10091158909,1716
3.104464560566,22
3.113320099995,19
3.13574471011,18
3.136674962626,58
3.136853303326,49
3.140237436272,22
3.141856767688,1332
3.146165506486,6
3.146586189834,29
3.14709335225,1149
3.149322702492,12186
3.1503791699,39
3.152271240177,2
3.15356316263,51
3.15917663357,3847
3.16178448227,16
3.163762578422,4335
3.171275359061,2
3.178268063698,2184
3.180584673606,21
3.183805095866,47
3.184143518506,780
3.184557535635,5186
3.185586737878,16291
3.187122287584,401
3.190317149412,3154
3.195100141606,2
3.208865738928,7
3.20894758384,53
3.231209123784,21
3.231253806414,24
3.240135998341,86
3.240726716011,2524
3.241510286897,3072
3.243311427285,52
3.244971922543,3071
3.248325096124,18
3.248496565657,615
3.250298220865,42
3.254322116495,285
3.257442959303,49
3.257485346398,20
3.257839636695,2941
3.260567785714,25
3.262886007891,1
3.26680152031,107
3.269732027382,14
3.27023662714,3228
3.275787101591,22
3.281324308222,52
3.282405019116,1726
3.288802060556,2111
3.298023133202,53
3.298054682528,38
3.303204703154,4115
3.306416488664,9
3.307454040477,17
3.312909752817,30
3.316594886423,5666
3.316991404755,3
3.3233539284,105
3.329161445742,31
3.33316897603,3064
3.335358333046,4851
3.335912628848,2220
3.336776155574,16
3.337567093506,352
3.33951516134,6
3.340898989842,4
3.341964037813,35
3.342901698491,5089
3.345240006737,4296
3.346165773373,16
3.346946104855,28
3.348375099602,22
3.34957731466,7
3.358355222396,10
3.367533670602,2463
3.373540495884,172
3.382273625248,5
3.386005971866,36
3.406267387907,9
3.407990810615,12
3.408608353889,5863
3.408732187381,1661
3.413066198935,40
3.417482915265,9
3.417583193533,17
3.417948838657,680
3.425667115235,2919
3.4271602446,104
3.42904455205,46
3.430111209755,27
3.436471890954,34
3.438401873295,3
3.439152858052,19
3.441817738273,16
3.447666078048,3
3.449612598743,7
3.450065680727,476
3.452308586158,49
3.460037199152,1191
3.46300581351,52
3.464891742153,11
3.469228529914,10
3.469765947778,115
3.480739865091,100
3.487536385089,4673
3.496445648034,5
3.498644816219,42
3.500546715941,127
3.501124501398,8
3.501258374698,1671
3.503102474373,21
3.509395201421,129
3.513864003169,277
3.514181831739,1095
3.515367890431,2
3.516180859403,5
3.519177943324,741
3.519971174974,3408
3.521911801504,13
3.524849649054,3
3.525366236404,4
3.528256470296,42
3.530563431706,23
3.530567031706,31
3.536252094062,9329
3.539609429978,158
3.540511932318,2927
3.544279803608,10
3.547066073944,18558
3.560624958408,9045
3.561281161792,36
3.563368689892,13
3.56489218642,9
3.566094517426,1117
3.567649476338,308
3.56958946649,3
3.569930008467,266
3.570836295522,46
3.57139059525,500
3.571723163803,24
3.571739106176,1
3.573108736003,28
3.574405083765,1819
3.575841159617,5963
3.581761429601,7906
3.586232259465,1144
3.591742655861,48
3.593477076807,14
3.594471586511,11295
3.595901138278,117
3.596197061422,44
3.597317718876,868
3.598498838881,40
3.599303854885,43
3.603555360828,206
3.608499947021,7
3.61428007614,23
3.616899743715,1
3.621810986738,5
3.625623979672,1056
3.628609684243,22
3.628689700733,23
3.631426008187,9
3.632740993007,15
3.634882036413,44
3.636235720159,26
3.637791791796,53
3.637944628108,323
3.639566358214,2
3.649777961578,17
3.653226911468,1033
3.655176357474,44
3.657353111803,6
3.663545302908,7
3.66564971708,2738
3.666358970116,22
3.666848696498,1
3.669024283729,50
3.669600442217,13060
3.672519937317,612
3.675569293251,17306
3.680060532171,528
3.686655135537,1135
3.687798965873,2755
3.693593196099,28
3.694666602082,6
3.695918378581,33
3.697448783775,2
3.699286237961,52
3.701576248041,2592
3.712112463685,1
3.712216770229,42
3.714681447307,4870
3.715581430439,1534
3.718111559503,520
3.719608239515,656
3.720033993691,597
3.722337388829,1025
3.726268569751,41
3.72730817339,108
3.730807529322,8886
3.734186342494,6
3.735645466508,370
3.738443763338,1
3.739910200526,1488
3.740656170334,4038
3.741917808661,5
3.748945289678,47
3.750964746703,25
3.754919577711,2520
3.755861975468,93
3.761660134211,254
3.762971260585,1942
3.763642028237,396
3.764313356676,43
3.76566692731,527
3.788870815099,1591
3.789114568971,109
3.789902329912,17
3.792628962271,19
3.797554319104,37
3.799678360297,89
3.805435401405,516
3.806387587537,1446
3.807876352655,75
3.809115758118,27
3.809560259024,17
3.813187242461,1
3.816321727058,2450
3.818237459683,13
3.822921711291,17
3.82518038829,17
3.826252799745,983
3.827421833152,20
3.828516567737,218
3.836765909291,1159
3.850987891238,18
3.851794447869,38
3.863378784093,53
3.868275533407,1488
3.875293349686,31
3.879095564848,28
3.882091291124,2
3.883088726462,15
3.88887700583,2206
3.88911955069,42
3.889719857742,1116
3.891536329416,22
3.8980502732,889
3.90579850428,9548
3.907726701549,3
3.910465880231,964
3.915211115349,9
3.915587539342,15
3.932079509027,12
3.936329930441,15
3.937554964039,67
3.949231203213,14
3.952199007697,19
3.961633817557,7
3.965555719552,48
3.969310430243,31
3.971928546987,893
3.973459752699,2
3.97646298957,12
3.985292883046,5
3.990078437059,532
3.991576326083,454
3.992336934211,4
3.993833656433,614
3.995349828933,4319
3.995421405213,1332
3.99585673756,10
4.007354697298,16
4.009342194123,591
4.011694487098,14
4.01363971068,143
4.017480185846,427
4.018110103947,52
4.019820242455,743
4.02032494853,81
4.022330324619,4159
4.028009592585,4
4.030199315561,21
4.034648646705,45
4.042469274869,47
4.043697900669,39
4.044259879641,2031
4.051688482549,229
4.061049852895,5
4.062727337041,4451
4.06783426573,708
4.083483742371,2
4.086818740432,46
4.088948061983,4
4.090258597622,6
4.090655926996,31
4.101009926131,1153
4.103011292893,8
4.107707660495,35
4.108163742619,14
4.112289260779,9353
4.117903874313,4998
4.124382974717,39
4.125219362912,57
4.125510713288,34
4.128225370012,41
4.129744323665,7
4.132326960585,24
4.140734984386,863
4.14648451945,26
4.149832668386,12
4.150019386932,3
4.159181518717,41
4.159300514209,368
4.166293658855,1029
4.169567478917,15
4.172843705645,139
4.173659329659,3488
4.175853564303,2962
4.19000851872,1593
4.191967357912,338
4.19262111463,993
4.194167466168,21
4.194576652216,131
4.198083180111,20
4.203291580605,2
4.204458556868,29
4.205293078794,6202
4.206185818704,4
4.207922728228,878
4.208590528232,38
4.21003393739,4680
4.211713788374,26
4.212496277904,3
4.215732199328,1215
4.220782813556,1274
4.225164024278,13
4.226032991638,5491
4.227432747966,995
4.228456363566,4545
4.22860442921,2039
4.231161913632,44
4.231807724119,33
4.233806146885,4
4.234905520612,21
4.236101982055,14
4.244113511969,4
4.245412828791,4
4.260324715258,30
4.263898118177,3554
4.264550626031,3183
4.270430595991,807
4.270801642615,55
4.276287588675,41
4.280315227045,48
4.281763880515,107
4.285988027727,6
4.288033091239,14
4.292212405148,14
4.293610714572,4
4.293915714364,804
4.299300490376,2281
4.302327036166,50
4.306852717013,18
4.306909706037,98
4.307819571924,168
4.308628635638,28
4.310712835085,5
4.315289241051,3347
4.318980134917,3200
4.321057832453,1251
4.321630307659,136
4.326212632022,5
4.331493214852,1227
4.333005793476,11
4.334216437176,1256
4.342064004878,102
4.34232496583,2
4.3445312346,596
4.345713713138,4
4.345719919964,12
4.346617317776,55
4.346804136104,54
4.351120898767,1248
4.353597717826,116
4.362573705451,4284
4.365750118109,32
4.367570795923,7
4.368583536093,934
4.369738172198,18
4.371314459775,13649
4.373347297197,78
4.374919264845,11449
4.376525504485,41
4.388674145493,15
4.389749425333,74
4.395429306886,1062
4.399108553315,2252
4.401251706508,820
4.404809410016,11
4.40509508896,1650
4.406821932934,18
4.41739898819,1
4.419761787666,2573
4.432793565934,25
4.433507096642,4670
4.433991947676,2539
4.44177126666,12025
4.448495421164,87
4.451658649605,698
4.456214360345,34
4.461188522047,396
4.462283966138,1059
4.463073080552,14
4.465593699917,780
4.467151065643,964
4.478376697995,19
4.484355196848,36
4.484395649795,1
4.491661092787,5
4.496627163546,10097
4.502883467948,14368
4.503608729444,18
4.505213870191,4948
4.508054091805,16
4.510415706355,2492
4.515188908457,860
4.517610909678,52
4.518287376836,53
4.518685609132,1963
4.520567699244,714
4.535033657032,2
4.537259768511,1204
4.540513070423,1073
4.54145617212,30
4.545632839807,37
4.55358094361,1136
4.554252544812,11
4.560189661353,1005
4.560906520649,675
4.564382428542,204
4.56597010195,131
4.568313059258,34
4.569478915479,19
4.573846107688,653
4.575776887658,3
4.576209611732,1
4.582855209973,700
4.586040782078,1166
4.590848328926,28
4.596304012363,16
4.597043845133,53
4.598379183601,822
4.599348515627,6
4.600785840791,3262
4.603741557028,5
4.603879366076,15
4.605726193558,28
4.606547026538,21
4.611985528347,11
4.615108842761,3809
4.615843998837,2994
4.618422339404,69
4.618831410481,13
4.625966528217,20
4.626310121344,14
4.626311725058,7
4.626353220824,6
4.628158952976,20
4.629186079401,292
4.63662092051,208
4.641734275787,24
4.642339566989,2
4.646041572982,5713
4.647041309306,43
4.647285494451,44
4.650318460425,41
4.652639877858,4
4.656728688632,1897
4.662571768383,127
4.665146518388,38
4.665560586586,132
4.675918779606,27
4.676804769089,27
4.684536353105,534
4.69193593617,18
4.69563885793,15
4.699081121351,22
4.701475887638,44
4.707896947167,22
4.712074206183,3568
4.716110913115,35
4.724850791185,277
4.726721801376,710
4.730060973024,2881
4.730630147531,77
4.731296927299,41
4.732332163748,42
4.73420747967,1230
4.742227143588,44
4.743178890979,43
4.753959897828,5
4.754994124198,6
4.755261107204,434
4.76071768548,6
4.762454752925,5716
4.763721345669,39
4.763886820206,6
4.767779210192,9
4.769375585454,3777
4.771160247339,163
4.776303857105,1112
4.779668563981,50
4.779743779075,2735
4.784725255837,49
4.791654802631,31
4.794408011671,46
4.800067550577,2192
4.800510285885,5184
4.802638781818,4
4.804017979079,507
4.806890216263,103
4.807787803321,14268
4.819733921928,1590
4.824988259148,52
4.827801075308,4193
4.829413040108,5370
4.830335439508,4
4.834371213844,13
4.834813544895,6
4.839427940233,2293
4.84571505084,904
4.84765658294,17
4.857483245264,96
4.85776951157,672
4.860116466206,6328
4.865514559647,66
4.87934252,264
4.880114340198,11
4.881905291512,1
4.883103718878,690
4.885187546362,237
4.886648692693,86
4.889730797953,5582
4.891614418125,2093
4.891631425133,2472
4.898929630339,5659
4.903269424774,4
4.911902058511,3
4.913312691281,15263
4.915296495838,23
4.917283445085,40
4.928238999882,5532
4.932658860801,1
4.933658324089,1
4.935469223837,2533
4.940637308184,4
4.940647139219,1788
4.94478410852,2558
4.947338448052,38
4.952696489064,40
4.968261734637,120
4.972392127267,18
4.978134919208,212
4.978274364338,46
4.979223012931,1388
4.980109647621,2525
4.987840771607,57
4.989184590591,6
4.993502773919,2063
4.999665336277,961
5.004610484503,4660
5.006820410873,3253
5.011188601269,24
5.013734306041,48
5.016085366671,17
5.017922139068,37
5.018011909418,425
5.020641478608,2468
5.027720215176,181
5.03207746473,579
5.033878799506,4
5.035366928001,34
5.036898124732,32
5.037666212411,50
5.045570781121,61
5.04723990979,12
5.055067856046,3192
5.058572083678,20
5.05888492175,15
5.059704387959,5
5.060191251825,90
5.061982788495,6429
5.063500076201,7
5.067113561643,5207
5.073258415843,6
5.075154944694,1
5.078418697096,8
5.078969808222,93
5.079614775334,726
5.079965327354,773
5.092166113883,1
5.096304334525,1
5.096719289671,1298
5.097767592393,50
5.107473755019,15
5.110076090553,1279
5.114374743332,645
5.114440273984,3
5.116215902822,3565
5.11803890197,1186
5.119454958047,20
5.13040431586,35
5.138665413836,7
5.141612491188,389
5.155040428167,409
5.159406630558,11
5.163478823046,7
5.164365818084,23
5.165937942756,22
5.172904985375,10
5.186053295759,35
5.187174097631,5942
5.198576568969,17
5.200118260317,4167
5.20218282126,35
5.204293441287,2305
5.206435857667,53
5.215090011268,5
5.219211615714,8988
5.219275870254,23
5.223222517721,7
5.243135564014,36
5.24657313108,327
5.247548286566,53
5.252790477044,31
5.255929626814,19
5.256388513974,12219
5.26004325155,18
5.262281299941,2484
5.26430165711,238
5.264524710138,43
5.26478889529,17
5.26581193386,33
5.268748321585,1286
5.270262862688,867
5.271811475912,39
5.273137358857,1
5.275226381287,28
5.279499476274,207
5.284364092663,25
5.2860141526,2
5.287409733868,653
5.289144635045,3
5.292191057655,18
5.293367358424,18
5.300147746291,125
5.300878959961,20
5.301939381609,1499
5.305174804224,4
5.306291762316,70
5.309421221203,47
5.310545806399,2555
5.311563113777,4
5.315139787631,2441
5.315308275342,24
5.321304821838,3102
5.322264228192,12
5.323660220374,1545
5.326396530306,117
5.327354783326,17
5.332887021201,4912
5.335320128163,3298
5.336980560842,82
5.33957072357,41
5.343108203773,89
5.348078224533,46
5.349903469227,19
5.352996642424,4375
5.354903339801,41
5.361232134627,181
5.369286734958,574
5.369878550944,33
5.370298363534,16
5.370649495388,3
5.37139499975,5042
5.371409557204,1
5.372387616916,18
5.376762957085,36
5.377144952492,39
5.382288483987,20
5.383459026795,26
5.384982686316,5166
5.38816921212,67
5.39125423061,1199
5.392779039808,10
5.393691753002,1071
5.39796494039,3657
5.41094644913,26
5.412851501508,1145
5.414559184872,7
5.424480021939,94
5.427980100071,779
5.434770958266,10
5.437267454055,663
5.43832287952,38
5.440232226605,606
5.441149220671,995
5.446005953484,17
5.44801167116,2
5.45036371497,626
5.451670699678,46
5.452871010376,16
5.452938543646,53
5.457252105057,38
5.46159652668,62
5.462572216335,30
5.466238749303,9
5.466751713108,28
5.470062361714,337
5.478540632887,3
5.484169852065,16
5.491335838268,303
5.496974010684,8
5.51316579626,32
5.513339975042,716
5.517396991001,50
5.517405462505,206
5.519031392157,392
5.52025180593,9
5.523585231107,10
5.530878959435,85
5.532193354577,7
5.539056831454,1543
5.541918923291,51
5.542928105279,7
5.549139229377,2840
5.551638855245,1170
5.552111788663,12
5.559568397303,44
5.565984680263,38
5.570335567535,26
5.572467243138,49
5.574908887332,5360
5.575601364734,630
5.578575471846,12111
5.586649007519,9
5.588522061663,465
5.593991336022,26
5.596940311367,1893
5.602519077242,18
5.60805595967,82
5.610644272104,2264
5.611281187688,2224
5.614716833954,1340
5.616827085483,38
5.616902300577,49
5.617711725405,524
5.62464669438,171
5.626221694137,1
5.628229183473,7
5.629175296139,748
5.631376595106,51
5.632622110424,51
5.634007567915,20
5.634316333046,13
5.639518478763,2527
5.642545895543,516
5.643392556069,2556
5.651110479685,312
5.652629090999,1609
5.657928330955,809
5.662139402085,6
5.664452365192,3
5.664880296887,45
5.666204201706,1
5.67554452235,178
5.677590793694,1
5.678171082579,374
5.679891727697,7
5.681734373179,45
5.683324562971,343
5.685159706165,64
5.686147001081,95
5.686634596033,90
5.687315485605,44
5.692274183251,38
5.696269502618,133
5.696818970346,405
5.697043196003,3
5.697297533576,5634
5.704292220516,21
5.709426307846,2333
5.7121104969,4387
5.714521873322,1008
5.715252070378,48
5.71566812105,110
5.715940055408,36
5.721214841436,12354
5.725090148544,14033
5.729238409442,4510
5.730331182665,23
5.731313307153,3
5.731319898174,47
5.732982590777,3
5.735230169829,3
5.735736686441,6
5.73596225059,14
5.741821562722,37
5.746159152168,1013
5.747215542946,5
5.748346049427,5
5.750439579816,260
5.751670684282,117
5.753951078066,5659
5.755549732548,3
5.76051549272,19
5.762796044272,365
5.763156133452,3
5.765205071946,478
5.767412661846,16
5.767496318642,691
5.769430891222,3693
5.77033987662,16155
5.775705444608,499
5.778655681812,4
5.783422967769,31
5.787074639526,5
5.793117664852,1
5.793138044868,12
5.810061965189,981
5.810703621372,26
5.814481247066,3
5.819953919792,1100
5.82020264855,1303
5.820466714684,6068
5.820617456482,47
5.821285205605,72
5.821851258991,53
5.823907868082,49
5.82436706899,2
5.82591993673,4
5.840388605667,370
5.843770308309,1
5.845484352506,27
5.84562517594,3
5.848225123271,16
5.848978901142,1
5.850106783697,39
5.856365887433,31
5.857714434977,7
5.857901907681,45
5.858360096159,133
5.860720455277,36
5.861595004365,29
5.865614634231,329
5.866447879897,919
5.868167249267,1163
5.868493542527,7602
5.870111491623,80
5.880720928163,10882
5.883184435043,529
5.885401594573,28
5.888884030561,16
5.889625593479,3116
5.890210212731,4331
5.896859111148,17
5.898946148247,39
5.912440447828,3859
5.916743205821,51
5.918322540612,2
5.921800775313,1
5.924256898473,84
5.935458440507,5751
5.937012243887,7432
5.94268822353,3
5.944518882059,31
5.951549030094,2264
5.967576676722,3
5.974052500076,1107
5.974773591044,52
5.977256343657,407
5.979565809609,2
5.979895921573,5500
5.990676196097,101
5.990909125131,1
5.991127451773,1636
5.991891599381,11
5.995426127902,17
5.996655772922,299
5.998640116502,17802
6.006866584255,25
6.019851366483,5
6.026948350791,2832
6.028629204816,375
6.029161569997,42
6.030475481008,11522
6.03551055027,28
6.036211753152,724
6.036488254152,1840
6.036598520838,15
6.038285723158,1184
6.043118982317,48
6.043764358468,45
6.048634147948,54
6.056302220162,15
6.057918795977,7
6.06213083658,29
6.065195758102,30
6.066686064188,7
6.067067776004,927
6.07892600159,43
6.088491621512,846
6.090027377915,4
6.091874809037,46
6.092519973025,25
6.092848624663,41
6.09519090361,188
6.10161964057,53
6.10237532682,683
6.103238789666,35
6.105237726626,3054
6.106544014186,1
6.107787275814,2730
6.109942534587,18
6.112498272799,20
6.115348346684,4
6.117530463491,995
6.118629667516,37
6.127218166792,2600
6.127552810149,2
6.13146345069,20
6.132882645804,34
6.134486124595,50
6.135073412544,40
6.135259124779,3268
6.142699591018,32
6.148413980049,6474
6.149664796278,5
6.150237013111,16
6.15282081015,523
6.160767711038,7
6.167312258985,49
6.169529998328,1
6.17311245559,1181
6.181371772567,1109
6.183556233111,7
6.188348133411,4
6.193631832392,34
6.195114023566,1854
6.196152330494,12
6.200435212866,1314
6.203298972422,10924
6.206385778808,1084
6.213279571514,13
6.213744212444,12
6.216624358891,1119
6.217128757838,26
6.223557776669,20
6.224008170224,180
6.226488692997,15
6.235521244085,613
6.237921665691,1
6.243845663527,32
6.250408839124,34
6.252160352124,18
6.258585948547,31
6.267205598796,450
6.268916909902,21
6.268965574032,4
6.270152282191,5441
6.272221930456,116
6.27428762765,8
6.280830704272,38
6.28389160421,1
6.298740243883,26
6.299517180355,6
6.299806508339,36
6.303534287618,410
6.30721019969,1073
6.329321436712,34
6.337601642256,23
6.33933495116,52
6.341104627702,2585
6.341367788582,86
6.34228588591,20
6.346796137648,15
6.35473966957,2024
6.355825607592,76
6.356029543587,2
6.356459145658,665
6.360743501418,4
6.36371543648,983
6.36971660952,908
6.373706447328,45
6.377761337876,4203
6.382995824942,6102
6.384193550288,20
6.389660376922,27
6.404562141044,17094
6.407753764964,26
6.407889617946,48
6.410434285402,65
6.414674752576,45
6.415314011444,1289
6.41614365711,2509
6.421668566022,18
6.422322059774,41
6.42332992646,5
6.423646752454,19023
6.426473891972,5108
6.428173163592,3239
6.431110882564,2875
6.436570606149,5
6.436855773998,17
6.442387689554,18
6.443140627299,19
6.443898463258,33
6.444154791275,24
6.447517752853,937
6.448089120997,74
6.448420859953,23
6.450477116746,15
6.453024606742,49
6.453883410203,515
6.456800052331,7
6.458915243397,5
6.459181047091,3
6.461371636959,2443
6.462344064161,5
6.463746405965,16
6.466036111439,16
6.468781137324,32
6.468955798198,28
6.469290249616,2738
6.470457320382,101
6.470989679444,7
6.476048974044,53
6.479648944226,1233
6.486720355902,16214
6.487042869879,4
6.488959025759,30
6.497042307485,3
6.497953209799,2816
6.505427014545,827
6.509389714991,27
6.510056104789,1584
6.511068940019,19
6.513026656646,5769
6.520269530848,47
6.534269832733,54
6.535966945229,26
6.536172377042,714
6.551733899014,69
6.565728311983,82
6.567117754228,17
6.577061965296,22
6.578597561289,38
6.578902021665,1019
6.585363419036,8624
6.58629126994,501
6.589915785599,24
6.596162617172,5290
6.60042844365,1164
6.603114973789,2
6.606470090204,6549
6.608355594407,24
6.611683786574,46
6.61518085738,4
6.616252016563,3130
6.618882150831,37
6.619791901477,1012
6.623815438421,1085
6.628366941466,7
6.633121551753,45
6.647160965369,85
6.649686129778,15
6.653579547656,477
6.653891145191,2
6.657342347844,23
6.657890468259,25
6.659699040496,2
6.660808984995,51
6.663756371545,634
6.668476913802,5685
6.668555813791,17
6.669501499006,509
6.670605255722,2836
6.674688355079,39
6.691414290715,391
6.692653896487,1119
6.699603424087,9
6.701677196566,61
6.703269806119,28
6.706936697777,2
6.708899964421,1276
6.716663374051,6
6.718386517895,2
6.719523375229,13
6.720397332531,314
6.733218203318,25
6.737069601819,1095
6.73989682453,3
6.742449295637,1650
6.748844943695,42
6.748940746735,161
6.754481784821,51
6.75852515887,745
6.759835762492,227
6.761323270983,9
6.76418424212,39
6.768274235408,226
6.771996743295,2288
6.775414834579,42
6.775433009587,2761
6.782282622338,2976
6.782760650765,1
6.78419296969,38
6.78856898878,19
6.789154872529,2795
6.799396348107,434
6.805611885312,2300
6.805853149294,17
6.806741083924,1794
6.808777442299,4
6.810235401173,3
6.816101155217,5799
6.821697436107,40
6.823753658819,16
6.824670957415,52
6.826236602879,3
6.82650966872,3
6.839827263806,37
6.841022762409,43
6.847008736723,2610
6.848005108929,20
6.863205827383,4
6.872443471441,51
6.874483662804,45
6.880845636224,35
6.882628705903,6
6.88688752985,1153
6.89032865182,53
6.892276619508,10
6.895767302896,2
6.896102059445,29
6.896356228983,6409
6.897361963623,2162
6.905302256697,47
6.906008051337,28
6.906419661206,16
6.911724767175,34
6.926498548522,5833
6.92693641914,208
6.939798367026,26
6.940482747446,2
6.940677467446,705
6.945485200279,35
6.949315731495,6117
6.950364550351,5424
6.952225171367,39
6.956985882673,16
6.964605566003,3291
6.966381294297,453
6.967332280429,5335
6.968887206651,18
6.971035320539,583
6.971815435383,3
6.972333275383,1876
6.97928562198,50
6.979736596928,9819
6.983016325602,8217
6.983436028026,4815
6.987445126049,5278
6.987759247189,547
6.989940197169,676
6.990643714147,2742
6.994562469353,185
6.999275700231,160
7.001269265371,49
7.002885628699,883
7.005877244471,1
7.006106892673,17
7.018092606457,45
7.020062581983,18
7.02026498348,136
7.022984969389,3
7.023419085319,1626
7.023810953955,636
7.024905069138,68
7.026174485895,6
7.032748997802,1247
7.041026949963,106
7.042065224891,232
7.044254590919,2183
7.044933726003,55
7.046082348487,664
7.046949631157,17
7.048909766622,2071
7.049172959502,54
7.051533694102,20
7.05999565427,22
7.062062487305,37
7.064266421527,2788
7.065931649329,1004
7.066703050295,3
7.067491489405,52
7.069067085127,5785
7.073155816533,3274
7.075452269925,4
7.079506163629,14
7.081930432693,21
7.08495518483,1858
7.096338599281,266
7.101695583534,2969
7.10240983017,47
7.10261727802,386
7.103272052253,4
7.106654246972,132
7.107250431852,33
7.107676123422,53
7.109017573951,3
7.110202173791,266
7.114938008883,51
7.124185838363,12
7.125185457107,2435
7.128449175,19
7.132365636372,961
7.13748258871,36
7.138283028334,3009
7.148667505364,97
7.149324088832,23
7.149567742912,6
7.151224747114,16
7.151612521428,371
7.152772823819,392
7.153278572299,129
7.163400212253,834
7.169587558065,16
7.173721730004,3244
7.177758534376,6
7.188462873553,31
7.19287418882,9
7.193395087548,45
7.19675782526,145
7.1975362309,2231
7.200381268921,15
7.201873188877,27
7.204202983714,2279
7.206043256783,2618
7.207319237757,269
7.210133237053,129
7.212610086251,6361
7.2139604781,36
7.220677009418,133
7.225628227692,124
7.228066846318,218
7.228640806172,75
7.230745996675,3
7.231521537325,20
7.237106127006,1003
7.242302461724,1287
7.24433747313,51
7.248975695252,59
7.251441598206,5630
7.257090105626,18
7.258666559206,13
7.267807822638,375
7.274233203384,1020
7.27596043837,459
7.27694431178,1
7.281222665374,39
7.28313473784,24
7.284528373371,39
7.289287535855,11
7.289895377827,121
7.290775703597,403
7.292084446835,4172
7.297965416815,2438
7.300833938717,3967
7.307849922708,159
7.309847530558,3
7.313563026841,1785
7.314967562379,895
7.319130683829,2924
7.33024999656,24
7.340152166494,23
7.3677465532,6
7.368084663303,3697
7.368196210204,4
7.369733441662,3
7.369976134498,809
7.37694763404,40
7.377242640714,53
7.377645603175,6
7.379702025707,122
7.385644221907,5120
7.397670676811,6666
7.398937400517,2
7.401824158243,16
7.401843910904,14
7.404851035281,2352
7.409611707174,1256
7.411134823025,437
7.413069879832,1
7.422780905679,376
7.428930118776,21
7.444105441856,2441
7.459620866595,1
7.473770097639,4813
7.481915376294,40
7.482337461854,113
7.483040038122,3
7.485992132725,20
7.493949167518,74
7.497910606162,14
7.503228097238,50
7.50711923607,18883
7.50806412771,4712
7.513147132143,2400
7.517365158604,42
7.518617259492,120
7.519429911088,809
7.525057926544,4811
7.530003101211,18
7.53556589208,47
7.537493989447,21
7.540928372211,30
7.544956577911,4448
7.545114149171,17
7.546552689726,4
7.548307945941,3108
7.548774880405,116
7.553292667829,6
7.553316907527,645
7.558753198385,6514
7.560426452121,4
7.562701984277,38
7.572627968787,42
7.573051248223,1021
7.576478998073,7149
7.577266177971,2510
7.578727751397,1457
7.583981215863,6
7.585611251651,1011
7.590708523224,22
7.605973706853,4
7.6065143851,45
7.61192925001,46
7.614454080555,631
7.620039728043,41
7.622940629636,343
7.62519226337,520
7.625693716448,20
7.625964283741,41
7.62882333922,27
7.634166550787,696
7.645963712678,6
7.658004372046,569
7.658312411632,51
7.659682441542,652
7.664357701013,175
7.668866288427,233
7.686803493695,14
7.700896334186,7
7.709959512457,1073
7.714113697573,7
7.722200438755,792
7.722929448221,1207
7.730932439021,16697
7.731475732901,3529
7.732014286385,386
7.732267662884,16
7.734994634807,1326
7.735600514572,11
7.73684524014,207
7.744798484983,33
7.753745179001,842
7.754462414128,23
7.755640217166,61
7.765669363072,387
7.76664454836,1643
7.76853248091,206
7.769670500167,24
7.774694473946,1067
7.777352005272,46
7.777733250925,38
7.777808051595,2
7.778233079684,5
7.778804701868,38
7.787828555496,6
7.792784263898,30
7.796809924744,13
7.797460194372,6088
7.80091090965,2149
7.807029688234,1749
7.80776349886,4905
7.811579840446,22
7.817071132695,133
7.819736489262,548
7.824215801585,608
7.82696781069,182
7.832810982827,48
7.833577584054,14
7.835063309493,4
7.839136936323,9
7.839548024231,16
7.839631092626,20
7.848492884203,43
7.848781296411,62
7.855862203189,14
7.864204739245,26
7.866142324468,2
7.866971030521,47
7.872829327258,863
7.877605534818,833
7.879216058332,2701
7.880539614976,1352
7.884569068351,25
7.885270748877,73
7.890708942157,2204
7.891204139836,11
7.895326303569,38
7.897057853743,673
7.907721782363,2628
7.909665852576,1222
7.915637661785,438
7.916245383286,40
7.923988656626,112
7.928032012274,1847
7.930925858756,14
7.933303359385,33
7.933500943819,54
7.939544640158,4692
7.940263397213,3
7.941101811582,21
7.941442187094,48
7.951172114686,24
7.95278041087,3222
7.955084967194,2753
7.957979105878,2797
7.958629187166,2410
7.959791145844,3750
7.965464890896,1309
7.972527073415,577
7.97339626383,50
7.981695176265,4
7.982340365949,1749
7.983883236023,3318
7.993386626463,47
8.005665504367,2906
8.007680147719,2288
8.009098843691,13
8.021830445342,1006
8.022903780873,38
8.024591226366,6
8.025573712859,492
8.026156014173,2329
8.0304836081,26
8.032554742099,45
8.035506589617,7
8.048713246743,4
8.054514656188,322
8.058283267492,3097
8.075058817592,3
8.075750178128,2290
8.078924429919,1771
8.085807256839,2115
8.090343942119,284
8.090931717673,29
8.099726513586,122
8.101029257862,14
8.105468513296,38
8.105622560348,6015
8.106004018298,7
8.106625132068,1549
8.110180005111,25
8.1119597307,2921
8.11280062392,4397
8.125637685616,2509
8.133290015553,31
8.134994291485,195
8.135792950759,1328
8.148758064103,52
8.152846705632,10
8.154353539343,6
8.154974456108,4
8.157059424678,2272
8.158677735138,1537
8.159200260248,36
8.160854948108,30
8.168948370738,6
8.173828226887,16421
8.175215795959,3010
8.183931981365,16756
8.188212337223,45
8.188875851253,36
8.189048109059,318
8.190861354111,6033
8.19580632646,18
8.209132423422,2079
8.220992418102,7
8.22278391574,13
8.228777110068,33
8.228904344952,5
8.233071636463,43
8.234365648482,4760
8.23563427536,15963
8.236611503854,5599
8.239982619198,5
8.240103915168,89
8.240465371191,40
8.244486228475,5
8.245229896955,1203
8.245631267011,47
8.249853263688,101
8.255523210187,37
8.260421243631,24
8.265379509639,18
8.266216876526,5
8.268382484181,329
8.272393699949,3848
8.272536811967,1
8.273527706576,545
8.274613855776,122
8.276644326926,1756
8.287330681644,12
8.294655043889,34
8.302144198657,591
8.304946028031,28
8.306715795563,14
8.311413479247,6537
8.315463511229,50
8.321868042821,8539
8.323238110583,6
8.33719899348,19
8.344908636622,12
8.354141443578,1900
8.366523714174,3123
8.371622290892,17
8.377635687227,115
8.383722312184,3
8.388690482999,22
8.390158812268,7
8.390301576553,1
8.393891357536,4
8.402754125771,16
8.406958926049,25
8.411659192738,7
8.413481280585,37
8.422953946956,14
8.426850354011,703
8.431480000533,3260
8.439748436271,6
8.450074845325,1207
8.450985791565,2796
8.455180904776,669
8.463157504108,18
8.465407256187,45
8.480359654877,6
8.491742207089,1877
8.498116061289,49
8.506513269672,11130
8.506554569655,49
8.511304679495,29
8.515963651038,15
8.519000199803,19
8.523341578316,19
8.525497485082,32
8.53094686663,48
8.531394491814,1
8.532062858332,17
8.534807780838,1216
8.53678544762,1
8.53758110515,51
8.537676888438,32
8.538904420508,4512
8.544755599002,34
8.545243877006,20
8.545953394692,14
8.54596064032,3033
8.55285418319,11997
8.55365585874,784
8.558907642038,42
8.561952449048,13
8.569683181007,6
8.570781526872,6
8.571151403017,11
8.580212846065,506
8.582039560495,2074
8.588431453687,961
8.600646784937,611
8.607665423645,123
8.621836666301,17
8.622251745984,17
8.622598268621,26
8.623864645667,258
8.628860307004,1525
8.630125495086,338
8.632431818727,24
8.632761389553,78
8.633707031157,1466
8.634341315828,3
8.640874906222,20
8.644979177533,2945
8.648280701437,43
8.648472345641,37
8.659010108643,1093
8.660159876609,668
8.662908394117,11730
8.664833440198,17
8.666908004737,124
8.670188049288,2694
8.682240575215,38
8.690664555439,7675
8.700078432838,14
8.70287599587,31
8.703755468001,5
8.704670714531,6
8.709599215965,47
8.715036365041,17
8.718756247035,90
8.722273535913,4
8.724103478866,1
8.725414293441,21
8.728349047158,94
8.730091741654,945
8.730633459146,6
8.733989664692,20
8.734240683852,214
8.735472004661,520
8.741578189822,1
8.749099558934,552
8.755332893982,3084
8.75847679555,50
8.760940278752,3
8.761823368122,11509
8.764129408294,16
8.764624600834,134
8.766196024416,10
8.767133630512,5386
8.775136437057,4
8.777944467141,12
8.77893389642,28
8.790229152461,817
8.791775678213,2219
8.794192487336,4
8.807099323054,38
8.813855400652,3988
8.813856626528,12263
8.815517526953,27
8.817213534237,31
8.819506226135,1202
8.822383049874,36
8.822651316076,73
8.823273426927,236
8.842320269787,362
8.844123891729,1663
8.846140181902,47
8.857179458203,29
8.858979204303,122
8.863071610449,3102
8.866612867832,18
8.866747484888,1249
8.870564194396,5
8.870629103323,3
8.871660780445,62
8.879017651752,7
8.884387503571,29
8.890809084717,19
8.891519259547,157
8.894491958078,102
8.907097358706,17
8.908418294891,33
8.913953046849,12
8.914758595513,6134
8.921094707203,33
8.928246960262,5671
8.932980327757,1271
8.935490615993,374
8.936004803975,5
8.941512812011,5827
8.942413559522,33
8.96268755623,293
8.965963851146,608
8.978370285696,18
8.983897698324,34
8.989984016582,4
8.993007365328,7
8.995060057695,22
8.995551795104,42
8.998436893651,452
8.998606577419,25
9.001350270078,4
9.004559336502,15
9.007361570977,97
9.00902902162,52
9.010828997934,19
9.011647731077,612
9.012782151756,132
9.01596249887,4561
9.016775173461,37
9.018264019727,978
9.02323434011,50
9.024310323715,68
9.035356975615,80
9.036426727327,671
9.040389977573,33
9.045049534203,719
9.049486401803,4789
9.050429999635,9
9.053025358132,596
9.053809288593,18
9.054638516537,4
9.05602736082,2586
9.056920066324,2761
9.058711518344,1
9.062318785394,29
9.063449671487,16
9.065230448278,5201
9.066441573246,441
9.07409274341,42
9.074762298124,457
9.077293585137,4
9.079181051594,10522
9.08024593469,1128
9.081519321008,15
9.08555066625,50
9.088803857365,26
9.09294976131,5
9.094953672372,9040
9.106024654341,32
9.106810890961,122
9.106846055582,63
9.107687866554,48
9.111691675436,3739
9.116652728282,26
9.136110958685,2
9.136487569617,83
9.143834607725,25
9.145321657844,62
9.156232297238,312
9.160507517805,33
9.163600939592,525
9.170342528795,647
9.170999864723,284
9.177516975864,552
9.177670908297,44
9.179820207117,599
9.184790157417,8
9.186520777072,90
9.195691987842,3
9.204630670141,28
9.2079144191,49
9.20970624584,204
9.213989366343,463
9.227426053255,5036
9.229582597946,743
9.230393373074,130
9.232710767555,601
9.234557373928,104
9.23488971894,40
9.238505568384,263
9.240552897532,931
9.246827298275,14
9.247938532688,2
9.24877059147,10929
9.249275712926,8
9.251363324814,2
9.252308333423,1099
9.254727378452,52
9.255102920091,11
9.255761394006,1
9.258445636178,19
9.258674864599,18
9.259576314214,59
9.26080866142,5
9.264235189224,1120
9.26651615031,742
9.26840344996,3
9.270447223428,60
9.272319982836,8834
9.277678849628,76
9.283966924417,37
9.284311411747,1228
9.284854727577,1354
9.286789843197,398
9.292546211198,1154
9.295029049088,5
9.297580934001,4
9.29945022545,4831
9.303131615634,19
9.304145678948,1067
9.305328061506,50
9.311169764366,22
9.312085579705,4250
9.314795517451,1101
9.320561673763,134
9.323832997351,3947
9.326950341895,38
9.333068375881,1082
9.334386822623,1993
9.336730172173,285
9.338194188339,3255
9.341480869528,929
9.345884747013,7
9.348738878275,19
9.352246466207,4
9.352708242886,1794
9.354804513632,4
9.355008068827,39
9.358616950969,1
9.359672277549,6
9.363223757338,7876
9.366940142224,15
9.36875913557,5
9.372884380012,15
9.374908217354,32
9.382307047404,47
9.38260298914,588
9.386895696546,2169
9.389522826306,8433
9.390101312935,20
9.390872228424,27
9.39220161067,20
9.398075239528,28
9.399662426974,7476
9.401691536176,4853
9.403029292177,48
9.406215746522,17
9.408868469585,19343
9.409229797579,3
9.410469990298,130
9.412426987365,838
9.416153116037,3858
9.424072987836,1310
9.427244460312,2
9.427524458624,1
9.432500447944,43
9.433931556569,2
9.434485050784,19
9.445452034005,579
9.446160842062,2
9.447786836481,654
9.452095152827,3027
9.461388944811,2472
9.464951184057,1141
9.467385738518,37
9.470965212562,24
9.471695852229,11
9.481754954413,1311
9.482418227851,24
9.48352019236,2095
9.496163690948,2
9.496335642994,22
9.498371218902,5
9.508132944568,4672
9.510003275902,2385
9.516233031831,686
9.518700101057,53
9.521113720119,46
9.522632667507,33
9.532821888444,41
9.53286799984,52
9.533889838805,30
9.533996603225,25
9.539019980834,736
9.539593724186,3094
9.541944423906,3069
9.543344652861,107
9.543851707611,9741
9.545347774998,5807
9.545614493819,42
9.553153575621,16
9.571348696328,162
9.577351103402,932
9.586937468427,69
9.591048299631,877
9.591573145377,1160
9.593037459365,25
9.59785529469,146
9.601377698642,4
9.60413339987,12
9.60433810037,15
9.606737499969,53
9.611053555125,36
9.612291994625,1165
9.617719329949,15
9.618714374702,15737
9.620764031808,1347
9.62548590611,3410
9.633303435403,129
9.636795382243,11
9.638498644433,29
9.639489657669,4915
9.647585824181,2
9.657194830635,1540
9.657242148155,49
9.658351814655,3
9.65852519554,20
9.658874000238,17699
9.662121862086,2535
9.667034342427,1
9.670906796868,4063
9.671004196043,22
9.672991436838,30
9.676513310311,4960
9.678860409341,3
9.679611184871,35
9.680476518492,6067
9.681003644117,6166
9.682862363612,3607
9.683978995969,20
9.687811914586,7
9.688089041697,28
9.693172721174,483
9.699250800158,3047
9.700438111298,46
9.703394088368,5890
9.704167993269,12
9.710264240371,19
9.710586759158,116
9.715622475491,50
9.716489273679,42
9.721640558956,365
9.724215585702,5
9.728530056669,37
9.730840817018,5105
9.732764568869,1054
9.734322547259,40
9.737718829285,2373
9.744385259948,1362
9.747105833216,2219
9.748057800054,1
9.754209152327,3144
9.764503853334,31
9.764552498412,1630
9.768031332958,41
9.772600762609,5554
9.782365005518,34
9.788746484574,5
9.793893681268,3733
9.795300880939,16
9.796033273608,5
9.798064433007,72
9.800507322139,19
9.800953492357,41
9.806891207165,69
9.807414046973,174
9.815190175627,7254
9.816535261377,8
9.817155110867,3686
9.818921105855,625
9.820091068111,3145
9.822605905229,1117
9.825058308505,30
9.825491564675,4405
9.826467956087,304
9.829073277482,2928
9.833311939329,28
9.839964243234,15
9.846297228896,88
9.853898502608,27
9.865378428824,8
9.865647691113,44
9.870358872601,10411
9.875975769227,41
9.887433435774,6
9.88871043076,4
9.892321394824,9
9.900003099094,12
9.90042247423,6593
9.912139436984,13
9.912778747943,125
9.914247178763,104
9.915019713999,619
9.915263451007,37
9.916890958779,1131
9.919811938705,2800
9.921689270637,17
9.923780403406,2539
9.927620329763,48
9.928249350348,292
9.935325605372,46
9.937628230596,2
9.939116125211,14
9.939882083908,52
9.946033092279,362
9.952622523269,6
9.955379671572,2598
9.960728670746,1
9.961024967972,23
9.961509883616,1232
9.96823356692,17
9.972590486935,18
9.97347276992,15
9.974401474325,12946
9.975010749289,9
9.978071887433,3
9.978540308034,1
9.982798874479,3171
9.986065142296,48
9.987965735768,4
9.991436086315,6555
9.993637347365,3
9.994953652809,18
9.996040010134,19
9.997594214057,29
9.998521156887,347
10.003259635094,366
10.004833159176,20
10.006626922308,19
10.006937770243,18
10.014215879281,25
10.014830889026,123
10.015369976129,48
10.015793789284,31
10.017468631846,18
10.022050193965,684
10.028301310229,47
10.032178869964,49
10.035290836696,69
10.040290137989,311
10.044330985842,1
10.051114375677,28
10.057398553734,26
10.057454163835,20
10.060002680279,20
10.063608204839,6
10.064058387248,9
10.067344390474,14
10.071583462662,482
10.073049938432,1431
10.075222323328,5100
10.083527416272,12
10.089609085698,2566
10.092617171938,2007
10.094278837394,5145
10.095093908054,28
10.103451634807,50
10.104698377729,19
10.105335634299,4913
10.106775632769,34
10.107907406235,5036
10.109669352883,19
10.11803892644,2423
10.121420697129,78
10.128469337443,12
10.133945884469,40
10.134435956359,873
10.137481624615,6472
10.139905168547,212
10.142190395172,12
10.147523309315,33
10.165064374954,18
10.166801221776,48
10.168247214446,87
10.16989438425,5590
10.174588975777,817
10.178385471717,374
10.181436027651,47
10.182698666307,6378
10.185032312353,619
10.187841512687,22
10.202097202424,6557
10.20272429137,9827
