time,DctcpSim1.flowGenerator3.flowSynId:vector
1,0
2,2
3,4
4,3
5,5
6,6
7,9
8,10
9,8
10,12
11,7
12,13
13,14
14,16
15,18
16,1
17,21
18,19
19,15
20,11
21,20
22,25
23,27
24,24
25,29
26,22
27,30
28,33
29,34
30,32
31,38
32,39
33,41
34,23
35,40
36,43
37,36
38,44
39,45
40,46
41,28
42,42
43,35
44,37
45,26
46,52
47,17
48,48
49,49
50,56
51,47
52,57
53,51
54,58
55,59
56,60
57,31
58,61
59,62
60,64
61,53
62,50
63,67
64,68
65,69
66,66
67,71
68,73
69,76
70,75
71,77
72,78
73,79
74,54
75,65
76,74
77,81
78,80
79,63
80,70
81,84
82,86
83,83
84,85
85,89
86,90
87,91
88,92
89,88
90,87
91,94
92,95
93,96
94,82
95,97
96,72
97,98
98,99
99,100
100,101
101,103
102,93
103,104
104,102
105,105
106,106
107,107
108,109
109,110
110,108
111,111
112,55
113,112
114,113
115,114
116,116
117,118
118,117
119,121
120,122
121,123
122,124
123,126
124,129
125,128
126,130
127,127
128,131
129,132
130,134
131,115
132,136
133,137
134,120
135,140
136,138
137,142
138,139
139,144
140,141
141,145
142,143
143,147
144,148
145,149
146,146
147,135
148,152
149,155
150,156
151,150
152,154
153,151
154,158
155,159
156,160
157,163
158,153
159,162
160,119
161,166
162,167
163,133
164,170
165,171
166,165
167,161
168,172
169,125
170,157
171,173
172,175
173,176
174,177
175,178
176,164
177,182
178,179
179,187
180,180
181,174
182,191
183,190
184,184
185,192
186,185
187,189
188,183
189,193
190,195
191,194
192,197
193,198
194,200
195,202
196,203
197,169
198,204
199,186
200,205
201,188
202,208
203,209
204,181
205,211
206,210
207,196
208,212
209,214
210,199
211,215
212,216
213,219
214,207
215,221
216,206
217,220
218,223
219,222
220,224
221,217
222,225
223,227
224,168
225,229
226,228
227,201
228,230
229,213
230,232
231,231
232,233
233,238
234,241
235,239
236,242
237,235
238,218
239,226
240,244
241,245
242,247
243,249
244,251
245,236
246,252
247,253
248,254
249,255
250,243
251,257
252,256
253,237
254,250
255,258
256,259
257,246
258,262
259,261
260,248
261,263
262,265
263,264
264,267
265,268
266,269
267,270
268,272
269,273
270,266
271,275
272,260
273,278
274,279
275,281
276,282
277,283
278,274
279,276
280,285
281,288
282,289
283,287
284,291
285,290
286,286
287,292
288,293
289,271
290,294
291,295
292,296
293,299
294,300
295,302
296,280
297,303
298,284
299,304
300,305
301,307
302,308
303,309
304,310
305,311
306,312
307,316
308,297
309,277
310,317
311,321
312,319
313,240
314,318
315,322
316,324
317,301
318,326
319,234
320,306
321,323
322,298
323,320
324,329
325,335
326,331
327,339
328,332
329,333
330,342
331,330
332,344
333,345
334,346
335,336
336,341
337,315
338,340
339,348
340,349
341,352
342,353
343,354
344,334
345,328
346,327
347,356
348,347
349,358
350,357
351,355
352,325
353,350
354,360
355,359
356,338
357,362
358,363
359,314
360,365
361,343
362,367
363,368
364,364
365,361
366,372
367,370
368,373
369,374
370,378
371,377
372,379
373,381
374,369
375,337
376,385
377,383
378,375
379,389
380,386
381,392
382,393
383,395
384,382
385,399
386,398
387,371
388,400
389,401
390,402
391,403
392,404
393,390
394,396
395,394
396,406
397,405
398,366
399,384
400,408
401,407
402,387
403,351
404,388
405,410
406,391
407,313
408,411
409,412
410,414
411,415
412,418
413,416
414,420
415,417
416,413
417,421
418,419
419,409
420,422
421,423
422,424
423,425
424,426
425,427
426,429
427,430
428,397
429,376
430,432
431,433
432,435
433,436
434,434
435,437
436,439
437,428
438,440
439,441
440,442
441,444
442,446
443,431
444,380
445,445
446,449
447,443
448,447
449,451
450,438
451,453
452,454
453,450
454,458
455,457
456,460
457,459
458,461
459,452
460,462
461,463
462,464
463,466
464,465
465,467
466,469
467,471
468,473
469,474
470,475
471,476
472,478
473,479
474,481
475,477
476,480
477,482
478,483
479,468
480,472
481,486
482,485
483,487
484,488
485,489
486,470
487,491
488,456
489,484
490,492
491,498
492,496
493,500
494,499
495,497
496,501
497,503
498,490
499,505
500,493
501,507
502,508
503,448
504,509
505,495
506,513
507,514
508,510
509,455
510,504
511,515
512,517
513,518
514,520
515,511
516,521
517,512
518,524
519,527
520,528
521,529
522,525
523,534
524,532
525,535
526,526
527,533
528,522
529,536
530,523
531,537
532,539
533,519
534,538
535,502
536,531
537,541
538,542
539,530
540,516
541,494
542,543
543,546
544,544
545,549
546,547
547,550
548,545
549,551
550,553
551,540
552,548
553,556
554,554
555,558
556,555
557,560
558,559
559,561
560,564
561,563
562,565
563,568
564,552
565,570
566,566
567,572
568,573
569,569
570,562
571,574
572,575
573,567
574,579
575,581
576,506
577,578
578,583
579,584
580,586
581,590
582,591
583,588
584,582
585,587
586,580
587,571
588,593
589,594
590,577
591,598
592,597
593,595
594,600
595,601
596,605
597,604
598,596
599,603
600,609
601,585
602,612
603,613
604,576
605,616
606,610
607,617
608,608
609,620
610,611
611,589
612,621
613,615
614,622
615,592
616,624
617,626
618,627
619,623
620,602
621,607
622,618
623,628
624,633
625,630
626,619
627,631
628,606
629,625
630,599
631,635
632,636
633,637
634,639
635,557
636,634
637,640
638,641
639,638
640,642
641,629
642,643
643,632
644,646
645,644
646,648
647,645
648,653
649,655
650,658
651,659
652,660
653,647
654,656
655,661
656,663
657,654
658,667
659,665
660,668
661,652
662,649
663,669
664,651
665,670
666,664
667,650
668,674
669,673
670,675
671,677
672,678
673,676
674,666
675,671
676,680
677,682
678,662
679,672
680,681
681,685
682,684
683,686
684,683
685,688
686,689
687,693
688,687
689,694
690,698
691,692
692,696
693,699
694,695
695,701
696,691
697,702
698,703
699,700
700,704
701,705
702,707
703,710
704,706
705,709
706,614
707,711
708,712
709,714
710,715
711,713
712,690
713,717
714,679
715,719
716,708
717,718
718,723
719,724
720,725
721,720
722,726
723,727
724,730
725,732
726,728
727,697
728,734
729,721
730,735
731,733
732,738
733,737
734,739
735,722
736,731
737,741
738,740
739,742
740,716
741,749
742,746
743,743
744,750
745,736
746,729
747,751
748,748
749,752
750,745
751,753
752,754
753,757
754,756
755,759
756,760
757,755
758,761
759,744
760,764
761,765
762,763
763,766
764,767
765,657
766,769
767,768
768,770
769,771
770,772
771,758
772,773
773,775
774,776
775,777
776,779
777,782
778,774
779,781
780,784
781,783
782,786
783,788
784,789
785,785
786,762
787,793
788,795
789,794
790,796
791,791
792,790
793,797
794,778
795,798
796,799
797,800
798,801
799,802
800,804
801,805
802,806
803,807
804,808
805,809
806,810
807,787
808,813
809,812
810,811
811,817
812,818
813,819
814,814
815,815
816,822
817,792
818,823
819,780
820,821
821,824
822,827
823,826
824,828
825,830
826,831
827,832
828,829
829,816
830,747
831,833
832,834
833,803
834,835
835,825
836,838
837,820
838,839
839,837
840,840
841,842
842,843
843,844
844,846
845,845
846,847
847,836
848,849
849,852
850,853
851,854
852,855
853,858
854,863
855,862
856,861
857,857
858,865
859,850
860,870
861,868
862,871
863,873
864,874
865,864
866,876
867,877
868,869
869,878
870,860
871,880
872,872
873,859
874,866
875,879
876,882
877,841
878,883
879,884
880,867
881,885
882,887
883,888
884,889
885,890
886,891
887,892
888,895
889,856
890,893
891,896
892,848
893,897
894,886
895,898
896,901
897,903
898,906
899,904
900,899
901,905
902,900
903,907
904,908
905,909
906,911
907,912
908,875
909,913
910,917
911,914
912,916
913,881
914,919
915,910
916,915
917,921
918,922
919,925
920,923
921,926
922,851
923,928
924,927
925,920
926,937
927,924
928,918
929,940
930,942
931,941
932,944
933,934
934,938
935,932
936,929
937,936
938,943
939,935
940,930
941,947
942,948
943,931
944,950
945,951
946,954
947,945
948,949
949,952
950,946
951,956
952,957
953,955
954,939
955,961
956,894
957,964
958,965
959,966
960,959
961,962
962,967
963,969
964,970
965,972
966,973
967,975
968,958
969,977
970,971
971,976
972,979
973,980
974,953
975,981
976,983
977,984
978,933
979,963
980,986
981,982
982,987
983,985
984,988
985,978
986,991
987,993
988,996
989,902
990,992
991,998
992,974
993,999
994,989
995,995
996,997
997,1000
998,994
999,1002
1000,1001
1001,1003
1002,1004
1003,1005
1004,1006
1005,1007
1006,1008
1007,1009
1008,1010
1009,1012
1010,1011
1011,1018
1012,1019
1013,1023
1014,1022
1015,1017
1016,1026
1017,1025
1018,1020
1019,1028
1020,1030
1021,1029
1022,968
1023,1032
1024,1033
1025,1013
1026,1035
1027,1037
1028,1027
1029,1039
1030,1038
1031,1040
1032,1041
1033,1042
1034,1043
1035,1034
1036,1021
1037,1045
1038,1024
1039,960
1040,1015
1041,1047
1042,1016
1043,1050
1044,1053
1045,1052
1046,1051
1047,990
1048,1046
1049,1054
1050,1056
1051,1055
1052,1057
1053,1058
1054,1059
1055,1031
1056,1062
1057,1060
1058,1064
1059,1063
1060,1066
1061,1065
1062,1067
1063,1069
1064,1071
1065,1048
1066,1072
1067,1074
1068,1075
1069,1061
1070,1070
1071,1081
1072,1083
1073,1085
1074,1078
1075,1044
1076,1086
1077,1087
1078,1080
1079,1088
1080,1084
1081,1049
1082,1077
1083,1089
1084,1094
1085,1090
1086,1079
1087,1076
1088,1068
1089,1093
1090,1095
1091,1096
1092,1098
1093,1099
1094,1092
1095,1102
1096,1073
1097,1105
1098,1106
1099,1107
1100,1109
1101,1108
1102,1101
1103,1103
1104,1111
1105,1110
1106,1104
1107,1036
1108,1114
1109,1097
1110,1014
1111,1116
1112,1115
1113,1117
1114,1118
1115,1120
1116,1119
1117,1122
1118,1123
1119,1126
1120,1124
1121,1091
1122,1113
1123,1121
1124,1131
1125,1112
1126,1132
1127,1127
1128,1136
1129,1135
1130,1130
1131,1138
1132,1139
1133,1140
1134,1141
1135,1144
1136,1142
1137,1149
1138,1148
1139,1147
1140,1150
1141,1128
1142,1155
1143,1125
1144,1156
1145,1151
1146,1157
1147,1145
1148,1137
1149,1133
1150,1159
1151,1160
1152,1100
1153,1158
1154,1154
1155,1161
1156,1152
1157,1162
1158,1168
1159,1146
1160,1169
1161,1164
1162,1172
1163,1153
1164,1171
1165,1173
1166,1170
1167,1082
1168,1175
1169,1165
1170,1177
1171,1178
1172,1179
1173,1180
1174,1174
1175,1182
1176,1184
1177,1185
1178,1183
1179,1166
1180,1167
1181,1186
1182,1187
1183,1163
1184,1190
1185,1189
1186,1188
1187,1193
1188,1194
1189,1195
1190,1181
1191,1191
1192,1196
1193,1192
1194,1197
1195,1201
1196,1200
1197,1203
1198,1206
1199,1207
1200,1202
1201,1208
1202,1205
1203,1211
1204,1204
1205,1210
1206,1212
1207,1134
1208,1143
1209,1219
1210,1129
1211,1221
1212,1198
1213,1218
1214,1216
1215,1226
1216,1214
1217,1224
1218,1228
1219,1225
1220,1230
1221,1231
1222,1229
1223,1236
1224,1232
1225,1234
1226,1215
1227,1217
1228,1220
1229,1238
1230,1237
1231,1233
1232,1213
1233,1241
1234,1222
1235,1242
1236,1243
1237,1235
1238,1245
1239,1246
1240,1247
1241,1251
1242,1240
1243,1252
1244,1199
1245,1254
1246,1223
1247,1255
1248,1256
1249,1258
1250,1259
1251,1239
1252,1250
1253,1249
1254,1267
1255,1266
1256,1244
1257,1262
1258,1269
1259,1270
1260,1271
1261,1253
1262,1248
1263,1261
1264,1275
1265,1276
1266,1278
1267,1277
1268,1257
1269,1282
1270,1274
1271,1283
1272,1284
1273,1281
1274,1285
1275,1209
1276,1279
1277,1264
1278,1176
1279,1287
1280,1286
1281,1288
1282,1289
1283,1268
1284,1265
1285,1290
1286,1260
1287,1293
1288,1280
1289,1295
1290,1292
1291,1294
1292,1291
1293,1227
1294,1296
1295,1297
1296,1298
1297,1273
1298,1300
1299,1304
1300,1303
1301,1299
1302,1308
1303,1310
1304,1313
1305,1314
1306,1316
1307,1317
1308,1315
1309,1319
1310,1312
1311,1318
1312,1302
1313,1320
1314,1323
1315,1322
1316,1309
1317,1321
1318,1305
1319,1325
1320,1326
1321,1311
1322,1306
1323,1328
1324,1272
1325,1330
1326,1324
1327,1327
1328,1331
1329,1332
1330,1334
1331,1335
1332,1336
1333,1337
1334,1338
1335,1263
1336,1339
1337,1340
1338,1342
1339,1344
1340,1341
1341,1345
1342,1347
1343,1333
1344,1348
1345,1349
1346,1350
1347,1352
1348,1351
1349,1353
1350,1329
1351,1357
1352,1358
1353,1360
1354,1355
1355,1346
1356,1364
1357,1361
1358,1367
1359,1356
1360,1362
1361,1371
1362,1363
1363,1369
1364,1373
1365,1366
1366,1359
1367,1377
1368,1378
1369,1365
1370,1380
1371,1379
1372,1381
1373,1387
1374,1386
1375,1388
1376,1385
1377,1370
1378,1301
1379,1392
1380,1307
1381,1374
1382,1383
1383,1368
1384,1391
1385,1354
1386,1382
1387,1384
1388,1395
1389,1394
1390,1372
1391,1389
1392,1393
1393,1376
1394,1398
1395,1396
1396,1397
1397,1401
1398,1403
1399,1399
1400,1405
1401,1408
1402,1406
1403,1410
1404,1404
1405,1402
1406,1390
1407,1412
1408,1413
1409,1414
1410,1416
1411,1411
1412,1375
1413,1417
1414,1418
1415,1409
1416,1419
1417,1420
1418,1415
1419,1343
1420,1407
1421,1421
1422,1424
1423,1423
1424,1400
1425,1425
1426,1426
1427,1427
1428,1428
1429,1430
1430,1432
1431,1433
1432,1434
1433,1439
1434,1440
1435,1437
1436,1435
1437,1441
1438,1444
1439,1442
1440,1429
1441,1438
1442,1447
1443,1448
1444,1445
1445,1451
1446,1450
1447,1452
1448,1453
1449,1458
1450,1457
1451,1454
1452,1443
1453,1422
1454,1461
1455,1455
1456,1459
1457,1436
1458,1462
1459,1465
1460,1431
1461,1460
1462,1469
1463,1466
1464,1467
1465,1468
1466,1471
1467,1456
1468,1473
1469,1464
1470,1474
1471,1476
1472,1446
1473,1478
1474,1479
1475,1472
1476,1480
1477,1449
1478,1483
1479,1485
1480,1470
1481,1486
1482,1481
1483,1487
1484,1489
1485,1488
1486,1490
1487,1491
1488,1497
1489,1496
1490,1498
1491,1493
1492,1499
1493,1494
1494,1501
1495,1502
1496,1500
1497,1504
1498,1482
1499,1506
1500,1505
1501,1507
1502,1508
1503,1477
1504,1492
1505,1509
1506,1510
1507,1511
1508,1512
1509,1515
1510,1484
1511,1516
1512,1517
1513,1514
1514,1519
1515,1520
1516,1524
1517,1513
1518,1463
1519,1523
1520,1530
1521,1522
1522,1518
1523,1525
1524,1521
1525,1527
1526,1495
1527,1531
1528,1532
1529,1503
1530,1533
1531,1528
1532,1534
1533,1536
1534,1538
1535,1539
1536,1537
1537,1535
1538,1540
1539,1542
1540,1544
1541,1543
1542,1541
1543,1545
1544,1547
1545,1550
1546,1526
1547,1552
1548,1554
1549,1551
1550,1549
1551,1555
1552,1546
1553,1529
1554,1548
1555,1557
1556,1553
1557,1558
1558,1561
1559,1559
1560,1562
1561,1564
1562,1568
1563,1565
1564,1567
1565,1570
1566,1572
1567,1573
1568,1569
1569,1576
1570,1575
1571,1577
1572,1475
1573,1566
1574,1560
1575,1571
1576,1580
1577,1583
1578,1584
1579,1582
1580,1585
1581,1581
1582,1587
1583,1589
1584,1588
1585,1590
1586,1578
1587,1556
1588,1593
1589,1596
1590,1599
1591,1594
1592,1591
1593,1563
1594,1601
1595,1600
1596,1586
1597,1603
1598,1574
1599,1592
1600,1605
1601,1607
1602,1606
1603,1602
1604,1608
1605,1597
1606,1595
1607,1610
1608,1611
1609,1614
1610,1609
1611,1616
1612,1598
1613,1617
1614,1618
1615,1612
1616,1604
1617,1615
1618,1579
1619,1622
1620,1623
1621,1624
1622,1620
1623,1619
1624,1621
1625,1626
1626,1627
1627,1628
1628,1629
1629,1625
1630,1630
1631,1631
1632,1632
1633,1635
1634,1638
1635,1640
1636,1634
1637,1642
1638,1641
1639,1636
1640,1643
1641,1646
1642,1639
1643,1633
1644,1648
1645,1613
1646,1644
1647,1649
1648,1647
1649,1651
1650,1653
1651,1656
1652,1658
1653,1660
1654,1659
1655,1654
1656,1661
1657,1664
1658,1665
1659,1663
1660,1655
1661,1657
1662,1652
1663,1662
1664,1672
1665,1673
1666,1674
1667,1668
1668,1669
1669,1645
1670,1676
1671,1677
1672,1679
1673,1680
1674,1681
1675,1686
1676,1684
1677,1685
1678,1682
1679,1683
1680,1671
1681,1687
1682,1688
1683,1690
1684,1670
1685,1692
1686,1696
1687,1691
1688,1698
1689,1693
1690,1678
1691,1667
1692,1695
1693,1703
1694,1689
1695,1706
1696,1705
1697,1699
1698,1708
1699,1707
1700,1666
1701,1712
1702,1713
1703,1714
1704,1710
1705,1716
1706,1717
1707,1675
1708,1694
1709,1637
1710,1700
1711,1719
1712,1720
1713,1711
1714,1721
1715,1718
1716,1722
1717,1715
1718,1723
1719,1701
1720,1725
1721,1727
1722,1728
1723,1709
1724,1730
1725,1697
1726,1731
1727,1726
1728,1732
1729,1734
1730,1733
1731,1724
1732,1738
1733,1737
1734,1742
1735,1736
1736,1743
1737,1702
1738,1744
1739,1704
1740,1747
1741,1749
1742,1750
1743,1751
1744,1752
1745,1754
1746,1753
1747,1755
1748,1650
1749,1758
1750,1745
1751,1761
1752,1748
1753,1740
1754,1762
1755,1757
1756,1765
1757,1735
1758,1766
1759,1771
1760,1770
1761,1764
1762,1769
1763,1772
1764,1773
1765,1763
1766,1775
1767,1759
1768,1774
1769,1779
1770,1756
1771,1767
1772,1780
1773,1782
1774,1729
1775,1760
1776,1777
1777,1784
1778,1785
1779,1787
1780,1768
1781,1786
1782,1789
1783,1741
1784,1746
1785,1781
1786,1792
1787,1739
1788,1790
1789,1778
1790,1794
1791,1795
1792,1783
1793,1799
1794,1800
1795,1796
1796,1788
1797,1802
1798,1791
1799,1803
1800,1776
1801,1801
1802,1806
1803,1798
1804,1805
1805,1809
1806,1808
1807,1807
1808,1810
1809,1812
1810,1814
1811,1804
1812,1815
1813,1816
1814,1797
1815,1818
1816,1819
1817,1820
1818,1821
1819,1822
1820,1793
1821,1823
1822,1824
1823,1826
1824,1828
1825,1827
1826,1831
1827,1832
1828,1817
1829,1835
1830,1833
1831,1811
1832,1837
1833,1839
1834,1840
1835,1813
1836,1844
1837,1838
1838,1845
1839,1830
1840,1829
1841,1825
1842,1842
1843,1846
1844,1843
1845,1849
1846,1851
1847,1850
1848,1848
1849,1852
1850,1853
1851,1841
1852,1854
1853,1855
1854,1847
1855,1857
1856,1859
1857,1856
1858,1863
1859,1864
1860,1865
1861,1867
1862,1836
1863,1862
1864,1870
1865,1860
1866,1866
1867,1873
1868,1875
1869,1861
1870,1868
1871,1869
1872,1879
1873,1878
1874,1880
1875,1882
1876,1883
1877,1884
1878,1886
1879,1874
1880,1877
1881,1889
1882,1876
1883,1858
1884,1892
1885,1888
1886,1895
1887,1872
1888,1893
1889,1896
1890,1897
1891,1885
1892,1898
1893,1900
1894,1901
1895,1902
1896,1903
1897,1904
1898,1906
1899,1907
1900,1894
1901,1881
1902,1909
1903,1887
1904,1910
1905,1911
1906,1912
1907,1914
1908,1908
1909,1913
1910,1915
1911,1917
1912,1919
1913,1918
1914,1921
1915,1922
1916,1916
1917,1871
1918,1905
1919,1923
1920,1834
1921,1924
1922,1925
1923,1926
1924,1899
1925,1928
1926,1890
1927,1930
1928,1929
1929,1933
1930,1934
1931,1935
1932,1936
1933,1939
1934,1938
1935,1937
1936,1940
1937,1942
1938,1943
1939,1944
1940,1945
1941,1947
1942,1948
1943,1949
1944,1941
1945,1951
1946,1950
1947,1952
1948,1891
1949,1954
1950,1953
1951,1955
1952,1927
1953,1957
1954,1958
1955,1960
1956,1961
1957,1963
1958,1965
1959,1966
1960,1969
1961,1931
1962,1946
1963,1959
1964,1970
1965,1967
1966,1971
1967,1972
1968,1973
1969,1975
1970,1974
1971,1932
1972,1978
1973,1976
1974,1920
1975,1962
1976,1980
1977,1981
1978,1977
1979,1985
1980,1982
1981,1983
1982,1968
1983,1986
1984,1987
1985,1964
1986,1992
1987,1956
1988,1989
1989,1993
1990,1984
1991,1991
1992,1995
1993,1997
1994,1979
1995,1996
1996,1988
1997,2001
1998,1998
1999,1994
2000,2003
2001,2000
2002,2005
2003,2004
2004,2006
2005,2007
2006,2008
2007,2002
2008,2009
2009,2010
2010,2012
2011,1990
2012,1999
2013,2019
2014,2016
2015,2022
2016,2020
2017,2021
2018,2023
2019,2024
2020,2011
2021,2026
2022,2025
2023,2028
2024,2029
2025,2027
2026,2030
2027,2014
2028,2013
2029,2032
2030,2031
2031,2034
2032,2033
2033,2035
2034,2017
2035,2036
2036,2037
2037,2040
2038,2038
2039,2042
2040,2041
2041,2015
2042,2044
2043,2045
2044,2046
2045,2048
2046,2047
2047,2049
2048,2053
2049,2050
2050,2055
2051,2059
2052,2043
2053,2060
2054,2061
2055,2056
2056,2052
2057,2065
2058,2064
2059,2067
2060,2063
2061,2068
2062,2062
2063,2070
2064,2071
2065,2066
2066,2072
2067,2058
2068,2039
2069,2069
2070,2073
2071,2074
2072,2076
2073,2051
2074,2077
2075,2079
2076,2078
2077,2081
2078,2075
2079,2083
2080,2085
2081,2087
2082,2088
2083,2093
2084,2092
2085,2082
2086,2095
2087,2096
2088,2054
2089,2098
2090,2057
2091,2097
2092,2100
2093,2091
2094,2102
2095,2086
2096,2104
2097,2099
2098,2105
2099,2101
2100,2106
2101,2103
2102,2107
2103,2089
2104,2109
2105,2111
2106,2112
2107,2114
2108,2090
2109,2108
2110,2080
2111,2118
2112,2119
2113,2110
2114,2120
2115,2124
2116,2084
2117,2126
2118,2127
2119,2128
2120,2129
2121,2125
2122,2113
2123,2122
2124,2121
2125,2130
2126,2117
2127,2131
2128,2123
2129,2018
2130,2132
2131,2133
2132,2134
2133,2135
2134,2115
2135,2138
2136,2136
2137,2139
2138,2140
2139,2141
2140,2116
2141,2143
2142,2144
2143,2142
2144,2145
2145,2146
2146,2149
2147,2147
2148,2137
2149,2151
2150,2152
2151,2153
2152,2154
2153,2155
2154,2156
2155,2160
2156,2157
2157,2161
2158,2159
2159,2162
2160,2158
2161,2164
2162,2165
2163,2166
2164,2168
2165,2170
2166,2169
2167,2171
2168,2172
2169,2173
2170,2175
2171,2177
2172,2178
2173,2176
2174,2181
2175,2150
2176,2180
2177,2174
2178,2167
2179,2182
2180,2183
2181,2185
2182,2188
2183,2189
2184,2190
2185,2192
2186,2094
2187,2197
2188,2196
2189,2163
2190,2199
2191,2194
2192,2195
2193,2198
2194,2187
2195,2200
2196,2184
2197,2186
2198,2201
2199,2202
2200,2205
2201,2179
2202,2193
2203,2206
2204,2208
2205,2207
2206,2213
2207,2209
2208,2191
2209,2216
2210,2212
2211,2218
2212,2220
2213,2215
2214,2222
2215,2203
2216,2227
2217,2228
2218,2229
2219,2214
2220,2231
2221,2225
2222,2210
2223,2226
2224,2234
2225,2235
2226,2236
2227,2219
2228,2239
2229,2217
2230,2224
2231,2241
2232,2240
2233,2233
2234,2238
2235,2242
2236,2237
2237,2148
2238,2230
2239,2223
2240,2244
2241,2243
2242,2249
2243,2246
2244,2232
2245,2248
2246,2254
2247,2252
2248,2253
2249,2255
2250,2257
2251,2256
2252,2211
2253,2258
2254,2221
2255,2259
2256,2260
2257,2251
2258,2265
2259,2245
2260,2261
2261,2267
2262,2268
2263,2262
2264,2269
2265,2271
2266,2270
2267,2263
2268,2250
2269,2273
2270,2247
2271,2204
2272,2275
2273,2276
2274,2277
2275,2278
2276,2280
2277,2279
2278,2281
2279,2284
2280,2285
2281,2272
2282,2274
2283,2286
2284,2288
2285,2287
2286,2282
2287,2290
2288,2289
2289,2293
2290,2294
2291,2295
2292,2296
2293,2297
2294,2266
2295,2298
2296,2299
2297,2302
2298,2300
2299,2301
2300,2264
2301,2292
2302,2303
2303,2307
2304,2306
2305,2304
2306,2291
2307,2309
2308,2310
2309,2305
2310,2313
2311,2318
2312,2316
2313,2315
2314,2311
2315,2320
2316,2283
2317,2317
2318,2314
2319,2322
2320,2325
2321,2324
2322,2327
2323,2329
2324,2326
2325,2330
2326,2319
2327,2328
2328,2312
2329,2332
2330,2308
2331,2334
2332,2321
2333,2338
2334,2337
2335,2331
2336,2340
2337,2333
2338,2323
2339,2342
2340,2341
2341,2339
2342,2344
2343,2336
2344,2335
2345,2349
2346,2347
2347,2350
2348,2348
2349,2352
2350,2354
2351,2355
2352,2356
2353,2357
2354,2358
2355,2359
2356,2360
2357,2361
2358,2363
2359,2364
2360,2366
2361,2345
2362,2367
2363,2346
2364,2362
2365,2369
2366,2371
2367,2373
2368,2372
2369,2374
2370,2365
2371,2378
2372,2343
2373,2375
2374,2368
2375,2380
2376,2381
2377,2370
2378,2376
2379,2379
2380,2377
2381,2382
2382,2353
2383,2383
2384,2386
2385,2387
2386,2390
2387,2351
2388,2388
2389,2384
2390,2392
2391,2394
2392,2393
2393,2395
2394,2396
2395,2398
2396,2399
2397,2400
2398,2401
2399,2397
2400,2385
2401,2404
2402,2405
2403,2406
2404,2389
2405,2407
2406,2402
2407,2391
2408,2410
2409,2411
2410,2412
2411,2415
2412,2403
2413,2416
2414,2413
2415,2420
2416,2418
2417,2419
2418,2423
2419,2424
2420,2426
2421,2427
2422,2417
2423,2429
2424,2425
2425,2422
2426,2431
2427,2430
2428,2408
2429,2433
2430,2409
2431,2434
2432,2414
2433,2436
2434,2439
2435,2440
2436,2432
2437,2437
2438,2421
2439,2443
2440,2438
2441,2444
2442,2441
2443,2445
2444,2446
2445,2449
2446,2450
2447,2448
2448,2447
2449,2452
2450,2453
2451,2451
2452,2454
2453,2435
2454,2455
2455,2456
2456,2457
2457,2458
2458,2459
2459,2442
2460,2462
2461,2465
2462,2464
2463,2460
2464,2467
2465,2469
2466,2470
2467,2468
2468,2472
2469,2473
2470,2475
2471,2476
2472,2477
2473,2479
2474,2482
2475,2483
2476,2474
2477,2484
2478,2480
2479,2478
2480,2485
2481,2486
2482,2461
2483,2466
2484,2487
2485,2481
2486,2489
2487,2492
2488,2493
2489,2471
2490,2494
2491,2498
2492,2501
2493,2499
2494,2502
2495,2503
2496,2504
2497,2488
2498,2496
2499,2506
2500,2508
2501,2509
2502,2491
2503,2510
2504,2512
2505,2428
2506,2511
2507,2507
2508,2514
2509,2515
2510,2519
2511,2518
2512,2505
2513,2516
2514,2517
2515,2490
2516,2522
2517,2513
2518,2523
2519,2520
2520,2525
2521,2521
2522,2495
2523,2527
2524,2528
2525,2530
2526,2532
2527,2534
2528,2533
2529,2526
2530,2531
2531,2536
2532,2529
2533,2535
2534,2538
2535,2537
2536,2540
2537,2542
2538,2539
2539,2544
2540,2546
2541,2547
2542,2543
2543,2545
2544,2548
2545,2549
2546,2550
2547,2551
2548,2554
2549,2552
2550,2556
2551,2557
2552,2562
2553,2541
2554,2566
2555,2568
2556,2565
2557,2567
2558,2569
2559,2570
2560,2564
2561,2555
2562,2559
2563,2574
2564,2560
2565,2575
2566,2500
2567,2576
2568,2463
2569,2572
2570,2577
2571,2578
2572,2580
2573,2558
2574,2582
2575,2583
2576,2581
2577,2586
2578,2588
2579,2553
2580,2587
2581,2585
2582,2593
2583,2589
2584,2591
2585,2594
2586,2596
2587,2599
2588,2602
2589,2584
2590,2592
2591,2604
2592,2607
2593,2606
2594,2579
2595,2603
2596,2573
2597,2608
2598,2612
2599,2613
2600,2609
2601,2614
2602,2497
2603,2617
2604,2590
2605,2615
2606,2620
2607,2621
2608,2622
2609,2600
2610,2623
2611,2626
2612,2627
2613,2616
2614,2630
2615,2628
2616,2624
2617,2605
2618,2597
2619,2633
2620,2634
2621,2636
2622,2635
2623,2629
2624,2638
2625,2637
2626,2640
2627,2641
2628,2563
2629,2610
2630,2643
2631,2611
2632,2646
2633,2618
2634,2595
2635,2648
2636,2647
2637,2645
2638,2601
2639,2571
2640,2642
2641,2631
2642,2524
2643,2644
2644,2653
2645,2655
2646,2656
2647,2654
2648,2659
2649,2660
2650,2598
2651,2664
2652,2665
2653,2561
2654,2651
2655,2652
2656,2639
2657,2668
2658,2670
2659,2672
2660,2671
2661,2625
2662,2674
2663,2673
2664,2658
2665,2675
2666,2677
2667,2680
2668,2679
2669,2650
2670,2678
2671,2657
2672,2667
2673,2666
2674,2681
2675,2682
2676,2619
2677,2661
2678,2688
2679,2687
2680,2662
2681,2669
2682,2683
2683,2696
2684,2689
2685,2698
2686,2694
2687,2700
2688,2663
2689,2701
2690,2692
2691,2703
2692,2704
2693,2697
2694,2649
2695,2702
2696,2705
2697,2699
2698,2706
2699,2707
2700,2690
2701,2693
2702,2691
2703,2708
2704,2676
2705,2709
2706,2710
2707,2711
2708,2714
2709,2713
2710,2717
2711,2718
2712,2720
2713,2685
2714,2721
2715,2722
2716,2686
2717,2723
2718,2712
2719,2725
2720,2695
2721,2728
2722,2729
2723,2731
2724,2730
2725,2733
2726,2734
2727,2737
2728,2632
2729,2738
2730,2719
2731,2726
2732,2724
2733,2736
2734,2739
2735,2743
2736,2741
2737,2740
2738,2744
2739,2746
2740,2735
2741,2748
2742,2742
2743,2749
2744,2751
2745,2752
2746,2753
2747,2754
2748,2715
2749,2758
2750,2756
2751,2761
2752,2759
2753,2763
2754,2732
2755,2727
2756,2716
2757,2750
2758,2745
2759,2767
2760,2765
2761,2770
2762,2769
2763,2764
2764,2772
2765,2771
2766,2766
2767,2775
2768,2776
2769,2777
2770,2778
2771,2747
2772,2779
2773,2762
2774,2768
2775,2782
2776,2684
2777,2781
2778,2755
2779,2785
2780,2783
2781,2784
2782,2760
2783,2787
2784,2789
2785,2791
2786,2792
2787,2793
2788,2757
2789,2798
2790,2799
2791,2800
2792,2797
2793,2801
2794,2802
2795,2786
2796,2804
2797,2805
2798,2806
2799,2803
2800,2807
2801,2795
2802,2773
2803,2811
2804,2813
2805,2810
2806,2780
2807,2794
2808,2774
2809,2814
2810,2812
2811,2815
2812,2816
2813,2817
2814,2818
2815,2822
2816,2820
2817,2824
2818,2808
2819,2809
2820,2788
2821,2828
2822,2829
2823,2830
2824,2826
2825,2823
2826,2796
2827,2835
2828,2834
2829,2837
2830,2790
2831,2838
2832,2827
2833,2825
2834,2831
2835,2841
2836,2843
2837,2842
2838,2844
2839,2832
2840,2846
2841,2821
2842,2819
2843,2848
2844,2849
2845,2851
2846,2845
2847,2853
2848,2856
2849,2839
2850,2857
2851,2854
2852,2836
2853,2850
2854,2859
2855,2847
2856,2860
2857,2861
2858,2833
2859,2863
2860,2852
2861,2867
2862,2868
2863,2858
2864,2865
2865,2872
2866,2871
2867,2840
2868,2874
2869,2873
2870,2862
2871,2870
2872,2855
2873,2876
2874,2878
2875,2877
2876,2880
2877,2879
2878,2864
2879,2869
2880,2882
2881,2866
2882,2884
2883,2887
2884,2875
2885,2881
2886,2888
2887,2891
2888,2890
2889,2893
2890,2894
2891,2896
2892,2886
2893,2889
2894,2898
2895,2892
2896,2900
2897,2902
2898,2903
2899,2895
2900,2885
2901,2908
2902,2905
2903,2909
2904,2910
2905,2911
2906,2913
2907,2916
2908,2918
2909,2912
2910,2919
2911,2906
2912,2922
2913,2923
2914,2897
2915,2883
2916,2901
2917,2926
2918,2917
2919,2927
2920,2920
2921,2928
2922,2914
2923,2915
2924,2924
2925,2899
2926,2932
2927,2930
2928,2933
2929,2934
2930,2936
2931,2935
2932,2907
2933,2939
2934,2940
2935,2925
2936,2946
2937,2948
2938,2950
2939,2941
2940,2949
2941,2921
2942,2945
2943,2929
2944,2942
2945,2952
2946,2943
2947,2953
2948,2931
2949,2954
2950,2957
2951,2904
2952,2955
2953,2960
2954,2961
2955,2963
2956,2962
2957,2958
2958,2965
2959,2951
2960,2966
2961,2959
2962,2947
2963,2956
2964,2968
2965,2937
2966,2964
2967,2970
2968,2971
2969,2969
2970,2972
2971,2967
2972,2974
2973,2976
2974,2975
2975,2977
2976,2979
2977,2981
2978,2983
2979,2985
2980,2984
2981,2980
2982,2987
2983,2986
2984,2982
2985,2978
2986,2973
2987,2944
2988,2991
2989,2989
2990,2995
2991,2994
2992,2996
2993,2999
2994,2998
2995,2993
2996,2988
2997,2997
2998,2938
2999,2992
3000,2990
