time,RcpSim1.flowGenerator3.flowSynSize:vector
0.00024852956,36
0.000773538783,803
0.00143292094,1
0.002457126236,6
0.003022300723,21
0.003171296163,7
0.003380696531,16
0.003467599598,5
0.003634097794,33
0.003665710354,12
0.003757776182,32
0.004153902524,27
0.004564295218,33
0.004724973879,506
0.005017953627,64
0.005341519109,4884
0.005341939586,37
0.005658576785,22
0.006399848651,2260
0.006550207398,53
0.006564007283,588
0.006886706481,14
0.006949082403,41
0.007392015533,5026
0.007512254531,16
0.007716037522,2
0.007822031421,59
0.00846856015,510
0.008542239536,2896
0.008870751461,36
0.009556434274,43
0.009838506411,87
0.010030088739,39
0.010193735349,7
0.010399088212,3999
0.010931967422,14
0.01291458738,5
0.013040255041,22
0.013277777723,18749
0.013325776378,52
0.013841964102,4
0.013907606755,1190
0.014018046358,2
0.014085605795,19
0.014347683611,626
0.014564404804,10
0.014566112608,774
0.014637134183,3
0.015190186007,5
0.01537342768,1349
0.015430430405,1389
0.015628137286,37
0.015647669549,126
0.01593104177,510
0.016206214396,36
0.016386212896,516
0.016464575443,1917
0.016609959375,57
0.016762179861,14
0.016763164444,1926
0.017177054297,2634
0.017390808937,2862
0.017408211992,19574
0.017545502186,20
0.017734775659,3226
0.017827693311,624
0.017912546085,23
0.018068040214,7
0.018175769452,2897
0.018223843835,5197
0.018627253539,595
0.019129583472,6584
0.019296142084,1223
0.019456762846,6090
0.020778670046,2026
0.020836870559,36
0.020876233431,1
0.020936852083,2
0.021111778785,1001
0.021436015593,262
0.023311789861,457
0.023701076217,20
0.02373551593,988
0.023775757535,19
0.024243592179,15050
0.024525867421,41
0.02637917482,15
0.026385654766,1262
0.026506261159,5
0.026792158311,4
0.026899066084,41
0.027090340946,44
0.027849725441,5
0.028003807357,20
0.028104126521,3743
0.02873150094,20
0.028932382466,3494
0.02899227841,6
0.029099518419,6
0.030157054236,53
0.030698578602,1
0.030967850945,4
0.031646852321,554
0.032204965152,4137
0.032586872488,15
0.033200940107,3831
0.033335801893,18
0.033987277256,20
0.034238389702,48
0.034424977945,116
0.034496892211,3
0.0345173711,95
0.034988329534,104
0.035097982916,208
0.035267172901,7
0.036013240827,6026
0.036055004798,122
0.037785093793,18
0.038832618361,666
0.039961423745,16
0.0401994015,5
0.04075703396,58
0.041168791263,36
0.042052148546,637
0.04227361553,5712
0.042409829834,48
0.042627377144,36
0.042697655734,66
0.043787460102,3
0.044038259946,1104
0.044103183603,61
0.044350256186,3
0.044540221584,474
0.044635144991,7
0.04513171405,52
0.045295434769,1283
0.04671954485,5457
0.047462562246,2
0.047901584206,118
0.048556135568,2996
0.048729542497,66
0.049316395685,7
0.049333674338,3496
0.049455601029,41
0.04972539062,7
0.050298008292,3177
0.050386567554,1482
0.050390290723,31
0.050523045319,34
0.051076162299,63
0.051963333419,9
0.052516236345,413
0.052681954964,29
0.053036727875,27
0.053060847674,101
0.053121271411,4644
0.053329260812,1006
0.053772030821,336
0.053914459413,840
0.053921803567,6
0.054495630936,3000
0.054508710827,615
0.055148374242,260
0.05517261724,388
0.055401459531,1007
0.055633044511,28
0.055872356339,27
0.056167581486,1089
0.056538341839,18
0.056774774303,28
0.058041030708,1019
0.058125510004,3252
0.058512206521,38
0.058999409708,1
0.059510106919,472
0.059770435977,2961
0.060587007419,49
0.060609930428,6421
0.060754053425,250
0.06075992172,4
0.060924705279,6
0.061202240686,1247
0.062191221625,3
0.062557701771,42
0.062867061636,5690
0.063009424018,28
0.064102711283,109
0.065021561837,35
0.065099684386,5326
0.065103404355,31
0.065191247896,16
0.065499979066,1087
0.066578211162,3495
0.066649610567,1144
0.066797114467,104
0.067126740928,21
0.067652290485,1
0.067854377433,1152
0.068003109977,225
0.068707475425,8
0.069890548498,24
0.0704158739,109
0.070701968269,53
0.07074494986,1
0.07133292206,3053
0.07174923258,727
0.071852555917,28
0.07232728557,45
0.073083414562,3740
0.073283457413,258
0.073345856893,1098
0.073495145964,44
0.073647362019,1
0.073734805763,18
0.074384164433,4736
0.074909903786,1968
0.075311423286,619
0.075553397832,78
0.076238358463,4
0.076517242539,10
0.076631001591,45
0.077392457309,7
0.07845857883,952
0.078490258566,18811
0.07932547442,13
0.079726035221,4886
0.08070088265,650
0.080894072751,44
0.08174396039,3
0.082066421522,16
0.082202915834,1037
0.08268346114,50
0.083252296089,1026
0.083465237082,14
0.084306625589,3
0.084771865555,4430
0.085017847303,744
0.085241008649,52
0.085498627266,6
0.08572906733,10
0.085860644623,1
0.086136186286,33
0.086305733592,2
0.086717606828,5
0.086828462246,2
0.086930895197,51
0.087868945768,17
0.087938202876,5
0.088195752523,20
0.088457350343,2534
0.088853213071,64
0.088957071307,16
0.089058628118,80
0.090978227356,5
0.091083221664,6
0.091426299804,16
0.091474704252,19
0.091484886584,19
0.091658878846,1
0.091707024119,37
0.091747043579,30
0.091766616964,2174
0.092002874998,100
0.092007732156,89
0.092055038352,118
0.092141194076,16
0.092155567869,20
0.092933467953,783
0.093097761348,1346
0.093236052059,1594
0.093802158442,1476
0.093813678346,203
0.093852318024,32
0.094311859273,6556
0.0947562697,6648
0.09536285394,38
0.095672153991,1013
0.09589576164,38
0.095952727847,2605
0.095982502348,84
0.096270719645,38
0.096309022035,981
0.096315423791,7
0.096382852281,29
0.096459109445,3
0.097157957062,8
0.097777549014,6
0.098297406759,2
0.098473565291,5105
0.098779379082,5
0.099367497381,4115
0.099400257108,1214
0.09952972933,16
0.100068286344,221
0.100150429801,2
0.100240858348,754
0.100733865063,88
0.100863447534,424
0.101082852485,1
0.101500832518,6
0.101506903266,4
0.101540185568,20
0.101560864077,29
0.102338040485,6537
0.102501300216,97
0.102643153335,19
0.102812055019,14
0.10311582255,4
0.103944003829,17
0.103961160673,7
0.104571515209,9
0.104605954922,13
0.104708077271,959
0.104874515884,113
0.105005823768,30
0.105365595807,3
0.105662962929,5177
0.105696922646,16
0.106007960054,940
0.106338570727,20
0.106453537712,2270
0.106455337697,48
0.106637376754,14
0.106694716924,240
0.106885769108,6676
0.10773044477,1913
0.109558337389,1
0.109817368004,8
0.11081141221,4
0.111010256052,2
0.111197839768,47
0.111209891016,406
0.111534393853,1063
0.111600831629,3194
0.111980795017,1611
0.112004169984,168
0.112415124061,1084
0.112423043995,98
0.112593151646,42
0.113038360658,23
0.113148493167,11892
0.113282033756,56
0.114012106245,5
0.114172671307,111
0.114175791281,7
0.114621900514,31
0.114688188348,51
0.114770027666,78
0.114964552445,15
0.115238695922,969
0.115698489729,503
0.115953963238,43
0.116104822874,18
0.116359845629,14941
0.116613562737,6
0.116616610042,3
0.116649422895,4117
0.116987336374,1095
0.117504452647,30
0.118577558092,15
0.118706156102,292
0.118809719437,4
0.119200935631,15
0.119424503043,5
0.119933107869,1019
0.120284149336,9
0.121026126884,3
0.121696787714,28
0.121752648556,18
0.121934267912,5
0.123108523791,1429
0.123584186124,7
0.123703932839,13
0.124442779482,344
0.12452221882,4811
0.124803563916,107
0.125021326669,53
0.125189805265,258
0.125497722699,2127
0.127032526351,3
0.127278047373,18
0.12740695658,24
0.127762079355,53
0.128314858927,9
0.128636819444,854
0.128681939068,901
0.128911384554,1
0.129181754639,913
0.129209038413,598
0.129347655471,1148
0.129747816032,38
0.129958949122,4515
0.130080867583,16
0.130463211065,3706
0.13060660987,858
0.130784134856,4856
0.130926418407,223
0.131842166638,1043
0.132339209894,34
0.132600567716,5668
0.133686528479,84
0.13487400153,1
0.135655305494,14
0.136007139644,20
0.136026819264,33
0.136222640104,47
0.13622978574,9
0.136698465526,157
0.136725563055,356
0.137180196044,2
0.137423673997,76
0.137530473107,5723
0.1377811605,42
0.137910348915,4534
0.138460912796,4077
0.138584751764,4589
0.139285145671,1501
0.139487566051,4581
0.14016000914,4226
0.140186780102,30
0.140590763953,33
0.14157807871,183
0.142280285797,2
0.142462087482,6346
0.142574652929,10
0.142624780304,28
0.142807929029,6
0.142953354644,4
0.142978036834,7
0.143104264271,50
0.143138943982,631
0.143783913642,1
0.143871723394,1
0.144414713969,43
0.145937703402,1876
0.146046666692,1
0.147946119474,5
0.148089779787,6
0.148199510555,11
0.148482780486,25
0.148514083268,25
0.148690956984,45
0.148730588844,50
0.149007422482,59
0.149282669067,26
0.149287395561,19
0.149429034676,28
0.15011789964,1524
0.150195945981,113
0.150669023228,5618
0.151034854711,3048
0.151550435729,6254
0.15163911499,17
0.151841793301,3259
0.152054710112,5244
0.152477597272,2910
0.152664715602,2229
0.152835477586,2
0.154274229404,3591
0.154358230279,43
0.154785492584,38
0.155071644111,6464
0.15627832784,73
0.156775595713,27
0.156949918597,108
0.156958438526,1325
0.157098510114,20
0.157185587861,6
0.157502986825,48
0.157921863746,133
0.158110388575,22
0.158170028078,1
0.158585488422,5717
0.159169084702,126
0.159509413427,15
0.159520333336,39
0.15966857498,17
0.159993892269,5850
0.16000817215,1481
0.160348035678,23
0.160507207241,16
0.161018672458,2610
0.163042492722,12
0.163105749634,13
0.163531344744,70
0.163658079777,109
0.163763937177,121
0.163818364273,1636
0.163830097138,3
0.163927133758,198
0.164188069686,3
0.164505578074,3192
0.164513550873,1253
0.165533954871,1
0.165888998133,37
0.165981672001,3
0.166134431435,556
0.166606321213,34
0.167594607065,107
0.167596287051,4220
0.167776101413,1
0.169718379626,4
0.17006061527,8
0.170132093672,17
0.17027889046,14
0.170340708666,31
0.170721598585,37
0.170805723156,2684
0.170847535854,105
0.170862689759,159
0.171675576168,1242
0.171841077558,27
0.17193923994,20
0.171941159924,284
0.1719800428,1911
0.172140245267,119
0.172285042864,667
0.172549007223,654
0.172819163156,4
0.172860464962,1001
0.173278948571,2
0.17445935305,2500
0.174461873029,9671
0.174537472399,1034
0.174785156735,1
0.174791036686,8349
0.174841679464,657
0.174930755032,24
0.174975808787,1263
0.175334363233,18
0.175693107396,511
0.175739667008,2623
0.175803155152,3359
0.176256596068,44
0.176277463024,42
0.17766936275,28
0.177716931078,31
0.178077407166,17
0.178329718027,35
0.178548077754,2
0.179287772401,34
0.179321859121,56
0.179378934866,23
0.179657060333,6
0.180132132779,251
0.180181213191,90
0.180259092143,38
0.180502964766,10
0.18144860701,37
0.181612285646,549
0.182230818866,586
0.182250498702,14
0.182383053055,19
0.182492711791,8357
0.182688128333,38
0.184222311671,1
0.184443047829,26
0.186251689255,15
0.186563952213,1318
0.187004822874,2
0.18856308946,2934
0.191198806856,19
0.191268587765,1
0.191506290341,52
0.191526235957,17
0.192056862467,20
0.192212637608,468
0.192433592395,4994
0.192609744633,1214
0.192724458733,3517
0.19278510532,66
0.192786425309,53
0.193326990858,2432
0.193352797043,12
0.193361316972,1377
0.193379800018,102
0.193455975006,4
0.193495519166,2
0.19367890813,52
0.193894271781,2532
0.193970944699,888
0.194409819059,41
0.194657689551,1140
0.195117327825,1
0.195221270652,98
0.195465838069,3
0.195915131028,44
0.196207293214,26
0.196314332322,1569
0.196474622571,327
0.196507915712,4
0.196749171342,1153
0.197016320681,31
0.197273538111,705
0.197287681692,4
0.197485535352,16
0.197542068533,2
0.197592588112,11
0.198359055225,19
0.199033171217,12364
0.199807542074,1571
0.201369060266,4
0.201836994752,9
0.201903015697,12
0.202322290499,27
0.202379245106,44
0.202415808824,53
0.202593379677,99
0.202620692185,16
0.202621536465,45
0.202911633874,125
0.203118203389,2636
0.203135075713,456
0.203268502328,605
0.203396504448,22
0.20357560518,2833
0.204108348613,2109
0.20411350857,7
0.204139546404,2274
0.204487406973,3519
0.205054504315,4110
0.205099577807,66
0.205228683268,44
0.205568668997,3793
0.205870481421,18
0.207038796286,15
0.207127290987,5
0.20750896517,40
0.20831468009,13
0.208557934031,46
0.208686477033,49
0.208846103881,25
0.20916163779,858
0.209199681671,1
0.210300357482,14
0.211344014442,50
0.212032883433,17
0.212498260889,524
0.212782086475,3
0.21280428629,2367
0.2132031695,36
0.213215027237,8
0.213444454097,223
0.213534354352,161
0.21354945742,16
0.214531719945,23
0.214775462187,5
0.215201371137,52
0.215521771667,3144
0.215589331104,1270
0.216033157596,15
0.21603387759,46
0.216499009548,8
0.216599811768,14
0.216783701036,250
0.216921654147,563
0.217335539945,70
0.2173921541,8
0.217683853507,423
0.21778405687,51
0.217949821346,7
0.218173609386,7
0.218369807751,1011
0.218747739038,15
0.218758019558,3
0.219284269283,52
0.220195822252,1
0.220473139941,3315
0.220504219682,769
0.220691702922,1236
0.221067620907,22
0.221385302763,24
0.221466575466,33
0.222038017104,14696
0.222054816964,4
0.223127500561,1
0.224003055397,27
0.224014103112,14
0.224284397476,63
0.224747685582,265
0.22496150784,268
0.225191331777,2792
0.225302591125,23
0.225906876778,5
0.225943192233,1862
0.226088181198,2228
0.22629134181,3
0.22634588686,2666
0.226603250412,2416
0.226773032671,407
0.227185155214,5706
0.227196675118,823
0.227598253562,691
0.227770576324,1062
0.228103638628,188
0.228811792676,35
0.229631124301,1331
0.229722087741,696
0.230923133264,2
0.23126015594,117
0.231615403119,1135
0.232074889888,879
0.232123729481,21
0.232371136589,18
0.233198929897,6646
0.233271028605,22
0.233306632779,18
0.233952718984,16
0.233988238688,306
0.234604455295,27
0.234645494953,520
0.235797233515,1193
0.2360311904,51
0.236181549147,1311
0.236349348401,41
0.236602105443,215
0.236987132674,1219
0.237792402105,3
0.238647034234,41
0.238762476472,21
0.239445093108,7
0.239677737723,28
0.240238310194,81
0.240505949504,67
0.240595534606,36
0.241243126348,329
0.241569817861,14
0.242570441933,72
0.243399867453,3396
0.243461070143,450
0.243604618095,53
0.244402296052,6573
0.244666058254,7
0.245023258377,1515
0.245035738273,43
0.245110737353,28
0.24555106619,2
0.245640825442,58
0.24606455381,9
0.246815016226,6479
0.246909695437,108
0.247890592972,3080
0.247935748852,2
0.248002761158,971
0.248108891242,22
0.248354267341,8774
0.248459618956,29
0.249090400177,46
0.250040010985,841
0.250128647651,628
0.250163490585,47
0.250366708374,12
0.250640997578,619
0.25084371264,1439
0.250864870002,15766
0.251129808085,40
0.251297450072,83
0.251566247832,2581
0.251832609615,113
0.25185173978,18
0.251957610095,4167
0.252034243809,47
0.252244266207,14
0.252246786186,2162
0.253389346212,19
0.253831464793,17
0.253868064488,16
0.254089589042,18
0.25412582874,16812
0.254283253709,383
0.254306743701,17295
0.255061198403,1002
0.255326940472,43
0.255359248993,14
0.255477452206,3
0.256033808629,51
0.2564424184,44
0.256935344593,15
0.257016943913,2931
0.257195026627,4340
0.257330751466,834
0.257444796008,15446
0.257715604096,21
0.257737695373,1325
0.258212856306,20
0.258507310771,48
0.259117111272,2
0.259224131389,14
0.25961465615,126
0.259697898362,4
0.25986458326,9
0.259953502519,31
0.260015542002,2211
0.260665142044,50
0.261058868503,1000
0.261095588197,1251
0.261468151841,51
0.261521852587,66
0.26165906639,15
0.261972630177,3505
0.262232068015,921
0.262606818536,18
0.26269250704,2
0.263038655837,93
0.26339634046,1413
0.263410500342,6
0.263431260169,730
0.263688213833,44
0.263806130191,30
0.263947104257,6164
0.264512522435,4
0.264939359447,5598
0.26531322071,15
0.265845460289,50
0.265921086886,18
0.266542495109,4
0.26656877489,637
0.266807215855,43
0.266931299019,38
0.267492001357,29
0.267715950495,5
0.267925765382,1654
0.270259590073,314
0.270279533628,3
0.270868705522,1393
0.271177370407,32
0.271515302025,650
0.271608785444,43
0.271806852049,1109
0.271842851749,26
0.271916651134,905
0.272614595147,19
0.274537094363,1
0.274694582939,7
0.274900745073,38
0.275010417864,4
0.275481860456,2251
0.27555040556,275
0.275722970398,434
0.27590303774,1
0.275935930445,152
0.276056212859,3793
0.276072894552,903
0.276396464534,561
0.27642564997,1689
0.276469785205,1814
0.277471382194,3
0.278574118775,116
0.2786751912,43
0.278976742423,104
0.2791080476,6
0.279120437275,29
0.279467473724,2
0.280551504543,1033
0.281231796406,6129
0.281564854979,33
0.281599936947,32
0.281984905233,980
0.283373818895,2057
0.285077149024,14197
0.28553355849,42
0.286034175816,42
0.286514169719,117
0.286827160397,46
0.287019124489,512
0.287481185539,12064
0.288133692802,45
0.28909847518,4
0.289343953427,1397
0.289598753452,34
0.290234514554,1197
0.292521524339,2
0.293564309391,420
0.293730156282,2
0.294066062761,6
0.294149222068,1160
0.294342660456,3557
0.29448878428,794
0.295100595464,233
0.2953842795,1
0.295537278225,604
0.295882773524,181
0.295994292993,64
0.296130371765,5
0.296382176141,1
0.296795699095,19
0.297478770053,16201
0.297913310361,1175
0.298367392977,51
0.29873698967,7
0.298873539088,4
0.29895064216,8
0.299008074766,1307
0.299299276815,772
0.299369564357,12
0.29949040335,215
0.300326540529,3137
0.300329900501,254
0.300582140417,3591
0.300722180698,5772
0.300837773018,646
0.30106377016,2090
0.301083823521,82
0.30154836343,4061
0.301738128656,17496
0.302374029241,3610
0.302910307972,741
0.30316366137,2558
0.303401330518,18
0.303580621583,879
0.303608828942,969
0.304128789166,34
0.306326577913,10
0.306459914537,17
0.3069229086,48
0.306938766783,6
0.307013900876,104
0.307409605726,342
0.308396745406,7
0.308537744231,1586
0.308598716277,3776
0.309147742304,18
0.309362660513,3121
0.31001664455,2824
0.310075204062,388
0.310133643575,2290
0.310142763499,117
0.310636757228,22
0.310851886355,15536
0.310890320314,1716
0.311516673957,19
0.312764789666,19898
0.313834416855,18
0.314040815135,58
0.31411581451,49
0.314306972917,1332
0.315646916988,2
0.315853215215,6
0.316336948899,22
0.316417273924,29
0.316525484561,39
0.316538782818,16
0.316624390642,51
0.317308327762,2
0.317927798065,1149
0.318258224615,21
0.318640187832,47
0.318948948459,780
0.319268687447,2184
0.31928546001,401
0.319691169657,2
0.320299352397,3847
0.320665363261,4335
0.321070246695,7
0.321107086388,53
0.321165165904,3154
0.32119999276,5186
0.321405084327,12186
0.322698890902,16291
0.323303296356,21
0.323308124614,24
0.325929737746,18
0.32616024508,20
0.326188627013,42
0.326235897759,52
0.326327670113,49
0.326371888485,25
0.326387032476,86
0.326480719761,1
0.326809785326,285
0.326968304855,107
0.326993203796,2524
0.327114442044,615
0.327131020888,3072
0.327162487707,14
0.327769650398,22
0.328136970537,2941
0.328174726143,3071
0.328333364983,52
0.328349791276,3228
0.328727208745,1726
0.329105516683,2111
0.329987876136,53
0.329999276041,38
0.330467180825,4115
0.330822592855,9
0.330927308029,17
0.331478004785,30
0.331815123301,5666
0.331879659914,3
0.334343736847,6
0.33438935088,4
0.334504543525,16
0.334671776338,31
0.334797048743,35
0.334882071984,16
0.335018007581,28
0.335048135092,105
0.335100599448,22
0.335154615079,7
0.335469659631,352
0.335983684721,3064
0.336021836873,10
0.336202268383,4851
0.33657476007,2220
0.337335622869,4296
0.337598542501,172
0.337603327289,2463
0.337674850633,5089
0.338407826517,5
0.338784781148,36
0.340975532397,5863
0.340998812203,1661
0.340999895394,9
0.342544998168,9
0.3425959626,12
0.342738659185,17
0.342993849131,40
0.343289672167,46
0.343309747418,27
0.343364634398,104
0.34384477988,34
0.343892500279,680
0.344020968751,3
0.34410081319,19
0.344365476508,16
0.344450669563,2919
0.344946831798,3
0.345142759365,7
0.34517335911,476
0.345416602568,49
0.346194163099,1191
0.346486685296,52
0.346670358202,11
0.347103916978,10
0.347168431166,115
0.348265843613,100
0.348939643914,4673
0.349825552393,5
0.350240632134,1671
0.350279635009,42
0.351775715868,2
0.351804230158,8
0.351982700036,5
0.352191886615,21
0.352469684006,13
0.35267039105,3
0.352724791052,4
0.352742723479,127
0.352748580165,129
0.353023008668,277
0.353064416362,42
0.35325612644,23
0.353258406421,31
0.353433644109,741
0.353670097354,1095
0.354211437593,158
0.354616749273,10
0.355156163928,2927
0.355219169136,3408
0.356303862248,36
0.356570386427,13
0.356762631225,9
0.357146571507,3
0.357187491166,308
0.357278740697,46
0.357280180685,1117
0.357349543395,266
0.357367832504,1
0.357377392944,24
0.357517052858,28
0.357609822567,500
0.358419606773,1819
0.359399701717,48
0.359539179917,1144
0.359540739904,14
0.359850337923,44
0.359870257757,117
0.360064662537,9329
0.360113742128,40
0.360158501755,5963
0.360186806879,43
0.360551729893,868
0.360675618377,206
0.360906162726,9045
0.36103298853,7
0.361419652898,7906
0.361616170689,23
0.361836425035,18558
0.361882106771,1
0.362362161214,5
0.362600231496,11295
0.362753114582,1056
0.3630434724,22
0.363051594048,23
0.363528314242,9
0.364514496257,2
0.365361658426,15
0.365541843711,17
0.365552908385,26
0.365720963239,44
0.365790674278,53
0.365927415147,44
0.365938575617,6
0.36637445014,323
0.366538775519,7
0.366826142963,22
0.366856382711,1033
0.366876934118,1
0.367100065604,50
0.367591437377,612
0.367627677075,2738
0.368342753422,528
0.369395559677,1135
0.369568015604,28
0.369651917049,6
0.369795031321,33
0.36992542472,2
0.370154665466,52
0.370274064471,2755
0.371270720012,2592
0.371437922692,1
0.371464972176,42
0.37227789176,13060
0.372278251757,520
0.372915571382,656
0.372926783493,41
0.372930772423,597
0.373054217813,1534
0.373082999695,108
0.373610411841,1025
0.373612571823,6
0.373905972578,370
0.374108054094,1
0.374375483845,5
0.37463217348,4870
0.374849148457,1488
0.375096807736,47
0.375267015261,17306
0.375285291761,25
0.375627553223,4038
0.375810199099,93
0.376171289989,2520
0.376387775501,254
0.376507657702,8886
0.376633375978,396
0.376653227035,43
0.376684990699,1942
0.376867917076,527
0.37906415603,1591
0.379090076812,109
0.379172159328,17
0.379445040206,19
0.379939735871,37
0.38015837994,89
0.380734127062,516
0.380794726557,1446
0.380979212475,75
0.381094782261,27
0.381137838642,17
0.381510712568,1
0.381802790134,2450
0.382005169953,13
0.38247407511,17
0.382701910232,17
0.382788189513,983
0.382924447292,20
0.383043359797,218
0.383867075546,1159
0.385280813103,18
0.385363868746,38
0.386524102354,53
0.387017611968,1488
0.387712918937,31
0.388092780454,28
0.388389233107,2
0.388490536628,15
0.389047406804,2206
0.3890958896,1116
0.389184920353,42
0.389337218417,22
0.389994752555,889
0.390953252855,3
0.391365592424,964
0.391703539451,9
0.39174297451,15
0.391781286123,9548
0.393389254888,12
0.393814657026,15
0.393943400339,67
0.395104664304,14
0.395402044748,19
0.396344085746,7
0.396741195906,48
0.397114626993,31
0.39738368312,893
0.397526079265,2
0.397827602942,12
0.398709752296,5
0.39918807947,532
0.399360284435,454
0.399420647132,4319
0.399508880487,4
0.399658843085,614
0.399768970685,10
0.399852100901,1332
0.400917253712,16
0.401125439476,591
0.401350992692,14
0.401555774402,143
0.401938945007,427
0.402119543502,52
0.402192262896,743
0.402373265506,81
0.402499404312,4159
0.402981586004,4
0.403202315533,21
0.403650128625,45
0.404437834443,47
0.404541873576,2031
0.404556997648,39
0.405360537036,229
0.406285887576,5
0.406434086341,4451
0.406974495145,708
0.408528478232,2
0.408867257997,46
0.409075150191,4
0.409206443753,6
0.409249176668,31
0.410289881175,1153
0.411689170594,8
0.41189328694,14
0.412201827164,35
0.412702509838,39
0.412781004588,34
0.412786682671,57
0.413033376321,41
0.413157056436,7
0.413421014447,24
0.414336105974,4998
0.414432105174,863
0.414834553271,26
0.414896422916,9353
0.415164701449,12
0.415182156016,3
0.416103940254,368
0.416105860238,41
0.416820022026,1029
0.417140069957,15
0.417444150623,3488
0.418104963933,139
0.418732228853,2962
0.419271077507,1593
0.419364676727,993
0.419472075832,338
0.419772050366,21
0.420055993844,20
0.42010801794,131
0.420509615528,2
0.420637645807,29
0.42082177499,4
0.421024096504,878
0.421136775565,38
0.421373048782,26
0.421427170216,3
0.422157606482,1215
0.422709518363,13
0.422858317123,1274
0.42321174035,6202
0.423317706071,995
0.423332514926,44
0.423385287443,33
0.423389608141,4680
0.423562716837,4
0.423681892198,21
0.423796541,14
0.423818269245,2039
0.424104875481,5491
0.424185688665,4545
0.42459169519,4
0.424721626872,4
0.428577998958,30
0.428698876559,41
0.428760561975,55
0.428785672109,48
0.428807902004,6
0.429011843436,107
0.429019494532,14
0.429413912554,14
0.429542756322,4
0.429646961751,3554
0.429657964467,807
0.429826762387,3183
0.429858768861,804
0.430383520409,2281
0.430419134283,50
0.43086926352,18
0.430873223487,98
0.430973724956,168
0.431046087533,28
0.431252244277,5
0.431652564141,3347
0.432039162173,3200
0.432280126569,1251
0.43233844141,136
0.432801727194,5
0.433281113032,1227
0.433597673594,1256
0.434712620529,2
0.435076896243,4
0.435309679729,11
0.435385053119,12
0.435827251501,55
0.435828904344,54
0.436021786406,102
0.436110557368,116
0.436642845411,596
0.436773853163,32
0.436956494841,7
0.437048054078,1248
0.43718254782,18
0.437238926904,934
0.437545074267,78
0.437852173964,41
0.438361654885,4284
0.439058111252,15
0.439199470074,74
0.440008978632,1062
0.440669597749,11
0.440856319393,820
0.440889319118,18
0.440984103776,11449
0.441025928217,13649
0.441178697513,2252
0.441395614342,1650
0.442159663845,1
0.442169983759,2573
0.443470842871,25
0.444083223766,2539
0.444712883886,4670
0.445050167284,87
0.445440655632,698
0.445614654182,12025
0.445813487142,34
0.446302148993,396
0.446391071452,1059
0.44650993556,14
0.446750345338,780
0.446887749561,964
0.448631484796,1
0.449457328385,5
0.449554037153,19
0.449768173505,36
0.450555292111,18
0.451017058143,16
0.451989613629,52
0.452048653137,53
0.452267534513,860
0.452654875229,2492
0.452903440506,714
0.453270803027,1963
0.453453300827,4948
0.453683811924,2
0.45421031425,1204
0.454394593741,30
0.454760569564,37
0.45478847658,10097
0.454801511988,1073
0.455390789894,14368
0.455564820583,1136
0.45560643933,11
0.456184641172,1005
0.456240680705,675
0.456629964005,204
0.456788825866,131
0.45701524989,34
0.457130035526,19
0.457575750555,653
0.457757912759,3
0.457812941969,1
0.458476599927,700
0.458794553761,1166
0.459268056862,28
0.459841874217,16
0.459989472987,822
0.459990432979,53
0.46021751539,6
0.460301172111,3262
0.460556049067,5
0.460574603392,15
0.460760461243,28
0.460840507311,21
0.463262264325,6
0.463297730396,7
0.463336326378,11
0.463402083413,13
0.463466324943,14
0.463568888792,20
0.463578130767,20
0.46391869691,69
0.464339037001,208
0.464381773968,292
0.464383180717,24
0.464414980037,2
0.46474844544,3809
0.464821881394,2994
0.464900215084,43
0.464924953086,44
0.465221449863,41
0.465444864016,4
0.465804584172,5713
0.465947382982,1897
0.466467771185,127
0.466699675793,38
0.466714915666,132
0.467774981932,27
0.46786358088,27
0.468644929177,534
0.469375617596,18
0.469745549775,15
0.470090616111,22
0.470332732719,44
0.470974698362,22
0.471365655104,3568
0.471795155275,35
0.472676708949,277
0.472843631526,710
0.47315960382,2881
0.473264672336,77
0.473315666009,41
0.473419339383,42
0.473596121993,1230
0.474407858314,44
0.474502913055,43
0.475576453775,5
0.475635044958,434
0.475680404076,6
0.476253131698,6
0.476330651052,5716
0.476556678527,39
0.476569241179,6
0.47695984837,9
0.477098807212,3777
0.477307975876,163
0.477819434827,1112
0.478220491488,50
0.478473599348,2735
0.478671001219,49
0.479379577802,31
0.47979381755,46
0.480445074286,4
0.480471540302,2192
0.480591727357,5184
0.480667515217,507
0.480885499765,103
0.482302737586,1590
0.484074496896,4
0.484295610572,6
0.484632425971,13
0.485022107269,52
0.485074878341,17
0.485272422757,14268
0.485993438168,96
0.486092317344,904
0.486258226783,672
0.486776051301,66
0.486971242303,4193
0.486979762232,2293
0.487510340278,5370
0.488233952062,264
0.488523280249,1
0.489945046988,11
0.49052012015,4
0.490619192785,86
0.490950462313,237
0.491098249568,690
0.491178573969,6328
0.491371593922,3
0.491727865247,23
0.491960426509,40
0.491979266352,2472
0.492064051197,2093
0.492732470029,5582
0.493453925837,5659
0.493477448841,1
0.493602727797,1
0.494316622452,4
0.49447766111,2533
0.494938602681,38
0.49500810376,5532
0.495041508137,1788
0.495463759149,40
0.495624948086,2558
0.496510901498,15263
0.497018003378,120
0.497421236706,18
0.498038605756,1388
0.498093088502,2525
0.49954911668,6
0.500118078817,46
0.500199892243,57
0.500608420705,212
0.501188812389,961
0.501310109663,24
0.501576791831,48
0.501648311235,2063
0.501794312121,17
0.502043176687,37
0.502096456243,425
0.502150935789,3253
0.502843457818,4660
0.502965242192,2468
0.502991724167,181
0.503398982074,579
0.503568223943,4
0.503720636765,34
0.50387351644,32
0.50395248519,50
0.504744262053,61
0.504905294964,12
0.50687706778,5
0.507038845245,7
0.507261057496,15
0.507364785231,20
0.507546608345,6
0.507707475265,1
0.507809643452,90
0.508034139669,8
0.508180019653,93
0.508518022571,3192
0.508619455007,726
0.508655064538,773
0.509414608751,1
0.509704049539,6429
0.509831855872,1
0.509901678081,5207
0.509969983308,50
0.510040705756,1298
0.510929039484,15
0.511197941496,1279
0.511621548564,645
0.511731467648,3
0.511760627405,3565
0.51213010612,20
0.512164935668,1186
0.51322449555,35
0.514047245374,7
0.514352730732,389
0.515695498534,409
0.516121847042,11
0.516528586295,7
0.516619205783,23
0.516776298251,22
0.517471562524,10
0.518793445705,35
0.518869405072,5942
0.520041508619,17
0.520170507544,4167
0.52040620615,35
0.520587764637,2305
0.520829809712,53
0.521689896822,5
0.522065821692,8988
0.522110400604,23
0.522502955762,7
0.524501931831,36
0.524853535301,327
0.525004974039,53
0.525466213149,31
0.525766650283,12219
0.525775054411,19
0.526188213474,18
0.526388851802,2484
0.526616991087,238
0.526637295839,43
0.526660722223,17
0.526765017353,33
0.527065155536,1286
0.527217198467,867
0.527365691551,39
0.527505716681,1
0.527705862098,28
0.528141664894,207
0.52861927324,25
0.528781519255,2
0.528932113173,653
0.529094687498,3
0.529401129745,18
0.529518759822,18
0.530206341865,125
0.530285421206,20
0.530341820736,1499
0.530697824415,4
0.530817440161,70
0.531133125704,47
0.531208125079,2555
0.531336673103,4
0.531694922549,2441
0.531713406593,24
0.532302446623,3102
0.532409127514,12
0.532499249963,1545
0.532831296569,117
0.532933295719,17
0.533279359725,4912
0.533733113031,3298
0.533891051194,82
0.534141856316,41
0.534501364288,89
0.534998512749,46
0.535185714389,19
0.535428844135,4375
0.535675117939,41
0.536314964394,181
0.537119207308,574
0.53723057278,5042
0.537240552149,33
0.537283358272,16
0.537314358271,3
0.537350699177,1
0.537422679352,18
0.53786047967,36
0.537898968347,39
0.5384133562,20
0.538534195193,26
0.538625034436,5166
0.539004825147,67
0.539315859086,1199
0.539459862084,10
0.539517341605,1071
0.539964913482,3657
0.541277628886,26
0.541475652895,1145
0.541636622477,7
0.542639146102,94
0.542988986648,779
0.543658159813,10
0.543917875443,663
0.544016758817,38
0.544149264967,606
0.544248144143,995
0.544782499329,17
0.544981271111,2
0.545227549442,626
0.545352475799,46
0.545468999026,16
0.54548007831,53
0.545909634465,38
0.546346956603,62
0.546440685603,30
0.546804818918,9
0.54685839528,28
0.547197785114,337
0.548034287282,3
0.548598769188,16
0.549325176793,303
0.549878225058,8
0.551503126469,716
0.551503606465,32
0.551919286375,206
0.551925498692,50
0.552094620144,392
0.552206223412,9
0.552539587097,10
0.553277959858,85
0.553400039448,7
0.554095670559,1543
0.554377876279,51
0.554473514518,7
0.555102234196,2840
0.555354359968,1170
0.555392523848,12
0.556147155915,44
0.558646641516,26
0.558776307094,38
0.558846377783,49
0.558889116964,9
0.559596940594,26
0.559625039516,465
0.559681668965,630
0.560447546641,1893
0.560458106553,18
0.560763821789,5360
0.561067662457,82
0.561647580857,12111
0.561714122027,2264
0.561750969428,2224
0.561878722353,38
0.561886083694,49
0.562045801063,524
0.562084907589,1340
0.562656433317,171
0.562814150209,1
0.563003622337,7
0.563105641093,748
0.563323646661,51
0.563448209821,51
0.563583020769,20
0.563613057289,13
0.564119344508,2527
0.564415865237,2556
0.564454864912,516
0.565302163195,312
0.565418202228,1609
0.565983770892,809
0.566394524199,6
0.566625460513,3
0.566673293643,45
0.566812400966,1
0.568064088029,1
0.569561213088,7
0.569928006221,3
0.570179107704,38
0.570189407327,44
0.570200060485,45
0.570319507391,64
0.570431090791,90
0.570445944338,95
0.570591072274,133
0.570662779763,21
0.570670480792,178
0.570935673965,343
0.570975606052,374
0.571017252333,405
0.571762155499,48
0.571863674653,36
0.571864994642,110
0.572009296877,1008
0.572600254729,2333
0.573229208332,23
0.573293410997,5634
0.573312846268,3
0.573340326039,47
0.573482924957,3
0.573728932507,3
0.573786292029,6
0.573816531777,14
0.573882534427,4387
0.574388821456,37
0.574942116874,5
0.57501899428,5
0.575270134957,1013
0.575369342586,260
0.575408582259,117
0.575522357317,4510
0.575736210603,3
0.576346150917,19
0.576542928345,3
0.576768086285,365
0.576935655372,16
0.577001534823,478
0.577265918216,691
0.578054933978,5659
0.578064893895,499
0.578108093535,12354
0.578112173501,4
0.57854586723,31
0.578667802631,3693
0.578889053487,5
0.57901571919,14033
0.579496527449,12
0.579503810021,1
0.580147394994,16155
0.581181140884,981
0.581380582422,26
0.581628453368,3
0.58220780716,1303
0.582210447138,1100
0.583042325811,2
0.583440319521,4
0.584266210091,47
0.584300316781,49
0.584316024258,53
0.584416834865,72
0.584569011626,1
0.584745757062,3
0.584770740384,27
0.584947787624,370
0.585008186657,6068
0.585014432754,16
0.58508987091,1
0.585206311604,39
0.585823761178,31
0.585960092842,7
0.585980972668,45
0.586007852444,133
0.587421174044,29
0.587464593161,36
0.587784823855,80
0.588197844575,329
0.588708907078,919
0.588738906828,529
0.588799746321,28
0.588817152767,7602
0.588908118963,1163
0.589081874545,16
0.589893103982,17
0.590031226031,3116
0.590107331219,39
0.590412285995,4331
0.591357779928,10882
0.592371868959,1
0.592372260451,2
0.593521022173,51
0.593687830032,84
0.594450072862,3
0.594646871703,31
0.594829150184,3859
0.596026014322,2264
0.596353833014,5751
0.596848975455,7432
0.597086025184,3
0.59768376897,52
0.597982801438,407
0.597997081319,1107
0.598138845029,2
0.598832174075,5500
0.599273669638,1636
0.599276909611,101
0.599297549439,1
0.599395599141,11
0.599726417854,17
0.599856634497,299
0.600815103607,17802
0.600869587375,25
0.602166071787,5
0.60451049954,15
0.604667899274,28
0.604788615737,42
0.604918943293,48
0.604927986825,45
0.605208785571,54
0.605510562946,375
0.605793764323,724
0.605819488204,15
0.605865121093,2832
0.605975522257,7
0.60606624233,1184
0.606344271832,1840
0.606401337174,29
0.606562756375,11522
0.606705112091,30
0.606849915079,7
0.606866892003,927
0.608077624116,43
0.609040052041,846
0.609183081784,4
0.609372864857,46
0.609434861276,25
0.609469646426,41
0.609710832229,188
0.610393011578,683
0.610429251276,53
0.610509533807,3054
0.610606256639,35
0.610846197769,1
0.611178365085,18
0.61120628105,2730
0.611432091257,20
0.611715178661,4
0.611943746513,995
0.612047309848,37
0.612910438689,2600
0.612935282681,2
0.613330853041,20
0.613480494994,34
0.613598460411,3268
0.613639921581,50
0.613696287471,40
0.614457380844,32
0.615001965987,6474
0.615146947792,5
0.615205485293,16
0.615473389125,523
0.616257475094,7
0.616916969851,49
0.617144980628,1
0.61750170169,1181
0.618327726614,1109
0.618536327301,7
0.619015538154,4
0.619670979092,1854
0.621271183332,12
0.62163704758,13
0.621638663536,34
0.621675856327,12
0.621981421882,26
0.622548929623,20
0.622692587832,180
0.622813605467,1084
0.622838826351,15
0.622855770973,1119
0.622929058323,1314
0.623639006599,10924
0.623743328747,613
0.623984147364,1
0.624568270319,32
0.625224827877,34
0.625398059192,18
0.626042178823,31
0.626911336679,450
0.62712362131,5441
0.627129903712,21
0.627131119664,4
0.627424273029,116
0.627609722498,8
0.628267494386,38
0.628581141216,1
0.630057008361,26
0.630132302026,6
0.630164770522,36
0.630544883184,410
0.630911615939,1073
0.633116087636,34
0.633945472609,23
0.634130874264,52
0.634230596633,2585
0.634327876031,86
0.634410852568,20
0.634862915605,15
0.636262895722,2
0.636734098427,4
0.637368139963,2024
0.637661960313,76
0.637741552255,45
0.638477247582,665
0.638616540858,20
0.63866826435,908
0.638726444112,983
0.639161355832,27
0.640410595313,4203
0.641099561555,26
0.641116001418,48
0.641450256778,65
0.641709298155,45
0.641750032249,6102
0.642400308594,18
0.64241518847,1289
0.642478431143,41
0.642551390535,5
0.642695555192,2509
0.643840138684,5
0.643877231669,17
0.644168699796,3239
0.644429193628,18
0.644505084494,19
0.644564935915,5108
0.64458574514,33
0.644606868485,24
0.644614190511,2875
0.645027513401,74
0.645047913231,23
0.645195395202,937
0.645275674533,15
0.645504196258,49
0.645700291048,515
0.645875812285,7
0.645907732019,17094
0.646123736619,5
0.646159256323,3
0.646457103441,5
0.646569205085,16
0.646744337256,2443
0.646790598472,16
0.647069792651,32
0.647088992491,28
0.647264158104,101
0.647293077863,7
0.647578434613,2738
0.647802973545,53
0.647989246963,19023
0.648227096076,1233
0.648884933038,4
0.649084014579,30
0.649752206962,16214
0.649949436152,3
0.650152564263,2816
0.650739203607,827
0.651136167301,27
0.651295261632,19
0.651634651845,1584
0.651908496783,5769
0.652212457037,47
0.653613327221,54
0.653782560217,26
0.653786400185,714
0.655361533835,69
0.656762535117,82
0.656893679404,17
0.657989579032,22
0.658037338634,1019
0.65826506618,38
0.659108066715,501
0.65917952652,24
0.659976155295,8624
0.66043135465,1164
0.660503680078,2
0.660904339579,5290
0.661022076903,24
0.661359256896,46
0.661754057115,6549
0.661858612246,4
0.662142253425,37
0.66281669975,3130
0.662834966952,1012
0.662977641358,1085
0.663018746292,7
0.66349741913,45
0.664906160452,85
0.66515027696,15
0.665549322436,477
0.665569070002,2
0.665919345063,23
0.665977664577,25
0.666161389446,2
0.666278868467,51
0.666560693305,634
0.666641212634,5685
0.667041364048,17
0.667124183418,509
0.66719187678,2836
0.667653379468,39
0.669309366294,391
0.669419765374,1119
0.670141286397,9
0.670354903598,61
0.670510204581,28
0.670873773772,2
0.671080329567,1276
0.671846921396,6
0.672018755784,2
0.672133761507,13
0.672231311976,314
0.673504684306,25
0.673897527666,1095
0.674169906447,3
0.674434778434,1650
0.675068484476,161
0.675071484451,42
0.675634162432,51
0.676043539751,745
0.676175302851,227
0.676313271086,9
0.676602968172,39
0.677019116206,226
0.677372584629,2288
0.677687322583,2761
0.67773938536,42
0.678416397399,2976
0.678468121166,1
0.678603720928,38
0.679041245631,19
0.679075565345,2795
0.680131058158,434
0.680720633245,2300
0.680803795752,1794
0.680910100407,17
0.681059830054,4
0.681204789968,3
0.682273262806,5799
0.682354506327,40
0.682557149864,16
0.682653199687,52
0.682803884281,3
0.682831190866,3
0.684167030341,37
0.684287300198,43
0.684889482734,2610
0.684982846173,20
0.686500926731,4
0.687430331094,51
0.687633630235,45
0.688268627586,35
0.688443454581,6
0.688877750727,1153
0.690023148276,2
0.690587613703,10
0.690908366467,29
0.691005442399,16
0.691065919521,28
0.69110175582,53
0.691158122132,47
0.691427197828,34
0.693253519864,208
0.693527042923,2162
0.694221849462,26
0.69425569238,2
0.694470327349,705
0.694748740641,35
0.695433250605,39
0.695542572894,6409
0.695895038235,16
0.697096801243,453
0.697117921067,18
0.69737290464,3
0.697687548809,583
0.697790505658,5833
0.698149509281,50
0.698190548939,3291
0.698264531329,5424
0.698335539183,1876
0.698537230689,6117
0.699032951841,5335
0.699228070215,547
0.699685649578,676
0.699788576606,185
0.700216877818,160
0.700370599737,49
0.700468278923,4815
0.700669887745,2742
0.70078009864,1
0.700803310837,17
0.70098763872,883
0.701151180091,5278
0.701170664315,8217
0.70144621487,9819
0.7019945246,45
0.702190337913,18
0.702197297855,136
0.702392422629,1626
0.702479182904,636
0.702479422902,3
0.702678534047,68
0.702798057249,6
0.703465270455,1247
0.704294459752,106
0.704410498785,232
0.704565180696,2183
0.704698267321,55
0.704797064331,664
0.704878195389,17
0.705037917258,2071
0.70510344091,54
0.705335633387,20
0.707570047062,3
0.707935425287,4
0.708342622989,22
0.708377544225,14
0.70848454551,37
0.708567926265,21
0.708593579799,52
0.709526593331,2788
0.709663786722,1004
0.709931431153,266
0.710104473909,1858
0.710454718472,47
0.710540997753,4
0.710566317542,386
0.710636036961,5785
0.710665676714,3274
0.710913938542,132
0.71091890136,33
0.710970233933,53
0.711082357555,3
0.711189166422,2969
0.711242346388,266
0.711679784839,51
0.712601120118,12
0.712680799454,2435
0.713027061479,19
0.713427304625,961
0.713936690352,36
0.713983849959,3009
0.715058254445,97
0.715115032858,23
0.715137358282,6
0.715306058818,16
0.715326938644,371
0.71546878166,392
0.715504020595,129
0.716530926652,834
0.717140539788,16
0.717530492295,3244
0.717956437428,6
0.719029871324,31
0.71946836287,9
0.719524772709,45
0.719797536596,2231
0.719849980361,145
0.720248260242,2279
0.720411702772,15
0.720491093923,27
0.721047078876,269
0.721087507138,2618
0.721228850413,129
0.721584880349,36
0.722062004947,6361
0.722259514156,133
0.722754647504,124
0.722998387656,218
0.723052944543,75
0.723254823661,3
0.72333441771,20
0.723901299306,1003
0.724420565055,1287
0.72462548861,51
0.725089386493,59
0.725267465009,5630
0.725891034542,18
0.726048079905,13
0.726972282004,375
0.727613988133,1020
0.727787514085,459
0.727886517458,1
0.728306810498,39
0.728496217757,24
0.728637381297,39
0.729111169964,11
0.729168649485,121
0.729253968774,403
0.729326688168,4172
0.730053975326,2438
0.731483353462,3
0.732631934668,159
0.733220497817,24
0.733257097512,895
0.733617987776,3967
0.733644977627,1785
0.733997005957,2924
0.734198034466,23
0.736955850857,6
0.736971450727,3697
0.736999891491,4
0.737139574332,809
0.737153428078,3
0.737879427361,40
0.737910488016,53
0.737945125163,6
0.73816175026,122
0.738753090642,5120
0.739950425702,6666
0.740073844047,2
0.740364199806,16
0.740365935073,14
0.740660447493,2352
0.741151532939,1256
0.741305015858,437
0.741498968779,1
0.742469589013,376
0.743075395855,21
0.744599368869,2441
0.746154067455,1
0.747562765458,4813
0.748378658602,40
0.748416578286,113
0.748502977566,3
0.748793399886,20
0.749586705953,74
0.750063828927,14
0.75073531322,50
0.751719355961,18883
0.751931259734,42
0.752082338475,120
0.752308056594,809
0.752370576073,4712
0.752384855954,2400
0.753189975821,18
0.753747613114,47
0.753823455682,4811
0.753932058975,21
0.754279763879,30
0.754532724971,4448
0.7547332497,17
0.754844683871,4
0.754937022096,3108
0.755057447718,116
0.755509720727,645
0.755615559845,6
0.756223398836,4
0.756336418186,6514
0.756454641422,38
0.75747988401,1021
0.757698165391,7149
0.759483115838,6
0.759904066017,22
0.760056441798,42
0.760779624411,4
0.760851774368,2510
0.760864708157,45
0.761113756599,1011
0.761263144307,1457
0.761382672384,46
0.761654859557,631
0.762188756764,41
0.762485604137,343
0.762710541531,520
0.762751635622,20
0.76278122514,41
0.763065437893,27
0.763607739188,696
0.764776955259,6
0.765991688954,569
0.766016860498,51
0.766159451754,652
0.766627528801,175
0.767078312444,233
0.768861893352,14
0.770270337409,7
0.771185210028,1073
0.771609448322,7
0.772504559151,792
0.77260907828,1207
0.773431797271,386
0.773463237009,16
0.773585759188,3529
0.773751484697,11
0.773937549512,207
0.774096924429,1326
0.774667641055,33
0.774786920061,16697
0.775565416169,842
0.775628899838,23
0.775751205658,61
0.776757842696,387
0.776822642156,1643
0.777049413102,206
0.777149912614,24
0.777660051133,1067
0.777920584481,46
0.777957749052,38
0.777960909154,2
0.77800377196,5
0.778064894146,38
0.77896343954,6
0.779465321427,30
0.77975776219,6088
0.779899247411,13
0.780081525892,2149
0.78089029955,1749
0.780939979136,4905
0.781342067094,22
0.781898926351,133
0.782164924666,548
0.78261277821,608
0.782888530706,182
0.783466722233,48
0.783539302388,14
0.783686674942,4
0.78409463762,9
0.784136586405,16
0.78414537324,20
0.785034312377,43
0.785064576435,62
0.785767764302,14
0.786603457897,26
0.786794336441,2
0.786882607004,47
0.787473800604,863
0.787950351314,833
0.788024993892,2701
0.788642928954,25
0.78869672803,1352
0.788724949088,73
0.789272115968,2204
0.78930163992,11
0.789717054316,38
0.789896899264,673
0.790960763992,2628
0.791157088215,1222
0.791755184346,438
0.791809202285,40
0.792590705935,112
0.792992795022,1847
0.793274129858,14
0.793514159905,33
0.793529427049,54
0.794092690826,4692
0.794206937322,3
0.794295379785,21
0.794336059446,48
0.794744422443,3222
0.796593594949,24
0.797567290017,50
0.79781768699,2753
0.79785128671,577
0.798168862612,1309
0.798360148416,4
0.798853366949,2410
0.79907636494,2797
0.7990964818,1749
0.799498474358,3750
0.799531961642,47
0.799653774708,3318
0.800728497462,2906
0.800925821766,2288
0.801095103246,13
0.80234956516,1006
0.802507127047,38
0.802619692509,2329
0.802658509485,6
0.802697508137,492
0.803231344783,26
0.803440738164,45
0.803731362952,7
0.805051668667,4
0.805629068336,322
0.805987505349,3097
0.807686377223,3
0.807739656779,2290
0.808082498464,1771
0.808769972472,2115
0.809226011779,284
0.809276515735,29
0.810222426871,122
0.810503707727,6015
0.810638589803,1549
0.812034516765,7
0.812258881329,14
0.812477844397,25
0.812606417375,38
0.813530485563,31
0.813768803577,195
0.814348424873,1328
0.814842067338,4397
0.814849987272,2509
0.815072326516,2921
0.815073526506,52
0.815486335931,10
0.815693100608,6
0.815773379939,4
0.816065742149,2272
0.816124663244,36
0.816155665255,1537
0.81628258749,30
0.817187141675,6
0.818046172172,3010
0.819023449626,45
0.819067129262,36
0.819141888639,318
0.819770736855,18
0.82063943969,6033
0.821181898078,16421
0.821705988114,2079
0.821822924747,16756
0.822391400963,7
0.822521978298,13
0.823065519902,33
0.823076199813,5
0.823524279279,43
0.823743796637,4760
0.824109436302,5599
0.824179379164,5
0.824212686203,89
0.824236345276,40
0.824681285101,5
0.824838123794,1203
0.824904843238,47
0.825238053072,101
0.82574102723,37
0.825852750444,15963
0.826224868336,24
0.826719974943,18
0.826802151644,5
0.827029247086,329
0.827445621955,1
0.827482176005,3848
0.827553041454,545
0.827653174828,122
0.827838134029,1756
0.82891437215,12
0.829649448353,34
0.83038534761,591
0.830685468309,28
0.830857084208,14
0.831183594743,6537
0.831738045216,50
0.832267580412,8539
0.832504395049,6
0.833902043327,19
0.834672167648,12
0.835603669528,1900
0.8368403139,3123
0.83734413307,17
0.837955405111,115
0.838552455212,3
0.839051552276,22
0.839196585217,7
0.839222138451,1
0.839569479746,4
0.840457196559,16
0.840878756579,25
0.841346623264,7
0.841532432019,37
0.842476938678,14
0.842876113647,703
0.843335834987,3260
0.844155427618,6
0.845196345347,1207
0.845251664886,2796
0.846062418855,669
0.84649777439,18
0.846725989573,45
0.848216549479,6
0.849363778859,1877
0.85000302284,49
0.850799660135,11130
0.850841063988,49
0.851313811918,29
0.851778029086,15
0.852082163959,19
0.85251630181,19
0.852755050058,32
0.853332252646,1
0.853870311291,1
0.854974487179,17
0.855074770247,14
0.855116405012,20
0.855189641156,32
0.855247792731,34
0.855300924244,48
0.85532260461,51
0.856103657799,42
0.856321839606,784
0.856382844463,13
0.856528774069,1216
0.856948546827,4512
0.857150138326,6
0.857258435067,3033
0.857259702248,6
0.857298175124,11
0.858314738597,506
0.860710797258,11997
0.860913910449,2074
0.861251448311,123
0.861610707249,611
0.861764800395,961
0.862365570611,17
0.862407078579,17
0.862442810835,26
0.862578115798,258
0.863076044621,1525
0.863204211264,338
0.863428496793,24
0.863465336486,78
0.863509499318,1466
0.86362662254,3
0.864269754599,20
0.864686093057,2945
0.865014783381,43
0.865039863172,37
0.866053506403,1093
0.866556513127,668
0.866671838641,17
0.86686267422,11730
0.866897134056,124
0.867385016002,2694
0.868412775624,38
0.869228317423,7675
0.870189387266,14
0.870471183555,31
0.870556010792,5
0.870647655444,6
0.871145425549,47
0.871685540485,17
0.872066288615,90
0.872407697584,4
0.872602328682,1
0.872723813321,21
0.873026048624,94
0.873175916066,945
0.873243959697,6
0.873583613633,20
0.873593213553,214
0.87373851246,520
0.874349792388,1
0.875107771596,552
0.876656925071,3
0.87720069873,10
0.877279000497,16
0.877596602128,50
0.877705786064,4
0.877915832605,134
0.877995567562,12
0.878110137359,28
0.878704107607,3084
0.879416177064,817
0.879624302589,4
0.880469286166,11509
0.880911992355,38
0.88093659215,2219
0.881395777443,5386
0.881741219212,27
0.881912400742,31
0.882082679323,3988
0.882319080553,1202
0.882445926894,36
0.882470805301,73
0.882556809253,236
0.883481299981,12263
0.884423136566,362
0.884573615312,1663
0.884799821465,47
0.885901289788,29
0.886086957997,122
0.886477131555,3102
0.886845353187,18
0.886847873166,1249
0.887236883431,5
0.887243134326,3
0.88735338198,62
0.888082469165,7
0.888622094325,29
0.88926305245,19
0.889343707961,157
0.889641049028,102
0.890893411341,17
0.891033573373,33
0.891577877992,12
0.891585197931,6134
0.892293294687,33
0.892993823948,5671
0.893488375575,1271
0.893740020876,374
0.893836260074,5
0.894429121533,33
0.894440881435,5827
0.896460361537,293
0.896787583166,608
0.898019052549,18
0.898573713797,34
0.899178745651,4
0.899481440523,7
0.899688509745,22
0.899740083466,42
0.900028296953,452
0.900043386595,25
0.900315371,4
0.900637597632,15
0.900927661007,97
0.901094623522,52
0.901338824687,612
0.901353104568,19
0.901564240529,132
0.901830656877,4561
0.90186816412,37
0.902095302766,978
0.90250929796,50
0.902619056305,68
0.903717997057,80
0.90380974288,671
0.904222821724,33
0.904695130679,719
0.905079893102,4789
0.905226032221,9
0.905473667174,596
0.905605432476,18
0.905666387718,4
0.905849026196,2586
0.905909873959,2761
0.906062914402,1
0.906456320368,29
0.90667687853,16
0.907202312061,441
0.907354186995,5201
0.907600813992,42
0.907679386074,457
0.907910014733,4
0.908288949771,1128
0.908441651202,15
0.908752665095,50
0.909070880743,26
0.909280758994,10522
0.909475833399,5
0.910265863085,9040
0.91078996335,32
0.91085716599,63
0.910869525887,122
0.910990124882,48
0.911261349854,3739
0.911848256801,26
0.913791199863,2
0.91383858088,83
0.914566324746,25
0.914719469719,62
0.915814811036,312
0.916234575747,33
0.916551399479,525
0.917218971863,647
0.917267439446,284
0.9179360544,552
0.917952092555,44
0.918173230417,599
0.918659839731,8
0.918842741619,90
0.919749422778,3
0.920646290984,28
0.920977185862,49
0.921162345735,204
0.921590322432,463
0.922928072245,5036
0.923149286543,743
0.923231250058,130
0.923455147044,601
0.923721071228,104
0.923737391092,40
0.924025820916,263
0.924231259204,931
0.924865689915,14
0.924974106457,2
0.925109332807,8
0.925302057601,10929
0.925335897319,2
0.925416776645,1099
0.92565884179,52
0.925691419604,11
0.925768120196,1
0.926028798757,19
0.926053878548,18
0.926154080913,59
0.92627924307,5
0.926622200212,1120
0.927021160552,3
0.927133784397,742
0.927241719856,60
0.927655297461,8834
0.927956868891,76
0.928578427632,1228
0.92861227055,1354
0.929307430819,37
0.929691490961,5
0.929941176043,4
0.930056762186,398
0.930451493366,1154
0.930499475306,19
0.930730507426,50
0.930753790432,1067
0.931370399571,4831
0.931384199456,22
0.931857907682,1101
0.931946642761,4250
0.932247710303,134
0.932606175342,3947
0.932879458149,38
0.933442737809,1082
0.933492057398,1993
0.935174547372,7
0.935442975069,4
0.935466404,19
0.935678085593,4
0.935866224883,39
0.936053559299,1
0.936154762753,6
0.936243344788,285
0.936803938387,929
0.936914937462,15
0.937096259151,5
0.937298419387,3255
0.937479856474,15
0.937492693346,1794
0.937685806644,32
0.938499929103,47
0.938534488815,588
0.939208245383,20
0.939243645088,2169
0.939289847903,27
0.939417616759,20
0.940011378206,28
0.940516727438,48
0.940813119216,17
0.941109409547,3
0.941321087783,130
0.941841331281,4853
0.941878318073,7876
0.942193217452,838
0.942364166528,7476
0.942460936287,8433
0.942906783557,2
0.942948663208,1
0.943009022705,1310
0.94341990355,3858
0.943440786327,43
0.943573475574,2
0.943632860398,19
0.944612142454,19343
0.94473646889,579
0.944796232593,2
0.944969822139,654
0.945373568769,3027
0.946327679325,2472
0.946685626329,1141
0.946922877812,37
0.947279265229,24
0.947350769209,11
0.948347910459,1311
0.94851123454,2095
0.948540220914,24
0.949796473089,2
0.949816068275,22
0.950017585882,5
0.95097643896,4672
0.951323194833,2385
0.951860767013,686
0.952061817872,53
0.952302135765,46
0.952491870394,33
0.95496347656,25
0.955032853051,30
0.955120879711,41
0.955199107793,52
0.955213301155,42
0.955446782647,107
0.955534576699,16
0.956131713833,736
0.956667884102,3094
0.957217340212,3069
0.957311620842,9741
0.957363167771,162
0.957477620566,5807
0.957952661967,932
0.958885570673,69
0.959278807396,1160
0.959331966953,877
0.960637559529,4
0.961007023266,12
0.961051132932,15
0.961106823207,25
0.96141250244,53
0.961483493723,36
0.961669927588,146
0.961964788543,15
0.962521050156,1165
0.962696039771,1347
0.963593286823,129
0.96376216868,3410
0.96386489421,11
0.964043262117,29
0.966253672176,2
0.966773635057,3
0.966895086153,1
0.9676010559,20
0.967743509735,22
0.967855276609,30
0.967899538364,49
0.968072849616,3
0.968257976602,35
0.968603166897,20
0.968988297909,4915
0.968988537907,7
0.969040737472,28
0.969399794752,1540
0.970029429629,483
0.970284390026,46
0.970484999959,2535
0.970611126735,12
0.97123144869,19
0.971377007477,116
0.971806414573,50
0.971878222561,42
0.972409637073,4063
0.972582562032,3607
0.972619401725,5
0.972725284683,365
0.972993841043,3047
0.973069351444,37
0.973168808665,4960
0.973671469794,40
0.974249692132,15737
0.974374369845,1054
0.974516140659,6067
0.974586184024,6166
0.975006168158,1
0.975523367048,1362
0.975545686862,5890
0.975788677525,2373
0.976241081715,2219
0.97668290014,5105
0.976688300095,31
0.977025613601,41
0.977081172077,3144
0.97722587935,1630
0.977822691975,17699
0.978351780395,5554
0.978420514443,34
0.979055112449,5
0.97957652122,3733
0.979711872091,16
0.979783791353,5
0.979998194316,72
0.980248278632,19
0.980295798236,41
0.981458016215,69
0.981780721362,174
0.98184772235,8
0.982204880329,7254
0.982394345193,625
0.982717144093,30
0.982866782846,1117
0.982919942403,3686
0.982960262067,304
0.983526760895,28
0.983729717603,3145
0.984029797506,2928
0.984137753847,4405
0.984179944125,15
0.984820146801,88
0.985572954232,27
0.986719555308,8
0.986756035004,44
0.98717971422,10411
0.987782360882,41
0.988923927568,6
0.989051387069,4
0.989414075363,9
0.990176051639,6593
0.990181536667,12
0.991395367683,13
0.991469701434,125
0.991634254863,619
0.991668820975,104
0.991717660568,1131
0.991774821268,37
0.992235500655,2800
0.992352516478,17
0.992547634852,2539
0.992947656927,48
0.992993745755,292
0.993717944491,46
0.993942927054,2
0.994093156504,14
0.994174312336,52
0.9947948258,362
0.995443303356,6
0.995696744444,2598
0.996308795865,1232
0.996401438293,1
0.998045928039,1
0.998092794739,3
0.998142879995,9
0.998239168888,15
0.998268065748,17
0.998289856358,18
0.998330610448,23
0.998929373705,48
0.998981067002,4
0.999544770484,3
0.999683778894,18
0.999796217957,19
0.999972862885,29
1.000164861285,347
1.000493841769,3171
1.000664660105,366
1.000672187678,20
1.000849862642,19
1.000880028215,18
1.001539170809,6555
1.001619120624,25
1.001697140476,123
1.001728294417,48
1.001766562867,31
1.001930988984,18
1.001988657421,12946
1.002396119044,684
1.003015634975,47
1.003403630949,49
1.003717227603,69
1.004220596406,311
1.00462507938,1
1.005294661537,28
1.005922722682,26
1.005927680361,20
1.006182532005,20
1.006541404475,6
1.006586782713,9
1.006917548048,14
1.007456709955,482
1.007473389816,1431
1.009319998892,12
1.009845829283,28
1.010560505504,50
1.010638424054,5100
1.010663661062,19
1.010881437152,34
1.011160144761,19
1.011479702098,2007
1.01181698187,2566
1.012368618762,78
1.012948764474,2423
1.013026104444,4913
1.013032435816,12
1.013106374589,5036
1.013119926013,5145
1.013593183164,40
1.013651862675,873
1.014207714101,212
1.014363116006,6472
1.014421839535,12
1.014936154898,33
1.016690570146,18
1.016875731803,48
1.017029213724,87
1.017079013309,5590
1.017648751129,817
1.018107172621,374
1.01833535949,47
1.01873374077,6378
1.018757383773,619
1.018973412074,22
1.020627993203,6557
1.020734136574,9827
