time,CharnySim1.flowGenerator3.flowSynSize:vector
0.000600145576,36
0.000957140575,803
0.001275574432,1
0.001577416744,6
0.002250881034,21
0.002358629294,4884
0.002532777322,7
0.002657214146,16
0.002745100944,5
0.002836608414,33
0.002875026361,12
0.002927296846,32
0.003200932968,27
0.003450677351,33
0.003652679412,506
0.003683454012,64
0.003982810358,37
0.004204178944,22
0.004765019382,53
0.004957257872,588
0.005027142108,14
0.005060476212,41
0.005310198173,2260
0.005382019645,16
0.005583796466,2
0.005630391873,59
0.006170572359,510
0.006339956555,36
0.006778906383,43
0.006959158988,87
0.007114710188,39
0.007234003266,7
0.007463891106,5026
0.00746720393,2896
0.007706095405,14
0.008799544282,1190
0.008856492737,22
0.008983834927,5
0.009035169074,52
0.009665284238,4
0.009781024165,2
0.00980661328,19
0.009862768464,774
0.010007137482,626
0.010139284534,10
0.010170739764,3999
0.010195943603,3
0.010532848774,5
0.010577567088,1349
0.010781505413,37
0.010796253483,126
0.011134305729,1389
0.011210369963,36
0.011452468735,57
0.011579565891,510
0.011603075911,14
0.011878495277,516
0.012123121656,20
0.01237153865,23
0.012482910478,7
0.012868063509,1917
0.013119252468,1926
0.013347663272,624
0.013567304953,595
0.013939925471,2862
0.014144465779,2634
0.014237611163,1
0.014328490275,36
0.014398047812,2
0.014767746898,1223
0.01484391976,3226
0.015037374032,5197
0.015172932184,2897
0.015206387561,262
0.015806643234,1001
0.016229294581,20
0.016285046045,19
0.016300189137,457
0.016612539372,2026
0.016692378572,18749
0.016787598304,41
0.016982793662,988
0.017634325135,6584
0.018023951424,15
0.018110218182,5
0.018301340615,4
0.018305771041,6090
0.018369660129,41
0.018496855374,44
0.018671052372,1262
0.019005993579,5
0.019105447008,20
0.019591365138,20
0.019766607703,6
0.019839441268,6
0.019968464231,19574
0.020540710736,53
0.020785925316,1
0.020913153765,3743
0.021085107029,4
0.021172643767,3494
0.021614562356,554
0.022163520854,15
0.022662826595,18
0.02309683503,20
0.02326209687,48
0.023381013519,116
0.023438250699,3
0.023444228794,95
0.023475446131,4137
0.023757590323,104
0.023951098789,7
0.024306758897,208
0.024324405451,15050
0.024467129777,122
0.024716582258,3831
0.025628878176,18
0.02586136403,6026
0.026275271793,666
0.027079808353,16
0.027239340193,5
0.027606855197,58
0.027883120045,36
0.028422379564,637
0.028703469715,48
0.028853144613,36
0.028895421597,66
0.029631776407,3
0.02963743412,5712
0.029837596132,61
0.029995763169,1104
0.030006835696,3
0.03019632595,7
0.030387416592,474
0.030523850248,52
0.031202608741,1283
0.032081828773,2
0.03222092514,5457
0.032365196702,118
0.032824215514,66
0.033316679155,7
0.033406103677,41
0.033590002377,7
0.033790343002,2996
0.03396471731,31
0.034078849412,34
0.034486010046,63
0.034548513028,1482
0.034691960885,3496
0.035081817755,9
0.035273470122,3177
0.035465824613,413
0.035496315711,29
0.035793816323,27
0.035796893848,101
0.03638320902,336
0.03638773763,6
0.036692862615,840
0.036732422719,1006
0.037234192566,615
0.037246172614,260
0.03752671025,28
0.037621608299,388
0.037686224868,27
0.03792197126,1007
0.038130981713,18
0.038186203074,4644
0.038287822329,28
0.038469423378,3000
0.038562995564,1089
0.039370623001,38
0.039540636012,1019
0.039653199019,1
0.040107197499,472
0.040824016752,49
0.040946921385,4
0.040982003668,3252
0.040988355255,250
0.041056331433,6
0.041067356394,2961
0.041787497096,1247
0.041900901128,3
0.042138274056,42
0.042444107386,28
0.042744127069,6421
0.043166607829,109
0.043782360944,35
0.043800952526,5690
0.043837499821,31
0.043896855629,16
0.044284335853,1087
0.044942485607,104
0.045189931926,21
0.045202666823,1144
0.045421790911,1
0.045499810105,5326
0.045757584122,225
0.045992346359,3495
0.046244482808,8
0.046359097272,1152
0.047031918201,24
0.047375335188,109
0.047483362301,1
0.047570544725,53
0.0483395361,28
0.048363840048,727
0.048654779206,45
0.048865777771,3053
0.049259347264,258
0.049418522768,1
0.049433558783,44
0.049595257955,18
0.049731255573,1098
0.050286142374,3740
0.050775348423,619
0.050802848475,78
0.05126502294,4
0.051362233487,1968
0.051449744528,10
0.051519451381,45
0.051738287913,4736
0.052033949619,7
0.052702055777,952
0.053321799329,13
0.054366071694,44
0.054380724368,650
0.054796596764,4886
0.054935954325,3
0.055149826627,16
0.055558489762,50
0.055657703142,1037
0.056082711637,14
0.05623098965,1026
0.056644123495,3
0.05726355142,52
0.057302686697,744
0.057439081871,6
0.057560744582,1
0.057592185621,10
0.057861713629,33
0.057977138615,2
0.058053574786,18811
0.058251500879,5
0.058325727434,2
0.058390248719,51
0.058734823689,4430
0.059018131148,17
0.059065242224,5
0.059234205297,20
0.059670585242,64
0.05974366709,16
0.059798207375,80
0.060027114918,19
0.060049540005,6
0.060129264606,16
0.060173236326,19
0.060220587286,5
0.060254051689,2534
0.060385384957,118
0.060408264089,100
0.060968172959,37
0.061131780269,2174
0.061318762443,89
0.061373901685,30
0.061426175903,1
0.06184125285,20
0.061847412587,16
0.062434854515,783
0.06252386975,1346
0.062612462145,1594
0.062945582639,203
0.062993320599,32
0.063337945751,1476
0.063531552342,6556
0.06401233517,38
0.064280500029,38
0.064373582773,84
0.064528922973,6648
0.064609082026,38
0.064649341551,7
0.06466797033,1013
0.064689431695,29
0.064745869298,3
0.064875433751,981
0.065211470566,8
0.065322582759,2605
0.065624779489,6
0.065971474932,2
0.066292489549,5
0.066756733937,16
0.066976327921,1214
0.067161413952,221
0.067206812987,2
0.067589186142,88
0.067602221783,754
0.067708811587,1
0.067806912489,424
0.068106981814,6
0.06811124021,4
0.068131996243,20
0.068142932397,29
0.068483188739,5105
0.06865307053,4115
0.068766762263,97
0.068867460189,19
0.068980389213,14
0.06918371253,4
0.069734781742,17
0.069747112845,7
0.07015327951,9
0.070174914338,13
0.070286128849,113
0.070400835628,30
0.070657266427,3
0.070705902463,959
0.070850964085,16
0.071327837353,20
0.071399767929,48
0.071528970125,14
0.071535716464,940
0.071634511522,240
0.072159947412,8
0.072253664464,6537
0.072754211938,2270
0.073214172455,1063
0.073359168935,1
0.073629576152,1913
0.07431062169,4
0.074361417533,406
0.074446119354,2
0.074455652349,3194
0.074505668901,5177
0.074548707804,47
0.075072693812,168
0.075350669875,98
0.075484852722,42
0.075715255284,6676
0.075774238261,1611
0.075795491174,23
0.075859646192,1084
0.075957182117,56
0.076447527141,5
0.076536804428,111
0.07654653269,7
0.076849854833,31
0.076890810291,51
0.0769377775,78
0.077074293478,15
0.077732812003,43
0.077839490105,18
0.077889741865,503
0.077899777149,969
0.078181858426,6
0.078184173799,3
0.078774337048,30
0.078830073369,1095
0.079490990654,15
0.079611711264,292
0.079646390667,4
0.07990643544,15
0.079947509695,4117
0.080005063321,11892
0.080056171206,5
0.080628912689,9
0.080798834882,1019
0.081124052032,3
0.081569338076,28
0.081607315069,18
0.081729348572,5
0.082322535371,14941
0.082644464386,1429
0.082829104321,7
0.082908413062,13
0.083346946357,344
0.083634134898,107
0.083781353342,53
0.084102569151,258
0.084231097378,18
0.084747624796,2127
0.084874820951,24
0.085051765038,3
0.085423677991,53
0.085481952097,854
0.08564731383,4811
0.085978801892,901
0.085979045693,9
0.086213042517,1
0.086540518936,598
0.086613567162,913
0.086738763658,1148
0.086926938675,38
0.087096709352,4515
0.087156876115,16
0.087684371204,223
0.087879551177,858
0.088222060244,3706
0.088661034218,34
0.088886304109,1043
0.089176917703,4856
0.0893754432,84
0.089536512731,14
0.090236340201,1
0.090829688917,33
0.090913042992,356
0.090953255734,20
0.091049962153,47
0.091239049057,9
0.091416128845,157
0.091893203374,2
0.092022282015,76
0.092027929196,5668
0.092280300296,42
0.092305465572,4534
0.092805224208,5723
0.093137648411,4077
0.093814436706,1501
0.093895686847,30
0.09392380951,4589
0.094164915037,33
0.094811036491,183
0.095054683298,4581
0.095293293222,2
0.095332605286,4226
0.095489063462,10
0.095521163431,28
0.095644999671,6
0.095742224719,4
0.09575829748,7
0.095835042723,50
0.096128592052,631
0.096176164337,1
0.096234544657,1
0.096713175166,43
0.097439597675,1
0.097528854382,25
0.09757714437,6346
0.097932591883,45
0.097950130974,11
0.098358981584,5
0.098402038347,1876
0.09844872369,25
0.098501364944,50
0.098824247917,6
0.099614868845,59
0.099936987414,26
0.099946948641,19
0.100044690518,28
0.100492531068,1524
0.100503705914,113
0.100714647611,5618
0.100985176125,6254
0.101088312539,3048
0.101523746235,17
0.10233045375,2
0.102734364851,3259
0.102929292331,2910
0.102951194288,2229
0.103338847344,43
0.103509110318,5244
0.103623553233,38
0.104353319045,3591
0.104620029767,73
0.104955314029,27
0.105056171737,108
0.105170941677,20
0.105230233188,6
0.105404602578,1325
0.105438356713,48
0.105700238571,133
0.105746045443,1
0.105782380846,6464
0.105822260842,22
0.106532764677,126
0.106767375574,15
0.106770589001,39
0.106882187288,17
0.107332892028,23
0.107442347605,16
0.108012824248,1481
0.108374705124,109
0.108722148724,70
0.108756906304,1636
0.108768103477,12
0.108913646914,13
0.109215587879,2610
0.109294111784,121
0.109559515379,5717
0.109657688269,3
0.109671043949,198
0.109898193663,3
0.11003386674,3192
0.110141195228,1253
0.110642326013,5850
0.110676108354,1
0.111029844628,37
0.111094431079,3
0.111151947067,556
0.111508404169,34
0.112152895535,107
0.112170940223,1
0.112848107506,31
0.112989413541,17
0.113311583671,4220
0.113315206985,4
0.113441418729,159
0.11354198335,1242
0.113603579805,8
0.113795277673,14
0.113894240232,2684
0.114098229318,105
0.114142045638,37
0.114938408148,1911
0.114989687755,27
0.115053211562,20
0.115080298946,284
0.115156429509,119
0.115570272986,667
0.115644804656,4
0.11595464288,2
0.116174892028,654
0.116551132924,1001
0.116826932659,1
0.117040636201,24
0.117325682231,18
0.117405766051,657
0.117663496234,1034
0.117938503997,44
0.117952676697,42
0.118005520646,1263
0.118163169745,511
0.118283672417,2500
0.118884394665,28
0.118916001714,31
0.119157372401,17
0.119264547622,2623
0.119323968905,35
0.119472145964,2
0.119634745352,3359
0.119779037274,8349
0.119962823489,34
0.119971195684,9671
0.119983725901,56
0.120024255776,23
0.120211128462,6
0.12050814763,251
0.120553747994,90
0.120609827305,38
0.120774680617,10
0.12139993339,37
0.121767612381,549
0.121936622999,14
0.121997605009,586
0.122026001422,19
0.12222904954,38
0.123135192687,1
0.123278646197,8357
0.123400271736,26
0.124606732032,15
0.125109981681,2
0.125147098162,1318
0.126626506922,2934
0.126937999084,468
0.127144021681,1214
0.12725249912,52
0.127262096544,19
0.127832574846,1
0.12802754259,17
0.128201944209,3517
0.128279928447,4994
0.128463834931,20
0.128948044539,66
0.128952264844,53
0.129245755183,12
0.129250954728,102
0.129350421075,4
0.129404002626,2
0.129533404037,52
0.129908861703,1377
0.129994615968,888
0.130043503445,41
0.130116652662,2432
0.130398435895,1
0.130579882727,98
0.130690697905,2532
0.130750457906,3
0.130812636484,1140
0.131046859839,44
0.131240883189,26
0.131442294805,327
0.131445089928,4
0.131780011169,1569
0.13178190026,31
0.131964940321,4
0.132096015579,16
0.132134657885,2
0.1321666637,11
0.132292114229,705
0.132394357065,1153
0.132676512327,19
0.133505334226,4
0.133934435348,99
0.133984408648,12
0.134105358156,456
0.134179243663,9
0.134225142727,605
0.134520192839,1571
0.134830415838,53
0.134953474212,44
0.13509196524,27
0.135137453916,2636
0.135389740759,45
0.135400594489,2833
0.135481284471,16
0.135547701783,125
0.136027318523,22
0.136513629523,7
0.137109468114,2274
0.137167918554,66
0.137252419971,44
0.137374557311,3519
0.137685948865,18
0.137705922921,2109
0.138464976704,15
0.138524660632,5
0.13877648086,40
0.139064532483,12364
0.1390850745,4110
0.139282925445,3793
0.139315592052,13
0.139475114191,46
0.1395605372,49
0.139668887462,25
0.139786597196,1
0.139925804045,858
0.140639257521,14
0.141332148826,50
0.141794034811,17
0.142132207634,524
0.142294333771,3
0.142572822173,36
0.142582942976,8
0.142718624775,223
0.142783495376,161
0.142805323255,16
0.143011300955,2367
0.143459480816,23
0.143623380651,5
0.143899470724,52
0.144457888735,46
0.144459918486,15
0.144745917762,1270
0.144772249683,8
0.144787673031,3144
0.144839040856,14
0.14494480497,250
0.145165100565,563
0.145324920217,70
0.145367601924,8
0.145528866267,423
0.145625401207,51
0.14573953051,7
0.145872583444,7
0.146244140757,1011
0.146252517882,15
0.146276060108,3
0.146611155896,52
0.147071401983,1
0.147468039286,769
0.147722491088,1236
0.147815340671,22
0.148026949541,24
0.148079206329,33
0.148259831039,3315
0.148315967798,4
0.149017695044,27
0.149071900855,1
0.149113468091,63
0.149622011532,265
0.149625735793,14
0.150247247126,2792
0.150322567769,268
0.150430408831,2228
0.15063143611,23
0.151033821058,5
0.15130060627,3
0.151528954039,2666
0.151584841546,1862
0.151763111498,407
0.152437024898,2416
0.15253165174,188
0.152571448259,691
0.152582559252,823
0.152978612019,35
0.153198815485,1062
0.153854844648,5706
0.153986735037,696
0.154012228118,1331
0.154298947838,14696
0.154388734701,2
0.154604302177,117
0.155094388885,1135
0.155105799153,21
0.155324233187,879
0.155346421438,18
0.155952468076,22
0.155976494203,18
0.156406715718,16
0.156664645557,306
0.156839164428,27
0.15694072971,520
0.157040319534,6646
0.15778611326,51
0.15800326193,41
0.158151283694,1193
0.158157714298,215
0.158213027039,1311
0.158968167264,3
0.158986743549,1219
0.159531659061,41
0.159608582834,21
0.159900306759,7
0.160060775132,28
0.160468834523,81
0.16072497284,67
0.160817062071,36
0.161431056206,14
0.161564607746,329
0.162107370331,72
0.162681500685,3396
0.162799355875,53
0.162832076441,450
0.16354715582,7
0.16377335878,43
0.163833616986,28
0.164136582416,2
0.164160031506,58
0.164450966341,9
0.164573626295,1515
0.164985204026,108
0.165458414623,6573
0.165726367208,2
0.165833903429,22
0.166067929093,29
0.166318146979,46
0.166408549705,971
0.167091406174,628
0.167145275228,47
0.167318572761,841
0.167343084744,12
0.167712103582,619
0.167841158677,40
0.167932821627,83
0.168145136135,3080
0.168316757384,1439
0.16833442742,18
0.168345956773,113
0.168444259859,47
0.168597801036,14
0.168791084003,6479
0.169358788072,19
0.169655402063,17
0.169678645219,16
0.169772717968,2581
0.169818717011,18
0.170413442339,383
0.170480520801,2162
0.170642428381,43
0.170676798944,14
0.170757969682,3
0.171003138294,51
0.17124616422,4167
0.171374070144,44
0.171490434491,8774
0.171554062633,1002
0.171725544777,15
0.17224725925,21
0.172580724292,20
0.172774774812,48
0.172839142837,834
0.173184890609,2
0.173255334097,14
0.173388684482,1325
0.173552336188,126
0.173571974441,4
0.173681861982,9
0.173736755893,31
0.174213415196,50
0.174536276946,2931
0.174747978874,51
0.174778124766,66
0.174873522569,15
0.175495852187,18
0.175567550713,2
0.175674029083,1000
0.175760358249,93
0.175952119944,4340
0.176040249954,6
0.17622483596,44
0.17630637683,30
0.176365176509,15766
0.176490414725,921
0.176508207385,1251
0.17678140456,4
0.176934958753,2211
0.177314733381,15
0.177437926453,1413
0.177450925569,730
0.177666597521,50
0.177719481232,18
0.178134780188,4
0.178308427285,43
0.178391551509,38
0.178613549364,637
0.178765913684,29
0.178917299296,5
0.179164936417,3505
0.180337822905,1654
0.180626481579,3
0.18076908026,314
0.181222583755,32
0.181370681476,16812
0.181509407541,43
0.181663315307,26
0.181668230924,6164
0.181864885764,17295
0.182035692168,19
0.182049079366,650
0.182153225262,38
0.182330528074,1393
0.182555295368,5598
0.182605867677,905
0.182841962047,1109
0.183202147917,434
0.183344983312,1
0.18346841127,275
0.183476883978,7
0.183769623672,4
0.184180069135,2251
0.184255674608,1
0.184333034437,1689
0.184349395548,152
0.184396856561,903
0.184469019305,1814
0.185088396645,561
0.185267694409,15446
0.185286127462,3793
0.185420957538,3
0.186146938424,116
0.186220159986,43
0.186416314155,104
0.186511721368,6
0.186518110721,29
0.186751628341,2
0.187441332596,1033
0.188144925492,33
0.18816847058,32
0.188737869173,980
0.188913647047,6129
0.189578045948,2057
0.190792647593,42
0.191122900766,42
0.191431064069,117
0.191646715404,46
0.191697150911,14197
0.192017346617,512
0.192525667726,45
0.193172296025,4
0.193500575898,34
0.193820974459,1397
0.194291842262,1197
0.195443416648,2
0.195670322927,3557
0.195695055076,12064
0.195763148422,420
0.196259751132,2
0.19647841659,6
0.196874199324,1160
0.197038294301,794
0.19719195544,233
0.197215019458,1
0.197646553501,181
0.197754526463,64
0.197790457218,604
0.197859376829,5
0.197908155481,1
0.198287730628,19
0.199229684335,51
0.199593327961,7
0.199687458089,4
0.199736142318,8
0.199832137355,1175
0.20001365064,12
0.200174652857,215
0.200423910322,772
0.200606460505,1307
0.200742033943,254
0.201125635358,82
0.201613642455,646
0.202702545445,18
0.203149385299,2090
0.203149508498,34
0.203181756577,3137
0.203340998001,741
0.203581923337,104
0.203922426422,17
0.203928194211,3591
0.203989673179,879
0.204096834933,969
0.20419926453,10
0.204830284464,342
0.204842600193,48
0.205053172685,6
0.205216737446,4061
0.205895436275,2558
0.206014746238,7
0.206524138376,18
0.206526156986,3610
0.206823598416,5772
0.207191148045,117
0.207469529999,388
0.207527631915,22
0.207783644091,1586
0.208114917074,19
0.208551077612,3776
0.208635371119,16201
0.209166296035,1716
0.209240791459,2290
0.209344543621,3121
0.209453563557,2824
0.209609856411,18
0.209656810571,58
0.209672415553,49
0.209909301433,22
0.210304604402,6
0.210328622892,29
0.210581450054,39
0.210711579654,2
0.210789509618,51
0.21127458408,1149
0.211346180944,16
0.211375128487,1332
0.211799396807,17496
0.211978532299,2
0.212599235161,21
0.212807318583,47
0.2135671129,2
0.213573152407,780
0.213637265017,401
0.214484677649,7
0.214489963285,53
0.214616335353,2184
0.214853392246,3847
0.215515808253,4335
0.215974245532,21
0.215977160818,24
0.216498640192,3154
0.216549730627,86
0.216780819683,52
0.217115283847,18
0.217246751676,42
0.217719470446,49
0.217726077103,20
0.217824686155,615
0.21793143365,25
0.217974375136,1
0.218044036773,285
0.218226433184,5186
0.218369101671,107
0.218542235863,14
0.218946027997,22
0.219314809998,52
0.219421780063,2524
0.220130169673,3072
0.220423903786,53
0.220429682905,38
0.220628326183,3071
0.220987965415,9
0.221057185649,17
0.22142072843,30
0.22143710081,1726
0.221499168756,2941
0.221692990195,3
0.221824860228,15536
0.222373926816,105
0.222500171466,31
0.222534164899,2111
0.222636311322,3228
0.223011144044,16
0.223194495882,6
0.22328697794,4
0.223357422673,35
0.223638225853,16
0.223639841187,352
0.223690026638,28
0.223785135126,22
0.22386562541,7
0.224450740056,10
0.224517287302,12186
0.225563174154,172
0.22558167316,2220
0.226045548035,5
0.226129272386,4115
0.226190954208,3064
0.226293914978,36
0.227645150384,9
0.227759526244,12
0.227801809168,2463
0.228098226064,40
0.228216740504,4296
0.22829624968,4851
0.228392315017,9
0.228398934411,17
0.228482888823,5666
0.228641131847,5089
0.228996344171,680
0.229029294135,19898
0.229037150744,104
0.229163326603,46
0.229234202101,27
0.229400226065,1661
0.229658290407,34
0.229708361918,16291
0.229786986713,3
0.229836958618,19
0.230014579496,16
0.230404533938,3
0.230534299876,7
0.230540819276,2919
0.230627358936,476
0.230714099667,49
0.231113660858,5863
0.23142718398,52
0.231552831325,11
0.231752978997,1191
0.231841950516,10
0.231876559981,115
0.232609366181,100
0.233656544598,5
0.233801035879,42
0.233907307493,127
0.233967925035,8
0.234100188592,21
0.234306766573,4673
0.234479154098,129
0.234840855362,1671
0.234892472581,277
0.234917808992,2
0.234972224197,5
0.235299073783,1095
0.23535439432,13
0.235550172398,3
0.235584470027,4
0.235666008647,741
0.235774967274,42
0.235926784347,31
0.235930102741,23
0.236491252847,158
0.236845447729,10
0.237244260081,3408
0.237959322646,36
0.238118011867,13
0.23813748623,2927
0.238219525176,9
0.238532664022,3
0.238564059742,1
0.238589600934,46
0.238674311107,24
0.238678049298,308
0.238754841087,266
0.238764338692,28
0.239103162126,500
0.239387196187,1117
0.240009760044,48
0.240125348058,14
0.240304464622,44
0.240338256346,117
0.240460276819,40
0.240513783259,43
0.240637806914,1819
0.241060967727,1144
0.241127258318,7
0.241162757067,206
0.241338925818,868
0.241512065283,23
0.241574881378,1
0.242014308074,5
0.24246762262,22
0.242472957166,23
0.242655129322,9
0.242742650786,15
0.242883097077,44
0.24297580706,26
0.243070758464,53
0.243198093836,2
0.243381978888,323
0.243462186797,1056
0.243601012502,9329
0.243878807976,17
0.244235292313,44
0.244294216267,5963
0.244383621862,6
0.244796595207,7
0.244904878126,1
0.244982806253,22
0.245021219784,1033
0.245157780218,50
0.246121685651,612
0.246427652544,528
0.246531803857,9045
0.246799869341,28
0.246871335091,6
0.246954672299,33
0.247056827375,2
0.247088943684,7906
0.247179129042,52
0.247523598025,1135
0.247921983029,1
0.248025751661,2738
0.248035843912,42
0.248978186142,41
0.249049623412,520
0.249343089516,656
0.249353097539,108
0.249505872006,6
0.249561583894,597
0.249678076194,1
0.249946001074,2755
0.250021306006,5
0.250305971312,370
0.25048984908,47
0.250499955338,1534
0.250540813941,1025
0.250624510432,25
0.25113274586,2592
0.25122720663,93
0.25151478966,43
0.251627907931,254
0.251974679469,396
0.252483425284,527
0.252851376429,1488
0.253204905455,109
0.253220412905,17
0.253402185413,19
0.253730550439,37
0.253872512049,89
0.254109325427,1942
0.254218185828,11295
0.254432224171,75
0.254501250255,27
0.254530973084,17
0.254661020313,1
0.25471504737,2520
0.254923308884,18558
0.255109341727,13
0.255151074573,516
0.255404957551,1591
0.255422043919,17
0.255491121131,4870
0.255572395536,17
0.255721937643,20
0.255737641459,4038
0.256098724259,1446
0.25611398066,218
0.256513527062,983
0.257074282818,1159
0.257158502562,2450
0.257292786166,18
0.257346365458,38
0.25811876493,53
0.258239158228,13060
0.258335975937,8886
0.258890136799,1488
0.258912980168,31
0.259166513092,28
0.259366192227,2
0.259432630281,15
0.259832900355,42
0.25999590146,22
0.260147722996,1116
0.260170780218,17306
0.260581199175,2206
0.260974802759,889
0.261075252341,3
0.261574396663,9
0.261599263288,15
0.261770802872,964
0.262698786015,12
0.262982212672,15
0.263063907618,67
0.26342359388,9548
0.263842230264,14
0.26403998236,19
0.264668969689,7
0.264930429806,48
0.265180775358,31
0.265392099142,893
0.265457365368,2
0.265657612437,12
0.266246240724,5
0.266715869395,4
0.266744783755,532
0.266772978376,454
0.26695082457,10
0.266986608323,614
0.267292766354,1332
0.267717148357,16
0.267973427288,591
0.267989088979,4319
0.26800640987,14
0.268132692784,143
0.268429683478,52
0.268550586541,427
0.268578065096,81
0.268845195817,743
0.269094161905,4
0.269240121202,21
0.269536701131,45
0.270022144557,4159
0.270058001777,47
0.270139863823,39
0.270416743381,2031
0.270662254343,229
0.27129660377,5
0.271709722488,708
0.272314387519,4451
0.272792363527,2
0.273014631192,46
0.273156585987,4
0.273243955028,6
0.273270443629,31
0.27401761841,1153
0.274094023018,8
0.274407184394,35
0.274437576672,14
0.27551923504,39
0.275574721751,57
0.275594260032,34
0.27577514194,41
0.275876357554,7
0.276048518633,24
0.276188780122,4998
0.276738025016,863
0.276907086383,9353
0.276992349798,26
0.277215735072,12
0.277228003204,3
0.277811326116,368
0.277838698993,41
0.278492124905,1029
0.278531070776,15
0.27872440358,139
0.279442169368,3488
0.279472164175,2962
0.280073573731,338
0.280171128113,21
0.280180051185,131
0.280432264981,20
0.280493260945,993
0.280779610388,2
0.280802692094,1593
0.280856291042,29
0.280972265098,4
0.281115691286,38
0.28134085837,26
0.281390890594,3
0.281797102996,878
0.282237645144,13
0.282496945417,1215
0.282637708408,44
0.282680821633,33
0.282814086777,4
0.282887574708,21
0.282945233508,1274
0.282967116976,14
0.283148293189,995
0.283501066421,4
0.283587600831,4
0.283941351052,2039
0.284561662961,4680
0.284581847665,30
0.285235667849,4545
0.285280358536,55
0.285503150684,6202
0.28564591798,41
0.285781099129,807
0.285914607739,48
0.285921415489,5491
0.286010558064,107
0.286292719068,6
0.286428985899,14
0.286585888345,3183
0.286647737869,3554
0.286707542198,14
0.286800840183,4
0.287194167464,804
0.287381958061,50
0.287679727876,98
0.287683559833,18
0.287742515797,168
0.287802068163,28
0.287941023433,5
0.28811953262,2281
0.28865487479,136
0.288974264223,5
0.289427048249,11
0.289503008615,1251
0.289993857876,3347
0.290013175082,102
0.290048463035,2
0.290230626923,1227
0.29027438066,4
0.290274809896,12
0.290300353828,55
0.290329293062,54
0.290429446766,3200
0.290515157816,1256
0.290669117945,596
0.290770595409,116
0.291246284012,1248
0.291608057544,32
0.291731472905,7
0.291875886247,18
0.292064739228,934
0.292112035537,78
0.292328546856,41
0.292953942304,4284
0.293138648122,15
0.293210051526,74
0.294214219605,11
0.294348541604,18
0.294460302407,1062
0.294471954009,820
0.294941390383,1
0.295399193604,1650
0.295717773908,2252
0.296083444908,25
0.297093707339,2573
0.297126639707,87
0.297641093447,34
0.298093697877,698
0.298098452758,14
0.298190204687,2539
0.298252580374,396
0.299020984624,11449
0.299080449395,780
0.299093421481,1059
0.299118651582,19
0.299350784616,964
0.299408156858,1
0.299513834846,36
0.299821030598,4670
0.300004232932,5
0.300141380933,13649
0.300800483589,18
0.301097110437,16
0.301733873025,52
0.301763064156,53
0.302264672526,860
0.302896290349,2
0.302967956968,714
0.303324017112,30
0.303389193933,2492
0.303572789346,1963
0.303602424839,37
0.304177098735,11
0.304193149541,1204
0.304269108432,1073
0.304576690524,4948
0.304951684018,204
0.304991709722,131
0.305068328543,1136
0.305114408853,34
0.305192224632,19
0.305347727356,675
0.305420886783,1005
0.305528834526,1
0.305611926072,3
0.306032206802,12025
0.30624528973,653
0.306419139219,700
0.306616740292,28
0.306977472866,1166
0.306980343982,16
0.307025085426,53
0.307183227497,6
0.307476290042,5
0.307485652538,15
0.307492617438,822
0.307608713858,28
0.30766328396,21
0.307755269829,10097
0.308025879656,11
0.308455111079,69
0.308482255963,13
0.30895783273,20
0.308980790448,14
0.308980913647,7
0.308983673523,6
0.309104022406,20
0.309223568697,292
0.309344361842,3262
0.309659427519,208
0.309970630966,2994
0.310008942316,24
0.310049310212,2
0.310362820572,43
0.310379038895,44
0.310581444106,41
0.310613448082,3809
0.310736088732,4
0.310772487684,14368
0.311396082209,127
0.311569841129,38
0.311572733488,132
0.311587196971,1897
0.312287987555,27
0.312347097665,27
0.312411603578,5713
0.312827371954,534
0.313355777594,18
0.313602639046,15
0.313832123267,22
0.31399177434,44
0.314419787175,22
0.314891117222,3568
0.314967790109,35
0.315535783043,277
0.315760867052,710
0.315935519848,77
0.315979967208,41
0.316048859431,42
0.316545574526,1230
0.316708831678,44
0.316772004821,43
0.316857691239,2881
0.317490755547,5
0.317532123144,434
0.317559479014,6
0.317941141091,6
0.318141477592,39
0.318152486645,6
0.318411923193,9
0.318632381911,163
0.319200826589,50
0.319538390868,49
0.319542139648,1112
0.320003643398,31
0.320180700443,46
0.320736203871,4
0.320887295956,5716
0.320948226063,2735
0.321010908093,103
0.321186713551,3777
0.321361300625,507
0.321842933892,2192
0.322221633495,52
0.322582485716,4
0.322798222555,1590
0.322851716728,13
0.322881456882,6
0.323737245979,17
0.32388528584,5184
0.324220414786,904
0.32437731544,96
0.324742383759,2293
0.324783986365,672
0.324927806718,66
0.325184189375,4193
0.325900439775,11
0.325908410485,1
0.325949705589,264
0.326303331564,86
0.326360010725,237
0.326477311558,5370
0.326607822829,690
0.327444872391,4
0.328020506849,3
0.328050216605,2093
0.328246853335,23
0.328325504696,2472
0.328379046196,40
0.329291974492,1
0.329358797535,1
0.32993615901,4
0.330103961974,6328
0.330383094633,38
0.330740098008,40
0.331319843167,5582
0.331474187696,5659
0.331632757579,1788
0.331776113345,120
0.331931145786,2533
0.33205313922,18
0.332160046822,14268
0.332438400409,46
0.332473786878,212
0.332770647679,2558
0.333082882421,57
0.333172686997,6
0.333657140133,1388
0.33408275233,5532
0.334222848845,2525
0.334470293117,961
0.334639329175,24
0.334809179181,48
0.334845681048,2063
0.334965821061,17
0.335087475555,37
0.335416269262,425
0.33574480003,181
0.336152202358,4
0.336251379661,34
0.336340623302,579
0.33635347652,32
0.336404658201,50
0.336700315769,3253
0.336865990772,2468
0.33693170937,61
0.337042821136,12
0.337142577531,4660
0.337798122515,20
0.337818988494,15
0.33787358107,5
0.33789158197,90
0.338126647272,7
0.338777341673,6
0.338791766636,1
0.339121288881,8
0.339126011199,93
0.339494033042,3192
0.33958251437,726
0.339627522896,15263
0.339635772552,773
0.339925859185,1
0.340201666023,1
0.340411444802,50
0.340702196671,1298
0.340855661517,5207
0.341058428227,15
0.341522635191,3
0.34152487824,6429
0.341718705939,645
0.341857254228,20
0.342104434837,1279
0.342206058867,1186
0.34258701747,35
0.342780637902,3565
0.34313783967,7
0.343310839805,389
0.344204418225,409
0.344520490552,11
0.344791970055,7
0.344851103054,23
0.344955911361,22
0.34542038088,10
0.346296810791,35
0.347131911673,17
0.347372133566,35
0.347655880911,53
0.347743306618,5942
0.348232802087,5
0.348407460389,2305
0.348511819199,23
0.34864564278,4167
0.348774962204,7
0.350102542383,36
0.350329121314,327
0.350396333904,53
0.350746125409,31
0.350919941049,8988
0.350955402815,19
0.351229556928,18
0.351528478029,43
0.351546199156,17
0.351552874584,238
0.351614303639,33
0.351990767079,1
0.352014357446,39
0.352242213423,28
0.352300676615,867
0.352432468078,1286
0.352525260434,207
0.352660520362,2484
0.352851154269,25
0.352961105807,2
0.353169803455,3
0.353372918193,18
0.353443343825,653
0.353451341957,18
0.353891225707,125
0.353950809195,20
0.354238455338,4
0.354312853176,70
0.354521518191,47
0.354592786205,1499
0.354664439048,4
0.354913785608,24
0.355377793433,12
0.355642625689,117
0.355717020788,17
0.356359133926,82
0.356531746189,41
0.35664428033,2555
0.356650891371,1545
0.356737061897,12219
0.35676763632,89
0.357017674088,2441
0.357098648412,46
0.357220210136,19
0.357553788257,41
0.357873617623,3102
0.357978829618,181
0.358541989928,1
0.358552105204,33
0.358580338126,16
0.358603522725,3
0.358719326754,18
0.358902373598,574
0.358950829063,3298
0.359011312726,36
0.359036435863,39
0.359379163372,20
0.359457384089,26
0.359570789468,4912
0.359771639192,67
0.360078750242,10
0.360432342201,4375
0.360730817701,1199
0.360745005066,1071
0.361289908136,26
0.361530888922,7
0.361768932074,5042
0.361868788125,1145
0.362192190998,94
0.362370624374,3657
0.36249183441,5166
0.362559654647,779
0.36287819512,10
0.363114992382,38
0.363129104824,663
0.363252713256,606
0.363627112075,17
0.363670721669,995
0.363760898243,2
0.364004808473,46
0.364084890458,16
0.36408936285,53
0.364130946094,626
0.36437685552,38
0.36466648363,62
0.364731529585,30
0.364975965137,9
0.36501016272,28
0.365211702539,337
0.365796090715,3
0.366171371981,16
0.366632683624,303
0.367025011659,8
0.36810442666,32
0.368129594429,716
0.368369850073,206
0.368386566859,50
0.368576835579,9
0.368719300126,392
0.368799065708,10
0.369285312453,85
0.369372938824,7
0.37002131003,51
0.370088729353,7
0.370225651134,1543
0.370700881476,12
0.370930388101,1170
0.371197931977,44
0.371298969129,2840
0.371624636555,38
0.371915696482,26
0.372054366734,49
0.372488526432,630
0.373003316709,9
0.373492912362,26
0.373497597483,465
0.373679056168,5360
0.374061458983,18
0.374418665727,82
0.374718355778,1893
0.375014281505,38
0.375016658305,49
0.37534947032,524
0.375529616046,1
0.375554035286,171
0.375726672627,1340
0.375775497152,7
0.37589194516,2224
0.375926859073,2264
0.375985229161,51
0.376068548242,51
0.376160673119,20
0.376181235849,13
0.376461955514,748
0.377053908581,516
0.377095965088,12111
0.377362649248,312
0.377976705625,2556
0.377982298261,2527
0.378036351364,6
0.378190351556,3
0.378195234469,1
0.37819990784,1609
0.378218878745,45
0.378379066409,809
0.378888031607,178
0.378954143784,1
0.379160367011,374
0.379219399161,7
0.379332673222,45
0.379558298519,64
0.379594552079,95
0.379640954001,90
0.379690972027,44
0.379806547164,343
0.380038029473,38
0.380255151175,133
0.380363025345,3
0.380404849125,405
0.380846068152,21
0.381553543935,48
0.381577572499,110
0.381616578968,36
0.38229775112,1008
0.382582198073,23
0.382630968196,2333
0.382647760593,3
0.382648246989,47
0.382758966681,3
0.38290867564,3
0.382942340823,6
0.382957614805,14
0.38334742364,37
0.383707770654,5
0.383783318324,5
0.384007037867,117
0.384068321592,260
0.384087233711,5634
0.384263520081,3
0.384391011259,4387
0.384594537966,19
0.384770628393,3
0.384773763088,1013
0.385020678429,365
0.385054409076,16
0.385488132105,478
0.385803825722,4
0.386031126666,691
0.386041607502,499
0.386121788744,31
0.386365233641,5
0.386656049054,1
0.386769384952,12
0.387215240815,4510
0.387940554272,26
0.388192145786,3
0.388354846557,3693
0.388598403095,47
0.388613840011,72
0.388683605695,53
0.388798599172,981
0.388820813039,49
0.388851438212,2
0.38895490975,4
0.389373246393,5659
0.389608337276,1303
0.389701884428,1100
0.390033066297,1
0.390087924772,370
0.390259182153,27
0.390268552063,3
0.390380099945,1
0.390441839516,16
0.390567369382,39
0.390980813009,12354
0.390984389646,31
0.391074254341,7
0.391079585686,45
0.391274393242,36
0.391332002324,29
0.391372572914,133
0.391896345031,80
0.392421903424,14033
0.3924515876,329
0.392487814768,919
0.392876834599,1163
0.392920237415,28
0.393152277204,16
0.393160370606,529
0.393684365911,17
0.393823783102,39
0.393968459187,6068
0.395009841908,51
0.395115145476,2
0.395234912708,1
0.395401490226,3116
0.395498412412,84
0.396431980893,4331
0.396739863228,3
0.396861551678,31
0.398101289892,3859
0.398247517596,7602
0.398398882202,3
0.398870147401,52
0.399197824088,2
0.399456894545,16155
0.39957968068,407
0.399658601207,2264
0.399842267131,1
0.399936696111,101
0.400019479282,11
0.400057502557,1107
0.400255187132,17
0.400671874251,299
0.401017940467,25
0.401125057438,5751
0.401321879852,1636
0.401883543027,5
0.402098232866,10882
0.402493185691,7432
0.402504117698,42
0.402662020111,375
0.40292739413,28
0.402999983899,15
0.403434887111,48
0.403460179691,724
0.403478125691,45
0.403640593778,5500
0.403802370916,54
0.404207899781,1184
0.404313602551,15
0.404381957753,1840
0.404421490307,7
0.404543537647,2832
0.404702254025,29
0.404906434848,30
0.405005711244,7
0.405397517947,927
0.405821879952,43
0.406561964856,4
0.406685177638,46
0.406728060547,25
0.406749956798,41
0.406829788433,846
0.406899166093,188
0.40733007491,53
0.407442368917,35
0.407550964827,1
0.407667804194,683
0.407889814907,18
0.408060077195,20
0.408250298904,4
0.408468870354,37
0.408702897158,11522
0.409063772458,2
0.409324429963,20
0.409419106027,34
0.40947574012,2730
0.409514099641,995
0.409525766696,50
0.409565085005,40
0.409786094208,3054
0.410073451624,32
0.410537855388,5
0.410576176091,16
0.410913602394,523
0.410917156111,2600
0.411277902728,7
0.411308044954,17802
0.411504967634,3268
0.411714288993,49
0.411750124325,1
0.412500225094,1181
0.41279730257,7
0.41298357954,1109
0.413116507581,4
0.413468691685,34
0.413490587246,6474
0.413636918473,12
0.414218083697,1854
0.41443065194,1314
0.4146800959,1084
0.414778904386,13
0.414809878223,12
0.41503542355,26
0.415323601912,1119
0.415464036218,20
0.415484083305,180
0.415659351792,15
0.416309496953,1
0.416320545658,613
0.416816450279,32
0.417232114168,10924
0.417254074399,34
0.417370745749,18
0.417799111733,31
0.418404931527,450
0.41848793048,21
0.41849105248,4
0.418706995049,116
0.418845911932,8
0.419282152198,38
0.419374371034,1
0.419496495262,5441
0.42047606476,26
0.420527860543,6
0.420547106217,36
0.420770594705,410
0.421450908569,1073
0.422514810952,34
0.423066793666,23
0.423182109471,52
0.423312123942,86
0.423379112911,20
0.423679781084,15
0.424215603608,2585
0.424250223741,76
0.424295552054,2
0.424609627739,4
0.424624243811,665
0.425464153703,45
0.425563616074,908
0.425693053322,983
0.42589073994,2024
0.426172849146,20
0.426537342026,27
0.427280557981,4203
0.427741664736,26
0.427741904734,48
0.427904415673,65
0.428195138474,45
0.428671570463,18
0.428710011975,41
0.428782062735,5
0.428900277648,6102
0.429201922961,1289
0.429665119909,5
0.429683964045,17
0.429847797563,2509
0.430052889696,18
0.430102966674,19
0.43015330125,33
0.430170575893,24
0.430432820124,74
0.430454986856,23
0.430591940999,15
0.430761951194,49
0.431013471742,7
0.431154669927,5
0.431172175458,3
0.431271005648,937
0.431382790208,5
0.431476454943,16
0.431609458267,515
0.431629269082,16
0.431810096076,32
0.43182324872,28
0.431923912106,3239
0.431959420035,7
0.432159204234,101
0.432218435815,2875
0.432296249084,53
0.433029905463,4
0.433048820646,5108
0.433157746693,30
0.433639929042,1233
0.433696199977,3
0.433735237784,2443
0.434177698187,2738
0.434519563763,27
0.434631428539,19
0.435047921065,827
0.435245043503,47
0.43567509783,1584
0.436178086558,54
0.436291344653,26
0.436399558796,2816
0.436706137544,714
0.437372265742,69
0.438005595232,5769
0.438275469369,82
0.43836813644,17
0.438465031353,17094
0.439030762393,22
0.43913219606,38
0.439468597104,1019
0.439831251228,19023
0.43988779415,24
0.440095190347,501
0.440798116246,2
0.441117236628,24
0.441339241043,46
0.441400150929,1164
0.44157250202,4
0.44181903045,37
0.44245134514,7
0.442768459445,45
0.442850396967,1012
0.442963312998,1085
0.443704491841,85
0.443828880655,16214
0.443872610447,15
0.443982723572,3130
0.444021307851,5290
0.44415297665,2
0.444382815208,23
0.444388804464,477
0.44441961143,25
0.444539971681,2
0.444613892956,51
0.445130510913,17
0.445322745899,8624
0.445364002444,634
0.445392234864,509
0.445539425526,39
0.445736252403,6549
0.44646551387,2836
0.446666772841,391
0.446987551629,1119
0.447197013874,5685
0.447200288834,9
0.447338687808,61
0.447444702254,28
0.447689279502,2
0.447998275418,1276
0.448337725552,6
0.448452564488,2
0.448528328102,13
0.448569227205,314
0.449441262057,25
0.449660689238,1095
0.449886616136,3
0.450471555469,161
0.450483029628,42
0.450858932413,51
0.451003923838,1650
0.451205728606,227
0.451315045998,9
0.451332568988,745
0.451505741991,39
0.451768276309,226
0.45225433129,42
0.452524756757,2288
0.452632431872,1
0.452839597981,38
0.453131328358,19
0.453135927329,2761
0.453935427852,2976
0.453936509133,434
0.454283549686,17
0.454371144362,2795
0.45447870521,4
0.454575771027,3
0.455057005747,1794
0.455118122306,2300
0.455339989244,40
0.455477102662,16
0.455538127692,52
0.455642488714,3
0.455660727036,3
0.456390925848,5799
0.456548763079,37
0.456628407919,43
0.457093722445,20
0.457440293301,2610
0.45810710368,4
0.458722946574,51
0.458858959348,45
0.459283090915,35
0.459401962247,6
0.459914936955,53
0.4600452287,10
0.460208855468,1153
0.460277833928,2
0.460300223568,29
0.460913579549,47
0.460960730016,28
0.460988079427,16
0.460998385207,2162
0.461341788019,34
0.462320220826,208
0.462513819016,6409
0.463207213462,26
0.46325550535,2
0.463581319467,35
0.463828194919,705
0.464034773669,39
0.464359077147,16
0.465151708035,18
0.465271366196,453
0.465346878383,3
0.465769067951,583
0.465834109138,50
0.467066259343,185
0.467311682283,49
0.467383054174,160
0.467392700483,547
0.467506689729,1
0.467543875943,676
0.467574825298,1876
0.467634148891,17
0.468355418924,3291
0.468433136278,45
0.468456581451,5424
0.468564480746,18
0.468697572152,136
0.468759006033,3
0.46880184363,5833
0.468887325233,68
0.468971766939,6
0.468987697033,883
0.469290449824,6117
0.469663055354,636
0.46998961771,106
0.470075758285,5335
0.470205598483,55
0.470276214616,232
0.470356666959,17
0.470504422542,54
0.470662665971,20
0.470846123205,2742
0.470976932695,1626
0.471137810032,664
0.47122661175,22
0.471319022801,1247
0.471363480932,37
0.471673724707,3
0.471726029349,52
0.471738390229,4815
0.472257136259,4
0.472527447404,14
0.472688942415,21
0.472736886796,5278
0.47283997686,1004
0.472960270536,2183
0.473118734919,2071
0.473776462436,266
0.473891616662,8217
0.474053296455,47
0.47411176241,4
0.474377148854,33
0.474385942896,132
0.474405298356,53
0.474409328278,386
0.474441488766,2788
0.474494648713,3
0.474591804778,9819
0.474889352169,51
0.474914119326,1858
0.475092275505,266
0.475413375801,3274
0.475505624747,12
0.47579014547,19
0.476163222733,2969
0.476392120965,36
0.476510867005,961
0.476573453822,5785
0.477138054191,97
0.477181872948,23
0.477197898047,6
0.477308356055,16
0.477431957162,371
0.47743265728,129
0.477477428525,2435
0.477540556371,392
0.477885594109,3009
0.478140837432,834
0.478532565602,16
0.479077359118,6
0.479295472429,3244
0.479790906733,31
0.480084994438,9
0.480119720998,45
0.480316862289,145
0.480585474553,15
0.480684633087,27
0.481086123703,269
0.481222952824,129
0.481428776035,2231
0.481490942975,36
0.481779317535,2279
0.481935841845,133
0.48203676829,2618
0.482266650853,124
0.482431572759,218
0.482469478581,75
0.482609781634,3
0.482661523746,20
0.483515871479,51
0.483604830254,1003
0.483824022369,59
0.48387448221,6361
0.483958388637,1287
0.484366313831,18
0.48447121047,13
0.485058413555,375
0.485265391028,5630
0.485577760764,1
0.485695326063,459
0.485907261414,1020
0.485974951673,39
0.486102533737,24
0.48619527339,39
0.48651245874,11
0.486528551012,121
0.486876491989,403
0.487745497601,159
0.48787200333,2438
0.487883344003,3
0.488675804634,4172
0.488921707037,3967
0.489045318878,895
0.48913552163,1785
0.489243520467,24
0.489855852032,2924
0.48990358291,23
0.491743150174,6
0.491773048023,4
0.491875518934,3
0.492194466516,809
0.492356642516,40
0.49237626951,53
0.49240319207,6
0.492528503437,122
0.492648997741,3697
0.493822678997,2
0.494015122567,16
0.494016547779,14
0.494160241417,5120
0.494653014764,1
0.494750435243,437
0.495236283434,1256
0.495368720572,2352
0.495450059241,376
0.495822086414,21
0.496019353823,6666
0.496817552387,2441
0.497756107364,1
0.499182527265,4813
0.499352957938,40
0.499363440027,113
0.499429497879,3
0.499626150737,20
0.500152825378,74
0.500420702622,14
0.500771330033,50
0.501717753458,42
0.501780489604,120
0.502214600696,809
0.502474776942,4712
0.502560258832,18
0.502931274146,47
0.50301489278,2400
0.503059850508,21
0.50328861403,30
0.503567685071,17
0.503663652891,4
0.503801143486,116
0.504112861525,6
0.504477776284,645
0.504588746968,4
0.504740530512,38
0.505396760306,42
0.505813083504,4811
0.506159376546,6
0.506208025872,3108
0.506225522703,1021
0.506607553877,22
0.507076183894,1457
0.507113497874,4448
0.507254953469,1011
0.507625213172,4
0.507638544309,2510
0.507661106237,45
0.508022201629,46
0.508562740937,41
0.50867450161,631
0.508940032445,20
0.508957812463,41
0.508959125918,343
0.509148373959,27
0.509271918433,520
0.509434462798,6514
0.509924260081,696
0.510291023535,6
0.51039365249,7149
0.510613017437,18883
0.511113966176,51
0.511140441521,569
0.511511158481,175
0.511527887737,652
0.511807153273,233
0.513013614768,14
0.513953137465,7
0.514834356098,7
0.514907254882,1073
0.515477302256,792
0.515605236312,1207
0.516044607875,16
0.516081562294,386
0.51626692695,11
0.516581430229,207
0.51685255303,1326
0.516880052835,33
0.517447785724,3529
0.51752430433,23
0.517602777307,61
0.517692660296,842
0.51829874155,387
0.518457036422,206
0.518538145698,24
0.518965641736,1643
0.519050284284,46
0.519075797294,38
0.519080717124,2
0.519108961857,5
0.519147028641,38
0.519486268389,1067
0.519748674604,6
0.520079075706,30
0.52034729866,13
0.521332244028,22
0.52149784484,2149
0.521695628846,133
0.522133755038,1749
0.5223836908,182
0.522395991391,548
0.522523884461,608
0.522747595204,48
0.522798867109,14
0.522897733189,4
0.523169271767,9
0.523194749813,16697
0.523196669388,16
0.52320239313,20
0.523793206503,43
0.523795360027,4905
0.523811693662,62
0.52383056324,6088
0.52428427747,14
0.524840364451,26
0.524969536819,2
0.525024783864,47
0.525487944481,863
0.525886973523,833
0.526198457146,25
0.526244825441,73
0.526401255529,1352
0.526413213908,2701
0.526640429536,11
0.52691518708,38
0.527184737708,2204
0.527293197569,673
0.528309880572,40
0.528332111998,438
0.528447314879,1222
0.528603963394,2628
0.52882498943,112
0.529288439105,14
0.52944693912,33
0.529455531842,54
0.529911005819,3
0.529950360994,1847
0.529966882334,21
0.529987988445,48
0.530635134377,24
0.5321200347,50
0.532531294528,2797
0.532592920755,577
0.532673152602,4
0.532717413322,3222
0.532717533321,2753
0.532759458412,2410
0.532798036047,1309
0.533430926707,3750
0.533452677875,47
0.533561145588,4692
0.533875231639,1749
0.534493780077,3318
0.534500017117,13
0.535009148165,2288
0.535216807751,2906
0.535420423312,38
0.535532766442,6
0.535715431577,1006
0.535872230734,492
0.535925622374,26
0.536063734046,45
0.536260574273,7
0.536433980722,2329
0.537140931638,4
0.53749162479,322
0.538116175359,3097
0.538897181176,3
0.539215907442,2290
0.539418560521,1771
0.539901427159,284
0.539955496362,29
0.540075247556,2115
0.54051060353,122
0.540628586124,14
0.540917577648,38
0.540960426521,7
0.541238653821,25
0.541642731289,1549
0.542313585847,2921
0.542779566069,31
0.543142383031,195
0.543153091628,4397
0.543682233389,1328
0.543766981553,6015
0.543802098245,52
0.54408323614,10
0.544183620248,6
0.544224809043,4
0.544270653936,2509
0.544506292459,36
0.544617134588,30
0.545091140092,1537
0.545156608315,6
0.545382429088,2272
0.546438381169,45
0.546468653425,36
0.546570411189,318
0.546604962838,3010
0.546947337183,18
0.548626255825,7
0.548746019794,13
0.548969979384,2079
0.549140190628,33
0.549153704775,5
0.549426126256,43
0.549892615573,5
0.549900586554,89
0.54992449766,40
0.550192721895,5
0.550269069026,47
0.550550363398,101
0.550928451287,37
0.550930463952,6033
0.551254983742,24
0.551280512567,1203
0.551585512641,18
0.551641475026,5
0.551950383378,1
0.552254927358,329
0.55245502096,122
0.552610502921,545
0.553048928687,12
0.553193244899,4760
0.553537293476,34
0.553864676341,1756
0.554107516308,5599
0.554223130272,28
0.554341078268,14
0.554485012198,591
0.554924523107,50
0.555442736853,6
0.555612095518,3848
0.555926913751,16421
0.556373517405,19
0.556825896696,16756
0.556887624702,12
0.558212230706,6537
0.558570493948,1900
0.558668521596,17
0.559068004294,115
0.559475086736,3
0.559617361506,15963
0.559772267523,3123
0.559801593496,1
0.559806211777,22
0.559904059275,7
0.559990948638,8539
0.560152908656,4
0.560743656895,16
0.561023976905,25
0.561337328035,7
0.561458800552,37
0.562090311652,14
0.562352193221,703
0.563073984486,3260
0.56321008003,6
0.56388098575,1207
0.564328331189,2796
0.564493753918,669
0.564770638,18
0.564920559447,45
0.565917358845,6
0.566908626191,1877
0.567101181852,49
0.567663632139,49
0.567980395647,29
0.568291005276,15
0.568493416201,19
0.568782851172,19
0.568926257752,32
0.569207592591,1
0.569282524929,48
0.569364264072,17
0.569567315881,1
0.56972006011,51
0.569734008862,32
0.570091922426,1216
0.570210604552,34
0.570243159403,20
0.570290369627,14
0.571154125546,42
0.571272641192,11130
0.571357009406,13
0.571406694263,784
0.571814502812,3033
0.571872442238,6
0.571945534712,6
0.571970155268,11
0.572002095312,4512
0.572562451492,506
0.573220123376,2074
0.573518575569,961
0.573908411029,611
0.57431926039,11997
0.574402740194,123
0.575349159596,17
0.575376913767,17
0.575399933076,26
0.575471576546,258
0.575965132682,338
0.576055461188,24
0.576069277346,78
0.576183037129,3
0.576274656892,1525
0.576618448768,20
0.576675904505,1466
0.577109766085,43
0.577124116651,37
0.577992784645,668
0.578099309526,1093
0.578215893417,17
0.578276810999,2945
0.578342189282,124
0.579276242695,2694
0.57937614214,38
0.580565465068,14
0.580751781554,31
0.580810505762,5
0.580871548329,6
0.581200199219,47
0.581473007824,11730
0.581562544884,17
0.581810481408,90
0.581859356765,7675
0.582044955197,4
0.582054948182,1
0.582254334735,21
0.582449984951,94
0.582602369447,6
0.582682144537,945
0.582816894992,214
0.582826026162,20
0.583198155396,520
0.583219900161,1
0.584026272355,552
0.584454637954,50
0.584622576925,3
0.584835232072,16
0.584850939113,134
0.584973099428,10
0.585381625447,3084
0.585569242155,4
0.585756437135,12
0.585822480647,28
0.586835714512,817
0.586839921805,4
0.587072286193,5386
0.587652587139,2219
0.587699063862,38
0.5882614067,27
0.588374422809,31
0.588719037607,36
0.588735504083,73
0.589033574019,236
0.589405118624,11509
0.589446667704,1202
0.589860539105,3988
0.590064634845,362
0.590302959292,47
0.590628491329,1663
0.591038750434,29
0.591155162782,122
0.591667579873,18
0.591931209323,5
0.59193565393,3
0.592004297185,62
0.592208574224,1249
0.592494661156,7
0.592852767099,29
0.592863038199,3102
0.592928468198,12263
0.593280654161,19
0.593323384486,157
0.593526011865,102
0.59436640977,17
0.594454478253,33
0.594823619203,12
0.595299829047,33
0.595585036827,6134
0.596293691911,5
0.596311117002,374
0.596574528318,1271
0.596720984483,33
0.597445494313,5671
0.597928275062,5827
0.598057041065,293
0.598336039755,608
0.599118067562,18
0.599486561726,34
0.599892316294,4
0.600093872874,7
0.600230719023,22
0.600263501521,42
0.600422843955,452
0.600467063583,25
0.600650066527,4
0.600864004284,15
0.601050819833,97
0.601161747191,52
0.601281912823,19
0.601381755615,612
0.601399040186,132
0.601678579881,37
0.602109216388,50
0.602154195,978
0.602180986873,68
0.602735835845,4561
0.602912473461,80
0.603252775623,33
0.6033086129,671
0.603766479985,719
0.603922026256,9
0.604144913251,18
0.604202638497,4
0.604362184154,1
0.604500874084,596
0.60471467899,29
0.604790008294,16
0.605127057025,441
0.605497831952,42
0.605713264291,4
0.605791121544,457
0.605994873637,15
0.606012482493,2761
0.606027972436,2586
0.606263415082,50
0.606480277384,26
0.606756719365,5
0.60696961122,1128
0.60733183545,4789
0.607628461798,32
0.607659657469,122
0.607660295622,63
0.607739282072,48
0.60833697603,26
0.60857706623,5201
0.609634320465,2
0.609659514921,83
0.609664482071,3739
0.610149144208,25
0.61024842733,62
0.610868624477,10522
0.610958407994,312
0.611260686539,33
0.611318958126,9040
0.611442648733,525
0.611909660315,647
0.611929045604,284
0.612371692345,552
0.612404680897,44
0.612771560226,599
0.612879392345,8
0.612994819498,90
0.613606181045,3
0.614202093189,28
0.614421039998,49
0.614532049615,204
0.61479664767,463
0.615917551167,130
0.616186505646,743
0.616188190638,104
0.616218089832,40
0.616369680245,601
0.616508932301,263
0.616911430942,931
0.616921521823,5036
0.617015175579,14
0.617089170973,2
0.617178548051,8
0.617317538136,2
0.617498867946,1
0.61754204201,52
0.617566919796,11
0.61778972188,19
0.617805183628,18
0.617863778517,59
0.617947173987,5
0.618192018687,1099
0.618453730484,3
0.618588409223,60
0.618804263907,742
0.618895921829,1120
0.619072062228,76
0.619490470489,37
0.619807566451,398
0.620064833491,1228
0.620228565064,5
0.620398758791,4
0.620480347029,1354
0.620768876222,19
0.620847118645,1154
0.620915258254,50
0.62130462348,22
0.621482696903,1067
0.621917302588,134
0.622258712069,1101
0.62235697014,38
0.623227714312,285
0.623619173468,7
0.623809467722,19
0.623935777694,1082
0.624043286258,4
0.624213855474,4
0.624222676992,39
0.624355909102,1
0.624538268297,6
0.62460621092,929
0.625022736654,15
0.625100117341,10929
0.625144008411,5
0.625273220127,4831
0.625401635505,1993
0.625418966762,15
0.625549511551,32
0.625819689691,8834
0.626029222483,47
0.626567198557,20
0.626583997248,588
0.626617792375,27
0.626631421061,4250
0.626705795132,1794
0.626706648366,20
0.627097791162,28
0.627213029956,3947
0.627428753552,48
0.627641041771,17
0.6277009163,3255
0.627842080635,3
0.628161667535,130
0.628415236764,2169
0.628949959964,1
0.628958245732,838
0.629043408477,2
0.629393789062,43
0.629488922592,2
0.629526194344,19
0.630304278839,2
0.630350409609,1310
0.630793404085,579
0.631025721967,654
0.631609224926,4853
0.631719372812,37
0.631957927783,24
0.632006649404,11
0.632248233096,3858
0.632720551172,24
0.633001651983,1141
0.633180326372,7876
0.633638033088,2
0.633649463465,22
0.633784874703,5
0.633870003184,1311
0.63390059107,3027
0.634077958152,2472
0.634121326689,7476
0.634327574921,8433
0.634595436242,2095
0.635139567304,53
0.635291403086,686
0.635300940964,46
0.63540226995,33
0.63606785492,52
0.636070243435,41
0.636146478034,30
0.636156272764,25
0.636541119024,2385
0.636772657876,107
0.636934367291,42
0.637110472031,736
0.637437168659,16
0.638260658642,4672
0.638657088017,162
0.638687800577,3069
0.638692447825,3094
0.639686421231,69
0.639745105104,932
0.640095867508,25
0.640407934635,146
0.64053395255,5807
0.640651814284,4
0.640670697035,1160
0.640778936387,877
0.64083579065,12
0.640849154426,15
0.641004545827,53
0.641293640347,36
0.641741562337,15
0.642282557035,1165
0.642693235999,1347
0.642758607317,129
0.643013381518,11
0.643126663488,29
0.643732364543,2
0.64413429129,9741
0.644353053253,49
0.644450294516,3
0.644459087714,20
0.644916970478,1
0.644986539998,19343
0.645291725907,22
0.645422413733,30
0.645647572207,3410
0.645805453575,1540
0.645817363511,3
0.645864578975,35
0.646158741515,20
0.646414294552,7
0.64643289974,28
0.647256228815,46
0.647262361814,2535
0.647278653744,483
0.647504760967,12
0.647911473834,19
0.648218324767,116
0.648268611484,50
0.648326209552,42
0.648841442035,5
0.649128947674,37
0.64939943891,4915
0.649515151912,40
0.649642654652,4063
0.649663279618,365
0.650318771841,1
0.650904136137,3607
0.650995732622,1054
0.651408111069,4960
0.651431603943,3047
0.651527052566,31
0.651762278192,41
0.652457204183,1362
0.652717885439,34
0.652991601213,6067
0.653143485325,5
0.653291528908,6166
0.653534770868,2373
0.653580308562,16
0.653629256249,5
0.653761064747,72
0.653891902542,2219
0.653913890681,1630
0.653927354305,19
0.653955904298,41
0.654333461457,69
0.654716960414,174
0.654995821039,8
0.655563964575,30
0.655568032218,3144
0.655971446272,625
0.656114362415,28
0.656194649816,5890
0.656291272561,304
0.656557832708,15
0.656982827748,1117
0.656983209784,88
0.657200150404,5105
0.657487017674,27
0.65825202342,8
0.658270283405,44
0.658958632757,41
0.659046683964,3733
0.659217465087,3145
0.659544516927,3686
0.659612259505,2928
0.659722492095,6
0.659807903182,4
0.659869575938,5554
0.660048213663,9
0.660526173508,4405
0.660560413446,12
0.660803429554,15737
0.661369501624,13
0.661440876773,125
0.661498188339,104
0.661574050332,37
0.662005846486,17
0.662048764808,619
0.66240165896,48
0.662647603681,1131
0.662839102949,292
0.662915300033,46
0.663068843731,2
0.663168016659,14
0.663219057807,52
0.663278476985,7254
0.664068312002,6
0.664075555678,362
0.664157808822,17699
0.664496716681,1
0.664628608047,23
0.664724982437,2800
0.664754306448,2539
0.665108900175,17
0.665399570024,18
0.665458416321,15
0.665560955901,9
0.665572769818,1232
0.665684176142,1
0.6657650129,3
0.666199413009,6593
0.666297785736,48
0.666424431779,4
0.666430666939,2598
0.666802633967,3
0.666890380406,18
0.666962787667,19
0.667066706159,29
0.667531503639,347
0.667549000023,20
0.667640533466,366
0.667668778998,19
0.667689468621,18
0.667872524667,10411
0.668174715938,25
0.668213716333,123
0.668251488739,48
0.668279841776,31
0.668391290639,18
0.668477514647,3171
0.669097952424,684
0.669113572264,47
0.669372073329,49
0.669579478761,69
0.669895748538,311
0.670070339146,1
0.670150102541,6555
0.670634482022,28
0.671053248217,26
0.671057092329,20
0.671226953321,20
0.671467262176,6
0.671497483052,9
0.671716301492,14
0.672141251395,12946
0.672240964647,482
0.672402813303,1431
0.672795154551,12
0.673566003453,28
0.674119786214,50
0.674206771858,19
0.674273111278,2007
0.674345118544,34
0.674355351063,2566
0.674533060135,5100
0.674538350798,19
0.675321706622,78
0.675791440342,12
0.676036626879,5145
0.676154828589,40
0.676602382526,212
0.676622684029,873
0.676706163762,12
0.676809002944,2423
0.677061833834,33
0.67717265404,4913
0.677426868764,5036
0.67823101855,18
0.678346941234,48
0.67843732794,87
0.678853857444,6472
0.679216858548,374
0.679319368043,47
0.679527172542,817
0.679749608555,22
0.679854022147,619
0.681103463194,5590
0.682170227579,6378
0.682641732621,6557
0.683307119229,9827
