time,CharnySim1.flowGenerator3.flowCompletionTime:vector
0.000096470905,9.64709e-05
0.0050379189,0.00326424
0.008002195257,5.0253e-05
0.009844103379,7.19434e-05
0.016126486999,0.0142929
0.016610196676,0.000104053
0.019397573492,7.44801e-05
0.020677445166,0.000110019
0.021516354009,6.71735e-05
0.022543570644,0.000179493
0.022841078683,9.42737e-05
0.023443999464,0.000174758
0.026164218731,0.000156546
0.028725510006,0.000222962
0.030693018592,0.00248202
0.03122122583,0.000391123
0.034115880165,0.000292109
0.036229813156,0.00019152
0.042118506871,0.000471434
0.044002974918,0.00407445
0.044409893807,0.000141333
0.044783581171,0.0132453
0.044904333398,0.00030598
0.04797103418,0.000153358
0.049898932563,6.46819e-05
0.050740908317,0.000441471
0.056670263876,0.00346835
0.057728237298,0.000333175
0.058019026035,0.0287038
0.062116620513,0.000331678
0.063005925287,0.0168326
0.064101627599,0.000513907
0.065397889603,0.000254787
0.066420102679,8.35052e-05
0.071197744609,0.000139841
0.073942378268,0.0726357
0.07696969677,0.020257
0.07792522018,0.00667795
0.082806717725,0.000248066
0.083923522189,8.98059e-05
0.084962687769,0.000615527
0.08802957935,0.0072037
0.090350293745,0.01113
0.090740682747,9.45015e-05
0.091868202698,6.51803e-05
0.091991215219,0.00787567
0.092356646375,0.00029555
0.095561494053,0.00017184
0.09603608414,7.86282e-05
0.097868186072,0.0160841
0.099436171454,0.000112486
0.102449258833,0.000641427
0.102750625265,0.00198786
0.106685130626,0.00778061
0.106760870086,0.000662397
0.109477158216,0.000955359
0.110290471617,0.00026312
0.110432190537,0.00811024
0.115255777404,0.0265129
0.115562136556,0.000334534
0.118005662868,0.0267749
0.118086769014,0.000377042
0.118681739984,0.0480683
0.11895016505,0.000124212
0.120576986444,0.0354619
0.121456781039,0.00783473
0.122529436313,0.0377247
0.126348855876,0.00535667
0.126969876258,0.0402992
0.130767659385,0.0328454
0.132928656029,0.00833573
0.136132154052,0.118322
0.137521024507,0.000238081
0.137626720497,5.34391e-05
0.138040941043,6.35911e-05
0.141681816881,0.0600518
0.142668047982,0.00157094
0.143600598739,0.00525628
0.144545626984,0.00924205
0.145359630951,0.0415948
0.154355499132,0.00127483
0.15641577112,0.000128118
0.156969035071,0.000122448
0.157505005181,0.00279892
0.162030468121,0.000157549
0.167916734244,0.0224561
0.174323409349,8.70679e-05
0.175081098826,0.00179841
0.175162026152,6.1456e-05
0.177072580795,6.1456e-05
0.177797430852,0.000103187
0.179074226467,0.000107217
0.184118840436,6.27406e-05
0.185153386219,0.000101445
0.187923347066,0.00517699
0.190011623436,0.000101046
0.191724283744,6.36264e-05
0.192455029725,6.32262e-05
0.19335922804,0.00488796
0.19952387134,0.000119307
0.203105814715,4.9488e-05
0.204910531692,6.1456e-05
0.210044747916,0.00135619
0.215070080921,0.00618607
0.215702014681,6.8262e-05
0.220720334878,9.61197e-05
0.22192389091,0.00524914
0.225040762913,7.49784e-05
0.226730058,0.00011259
0.228010923316,0.000203934
0.228438273457,6.1456e-05
0.228615468601,0.000175725
0.231760081096,0.000187814
0.232547605771,0.000327516
0.233570278083,6.1456e-05
0.239044182151,0.000375424
0.242010125483,0.00834272
0.250358453248,7.22918e-05
0.257694002068,0.000942739
0.264866233015,6.96052e-05
0.266453402061,6.1456e-05
0.270193119284,0.000126023
0.272926215597,9.64709e-05
0.279486805746,0.00175863
0.281208894626,0.000176869
0.282672929872,0.000144375
0.283176492251,0.000224923
0.283838874072,0.00890807
0.290375392729,6.1456e-05
0.292583662045,0.000211839
0.292751741272,0.00164662
0.294127366624,6.1456e-05
0.295640357275,0.000684829
0.296023259657,6.1456e-05
0.299354393474,0.000117963
0.301138782514,0.00179567
0.312876391398,0.00737841
0.314876873682,6.1456e-05
0.317856051632,0.00020662
0.322551954549,0.000311691
0.325543634832,0.00656572
0.327230332887,6.56876e-05
0.327938411881,0.00729801
0.328159699393,0.000103187
0.329958396207,6.1456e-05
0.333815957376,0.000171498
0.334971998843,0.00018496
0.336691577,0.00416333
0.33705837256,0.0064752
0.338990024655,0.00013274
0.344876414881,6.1456e-05
0.349033335345,0.00117317
0.349114899765,0.000154237
0.352085878593,0.000150407
0.352324870833,0.000359503
0.355718285775,0.00274973
0.356408902089,0.00853605
0.357110799546,0.000499456
0.357937729726,6.39032e-05
0.358376957736,0.00121929
0.36259298443,0.00169966
0.363835664504,0.00493632
0.36640931875,0.000710351
0.366654842966,0.000896819
0.368188988919,0.0014008
0.369350224262,8.57246e-05
0.37094509316,8.43814e-05
0.373490234436,0.00151095
0.375380106886,7.22918e-05
0.376961756207,8.57246e-05
0.386494486386,0.00278501
0.387853745564,0.000149488
0.388391202066,0.00590466
0.391777861512,5.01e-05
0.39595012079,0.0019486
0.396173917078,0.00748369
0.402048236937,0.0121474
0.402349108811,0.000113934
0.403525325117,6.24443e-05
0.403610199072,0.000420338
0.404621293928,6.1456e-05
0.407140468867,0.00172319
0.413065808775,6.19089e-05
0.415540322272,0.00016046
0.418561428414,0.000121993
0.420794070993,0.00788759
0.425858675876,0.000194531
0.431962486486,0.000141562
0.432502291923,0.0001301
0.433056924559,9.02039e-05
0.436811375972,0.00870238
0.437011279667,0.00281441
0.443889526896,0.000466231
0.444656828335,0.0032818
0.445495685793,0.0064762
0.445971064016,7.63217e-05
0.449463893934,4.9488e-05
0.451436434665,0.00159557
0.451924355433,0.000350351
0.456504828248,6.1456e-05
0.464398077687,8.03515e-05
0.467946426657,0.000194531
0.469823298224,0.000119307
0.470081623101,4.9488e-05
0.475659524343,0.00414916
0.477171216203,0.00102468
0.477479629858,8.57246e-05
0.48065440058,0.00010856
0.487631242076,0.0010873
0.488555363541,0.000222987
0.489431171723,4.96222e-05
0.489559142288,0.00692844
0.489680354814,0.00339353
0.490023199711,7.22918e-05
0.497571003174,0.00706542
0.499587083044,0.00336218
0.50086050029,0.000879605
0.50217974422,0.000152889
0.506710098521,6.15174e-05
0.50856764546,7.40023e-05
0.5093601505,0.000167806
0.514403983807,6.6061e-05
0.522538932187,0.00260539
0.527313940529,9.88738e-05
0.537941585038,0.00028303
0.538626614891,0.00274079
0.540067289196,0.0343884
0.54014111223,0.0141679
0.54341872798,6.1456e-05
0.545566218196,6.96052e-05
0.547030879026,0.0014411
0.549698287497,0.000115277
0.554020771204,0.00142632
0.554890568684,6.69187e-05
0.560502005106,6.2226e-05
0.566636991029,0.0020466
0.566842417647,0.00021069
0.56716105993,0.00716495
0.568447440511,6.1456e-05
0.569980603633,6.1552e-05
0.57085292152,4.9488e-05
0.572707219215,9.24411e-05
0.573831349323,6.1456e-05
0.576574770917,6.1456e-05
0.577316207014,6.1456e-05
0.578015057836,0.00011662
0.584250256457,7.09485e-05
0.584712077903,6.1456e-05
0.58644141055,0.000101602
0.589586036074,0.00351361
0.590837573092,0.000134083
0.591503883426,6.96052e-05
0.592349667597,0.000369543
0.59439099953,0.000122478
0.594561596523,7.06157e-05
0.595400578375,0.000111466
0.595850552779,0.00012219
0.596269013886,6.74867e-05
0.598462032691,0.000610139
0.598466205825,0.00646229
0.598590513402,0.000510137
0.603874912412,0.000195515
0.606017280759,0.0140136
0.6074702535,0.000285874
0.607864937443,0.000128451
0.60950781634,4.9488e-05
0.612580875428,0.000170432
0.612622854884,0.000151404
0.617119718883,0.00689403
0.617216234455,0.00626045
0.617888019483,0.00359719
0.61888003675,0.0159621
0.620971623741,0.0020308
0.623517070255,0.000320799
0.624022493929,9.10978e-05
0.634221053353,9.91575e-05
0.637054320109,0.000251121
0.638080798541,0.00348659
0.638207974159,0.000473602
0.639662807733,0.00346224
0.640236389639,0.000149865
0.640554715743,6.57652e-05
0.641016636311,0.000125882
0.641164540744,0.00668465
0.641517039925,6.1456e-05
0.646174705828,6.1456e-05
0.650306918828,6.1456e-05
0.653774258756,6.21547e-05
0.656987413954,6.56717e-05
0.65866867929,0.0078639
0.661675899392,0.000111599
0.66269016416,0.0033533
0.66503436185,0.00823323
0.665568800323,0.000344978
0.66612731654,6.15694e-05
0.667082503924,0.00108919
0.670054958659,0.000166322
0.671101387124,0.000617665
0.672334307271,4.9488e-05
0.675128808859,6.1456e-05
0.675171032859,6.16084e-05
0.675396171562,7.76649e-05
0.675551667679,0.000125219
0.681972417258,0.000308079
0.682770239264,9.78142e-05
0.683887744513,8.53083e-05
0.684549983048,0.00919442
0.685897009056,6.1456e-05
0.691417310198,7.09485e-05
0.691530196563,6.1456e-05
0.695601172698,7.16325e-05
0.69582818756,8.25329e-05
0.697360510752,0.000501364
0.697896531963,0.00252196
0.698162457407,0.000156143
0.700631013681,6.22164e-05
0.702658360121,0.000151504
0.707452341901,0.000177658
0.707606726383,0.00517023
0.708299659789,0.000305804
0.709423962399,0.000137956
0.710654891032,0.00136298
0.713541247716,0.0116083
0.715704815433,0.000108265
0.718393324245,0.0225462
0.72506353493,0.0072876
0.725670033751,0.012875
0.728840214427,5.21625e-05
0.730447513698,0.0323975
0.731057823557,0.0174799
0.736934734346,0.00113798
0.737164158289,6.26239e-05
0.73851983289,6.24548e-05
0.739657595529,0.000173269
0.74438863989,0.00437498
0.745222649992,0.000498324
0.745477848229,0.0339804
0.747492655592,0.00150423
0.747682504257,0.000179754
0.748948946875,0.000104531
0.752031143563,7.90082e-05
0.753692031344,0.000123337
0.758534954371,6.26272e-05
0.759539296702,7.57011e-05
0.759742320435,0.000377648
0.762627660376,0.000130926
0.763091067533,0.000184482
0.763632436236,0.000257445
0.764827789316,8.77902e-05
0.767714336642,0.0026511
0.769968152561,0.00207353
0.77154338421,0.000218912
0.772508459493,0.000118736
0.775892040888,7.74316e-05
0.775901185486,6.17981e-05
0.781048762516,0.013177
0.781628055365,0.00419442
0.781867191792,0.000128238
0.786850883023,0.0300806
0.78897325204,6.8262e-05
0.789981042009,0.000440351
0.790522292779,6.1456e-05
0.7931291023,6.8262e-05
0.794620745683,6.1456e-05
0.798555713377,0.00141692
0.800348520995,6.1456e-05
0.805299837943,6.1456e-05
0.80977517895,8.57246e-05
0.810142151666,7.22918e-05
0.811352511476,6.1456e-05
0.819947901621,0.00196766
0.822350366235,6.1456e-05
0.823147997103,6.55754e-05
0.828440076745,0.000972068
0.830672469937,0.000334374
0.831607369373,0.00718329
0.831999805178,0.000189157
0.833385094591,0.00108578
0.836426918165,0.00011851
0.837793225413,0.00596322
0.841341192602,0.00910011
0.842825220648,8.03515e-05
0.844576606578,6.1456e-05
0.8461241616,0.00136319
0.847198542528,0.00143997
0.848352605727,0.000119307
0.853883804875,9.53214e-05
0.856462164491,0.00401886
0.857379299712,5.18228e-05
0.858215660694,0.00501247
0.858533203802,0.00346309
0.863464574735,0.000199377
0.865675696012,0.000111255
0.866032257431,0.0127553
0.868097026914,0.0141485
0.86899543777,0.00150388
0.871189922164,0.000347665
0.878057829288,0.00154453
0.880745273204,0.000139006
0.886287828158,0.00844591
0.888135854864,0.000384466
0.889463050946,0.000102185
0.897611238679,5.20924e-05
0.900091255166,0.0134367
0.90168159154,0.0166141
0.902517141984,0.000222951
0.902723753056,0.00170674
0.903655771852,0.000127191
0.904732753972,0.000234926
0.906470988358,8.23813e-05
0.908835065028,0.000678729
0.910166303622,0.0131706
0.912365401192,0.0113377
0.912991073508,6.1456e-05
0.914367252078,0.000150202
0.916904233741,0.000104531
0.929143304169,0.00886139
0.929298644096,0.00480188
0.933081303526,0.000127614
0.93430637764,0.00729842
0.935737736993,9.24411e-05
0.942401328825,0.000293934
0.946993326597,6.18626e-05
0.948962722024,7.47272e-05
0.949331956071,0.000122551
0.95051118974,6.31935e-05
0.95148109765,6.19973e-05
0.951647743049,6.64947e-05
0.951915225218,0.00884645
0.952530770596,0.000181814
0.953108382303,0.000993615
0.957008048317,4.9488e-05
0.957593446666,4.9488e-05
0.961236169999,0.000105874
0.96946498237,0.000179094
0.969642270226,5.1138e-05
0.973616031581,0.000117332
0.973633325429,0.000310686
0.975136300963,0.00777152
0.977652480569,6.79383e-05
0.978630855715,0.000146659
0.979257917142,0.000247997
0.982308520408,7.06968e-05
0.982719007551,0.0170859
0.984572575724,0.0179601
0.990427764656,0.000284447
0.990674371213,0.00424254
0.991552735028,0.00632169
0.993449527724,8.30381e-05
0.993540715969,7.36351e-05
0.99456677966,0.000122386
0.99938499264,0.000351571
1.002714966539,0.00852926
1.005953433939,0.005617
1.009325606039,9.24411e-05
1.012868772587,0.00420509
1.015700556451,0.00324878
1.017362825267,6.1456e-05
1.027606702179,0.000220827
1.030434125989,0.000200049
1.030981940168,0.00695996
1.037759134135,0.0108352
1.040343227823,0.000146172
1.043633355657,8.43814e-05
1.044897326556,0.00033791
1.04564704732,0.00200393
1.04578180065,7.49784e-05
1.046360511145,6.1456e-05
1.048494038814,0.00011259
1.051404912568,0.000405226
1.052327773587,0.000106817
1.052707929149,4.95845e-05
1.058657220925,0.00802966
1.059711539705,0.000385904
1.061773504699,0.000101205
1.061879624089,0.00017692
1.062933887801,0.000114929
1.066884254618,0.00406178
1.067464614063,0.000138145
1.068530604444,0.000110499
1.072826469667,0.0138681
1.077405528172,0.0101752
1.077445995505,0.00731261
1.078083360629,0.000339881
1.07959600859,0.00991072
1.081357632337,0.000142143
1.081740007868,6.42321e-05
1.083199459651,6.55754e-05
1.087310223641,0.000372698
1.088433351719,0.00218125
1.08846405931,0.00057963
1.090635861934,6.1456e-05
1.093038337253,6.1456e-05
1.102008323175,4.9488e-05
1.104394804684,9.78142e-05
1.105003472055,6.1456e-05
1.106312994033,0.000794978
1.10917532868,9.37843e-05
1.115859935671,0.000334503
1.116956112176,4.96334e-05
1.119828197103,0.00758128
1.122689928435,0.000213517
1.124027644269,0.000137942
1.126984379741,0.00517967
1.127011888747,0.00981363
1.12720955131,6.23072e-05
1.128965989338,0.000687279
1.130110466867,7.80416e-05
1.132072905324,0.000122929
1.135621391904,0.000644013
1.135702431415,0.00028412
1.139150250965,0.00800275
1.144086400847,0.000191463
1.144681392283,0.000153253
1.144994326208,0.00128775
1.146246797473,0.000684561
1.14834544608,0.0033113
1.150454842738,0.00361168
1.150536875212,9.08397e-05
1.15282961175,0.00472616
1.153257640863,0.0356187
1.153605083215,6.27076e-05
1.156366046597,0.0295255
1.158606754196,0.005273
1.159690595666,0.00179404
1.163519692293,5.2276e-05
1.164129373395,0.00336287
1.164576663855,0.000173959
1.164673405813,0.00292146
1.167371712028,0.000118307
1.170548194925,0.00210564
1.171652790907,0.00862596
1.172323232426,0.0103265
1.173489852366,0.000107217
1.173629091614,0.000104531
1.182925679188,8.57246e-05
1.183244431249,8.97545e-05
1.185639999111,7.09485e-05
1.187331850732,9.51276e-05
1.188780310406,6.1456e-05
1.193718336599,9.37843e-05
1.193957533777,0.000123337
1.194320110184,7.90082e-05
1.19617032762,6.1456e-05
1.199465299646,0.000385277
1.199705032758,0.000169008
1.200195974709,9.91575e-05
1.201806586538,6.1552e-05
1.208144231746,0.000146354
1.209762719502,0.00152273
1.213467376704,0.00010295
1.213989557213,0.00166302
1.214354962235,9.79626e-05
1.216435650114,0.00014934
1.218991917683,0.0131362
1.226597368507,4.9488e-05
1.228082493139,8.30381e-05
1.240134126461,6.8262e-05
1.242923785947,0.00181856
1.245158611204,6.1456e-05
1.258779884822,0.00563989
1.264333025106,0.00256082
1.26617857868,0.00558256
1.266764023885,0.000146207
1.266817924057,0.000296213
1.26990577605,0.0123284
1.271047735451,0.0152047
1.273572542473,4.9488e-05
1.274343245584,7.09485e-05
1.278710554774,7.49784e-05
1.283799084666,0.000277912
1.283800284666,0.000321787
1.28615441062,0.00501294
1.286553041039,9.73783e-05
1.286978804311,0.000470712
1.287564313519,6.20087e-05
1.288100270684,6.17003e-05
1.289481994369,0.00525445
1.289626248894,0.000296556
1.29076382853,0.00313609
1.291497585834,0.00780223
1.294535784016,0.000103187
1.296785329308,0.00157946
1.299230809536,4.9488e-05
1.299976428817,0.000179754
1.301564579174,6.1456e-05
1.304572827009,0.000107217
1.306525150573,0.000117774
1.308252469353,0.00236631
1.308511588804,6.21454e-05
1.308622867822,0.000682268
1.310735604013,0.00159692
1.3119070286,8.97545e-05
1.313709817846,6.18705e-05
1.314025355167,0.00103249
1.315026977062,6.96052e-05
1.315405819529,6.17453e-05
1.315742680557,7.74994e-05
1.320860419999,9.78878e-05
1.329119532236,7.09745e-05
1.334009530748,0.000169427
1.334339452653,0.000999846
1.335757928032,0.00388372
1.335908063665,0.000118585
1.336562328416,0.00491808
1.337279778636,0.00991356
1.341675288276,0.0142416
1.342563755301,0.000261053
1.34267942096,0.0146956
1.343383275719,0.0280738
1.343638347963,0.000107217
1.345035531386,0.000119521
1.348063096947,0.000168053
1.348901331128,9.02924e-05
1.350025302515,0.000550677
1.350214679927,0.00562473
1.354405288374,0.000134994
1.355553875044,0.00643514
1.355770133612,0.00563521
1.359193094468,6.1456e-05
1.365967079221,0.000289656
1.366210401462,0.00586318
1.366685611595,0.000165342
1.370951684057,9.62718e-05
1.371303793054,0.00555739
1.378714839999,6.8262e-05
1.379305998642,6.1456e-05
1.381862881463,0.000101844
1.387219645444,6.55754e-05
1.388859266942,0.000109904
1.389717850157,0.000113934
1.390768990192,8.16948e-05
1.393114081844,5.0655e-05
1.39335333139,0.00122889
1.400458038013,6.69187e-05
1.407435309513,0.000115277
1.412009840892,7.09485e-05
1.415548687083,0.000912875
1.417004502852,6.2621e-05
1.418635603411,0.00343643
1.419822070511,9.64709e-05
1.419888506992,6.1456e-05
1.421532208321,0.000347665
1.422120716558,0.000287217
1.422140677877,9.08192e-05
1.428672010711,7.90082e-05
1.430293806641,6.1456e-05
1.433179687598,0.000187229
1.437460615751,0.00345871
1.438206059512,0.00611673
1.438685656842,8.80953e-05
1.438740705912,0.00016481
1.441781722397,6.1456e-05
1.44245439992,6.69187e-05
1.443808544737,0.000383933
1.444898281812,0.000804381
1.447389678659,0.000142143
1.447736019409,6.1456e-05
1.449903528988,0.000616321
1.450369176815,0.00011662
1.45145460105,6.1456e-05
1.45279850328,7.41247e-05
1.45537382323,0.00279768
1.456610954915,8.80371e-05
1.45682020406,6.20536e-05
1.46029628775,0.000186471
1.465959027324,5.1461e-05
1.469655847578,0.0041908
1.47139288177,0.00609258
1.472285665228,0.000136067
1.473428749142,0.0117523
1.474375925325,0.000111914
1.47492647703,0.000135869
1.477221893668,6.36716e-05
1.483478713759,0.00774429
1.484327397876,0.000154322
1.48542984482,0.00029979
1.485965846927,5.00405e-05
1.486131407439,0.0342216
1.487768092919,0.00481702
1.490061198102,0.000866172
1.490356550207,0.000103184
1.494804448436,0.00650125
1.497302515512,0.00112562
1.500480192182,0.000169452
1.501308237872,0.00588173
1.504401428362,6.6983e-05
1.505514201778,0.0158033
1.506307301882,0.00628074
1.507062650824,6.1456e-05
1.51000695237,0.000594829
1.512925694354,0.00115363
1.516239160868,0.00107035
1.517605034208,0.00158452
1.519241111391,0.00030065
1.523879015057,9.51276e-05
1.530734100537,0.00252481
1.531008273568,0.00168468
1.537947347135,6.1456e-05
1.540245986568,0.000205277
1.543167348644,0.00157274
1.545188641607,0.000132248
1.546620699543,0.00246129
1.547556993388,9.54963e-05
1.553613550806,0.0103292
1.553628438208,0.000106217
1.553834821644,7.22918e-05
1.558153810445,8.9881e-05
1.558570202642,0.000501974
1.562507041578,0.000119814
1.563079254603,0.000813615
1.571077750086,0.00165065
1.572044363573,0.000184686
1.573759879267,0.00190587
1.574132646296,0.000103187
1.575912225645,0.000336919
1.579024536674,0.00168557
1.583741672751,6.1456e-05
1.589472969231,0.000157834
1.590187401451,0.000104072
1.593075272842,7.43463e-05
1.594764900898,0.000159227
1.599162727648,0.000480023
1.601649371537,0.00040488
1.602406756982,0.000239091
1.607590318991,0.00269421
1.608472417518,0.000164746
1.615885764038,0.000816709
1.617282937516,0.0211888
1.622598108669,0.000610705
1.622938698564,0.00435397
1.628516490503,0.0377919
1.629578095222,0.000109744
1.632176564581,0.000445762
1.632642016272,0.00030989
1.635429456117,6.73261e-05
1.636267192897,0.000668544
1.636707646622,0.0134435
1.638631787647,0.00012689
1.644906688336,0.00105857
1.651328813292,6.8084e-05
1.652645263136,0.000310749
1.65506563602,0.000390064
1.657192532648,0.010512
1.657982621198,0.000804657
1.666131469114,0.00979555
1.666296237584,0.000847831
1.667582174497,0.0630846
1.667653692105,0.000226626
1.667988220802,0.0128183
1.66839138115,0.0332699
1.671055281168,0.00845654
1.672933176247,0.000524923
1.674355394951,0.00104497
1.675194176991,0.0193728
1.677601501354,0.000260721
1.678120548505,0.00134752
1.679049184894,0.000608591
1.680182070328,0.000207572
1.687321898672,0.0316485
1.687827527308,0.000244861
1.690469696597,0.0868068
1.690750993551,0.000201848
1.690973406922,0.000193753
1.692399294609,0.000215018
1.693560178172,0.0223053
1.69585765099,0.00326962
1.696945997115,0.0463233
1.700877466782,0.000457411
1.700952372092,0.000188816
1.701646047517,7.02382e-05
1.704618199312,0.000588994
1.705283802647,0.00817732
1.707046288984,0.118061
1.708136389169,0.000398461
1.711417461457,0.000164469
1.716738188119,0.00026779
1.719606686959,0.00753789
1.720032848381,0.00022987
1.722238832035,0.000495224
1.725911257845,6.55133e-05
1.726017284541,0.0116206
1.726395271597,0.0241119
1.726689087011,0.000139475
1.729791782892,7.57244e-05
1.72997166132,0.00090815
1.730931604129,0.000115122
1.731659689307,0.000293956
1.733348021261,0.0335379
1.736507456023,0.000379906
1.742063426327,0.000587271
1.742561266539,0.000782673
1.742933668195,0.00020282
1.746599838142,0.00936343
1.746835881355,0.0167998
1.749211326005,0.00025757
1.749367002177,0.0120874
1.749740620799,6.73694e-05
1.752483462261,0.0010411
1.754517507053,0.000116517
1.754650347405,0.00982137
1.756757674409,0.000514761
1.75742774889,0.000368566
1.760105105045,0.00726458
1.760775297276,0.152319
1.761150325555,0.0140846
1.761888404748,7.80776e-05
1.764047570309,0.155667
1.767288887831,0.000146147
1.770343514507,0.0286481
1.770978801831,0.000315797
1.771334637729,0.000141856
1.7754156732,7.1929e-05
1.77741292225,0.000332635
1.778209645279,0.000298544
1.778636809427,0.0036245
1.781857840504,0.000201095
1.783240098167,7.11588e-05
1.783331537444,0.0390703
1.787234755596,0.109699
1.787310037015,0.0271341
1.788222997608,0.00497448
1.80032360854,6.2515e-05
1.800381558506,0.00050222
1.804996221396,0.00191931
1.806314570063,9.10978e-05
1.808903179198,0.000921247
1.809196517291,0.000105874
1.810781044904,0.00015075
1.811772187286,0.00222661
1.812382012231,0.00196352
1.814477696615,0.000122468
1.815729104759,0.000199982
1.819510091039,0.00621786
1.820886930581,0.00832029
1.824081553711,0.00179519
1.825672818912,0.00115486
1.826447835936,0.00543647
1.8267917164,0.00562188
1.828695919788,4.9488e-05
1.828826687055,6.1456e-05
1.831754880497,6.24198e-05
1.832163485656,0.0012975
1.837490644114,0.000252292
1.837801670497,4.9488e-05
1.84006377522,0.000801694
1.848268206679,6.1456e-05
1.855671862184,0.000203934
1.856306018204,0.000105874
1.858349500356,0.000187814
1.859176909402,6.1456e-05
1.85926671931,8.70679e-05
1.861576283534,6.1456e-05
1.86991237975,0.00282199
1.87562631735,0.000180948
1.875857460719,0.000175367
1.877243585939,0.0126651
1.879555376836,0.00286741
1.88981131907,0.00557359
1.897653405242,0.0260541
1.902027923511,0.000104531
1.905387002605,0.000159835
1.908668668667,0.00036176
1.91063369738,0.000170623
1.912464423812,0.00142271
1.919423998657,0.000168777
1.921256211132,0.0174418
1.925781359921,6.1456e-05
1.928166713927,0.00192468
1.92914331028,0.000139126
1.935469642378,0.00467716
1.944008506151,0.0128089
1.948492061697,6.29789e-05
1.952024822302,0.0017382
1.956659051524,6.31578e-05
1.958859846815,7.81003e-05
1.959862961021,0.00499789
1.962376310773,0.00349006
1.966151993999,0.000985908
1.967400054049,5.17519e-05
1.969466241761,0.00249646
1.971236138165,0.000775669
1.971846280726,0.000303457
1.972656980616,6.57219e-05
1.974330543014,5.14632e-05
1.976997109456,0.000123021
1.978931767755,0.0503375
1.983925206428,0.00487991
1.986744478231,0.000453872
1.990048020477,0.000118441
1.990954625844,8.48482e-05
1.991486979264,0.000130195
1.994321703043,0.000188718
1.996002467903,0.0115177
1.996405618211,0.0025696
1.996795206024,0.00786401
2.001722755156,0.00262256
2.006326203139,0.00107422
2.007076328495,0.00691186
2.013736184807,0.0297034
2.015874009177,0.021597
2.01743230377,0.0339315
2.02129823157,0.000278444
2.023146784369,0.0845221
2.024164133321,0.0470134
2.024242473616,0.00834365
2.025940270572,0.000449631
2.028090574253,0.00129689
2.028759580784,0.00998252
2.029371805971,0.0419151
2.029482097312,0.0108499
2.033399111722,0.000179982
2.036124697884,0.000136474
2.037100804335,0.00282299
2.037808323289,0.0236068
2.038438545813,0.0344856
2.042724886317,0.000302229
2.044606714995,7.88251e-05
2.047189836109,0.0224746
2.054237627436,9.86371e-05
2.058232154544,0.00989633
2.059422924072,0.000188788
2.065273524683,0.0193699
2.066436375773,0.0011427
2.06739401918,0.00333567
2.069462818918,0.000220749
2.072832355903,0.020089
2.073005470636,0.0164475
2.075294425456,0.000148663
2.075669118408,0.0103831
2.090259175868,0.000165094
2.091130173797,0.00056576
2.091217175112,0.000497678
2.093308159437,0.000219372
2.097146887622,0.000106365
2.097635778822,0.000353371
2.098948278152,0.0930625
2.100268713223,0.00046007
2.101176199779,6.43904e-05
2.101897716892,0.0114195
2.102414881067,0.000523591
2.104431060051,0.0104714
2.107626119693,0.0001718
2.113847727679,6.62606e-05
2.120273050955,0.000285052
2.122678425163,0.00061231
2.129048403782,0.00542904
2.129734821675,6.90313e-05
2.12985747361,0.00974991
2.130545647898,0.0355149
2.136221242651,0.0230764
2.138640634214,0.0396638
2.138945168154,0.000103048
2.139374786041,0.000477367
2.150052874627,0.0269008
2.150611701149,0.12551
2.153361466139,0.0421422
2.153891941562,0.000153496
2.153942868602,0.000174635
2.16022940973,0.000736012
2.162264165794,0.000461378
2.165358628958,0.00021107
2.16654214483,0.0843615
2.166858790069,0.00039428
2.169517291321,0.00483717
2.171213715102,0.00244723
2.171486125365,0.000230479
2.171670266491,0.000480613
2.172887927225,0.0174656
2.173525028782,0.000214142
2.174989319075,5.29725e-05
2.175501398519,0.0203837
2.178140638275,0.000766395
2.178933494103,0.0202317
2.179541488518,0.000122435
2.183621065576,0.000163968
2.183977102294,0.0155376
2.187469639283,0.000325135
2.189476504589,0.012761
2.192853050965,0.00657946
2.192863876515,0.103788
2.194955043389,0.00444751
2.198476471441,0.000242153
2.19849127311,0.000199098
2.203781264863,0.00575975
2.203938144453,6.1456e-05
2.204639338195,7.09485e-05
2.208332300568,0.000127669
2.210988003089,6.18611e-05
2.215662340625,0.000750922
2.216507743076,0.0105768
2.21925010373,0.000252676
2.224297882933,0.000193066
2.226040089639,9.92048e-05
2.226690382139,0.00292773
2.226939201692,7.50973e-05
2.227896402546,0.000324867
2.230552717424,0.000176506
2.230621304165,0.0141099
2.23113151904,0.000235086
2.231754633746,0.0183824
2.232015262736,0.000166167
2.232735119332,8.45469e-05
2.237381638596,0.0251285
2.238589466807,8.69559e-05
2.240127605692,0.0253358
2.241022159115,0.0182981
2.246067259582,0.00335662
2.248846909056,0.000279157
2.25450956884,6.1456e-05
2.257032814831,9.64709e-05
2.270525320001,8.27627e-05
2.27168591693,9.4565e-05
2.273808422585,0.00458656
2.275131556405,0.000155061
2.276058421692,0.0103523
2.277990699287,7.14565e-05
2.278079304895,9.29977e-05
2.278548017553,0.00104857
2.284695778401,0.000326541
2.285237121466,0.00413958
2.28573863446,0.000109904
2.286424217211,8.43814e-05
2.290674074328,9.37843e-05
2.29192840087,6.1456e-05
2.292441236475,7.36351e-05
2.294213793442,6.96052e-05
2.298104537372,6.1456e-05
2.299406613444,6.60526e-05
2.29989976716,0.000730501
2.301252020393,0.000113934
2.307056194063,0.00164796
2.308387535117,0.000117963
2.309589746277,6.28888e-05
2.312479601283,6.1552e-05
2.312966734831,0.00020259
2.320274647133,0.000182441
2.327250662683,0.00632527
2.330623250955,6.15833e-05
2.332224293018,0.000216291
2.333627590786,0.00055738
2.333753916542,7.7665e-05
2.335158303014,0.00015852
2.336198612134,0.00553932
2.33966660657,0.000910059
2.343040966576,0.00190357
2.343240944346,6.51807e-05
2.343801245132,8.22602e-05
2.345379278117,0.00693636
2.347670964655,0.000132308
2.347809675803,0.00448319
2.349561090893,6.34028e-05
2.349908987507,6.66831e-05
2.352019260109,0.000271043
2.353052101795,0.0173049
2.353497913313,0.000199986
2.353517966564,0.000251986
2.360015156501,0.00110654
2.362562591322,0.000111934
2.367204040081,0.014828
2.373945588121,0.000355635
2.375341176585,0.000164479
2.376331081973,0.000138524
2.379405746661,8.2643e-05
2.38060822064,0.000715597
2.380888428392,5.03434e-05
2.380949242,0.00391161
2.381124088794,0.000386814
2.382091571752,0.000451119
2.382231448521,0.00372663
2.385094621477,0.00655444
2.386174995146,0.0124183
2.393098762017,0.0587214
2.394649317915,0.000556225
2.395441425359,0.000192626
2.395925054726,0.0199799
2.397609634949,0.000571392
2.398108397669,0.00136401
2.399067991662,0.000469736
2.399639182556,0.00050425
2.400330359623,0.0116796
2.403863481902,0.00197998
2.404879542977,0.00814332
2.405365292414,9.96317e-05
2.409347259178,0.000228179
2.410997679495,5.21757e-05
2.414223500844,8.38137e-05
2.417816325372,0.0510229
2.418914968835,0.000242817
2.418983565848,0.000258069
2.420685655809,0.000137123
2.421625995617,0.000201823
2.423343800226,0.000515926
2.424076033522,0.000321093
2.425384623321,0.000681086
2.425448527797,0.00953995
2.426038798595,6.3167e-05
2.427417547224,0.00332652
2.430086315062,0.072788
2.432984729281,0.000201754
2.435274852368,0.0677439
2.436775163135,0.000425631
2.437931045816,9.7803e-05
2.440260592423,0.112518
2.440700558697,0.00816176
2.442052443024,9.16151e-05
2.4440157568,0.000193911
2.444294077496,4.99813e-05
2.445958204125,0.000382979
2.451190665346,0.00415448
2.45391338962,0.0173555
2.456048532358,0.00342196
2.462262965687,0.000268472
2.46280404789,9.39505e-05
2.463423444825,0.00780934
2.463810545917,0.000265931
2.464627182996,6.22978e-05
2.466248324522,0.000462124
2.467791667601,0.0863185
2.472649219862,0.0177853
2.474472421603,5.40792e-05
2.474748423208,0.000392407
2.483741153932,0.00662883
2.484364903389,0.000588179
2.48578682563,0.00790866
2.485862567059,0.00148512
2.486045900779,0.00856242
2.486396177784,0.0213754
2.489162148781,0.000107034
2.489245370989,0.0157149
2.490631731551,0.0114115
2.492025150523,5.14902e-05
2.493073742975,0.00356149
2.494299403563,8.85018e-05
2.499379644235,0.000483755
2.500520579345,0.000278386
2.503357018706,0.0129186
2.504425994691,0.000918982
2.509761116599,0.000619849
2.510107140222,0.00306476
2.513188166785,0.00493486
2.515831303581,0.00613299
2.516315044231,0.0457765
2.522881653504,0.103316
2.524364422271,0.0234426
2.524506290913,0.0182805
2.524550905832,0.03651
2.526211067279,0.000631482
2.526362259843,0.000161677
2.52816676417,0.000148427
2.531058006317,0.00683653
2.531496689742,0.000194781
2.533122718022,0.000404782
2.538379718247,0.0632193
2.538666785694,0.00286483
2.538669679543,0.000486415
2.539165032574,0.000155498
2.539419199705,0.000113939
2.539428765073,0.1202
2.540282898691,0.00482104
2.541853870593,5.00343e-05
2.545172905625,8.22365e-05
2.545201257862,0.00341017
2.548284452071,7.09485e-05
2.549812284241,9.33058e-05
2.550944840663,0.00142363
2.551288563156,7.49784e-05
2.552188884543,0.000340948
2.558191558444,0.00160498
2.566996581981,7.22918e-05
2.567561152062,9.91575e-05
2.575304192127,0.000119307
2.579373876894,0.00204692
2.583217683639,8.97545e-05
2.585748463886,8.57246e-05
2.58772134609,6.1456e-05
2.588393108947,6.8262e-05
2.592540648809,0.000216266
2.594057845613,0.00314929
2.594091714263,0.000135132
2.594389314402,0.0046744
2.599377810677,0.00243554
2.604812791276,6.26276e-05
2.608514900158,0.00263732
2.609811025007,7.12521e-05
2.610078169526,8.81798e-05
2.61046635278,0.0155626
2.62104960081,6.42321e-05
2.623887244933,6.8262e-05
2.624773784745,0.000138113
2.632486750161,6.69187e-05
2.634472002905,7.36351e-05
2.640749697047,6.1456e-05
2.64341543269,0.00011259
2.645895737344,8.97545e-05
2.648157760552,0.00124766
2.648633653807,6.1456e-05
2.650638587838,6.42321e-05
2.656522407372,6.1456e-05
2.660655136768,0.00185327
2.661226759867,7.27356e-05
2.661969412019,0.00230807
2.663522918581,0.00288629
2.663614653995,0.000111882
2.665331067268,0.0050252
2.66689335314,0.00993317
2.671238432792,6.96052e-05
2.672938729444,0.000841993
2.674128939418,6.69187e-05
2.675564213847,0.000240202
2.678619793568,0.000324415
2.678739794744,0.00143084
2.68014981897,0.0003721
2.680597074818,0.00242534
2.683698689732,0.00748254
2.68500021373,6.1456e-05
2.686474894719,7.63217e-05
2.689473354282,0.00010856
2.694750852344,0.000173995
2.695548762509,0.00015269
2.696640994888,0.00295766
2.700976042319,0.000355725
2.707026688465,6.21551e-05
2.710463301707,0.00606758
2.711995998796,0.000999157
2.721982980255,6.1456e-05
2.724254760048,0.000109904
2.725625859996,6.1456e-05
2.726499550423,6.1456e-05
2.726792735179,8.97545e-05
2.734968230448,0.00314658
2.735016633297,7.82117e-05
2.73821096033,0.000141454
2.738457930054,8.46622e-05
2.749390802458,0.000203123
2.750037418271,0.000292147
2.750145278793,0.000205774
2.751624794155,0.020099
2.751906571539,0.000157295
2.752827894875,6.59831e-05
2.753001152849,0.0126553
2.754564021242,8.03515e-05
2.760679349838,0.00120737
2.764005080397,8.30381e-05
2.766218373716,6.42321e-05
2.766340032158,6.1456e-05
2.772542586592,0.000157052
2.772740049209,0.000628242
2.777871696955,0.00149483
2.779397335266,8.8155e-05
2.781844408876,0.000605606
2.785683564213,0.00797312
2.786801150137,0.00714939
2.795365727535,0.0018614
2.795877238386,0.000167413
2.795986101897,0.00451011
2.796430639135,0.000631582
2.796819134627,0.00419899
2.798446888441,0.000126842
2.80185549862,6.32855e-05
2.802762999879,0.000202633
2.803793050964,7.22185e-05
2.805455956629,0.000300506
2.807432260465,0.00499525
2.807684764997,0.000279548
2.8079710021,6.70302e-05
2.816572843417,0.000199784
2.817364186467,0.0102342
2.820896026362,0.000522388
2.821210784554,0.000406606
2.822222245077,8.57845e-05
2.822254323881,0.0120118
2.823109409452,0.000240033
2.823668063271,0.0265311
2.823821371683,0.000154354
2.82432759896,0.00946251
2.826350727191,0.0332264
2.828315345852,0.0151935
2.82907037625,6.23389e-05
2.829936794097,6.25456e-05
2.832755814107,0.0261528
2.83312256238,0.0302965
2.839983317538,0.000169296
2.845902785599,0.00906875
2.846051864494,0.00860468
2.846994391357,0.000194531
2.847260353868,0.00127935
2.850560609135,0.000103187
2.853255104351,0.00011259
2.854294412728,0.000191844
2.85698583716,6.1456e-05
2.858354675512,6.69187e-05
2.861140884785,6.69187e-05
2.862066374645,6.15642e-05
2.862482658188,0.00116548
2.867147831735,0.00311214
2.867932330336,0.000115277
2.870929207399,9.57929e-05
2.871030122477,0.000234829
2.871697487785,0.000273784
2.872103844413,8.57246e-05
2.873469837151,6.26698e-05
2.880188805972,0.00683951
2.881140837128,0.000593957
2.883153718204,0.00394059
2.883802555923,6.17719e-05
2.884217959499,0.00824743
2.888373513994,0.000104937
2.8892060951,0.00364062
2.890942040779,0.00429482
2.894544636255,6.37596e-05
2.89463344193,0.000529531
2.896819789284,7.99298e-05
2.896896250176,0.000151681
2.897515090742,0.000516418
2.897687492883,0.00331868
2.897789206307,0.000499858
2.902527052882,0.000823197
2.903393639569,0.00743882
2.910339000515,0.000261481
2.911403020503,9.16751e-05
2.912920599625,0.000163824
2.914747659566,0.00517984
2.915583408244,0.000465344
2.917130494532,0.021198
2.917493442066,0.000210743
2.925488671891,0.000106879
2.926443000877,0.000344355
2.934656335013,0.00554905
2.936270907953,0.000133253
2.937670010586,0.000189693
2.937827683881,0.0459433
2.938096267743,0.0519435
2.938457970367,0.0052734
2.941031246147,0.0104334
2.941249026843,0.00633947
2.944661229817,5.10439e-05
2.950171074416,0.0077071
2.954972122656,0.000178411
2.959916588582,0.010522
2.962921156999,0.0176362
2.965543219971,0.000280576
2.968810110504,0.00192226
2.97054680665,0.000138204
2.973143347154,0.0296498
2.974217442159,0.00105155
2.975066097839,8.50148e-05
2.97525409993,0.0020153
2.977506690485,0.00139511
2.978575774965,0.00169537
2.985304313497,0.000123191
2.989327122788,5.14214e-05
2.989332431922,0.000197604
2.994105073541,6.65829e-05
3.002140444899,0.000141737
3.005118704966,0.000151691
3.011899122879,0.000563006
3.012201017561,0.000575954
3.016588827643,0.00747847
3.019151099025,0.00633682
3.019974984276,0.0400211
3.021738406268,0.0173264
3.022833895729,0.0272849
3.023018743241,6.39425e-05
3.023442165974,0.0133656
3.027337672379,0.00379157
3.027428846817,0.000192369
3.02930821816,0.00348732
3.029865358492,0.0513975
3.030118736739,9.78142e-05
3.035844886614,7.74941e-05
3.036105483536,0.00162361
3.040792030458,0.00213155
3.041002629317,0.00170529
3.042758639873,0.000322142
3.043778058802,0.000224083
3.045234853197,9.37843e-05
3.045991941427,7.36351e-05
3.049307820596,0.000925277
3.050178410445,6.1456e-05
3.050534903826,4.9488e-05
3.055339017696,0.000988411
3.057711882905,0.00161438
3.060250306605,8.57246e-05
3.063911586175,0.000110133
3.064507303129,0.000259769
3.065901163341,7.11949e-05
3.066056783386,0.00242705
3.068599761407,0.00573936
3.06882152336,6.1456e-05
3.068920202023,6.8262e-05
3.070168883026,8.57246e-05
3.070706702037,7.63217e-05
3.074345644731,9.0864e-05
3.078878818637,0.000331563
3.078934924425,0.000115268
3.08041827262,0.00827909
3.080496326334,0.00940771
3.083651693199,7.49784e-05
3.083875238871,6.83928e-05
3.083902247821,9.64709e-05
3.083904622271,7.01124e-05
3.085113309706,7.49784e-05
3.086008123654,0.000440351
3.090919773149,0.000327516
3.094199264165,0.000111716
3.094553587876,6.19416e-05
3.097789699207,0.00016313
3.097954897526,0.000165964
3.099968561907,0.000157226
3.100160593847,0.00808064
3.101420403912,6.1456e-05
3.105227988696,0.00259632
3.108177031127,0.00021871
3.109835852142,0.000139144
3.110003736983,0.000280635
3.116962597111,8.43814e-05
3.117553256766,8.43814e-05
3.123037693278,0.000765426
3.127628611936,7.22918e-05
3.130093196592,6.8262e-05
3.132397441859,7.76649e-05
3.134023504952,0.000107217
3.13830243596,0.000106154
3.142867054896,0.00490139
3.143768099054,9.51276e-05
3.149776578311,0.000420202
3.151524597461,0.00160498
3.153606271887,0.000253811
3.153954038963,0.000157058
3.154646978674,0.00015984
3.155510878777,0.00522791
3.156816361941,0.00209294
3.161191008919,0.000107217
3.161824163901,0.000105874
3.168967083893,6.1456e-05
3.169663195603,6.98613e-05
3.169872891106,0.000919852
3.173473792989,6.3993e-05
3.175574493278,0.000161233
3.17559311131,6.97007e-05
3.17820030669,8.32015e-05
3.179018840832,0.00966741
3.180806393928,0.000484864
3.185167782052,0.00913793
3.186318845526,0.000314213
3.186949987864,0.00486622
3.189691174067,0.000312258
3.192039800023,0.0102177
3.194205770747,0.000171298
3.196095815082,0.000292946
3.201424594524,6.79002e-05
3.203729669,0.00952216
3.204183529944,0.00265225
3.20458651495,0.000480562
3.208195306375,0.0189352
3.216606921503,0.000394249
3.217901416942,0.00820386
3.2198917459,6.90902e-05
3.222629468634,0.000116297
3.22288752233,7.94631e-05
3.231375026954,0.0210898
3.231529440545,0.000159356
3.235012835575,0.00558729
3.237235632074,0.0131247
3.237924937329,0.0277827
3.238361361181,0.000591637
3.240110401818,0.0031879
3.241327034345,0.057155
3.243499485328,0.000224083
3.247728048985,0.0140619
3.253143566071,0.000143849
3.253434543011,0.00192277
3.254332095611,5.09814e-05
3.257488321718,0.00542257
3.257674846131,0.00217497
3.257909067493,0.000877837
3.267055738734,0.0149558
3.267803422979,0.0168383
3.268512418203,6.79319e-05
3.271731093911,0.0238843
3.274261218412,6.21064e-05
3.276602979235,0.000139619
3.27734211637,0.0268309
3.277942344004,0.000154351
3.288167480923,5.01681e-05
3.288833251277,4.96323e-05
3.293427145498,7.09175e-05
3.298172959374,0.000348298
3.301415358939,0.013796
3.301736153544,0.000339465
3.303162784617,0.0112489
3.303638685514,0.0229395
3.306513041164,0.0123789
3.308631265365,0.0521631
3.311966599359,0.000209307
3.314599406,7.22918e-05
3.31867415274,0.00029279
3.318864787696,0.000979655
3.320599246806,0.00416274
3.321616909707,0.0057268
3.324950890263,0.00012468
3.325783545735,6.1456e-05
3.329832798727,0.00281931
3.334078386567,0.00284305
3.340535407047,0.000143977
3.341459560538,0.011549
3.34199416164,0.00858638
3.342201157015,0.00011259
3.343726888991,7.09485e-05
3.345069166609,0.000197549
3.345494509155,0.00126262
3.347966124343,0.00404212
3.351638200503,0.000291247
3.35475582729,0.000825874
3.355579685011,6.1456e-05
3.356604099026,9.37843e-05
3.357622210282,9.10978e-05
3.358158447832,0.000115277
3.363442936439,0.000130053
3.364489867985,6.42321e-05
3.372130013566,0.000151546
3.372312379817,0.00012497
3.372807997647,7.39609e-05
3.373443201897,0.00053005
3.373600165219,0.00913508
3.375340872683,7.64068e-05
3.381842026217,7.07196e-05
3.383079982447,0.0182286
3.383165192446,4.95546e-05
3.385221929613,0.0136411
3.385323303031,0.000113457
3.385697328738,0.00044104
3.386935234767,0.00233646
3.387096403191,0.00233854
3.39450590526,4.9488e-05
3.397263669136,4.9994e-05
3.398102022903,0.00181994
3.398226034487,0.000115277
3.404649794652,6.8262e-05
3.407457963999,0.00209496
3.409287037541,6.21415e-05
3.409984425989,0.00180627
3.412696094364,0.000127093
3.413907930459,0.00328236
3.414552706317,0.00778592
3.419963700885,9.51276e-05
3.4254374279,6.1456e-05
3.427677593305,0.00057065
3.436640244445,0.000597515
3.439266338547,6.28888e-05
3.441979700706,6.1456e-05
3.44258858296,7.90082e-05
3.443635322795,7.76649e-05
3.448263904924,6.1552e-05
3.457107616598,0.000141006
3.460856693915,0.00810899
3.465409318469,9.33974e-05
3.467906268364,0.000186651
3.470046306909,0.00719018
3.470745826214,0.000189558
3.472035040376,0.0049328
3.476387309323,6.27596e-05
3.479224508897,0.000109122
3.481814189719,6.68152e-05
3.484108491549,0.0124655
3.495165901156,0.000144256
3.497792019773,0.000926012
3.498149164291,0.000189797
3.501588026879,0.000130053
3.503649796992,9.88158e-05
3.50641274247,0.000119631
3.509577505445,0.000296664
3.509615066279,0.000157249
3.510102573303,0.0011131
3.510319477868,0.000179159
3.51429828986,0.00864093
3.514426898321,0.000286885
3.515156931868,5.3018e-05
3.516593288838,0.00410595
3.516612317374,0.000195701
3.516848821002,0.00570999
3.516852962136,0.0242295
3.519504942334,0.000326172
3.522590119255,8.16948e-05
3.523669920407,6.1456e-05
3.525016904716,0.000925277
3.525756908703,6.1456e-05
3.527798692925,7.22918e-05
3.528582893438,7.22918e-05
3.533292867374,0.000383258
3.533604509074,0.000100795
3.535020329375,0.00232347
3.536443688157,6.1456e-05
3.537269013429,0.000142143
3.539385865351,0.0001738
3.540703348522,6.22433e-05
3.541525571078,0.00381974
3.543247666375,0.000111266
3.544746907101,0.00366696
3.547872006922,9.71001e-05
3.551097885722,0.000676919
3.551303720205,0.000136067
3.551660832746,0.00705954
3.552424915568,0.00527582
3.557964387644,0.000378318
3.559524868724,0.000212024
3.561608970311,0.00911753
3.561957809679,0.000286644
3.562698127463,0.0137009
3.56515436867,0.000171271
3.566298676995,9.85657e-05
3.569691698636,0.000157109
3.570508357171,0.00617566
3.573979480136,0.000291247
3.579696685725,0.000178965
3.579908736146,0.000111129
3.579977437982,0.00170169
3.58009416077,6.27614e-05
3.580667497151,4.99608e-05
3.581286726974,9.5953e-05
3.583297790478,0.00785355
3.58420413831,9.64709e-05
3.584462359355,0.000100501
3.587891111851,0.000101133
3.588687678719,0.000117382
3.591939598122,0.000227761
3.592299741264,0.00723585
3.594871372149,8.76657e-05
3.594876999849,0.00199722
3.59713597835,0.00295051
3.600984238674,0.00607316
3.606979700184,8.30381e-05
3.608907801381,0.00158617
3.60936660859,6.1456e-05
3.616093425319,0.000174381
3.61879784905,0.00109453
3.622841220184,6.1552e-05
3.624927398084,0.000938709
3.625246773162,9.91575e-05
3.626790893127,0.00135079
3.627676091092,0.00188804
3.630340613533,7.09485e-05
3.631668266114,6.1456e-05
3.63363845636,0.000889008
3.634156066212,0.000109904
3.634915974844,6.96052e-05
3.635028622705,0.000137231
3.637866256853,9.91575e-05
3.640794776726,0.000131396
3.641402251455,8.84112e-05
3.643819651546,6.1456e-05
3.644185896059,8.57246e-05
3.646616371457,0.000500799
3.652020907265,6.1456e-05
3.655781869304,6.96052e-05
3.660780510799,0.000455127
3.664309825795,6.1456e-05
3.675175593117,0.000133494
3.675581239052,0.00108899
3.678044568171,0.000181307
3.678125139619,0.000428093
3.679291797924,0.00057468
3.679828355964,6.1456e-05
3.682050735412,6.1552e-05
3.687013960758,0.000162292
3.687789388394,6.1456e-05
3.693257481763,0.0021208
3.694328265049,0.00011662
3.694945888862,6.1456e-05
3.701100851169,9.40521e-05
3.701529546534,0.00472005
3.702317865742,0.00249155
3.706142341839,0.000165675
3.710444346608,0.000199657
3.713305454708,0.000151001
3.714782652208,0.00024313
3.717885553669,0.00258523
3.722251419421,0.0155363
3.724102852193,7.11512e-05
3.726281683262,0.00129648
3.728346283699,0.0254315
3.729009624778,8.30381e-05
3.732033598555,0.00259095
3.734684039317,7.22918e-05
3.738559403248,0.000375906
3.742713478106,0.00623959
3.743312725824,0.00648643
3.744390343661,0.000250335
3.744465854101,0.000301733
3.745183056199,0.00344222
3.745431674855,0.00140799
3.749583840062,0.000277814
3.750542958763,4.9488e-05
3.751813274325,6.1456e-05
3.752892036701,0.00105289
3.753966712926,0.00011662
3.754797056471,0.00011662
3.755679052998,7.49784e-05
3.75587549344,6.55754e-05
3.762669476202,0.00212729
3.76273141052,0.00577825
3.764582597796,0.00583001
3.767467266616,0.000885201
3.76898131541,0.00266349
3.77211270937,0.00113483
3.774420086732,6.1456e-05
3.775962062134,6.1456e-05
3.776294454403,0.00010856
3.777197963809,4.9488e-05
3.783803584198,0.00100157
3.784786835716,4.96832e-05
3.785919358451,0.00206897
3.786274915547,8.27516e-05
3.787669354955,0.000345621
3.789312464208,0.00195257
3.789971879542,0.000391125
3.7905211392,0.000579676
3.790961456065,0.000554626
3.791199375807,0.00029255
3.794676518786,0.00029922
3.797665155675,0.0011166
3.797697225645,7.06266e-05
3.798781000543,0.00304072
3.802670948451,0.00021379
3.810059927309,0.000527342
3.810591075698,0.000427728
3.810942321305,0.00117174
3.814334334713,0.0338928
3.814995268645,0.00845942
3.815796409319,0.0174891
3.820017267075,0.000197449
3.820542229904,6.76625e-05
3.820848272137,0.000369311
3.821654875502,6.88701e-05
3.822524689833,0.0297388
3.823148333019,6.33285e-05
3.823507975971,8.66024e-05
3.823713161855,0.000139458
3.827812037802,0.000340735
3.831164969421,9.01671e-05
3.831917105738,8.9045e-05
3.835140525786,0.00129701
3.835328795155,0.00265254
3.83659919078,0.00876247
3.836699848923,6.89803e-05
3.840162122291,0.000220506
3.841778517235,7.68874e-05
3.844689243822,0.00403003
3.844787647637,0.00024846
3.847288794233,0.00542654
3.848596995057,0.034313
3.849890484896,0.00712585
3.852116286557,8.0136e-05
3.853844726573,0.0040981
3.855510430013,0.000296089
3.85773124978,8.24608e-05
3.861808070255,5.0619e-05
3.86183695718,0.000145898
3.862263765344,0.0827113
3.866330027778,0.028236
3.867321227602,0.0427947
3.869169314657,0.0896219
3.873585638303,0.000184805
3.875557291675,0.00393001
3.875981077448,6.26209e-05
3.88037401041,0.000395581
3.880704407027,0.000568745
3.881232195861,0.000398994
3.882574019508,6.36108e-05
3.88258521091,0.000380936
3.883294773059,0.00631379
3.883611567999,6.59142e-05
3.883903196884,0.00716913
3.893239946139,0.0213574
3.89410343194,0.00113038
3.895340458764,0.0743902
3.895575368211,4.9488e-05
3.896672979044,8.43814e-05
3.896743935966,6.1456e-05
3.898485383441,6.96052e-05
3.899047763433,4.9488e-05
3.899770719242,0.000100501
3.903972722318,0.000131238
3.904805557809,6.63753e-05
3.905050897725,0.000256667
3.905432533481,0.000620128
3.906932525723,0.000192617
3.907515609383,0.000197872
3.911014270446,0.00225483
3.912649492785,0.00530189
3.913433594195,0.000476112
3.914321656847,0.00637787
3.922551945417,0.0221157
3.923432859256,0.000233706
3.923738847773,0.00337795
3.925652994543,0.000133132
3.930974137699,0.000135701
3.932484876079,0.000255081
3.934033799503,0.0140658
3.936305772849,0.0178586
3.942253798553,0.0373403
3.94427944384,0.000184944
3.945208887059,6.14973e-05
3.945581287818,0.00739497
3.947595607872,5.06788e-05
3.94936665059,0.00038591
3.961453460593,6.22822e-05
3.962741214173,0.015713
3.962782747304,0.00017113
3.964518288065,0.0180451
3.968637769034,0.00308931
3.978044875987,6.25091e-05
3.98302198984,0.000325541
3.984535145032,0.00483876
3.985469589286,0.00193885
3.986037798196,6.27813e-05
3.99346207657,0.0179273
3.993668324424,5.05144e-05
3.993751110752,0.000533711
3.994285939869,9.30116e-05
3.996350120285,0.00550074
3.996641612737,9.28049e-05
3.997816816848,0.00085053
4.00429144096,0.000114689
4.012898920367,6.66974e-05
4.017833576281,0.0426157
4.019312368915,0.000273619
4.019790376953,0.00163069
4.023504456125,0.000233895
4.023792179806,0.0108975
4.024141439956,0.00014453
4.026464819122,0.00401802
4.02864722091,0.000302203
4.029063416216,0.000288148
4.029486238354,0.00566697
4.029990924177,0.00846648
4.032214032071,0.000192237
4.037201498596,0.0298339
4.037221791132,8.79483e-05
4.038273015994,6.1456e-05
4.041106654988,8.70679e-05
4.0431512793,8.84112e-05
4.044121267451,6.58483e-05
4.044650495421,0.00133615
4.052322237642,0.000105874
4.059174685408,0.00118453
4.059678737284,6.1456e-05
4.060958805785,0.000109904
4.061360706163,8.16948e-05
4.061601299794,0.000103187
4.063289068729,0.00030065
4.067557151108,0.000260741
4.068653251266,0.00023293
4.06897594494,0.00238208
4.070756645247,4.9588e-05
4.073015235908,0.000121184
4.073125043837,0.00769361
4.074447430207,0.00660195
4.074672856254,7.49784e-05
4.07655938313,6.1456e-05
4.078613577386,0.00138468
4.078783288545,9.78142e-05
4.084695583461,6.27881e-05
4.085958414649,0.00356889
4.087341245972,0.00010153
4.088324385905,0.000138552
4.089436429915,0.000181273
4.089801659672,0.000154619
4.091159862085,0.00476119
4.0948643388,0.000133215
4.09943793996,6.23798e-05
4.099847993341,9.09553e-05
4.102589440106,0.00145197
4.102804365407,0.0096523
4.106838959368,6.1456e-05
4.111254468945,0.000113934
4.11274849489,4.9488e-05
4.115767685112,0.00163453
4.121235401078,0.00153781
4.122031307416,6.1456e-05
4.12522529928,6.22282e-05
4.128868342794,0.000183356
4.130461164896,9.50047e-05
4.131959937963,0.00538986
4.135016980169,0.00383943
4.13935285068,0.00295904
4.141867275662,8.18653e-05
4.142174718668,7.95477e-05
4.144019046545,0.0211697
4.144468715188,0.000117181
4.145226301264,0.00203508
4.148712525501,7.49784e-05
4.149128563859,0.000289904
4.150659753304,6.8262e-05
4.157069858554,0.000871545
4.158342939799,4.9488e-05
4.162253902811,9.10978e-05
4.166632039774,9.37843e-05
4.167778222571,7.22918e-05
4.172079416213,8.97545e-05
4.178344567922,0.00125577
4.178970518741,6.20943e-05
4.179001458908,0.000125762
4.181426892519,0.000359568
4.182525730044,6.82823e-05
4.182826762291,0.00831551
4.18691865633,9.91575e-05
4.188989565479,4.9488e-05
4.198842230019,8.30381e-05
4.199338605579,6.1456e-05
4.199566077318,9.64709e-05
4.202303352069,0.000598859
4.20510843815,0.00148946
4.219240438166,9.37843e-05
4.224775052033,0.000108726
4.226005330502,0.000186664
4.227398146252,0.000279039
4.227890936771,0.000101317
4.228379891804,0.003904
4.230882524238,8.71185e-05
4.237016564386,6.49821e-05
4.237270349092,0.000769567
4.239815621864,0.00540827
4.24017561946,8.26858e-05
4.242915066966,0.0113808
4.246433346635,0.00831148
4.249043927378,0.000406523
4.249293881446,0.00696638
4.255906593915,0.000180047
4.259597808955,0.000228198
4.262747038609,0.0273309
4.269102888663,0.0353294
4.271663431428,0.00025119
4.271821716306,0.000408589
4.273608454753,0.000566851
4.276355071487,0.000406882
4.280920316468,0.000210544
4.281524708336,0.000428698
4.281663024271,0.00954891
4.281900400244,8.20825e-05
4.286926922294,0.0173543
4.290728532056,8.24319e-05
4.291015763316,0.000179551
4.294715095367,0.00019094
4.295221318838,0.000195205
4.295860629589,0.000329291
4.295962582303,0.000261103
4.298833414522,0.000287356
4.299100736785,0.000775627
4.300102254586,0.000185147
4.302177277033,0.000561843
4.302380256133,0.0243398
4.304246977722,0.000115705
4.305607888942,0.00834056
4.305642436999,0.000101092
4.305792265535,7.4079e-05
4.306259703854,0.0222723
4.306571843267,0.00487472
4.30791914128,9.32282e-05
4.308856530602,0.0382546
4.308948920331,0.000187009
4.310460088618,0.000171629
4.312424939968,0.000327434
4.312527444084,0.000298609
4.313698618418,0.000107115
4.314029209446,0.000873971
4.31742981965,0.000469775
4.322512375996,0.0188927
4.324371088828,7.83592e-05
4.325859254858,0.000287542
4.326690770451,0.00923832
4.327255219368,0.0198823
4.331027289822,6.76119e-05
4.333678266133,0.103204
4.33948628615,0.000295802
4.340532915111,0.000222915
4.341778265485,0.00648486
4.346867485368,0.000422102
4.347412715148,0.0182061
4.348269460167,0.0114445
4.354746972051,0.119799
4.356044583877,0.000265666
4.35709569682,0.000186163
4.359357954794,0.00297401
4.361693969446,0.0274458
4.367654116207,0.000232487
4.369806030042,0.0652182
4.376909499276,0.000158262
4.377748480696,7.09485e-05
4.384440501854,0.000134811
4.385521590482,0.000201467
4.386578308268,0.00291104
4.391408585626,0.0013937
4.393017618869,0.00014264
4.39906930531,0.0174842
4.401737962988,6.3199e-05
4.4030829291,0.00500014
4.40531222854,0.000142803
4.40762189596,0.000233676
4.40978781342,6.93659e-05
4.40990451669,0.017287
4.412432257615,0.000246347
4.416428733035,0.00462082
4.418594016229,8.36926e-05
4.419563612235,0.00488417
4.419933969708,0.0121178
4.420405325226,0.0231526
4.421788624314,0.00010856
4.431201964714,0.000162292
4.432791377825,6.8262e-05
4.435586925392,6.1456e-05
4.435730923665,0.000717102
4.437935384786,0.000109746
4.438307305391,0.000114631
4.439459539202,6.22118e-05
4.44032022691,0.00018388
4.443186599104,0.00210026
4.445439816582,0.000137069
4.446956915525,0.00213979
4.449594716421,0.00020345
4.450954195968,0.00884771
4.451004008741,0.0134914
4.460956988386,0.000966606
4.462100096685,0.00195685
4.466062768068,6.1456e-05
4.467513880069,0.000130053
4.4685312914,8.57246e-05
4.470951617192,6.1456e-05
4.473010150144,0.00176214
4.477436068043,6.1456e-05
4.478584830604,6.1456e-05
4.479346854895,6.55754e-05
4.480160721542,0.000469904
4.488492859692,8.16948e-05
4.491693135372,0.00151901
4.492925035027,6.1456e-05
4.495576332922,0.00226453
4.498989084698,0.000160244
4.499069656146,0.000355556
4.502703506069,0.00011662
4.505809709889,0.00104886
4.506406492966,0.000353038
4.507209332666,6.1456e-05
4.509155691525,0.000100501
4.512031606919,0.000351695
4.516756017204,0.00021489
4.516851578261,0.00460722
4.519555310639,0.00562435
4.521569957859,5.0516e-05
4.522543897521,0.000149555
4.523333859226,0.00453874
4.525408909614,9.82592e-05
4.52720633357,0.00388716
4.532890890846,0.000631098
4.536949884394,0.000116873
4.538850735367,6.70016e-05
4.539340028175,0.00552334
4.539816613691,6.1724e-05
4.539924509349,0.00514998
4.547300450771,0.00853432
4.547499164116,0.000101844
4.548837740473,6.96052e-05
4.549497631054,0.000117963
4.550484887259,6.1456e-05
4.550666931153,6.1456e-05
4.559581686072,9.78142e-05
4.560386744854,0.000105874
4.565036774638,0.000101006
4.565857520569,0.0036157
4.575131036929,6.1456e-05
4.581344630483,0.00011662
4.582696698348,0.00010856
4.586924581127,9.51276e-05
4.58807962261,6.1456e-05
4.592219438313,0.0031454
4.593335674564,0.0001893
4.594536244879,8.70988e-05
4.596838651886,6.27199e-05
4.59716205384,0.000163828
4.600294319922,0.00597279
4.602319879419,0.0133992
4.603245114174,0.000111247
4.603690121545,8.57246e-05
4.603948408731,6.96052e-05
4.607509325141,9.37843e-05
4.61824691418,0.00144132
4.62639081611,0.000321671
4.626617484528,6.51189e-05
4.630272664467,0.000464611
4.630543237587,0.00717792
4.634801080632,0.000461115
4.635943457676,0.0282795
4.637803967978,0.00021609
4.645833002596,0.000325876
4.647548011262,8.60882e-05
4.647596340096,0.00648524
4.652196621606,0.00823736
4.653045672782,0.000709432
4.663628146088,0.0258663
4.665658132592,0.00879915
4.665670196592,0.00309831
4.667313490389,0.0552711
4.667933566771,0.000821694
4.668201973926,0.00246772
4.66907672659,0.0106897
4.669137164079,0.0418635
4.669520040715,0.0589168
4.670316876765,5.30391e-05
4.670563788863,0.000226831
4.676430964933,0.00903555
4.678791782011,0.000464348
4.679687597365,0.0600723
4.67987145837,0.000230708
4.68094693609,0.00135488
4.681661854524,7.47638e-05
4.683645247183,0.000776172
4.68382124049,0.000105887
4.686033859931,0.0310491
4.687064648408,0.00598454
4.690276255131,0.0547494
4.693260260699,0.0135496
4.694489609468,0.000962578
4.695994784304,0.00198057
4.69654425128,0.0570958
4.696610275637,0.000557056
4.696688695212,0.00951788
4.697745658432,0.000181606
4.699521087722,0.000479957
4.700773680281,0.00478092
4.700826921587,0.00020543
4.702449423933,0.0823573
4.703417634389,0.0910545
4.706453624099,0.000192085
4.706821317924,0.013337
4.707875849106,0.00024436
4.70808094806,0.0112819
4.710794583885,6.2078e-05
4.711581908558,0.000324793
4.712546367591,0.00427003
4.716189183163,0.0121956
4.71662984414,6.26348e-05
4.719372765032,0.00010296
4.721016997091,0.000131013
4.723095107562,0.0108665
4.724594355226,0.0210906
4.725852842584,0.00437197
4.730762569141,0.000405426
4.734765924312,0.000235751
4.735176389719,6.26589e-05
4.735426988613,0.001199
4.736442485026,0.00469973
4.737568023474,0.000225426
4.737858424984,9.24411e-05
4.738169085013,0.000119307
4.73900553464,6.1456e-05
4.740004952148,0.000405426
4.743007655444,0.00011662
4.749134260694,7.95763e-05
4.751016200196,0.00336854
4.75197211444,7.36351e-05
4.755152180946,0.00133901
4.758064236594,0.000144483
4.760025404238,0.00416914
4.76555577748,0.000178411
4.765894096792,7.90082e-05
4.766038980617,6.1456e-05
4.767172603979,9.04992e-05
4.767537951424,0.000601377
4.768557248399,0.000679176
4.768666165627,0.000342625
4.775773996677,0.00116841
4.779413822563,8.97545e-05
4.783783276691,0.00444191
4.784832841592,6.1456e-05
4.791997366217,8.97545e-05
4.794909944557,6.1456e-05
4.7953164044,0.00012065
4.797797072443,0.000629905
4.799999146426,0.000146528
4.80107044424,0.000227271
4.801422451149,0.0061571
4.805614644235,0.00148979
4.806964363959,0.000738381
4.807457036831,0.0103993
4.80898225489,0.0111202
4.809078556978,0.000172542
4.813761241675,0.000404278
4.814692111263,0.0156677
4.816879733359,0.00021468
4.818555736931,0.000340948
4.818841759092,0.000148859
4.820157816457,6.1456e-05
4.820688365938,7.49784e-05
4.825001630325,0.00139543
4.828617696247,0.00177692
4.829339667678,0.00018413
4.83244136576,0.000206499
4.83669011236,0.00782958
4.837731391573,7.22918e-05
4.838775644213,6.55754e-05
4.845133662398,0.000551844
4.849762103757,0.00141826
4.850613650796,0.00066468
4.851024703859,4.9488e-05
4.853847973694,0.000100501
4.855102539412,8.03515e-05
4.856051779025,0.000100501
4.859200167415,7.72414e-05
4.859800446229,0.000516391
4.860624865525,0.00128299
4.866437777973,0.00962555
4.86958355999,0.00805598
4.871925850507,0.000474635
4.872191795011,0.0100994
4.872892172379,6.1456e-05
4.877514245105,0.00357154
4.878198905366,0.00271888
4.881574718847,0.00483885
4.886512711892,8.03515e-05
4.893112815234,7.90082e-05
4.911492323495,6.31782e-05
4.911790423704,6.15603e-05
4.912815484754,6.17616e-05
4.914261861347,0.00224552
4.914819298261,0.0062388
4.917665962737,0.000101844
4.917880096541,0.000119307
4.918090759824,6.1456e-05
4.919658901238,0.000375322
4.926113350524,0.00713108
4.932286613806,6.26508e-05
4.934258753355,0.000110285
4.934264049839,0.000102413
4.936095133176,0.0100251
4.938399574947,0.00414491
4.940171514358,0.00176617
4.940766334154,0.000683317
4.94177508256,4.9488e-05
4.94844958575,0.000553187
4.952295430196,7.63217e-05
4.963770011282,0.00332707
4.972809073735,4.9488e-05
4.98531973124,0.00701841
4.987691535661,0.00016498
4.988001699942,0.000370721
4.988354460429,6.23241e-05
4.990360225689,0.000100804
4.995772255442,0.000246389
4.998309274869,0.00010487
5.001960287389,0.000249485
5.01148597482,0.000310173
5.012708696641,0.0153089
5.012783894965,0.000982168
5.016018235062,0.00474597
5.017706181981,0.0112023
5.019719219229,0.000118122
5.023545533003,0.000235909
5.024725734479,0.000130712
5.027091657883,0.000208654
5.029748739137,0.0178145
5.029825214113,0.000151582
5.030700949124,6.83143e-05
5.031582228727,0.0473049
5.03252194396,0.000513162
5.035211325099,8.59091e-05
5.037634452597,0.00353464
5.03994940429,6.60735e-05
5.041658728674,0.000258376
5.041991576405,0.0137888
5.044112276677,0.0192598
5.048289168341,0.000325277
5.051670075964,0.00589704
5.055671803235,8.52967e-05
5.058957617732,0.00879948
5.060262974529,0.000191596
5.060305125448,0.0145763
5.061635084605,0.0056986
5.06307326291,0.0303216
5.066572903909,0.0249751
5.070309623242,6.1456e-05
5.070717179878,0.00010856
5.0743284331,0.000109904
5.076368040038,0.000895724
5.079728702047,0.000103187
5.081871758018,0.000508859
5.083495579268,0.000100739
5.083513153237,0.000792292
5.083678405846,0.000103187
5.085565636854,8.43814e-05
5.089544439608,0.000983038
5.096969627127,6.1456e-05
5.105322578523,0.000184372
5.105471851792,0.000915874
5.106531508507,0.000923933
5.109393316448,0.000283187
5.112430051535,0.000361098
5.124201610483,6.69187e-05
5.1335913748,6.1456e-05
5.140847525887,0.0029302
5.14240561549,6.55754e-05
5.149508049055,0.00364142
5.150548411613,0.00511768
5.154576024642,0.000132924
5.155331175087,0.00164817
5.156770924082,0.000104885
5.158565769515,0.00115649
5.16100369957,0.00573301
5.16126540701,0.0134033
5.16293359572,0.000135576
5.168754015635,0.0345553
5.169350076567,0.000109438
5.169699330165,0.0015369
5.170155893802,0.000130053
5.177253447809,0.00108684
5.17839943706,0.00280587
5.1788597441,0.000324829
5.179459714297,8.03515e-05
5.183428079708,0.0014814
5.184610269941,0.000109904
5.184867008989,6.26119e-05
5.184868463556,0.000113934
5.185149205131,6.1456e-05
5.185567988061,9.91575e-05
5.191546189006,6.1456e-05
5.194914798133,0.000127366
5.197571478244,0.0001004
5.205718157142,0.00924019
5.207483346561,0.000164424
5.207739012905,0.015986
5.209078046611,0.00754058
5.211357337004,0.000404291
5.212239848403,0.0146486
5.21317860259,0.000784232
5.216196890266,0.000864829
5.217803798836,0.00029259
5.221585608206,0.00011259
5.222051004055,6.69187e-05
5.223036025002,6.1456e-05
5.225751776226,6.1456e-05
5.226033984081,6.96052e-05
5.226119715175,9.99574e-05
5.232033492717,0.000105874
5.232245575604,0.000131396
5.236907416812,6.69187e-05
5.242485226927,8.30381e-05
5.243755368319,6.1456e-05
5.244357630057,0.000111247
5.248742245086,0.00120737
5.252637347984,0.00256811
5.255696161176,0.00662348
5.255732002128,0.00397324
5.256060103047,8.16948e-05
5.256592367665,0.000146172
5.260478821405,7.70322e-05
5.261427322507,0.00305707
5.263249055862,9.91575e-05
5.264793011119,0.000952142
5.274059791756,0.0046905
5.274622439422,0.00282017
5.277053905262,0.000636471
5.277197795568,0.000101844
5.282446936757,0.00019856
5.286070138241,0.00252916
5.286949853857,6.69187e-05
5.288560376672,9.24411e-05
5.28872192494,0.000169008
5.293171676938,6.37161e-05
5.293797685794,0.00013151
5.294116531983,0.000239074
5.300615709559,0.000269094
5.301697737197,0.0131002
5.313266094163,0.0190593
5.313444126621,0.0205986
5.315000104258,0.0175046
5.315579470163,0.000382932
5.315601503831,0.0200291
5.317129242255,0.00289793
5.317201655117,0.00827038
5.318149700914,0.0224137
5.320790316104,6.35696e-05
5.323070765163,0.00477478
5.324912549458,0.00706618
5.328634694019,0.000111247
5.33909776931,9.95108e-05
5.339858290332,0.00616677
5.340795713955,0.00535413
5.348400957031,0.000200666
5.348634188304,0.00213474
5.349394375297,7.02396e-05
5.350548376489,0.0014008
5.351864758904,0.00465338
5.353337806164,8.30381e-05
5.354744084545,0.00010856
5.356664878421,6.1456e-05
5.365469316502,6.1456e-05
5.369670817547,0.000756023
5.373583555453,0.00449939
5.383032767986,6.24121e-05
5.385079406005,0.00358283
5.387067439313,0.00287006
5.391396922872,0.00288916
5.393442421537,0.000429605
5.393640575716,8.70679e-05
5.399761704529,0.000657397
5.400406362813,0.000122071
5.403472741265,0.000299185
5.403691722017,9.1172e-05
5.406597049825,0.00021258
5.407349339683,0.00809254
5.413770097189,0.0187361
5.414348806888,0.0132022
5.416207943113,0.0175895
5.418969232984,0.00422645
5.421961854398,0.000171363
5.423368265668,0.000831657
5.424884883833,0.00396568
5.432345031241,0.000326222
5.434941540504,0.000112389
5.435919454703,8.59992e-05
5.436316782674,7.02393e-05
5.439347484795,0.000286579
5.440413112889,0.000245559
5.442349325542,0.00848887
5.442448728516,0.0115555
5.445643944203,8.08173e-05
5.455554609666,0.0128227
5.458728412106,0.000349252
5.458979182704,0.000295251
5.460122915644,0.00188789
5.463612227259,0.000142314
5.48037464425,0.00011589
5.481634975451,0.000181586
5.485366273091,0.0162945
5.485628726579,9.55972e-05
5.485764620782,0.000365092
5.488705583972,0.000448892
5.489015570344,0.0359764
5.491060808997,0.0722717
5.492997845529,7.70701e-05
5.493610074363,0.000368079
5.493708283787,0.000707238
5.496005033691,8.30632e-05
5.497110078828,0.000423793
5.500359338154,0.000859
5.503623309559,0.00034214
5.503777682319,0.00842051
5.506751598615,0.000205074
5.510017255878,0.00016522
5.510297653303,0.0330012
5.510484089579,7.38092e-05
5.510931683053,0.0858732
5.51321490173,0.00181284
5.514333019971,0.0366562
5.514753388413,5.10425e-05
5.516756283232,0.000863757
5.51760648257,0.00284596
5.523436351343,0.00773379
5.524582957837,9.68074e-05
5.526180739696,0.0151637
5.529507519694,0.000138461
5.533670522566,0.0670061
5.535007707354,0.00120065
5.536351976915,0.000123197
5.537492392224,8.44275e-05
5.543487083254,0.000246943
5.547353097813,0.0130957
5.548488171979,6.37356e-05
5.555223367407,0.0153369
5.557805326761,7.36351e-05
5.562935685873,6.42321e-05
5.570171429299,0.00260035
5.57908016269,0.00424319
5.580751505139,7.09485e-05
5.584879894464,0.00020259
5.588808693462,6.1456e-05
5.592137016291,7.76649e-05
5.593099693521,6.1456e-05
5.593262880374,4.9488e-05
5.595588057031,6.1456e-05
5.601504718441,6.96052e-05
5.604320008179,8.16948e-05
5.607433280501,6.1456e-05
5.608684363924,9.78142e-05
5.614968579324,6.69187e-05
5.618004051028,0.000992441
5.622457601696,0.00442722
5.626159442856,6.1456e-05
5.634400613773,0.0032897
5.635670016228,0.00546138
5.636872906511,0.000946769
5.641776323894,7.22918e-05
5.64331242727,0.00010856
5.653233588593,6.1456e-05
5.662420605007,0.00309709
5.665187768063,0.00017959
5.670813379789,0.000179355
5.673926966552,0.000124818
5.676996368247,8.82382e-05
5.677205894863,0.015865
5.679006130976,7.36351e-05
5.681900383318,7.36351e-05
5.683436705171,0.000175781
5.687129136886,0.000305811
5.68732480086,5.1579e-05
5.687777046436,0.000137063
5.690919747524,5.18695e-05
5.691627771294,0.000431032
5.691638962696,0.000301614
5.691762286346,0.005372
5.696330860859,0.000230138
5.696580547716,0.000152267
5.697022389564,0.000122016
5.699672467648,0.0167821
5.703050968687,0.0119949
5.703891739971,0.0028104
5.70569828684,0.000160829
5.707650077077,8.27484e-05
5.712608134647,0.0294438
5.712782606013,6.1456e-05
5.71351483659,6.1456e-05
5.71376285352,6.28888e-05
5.720410143243,0.00140723
5.722269390218,0.00354737
5.725862725823,0.00133901
5.733819149807,0.000868859
5.738237329337,0.000213337
5.747561088744,7.09485e-05
5.747837808533,7.09485e-05
5.748080913177,8.30381e-05
5.74910898947,0.00039468
5.753377126602,0.0023569
5.753598742761,0.000775223
5.754664631295,0.000112387
5.754949238558,0.000258306
5.755889399854,6.28266e-05
5.75612600646,0.00225084
5.760257278536,7.49784e-05
5.765336029871,0.000239825
5.765460067346,0.000221354
5.766256745739,0.00563886
5.774115550161,0.00377449
5.774362733418,0.00264382
5.776247359507,9.27034e-05
5.777964049802,0.000545272
5.78482126658,0.00747507
5.786886163605,0.0237826
5.78790774961,0.000149354
5.797442483645,0.0104424
5.799718236578,6.69187e-05
5.801606114429,8.97545e-05
5.802164130675,6.1456e-05
5.802774295029,6.1456e-05
5.806109753686,0.000111247
5.809694221238,7.09485e-05
5.812272202252,0.000169008
5.814509509282,6.1456e-05
5.815797481916,4.9488e-05
5.816618213306,7.63217e-05
5.818672775466,0.000174381
5.820084339627,6.30042e-05
5.820177195008,0.0013605
5.822360513086,0.000101707
5.822564692121,0.000397198
5.823653975775,0.00074662
5.827446210017,4.98576e-05
5.833344536135,0.0022712
5.838858501258,0.000314971
5.840284814036,6.1456e-05
5.841612166321,0.0105923
5.842460627876,0.000110054
5.843093587995,0.000585778
5.843815366586,8.66139e-05
5.849754898162,6.49108e-05
5.851656458166,9.44507e-05
5.85238057105,0.000158944
5.853748702531,0.0164346
5.854373388393,0.028258
5.860753973436,0.00224271
5.862455530834,6.24794e-05
5.862657100004,0.00446841
5.871186695937,0.000199084
5.876765572227,0.000154858
5.877912522824,0.000171137
5.880658381947,0.0117116
5.88137916756,0.000191438
5.881743473912,0.000390566
5.882597525576,0.001046
5.882935864179,0.00455718
5.886621976031,0.0245871
5.894995478005,0.00102022
5.896740402643,0.00280302
5.897137064311,0.000111247
5.904472402737,8.70679e-05
5.905760716735,0.000211993
5.910231758028,0.00446586
5.910769071275,9.59707e-05
5.911752328894,0.00204685
5.913369948272,6.1456e-05
5.913413372272,6.16074e-05
5.914170945903,0.000131396
5.91900558651,6.1456e-05
5.922611099649,8.70679e-05
5.926878720919,7.36351e-05
5.927491398299,0.000259008
5.929443791148,0.000185128
5.937755745923,9.3104e-05
5.938679924683,0.000136598
5.942312161953,7.926e-05
5.945740220188,0.00847167
5.947087941884,9.24411e-05
5.955768890485,0.00861359
5.957007072993,7.27399e-05
5.957642478015,0.00157414
5.9581228159,0.00415052
5.96134400859,0.00013594
5.965035324741,0.00966927
5.975009642864,0.000441695
5.97736225664,0.000864829
5.98525151162,7.22918e-05
5.988957945907,9.37843e-05
5.992983163062,6.1456e-05
5.994998728894,6.1456e-05
5.996383399422,7.76649e-05
5.996738090018,0.000104531
5.998784033566,0.000114853
5.998949426228,0.000722441
6.000560665393,6.1456e-05
6.002706848974,6.8262e-05
6.004685154555,0.000178411
6.005801539783,0.000187121
6.00694042406,0.000122995
6.008056412519,0.00175178
6.008409854891,0.000421612
6.010971668035,0.00018919
6.013545160181,0.00272753
6.013951213984,0.0087954
6.015203866298,0.000115277
6.015945367811,0.000139456
6.02327815897,0.000155575
6.024235680731,0.000974254
6.026618122131,9.24411e-05
6.030528492827,0.00197871
6.033312808015,9.40013e-05
6.035609971504,0.000164114
6.036100793,7.6809e-05
6.036939536532,0.00351671
6.038871674679,5.31093e-05
6.041421604689,0.000277773
6.042072985869,0.000175161
6.04424820691,0.017545
6.045437477202,0.0145288
6.046171164556,0.00301763
6.046642218084,0.0155294
6.049244062415,0.000271425
6.05055575937,0.00196044
6.051189378672,6.23644e-05
6.054072653449,0.00012741
6.056854615183,0.00511095
6.05699136908,0.00035971
6.058984919304,0.000184659
6.059723893978,0.0239003
6.061630786284,6.64727e-05
6.070502827042,0.000220695
6.071065429952,0.000466739
6.071388966887,0.000796451
6.071693896059,0.000303204
6.077553409269,0.000185894
6.079669159807,0.0392691
6.083785766127,0.0135431
6.084313819649,0.0293113
6.090401124464,6.1456e-05
6.090750347657,0.000159605
6.09557046263,8.16948e-05
6.096611530835,0.000131396
6.104049628698,0.000467217
6.106696482286,9.24411e-05
6.109075939017,0.000753336
6.113869419416,0.00119393
6.114008875377,0.000719874
6.118211348206,0.000165995
6.118412815122,0.000880779
6.119928348701,0.000852739
6.122853923617,6.1456e-05
6.124115222276,0.000169008
6.130121810568,6.1456e-05
6.136105200748,8.57246e-05
6.138322575688,0.000113934
6.139641184738,0.000322142
6.142635074743,0.000670053
6.153742079218,0.00057178
6.154859302311,0.00272521
6.156489424099,0.000312695
6.15655018397,0.000671218
6.156787926025,0.00293874
6.157406536379,0.0101816
6.159094829914,0.00101013
6.161116490673,0.00281418
6.164234250555,8.51132e-05
6.164952629504,6.24074e-05
6.16585142838,6.85904e-05
6.167234894922,6.18815e-05
6.169674360961,0.000257079
6.169784931601,0.000117665
6.169984985195,0.00315081
6.170236092009,4.9488e-05
6.17201718673,0.000122622
6.172167386352,0.000119508
6.172921156286,0.000285461
6.173536252373,6.59684e-05
6.17859698973,6.3367e-05
6.179457944901,0.00543196
6.179915776436,0.00391855
6.180178088061,0.000297143
6.180869618971,0.026978
6.184970196643,0.000251934
6.189146320773,0.000245169
6.192595729345,0.00551293
6.192716548197,0.00216532
6.193116734457,0.00590967
6.193536879951,0.0225909
6.195814694842,0.0020372
6.196345014547,6.1456e-05
6.198047146042,6.17034e-05
6.201808563972,0.000122792
6.202601289166,0.00769247
6.203332913053,0.000181843
6.203596196536,0.0022199
6.207150723706,0.000106615
6.211130703328,0.00704228
6.211420826924,0.00276761
6.213578168514,0.000407857
6.217644142909,0.0055875
6.217702047378,0.000136123
6.223460317845,0.00383924
6.224899766456,0.00119425
6.225546624899,0.00632631
6.229835203027,0.00400307
6.230281526307,9.38283e-05
6.232262980739,0.000172809
6.234294025387,0.0135201
6.234495100944,6.6633e-05
6.236206386569,7.223e-05
6.236529720015,0.000306243
6.238807699812,5.24534e-05
6.239463316965,8.40895e-05
6.239948411138,0.00982209
6.244371990048,0.00014708
6.245516324299,7.95051e-05
6.248331989786,0.000144702
6.249791193477,0.000300668
6.254832921544,0.000545183
6.257475611908,0.00545115
6.259897027654,0.000230702
6.260470911576,0.000296239
6.261293888972,0.000230389
6.265279564686,0.000306268
6.266839418683,0.0178314
6.268716682941,0.000432577
6.270588971897,0.000181072
6.272485461678,6.76445e-05
6.274281568529,0.0484746
6.274427366019,0.00141461
6.280227224056,0.00711161
6.284492664671,6.39951e-05
6.284750110153,5.47964e-05
6.288379989027,0.000447328
6.288951282369,6.45486e-05
6.289477094221,0.000221364
6.292069631378,0.0107338
6.292319546094,0.0391438
6.293046262463,0.0585495
6.296560514279,0.0533366
6.297101070507,6.14798e-05
6.298984355737,0.0260966
6.2991001045,0.00292044
6.300792641506,0.00311709
6.308718656123,0.0102498
6.311435443937,0.000245922
6.313434898389,0.00471025
6.313719728329,0.000143891
6.314152855079,8.99242e-05
6.314813103527,0.00953956
6.321377559379,0.00017541
6.322225483287,0.0932644
6.323550915321,0.00458116
6.324802829546,0.00548563
6.330436279306,6.1456e-05
6.330567122954,7.76649e-05
6.331907964609,6.1456e-05
6.343876311923,0.00712416
6.34415825814,0.0103978
6.345285027507,0.00255935
6.345584363324,0.000190269
6.347177497033,0.000170715
6.348198204319,0.000178812
6.355072237618,0.000374135
6.355133770273,0.000458192
6.355733963418,0.000271493
6.355802094757,0.000242229
6.361041677822,0.00499052
6.362412077683,0.000761501
6.363667700981,0.000327231
6.366433735436,0.0176322
6.367904534692,0.017539
6.368479058596,0.000110979
6.37334404266,0.0255513
6.375307896876,0.0329072
6.380713696108,0.000265725
6.385126987227,0.00130005
6.391091903247,0.000232257
6.395137417311,0.000181707
6.395215276647,0.00363045
6.395580942774,0.00441125
6.398453667677,0.000440067
6.400578463932,6.25486e-05
6.402447241124,9.42718e-05
6.402598700926,0.000109363
6.404301907718,0.000259303
6.407172393017,0.00023876
6.410093234845,0.00518512
6.411558645847,0.000147972
6.416876959786,0.00745558
6.422481527176,0.00091165
6.424249320252,0.000121507
6.425504233588,0.000241297
6.427545941404,0.0186027
6.431385088104,6.58994e-05
6.438225203284,0.000696658
6.438579690674,8.14326e-05
6.438893277044,0.000308477
6.444420174841,5.37978e-05
6.447272553279,0.000360851
6.447940927448,0.0188435
6.448659599174,0.000439306
6.452249545369,7.94246e-05
6.453150914165,0.000508296
6.455893178696,0.000308152
6.458277353449,0.000137048
6.458742416108,0.000417359
6.458959273176,0.0304747
6.463282010918,0.045772
6.467275402222,0.000718926
6.467458555645,0.00683374
6.468789441104,0.0796503
6.469227781628,0.000183423
6.473384931951,0.000276409
6.47474069646,0.00145083
6.477331037104,0.000650357
6.477812190043,0.000553645
6.478288941543,0.0494346
6.482514792859,0.000105373
6.484705942903,0.00422755
6.485771667279,0.000487542
6.489194689717,0.059439
6.489663446236,0.042977
6.489704752741,0.000557359
6.495813352058,0.035427
6.498435124655,5.09166e-05
6.499411494782,0.0122343
6.501074625956,0.0720698
6.502434238056,0.073182
6.50919717692,0.0145826
6.50964128842,0.000374267
6.512155036125,0.000535926
6.514928413869,0.025515
6.518775195447,0.0231409
6.521536914932,0.000361215
6.523480058704,0.0155339
6.523921859484,0.0634549
6.525508247918,7.82289e-05
6.527778110326,0.0278345
6.529952813465,0.000153197
6.530191965208,0.0477899
6.530361336652,7.34582e-05
6.532134250805,0.000528038
6.533442465636,0.000172888
6.533877323614,0.000321107
6.5381140845,0.000783771
6.539039737264,0.00177325
6.544086408925,0.000134387
6.544927571621,0.143862
6.550082199699,0.000445671
6.550733423538,0.00692237
6.553866118162,0.00378
6.555325449902,0.0453268
6.555504025894,0.000363704
6.555841110784,0.0299174
6.558011354236,0.0119741
6.559740322493,0.000165131
6.564550441183,0.000753259
6.565636100741,0.0283161
6.566740977089,0.0317157
6.569057764747,0.000193067
6.569851180724,0.0210378
6.571633303548,0.0315825
6.575756769569,0.0446307
6.576585380828,6.85262e-05
6.576862122749,0.00016578
6.583740880669,0.000158005
6.58779087893,0.016647
6.591282775858,6.1456e-05
6.592134105847,6.1456e-05
6.594551162198,7.14602e-05
6.599679816729,7.97034e-05
6.603269068923,0.0089969
6.607757562732,6.55754e-05
6.608313948185,0.000216023
6.60939194942,0.000465649
6.609969755697,0.000232219
6.610453064033,0.00208529
6.611958464064,0.00352784
6.614171812454,0.000114965
6.616346945205,0.00655901
6.618205828073,0.000193246
6.618576303278,0.00529492
6.618803696873,0.000679054
6.623259336675,0.000109904
6.624745972405,6.1456e-05
6.625743364827,6.69187e-05
6.626305048716,0.000117963
6.630610224942,0.000534381
6.634743270578,6.39108e-05
6.639318012418,0.00502298
6.640213581085,5.02025e-05
6.640421324589,0.000139369
6.642195853187,0.00370874
6.645179284774,9.2512e-05
6.648087323673,9.59925e-05
6.648668796414,8.8055e-05
6.649677407599,7.12121e-05
6.651708410295,6.1456e-05
6.652089967728,5.13114e-05
6.657279036227,0.000304297
6.658308322489,6.69528e-05
6.662085488129,6.15605e-05
6.663044604221,0.00014314
6.663627568205,0.0117202
6.663748409973,0.000122707
6.664825114616,0.000163276
6.666364523774,0.00144464
6.666379408543,0.0297121
6.669253944993,0.00103031
6.669588448055,0.000100646
6.670782658686,9.90145e-05
6.670986780195,9.5904e-05
6.671870829262,0.0173373
6.675824643667,8.16948e-05
6.676347639591,0.000213337
6.676624937074,0.00011259
6.676884643371,8.97545e-05
6.677983742386,7.22918e-05
6.681460452502,0.000966918
6.685244483196,0.000111247
6.687832209597,0.000113934
6.689933719753,0.000140799
6.693420987874,0.000465874
6.695949153233,4.9488e-05
6.700427671106,8.57246e-05
6.704625436259,9.48155e-05
6.704669119125,0.000100647
6.706342461241,7.49784e-05
6.708732621901,6.1456e-05
6.709032743509,6.1456e-05
6.711246153971,8.53558e-05
6.714889001399,0.00198872
6.716758820025,0.00456114
6.719849688676,0.00957971
6.722044398559,9.49498e-05
6.729892687819,0.000234819
6.730437115483,0.00933537
6.733210317913,0.00913917
6.735507364455,0.000313864
6.736211212943,0.000148052
6.737679158255,0.000230725
6.739525771189,0.000147173
6.740588397863,0.0198718
6.747678992507,0.000466165
6.749080052313,0.0199708
6.750220095948,0.019541
6.750992562974,0.00791274
6.751989957546,7.95896e-05
6.75575372573,0.00020772
6.756843214374,0.00246989
6.760061609394,0.000616421
6.761138696015,7.94032e-05
6.761932576286,0.010446
6.764707009959,9.24411e-05
6.776403193814,9.55265e-05
6.777641726361,0.000176132
6.778650514206,0.000280501
6.784779035679,0.00336143
6.785542163905,0.0112099
6.786266260257,0.00160151
6.787426111633,0.000235695
6.791547312587,0.0028475
6.791670006784,0.00017823
6.804688987304,0.024484
6.813008254133,0.0226924
6.815462575474,0.0299723
