time,RcpSim20.rcp[2].rcpHost.divide-by(session-3-Rate:vector)
0.000024070396,5
0.000049425591,10
0.000084787187,7.73969
0.000107587187,0.0307307
0.000133987187,0.02377
0.000168787187,0.0297219
0.000227834305,0.0408752
0.000275975095,0.0679256
0.000309501295,0.112675
0.00034818628,0.175933
0.000372256675,0.264482
0.00039632707,0.390938
0.000420397465,0.586614
0.00044446786,0.848665
0.000466209044,1.22857
0.000491564239,1.69488
0.000511099159,2.3777
0.000537395226,3.16437
0.000562620994,3.9702
0.000591795226,4.75834
0.000615599524,5.28449
0.000641395226,5.5606
0.000667795226,5.25033
0.000695395226,4.33478
0.000724195226,3.64954
0.000752995226,3.80287
0.000785862892,4.3209
0.000816661382,4.90228
0.000844103993,5.18288
0.000871148533,5.29288
0.000896958943,5.34754
0.000922348533,5.21192
0.000948748533,4.69416
0.000977548533,3.90075
0.001009948533,3.81316
0.001039752121,4.28385
0.001070637988,4.68778
0.001097345116,5.06858
0.001125183739,5.08362
0.001149288811,4.94043
0.001175288811,4.90491
0.001201564107,5.14246
0.001228888811,5.16874
0.001257688811,4.61195
0.001287688811,3.99228
0.001318888811,4.08791
0.001349447472,4.43754
0.001381043947,4.95461
0.001405381756,5.22165
0.001432001616,5.22487
0.001457581821,5.26017
0.001483181821,5.15686
0.001510381821,5.25913
0.001539181821,5.01402
0.001566781821,3.95039
0.001599181821,3.59187
0.001633084194,4.01029
0.001665389063,4.4931
0.001696374706,5.0016
0.001720411537,5.2576
0.001747572042,5.3279
0.001774372042,5.36291
0.001798820285,5.37364
0.001826645831,5.2104
0.001854245831,4.22568
0.001885445831,3.47639
0.001920245831,3.6993
0.001957072443,4.25511
0.001988355375,4.89199
0.00201373659,5.16567
0.002041472443,5.23095
0.002065872443,5.29535
0.002091513605,5.27106
0.002118672443,5.27869
0.002146272443,4.84812
0.002176272443,3.81259
0.002208672443,3.58057
0.002242262712,4.06903
0.002277537931,4.63043
0.002304019093,5.00429
0.002330019093,5.07202
0.002355619093,5.15418
0.002381607804,5.33365
0.002410419093,5.37582
0.002435619093,5.21347
0.002464419093,4.21703
0.002496819093,3.48468
0.002530419093,3.69536
0.002564762052,4.34296
0.002598221479,4.97538
0.002623845976,5.27251
0.002649608057,5.30002
0.002675139735,5.19824
0.002702096792,5.14292
0.002728045976,5.11459
0.002755645976,4.47622
0.002786845976,3.7127
0.002820445976,3.82421
0.002855583122,4.31939
0.002883598507,4.79618
0.002911198507,5.14571
0.002936398507,5.14325
0.002961998507,5.06253
0.00298950096,5.16657
0.003016398507,5.24984
0.00304167591,5.2581
0.00307167591,4.33848
0.00310287591,3.69481
0.00313407591,3.73664
0.003169050922,4.30473
0.003200250922,4.90042
0.003228250922,5.2123
0.00325402125,5.21169
0.003279541473,5.08168
0.003304650922,5.19326
0.003333067244,5.29525
0.003359467244,4.75886
0.003389467244,3.80045
0.003420667244,3.59529
0.003455004617,4.06678
0.003487220697,4.67552
0.003516551725,5.10048
0.003542151725,5.26612
0.003567788859,5.35738
0.003593751725,5.35477
0.003618010448,5.29725
0.003645751725,5.12014
0.003674551725,4.19219
0.003706951725,3.51278
0.003740551725,3.6959
0.003775354215,4.33763
0.003806554215,4.93336
0.003833954215,5.22242
0.003857897365,5.37796
0.003885754215,5.38781
0.003910117597,5.38998
0.003937754215,5.41245
0.003965354215,4.65867
0.003995354215,3.61813
0.004030154215,3.51289
0.004065052502,4.01799
0.00410091066,4.68251
0.0041273659,5.15681
0.004155384343,5.31534
0.004178719585,5.23224
0.004205657839,5.11261
0.004231384343,5.24851
0.004259473787,5.07166
0.004289473787,4.29452
0.004318273787,3.63611
0.004351873787,3.86857
0.004385358691,4.44799
0.004415958691,5.00282
0.004441934468,5.2668
0.004468334468,5.23387
0.004493626765,5.27557
0.004520989634,5.233
0.004546758691,5.23622
0.004574471165,4.68568
0.004604471165,3.70145
0.004636871165,3.51076
0.004673051046,4.02372
0.004705908996,4.68396
0.004732008004,5.0055
0.004760308996,5.1402
0.004786308996,5.25584
0.004811397253,5.21327
0.004837508996,5.38028
0.004863108996,5.20435
0.004891908996,4.26991
0.004924308996,3.47523
0.004957908996,3.71396
0.004991792304,4.21055
0.005023792304,4.69856
0.005052067827,5.07885
0.005076591026,5.2553
0.005102618436,5.34081
0.005128421825,5.27547
0.005155192304,5.32683
0.005182792304,4.76083
0.005212792304,3.74387
0.005245192304,3.52808
0.005279792962,4.01571
0.005312567831,4.68882
0.005340965277,5.10034
0.005366398797,5.31755
0.005392967831,5.23005
0.005419767831,5.23253
0.005444567831,5.32654
0.005473852823,5.28227
0.005502652823,4.29172
0.005533852823,3.60528
0.005567452823,3.69169
0.005603311423,4.28465
0.005634467294,4.75741
0.005662195949,5.14269
0.005687482021,5.26481
0.005713482021,5.33161
0.005738346719,5.40503
0.005765412549,5.344
0.005793012549,4.77323
0.005823012549,3.62197
0.005855412549,3.39233
0.005890362747,3.93266
0.005927329931,4.47716
0.005955602014,4.92104
0.005980982097,5.17047
0.006007767197,5.25245
0.006033802014,5.41983
0.006061002014,5.47107
0.006086554803,5.06975
0.006116554803,4.0007
0.006147754803,3.4119
0.006183754803,3.74976
0.006220571605,4.32955
0.006251470096,4.80802
0.006277546738,5.16015
0.006303946738,5.27415
0.006330346738,5.31274
0.006354746738,5.4116
0.006381546738,5.41973
0.006410346738,4.5339
0.006440346738,3.58347
0.006475146738,3.57937
0.006511287954,4.05338
0.006543326683,4.74561
0.006572528774,5.21147
0.006599330839,5.23409
0.006624728774,5.10715
0.006650728774,5.18692
0.006675728299,5.31145
0.006706481635,5.08339
0.006732881635,4.0361
0.006766481635,3.557
0.006800102297,3.88251
0.00683560196,4.43044
0.00686580196,4.97672
0.00689040196,5.20482
0.006916250374,5.25996
0.00694240196,5.24734
0.00696960196,5.28115
0.006995594148,5.19769
0.007023194148,4.49056
0.007054394148,3.65108
0.007087994148,3.65684
0.007124814269,4.16343
0.00715643161,4.79688
0.007184861601,5.18265
0.007210461601,5.29501
0.007235661601,5.33243
0.007260308846,5.39278
0.007287211488,5.4321
0.007313661601,5.06049
0.007343661601,3.85645
0.007377261601,3.35571
0.007410861601,3.77499
0.007448292199,4.42424
0.007479072052,5.03479
0.007506159407,5.33936
0.007532159407,5.44571
0.007557759407,5.39578
0.007581759407,5.28877
0.007609359407,5.10981
0.007638159407,4.43125
0.007670559407,3.6239
0.007704159407,3.69664
0.007738458054,4.23598
0.007772557427,4.81986
0.007798323123,5.11766
0.007825154412,5.18558
0.007849723123,5.14854
0.007876923123,5.2779
0.007902123123,5.40123
0.007929723123,4.86042
0.007959723123,3.78618
0.007992123123,3.48916
0.008025336301,3.93854
0.008061598129,4.57075
0.008091223423,5.10255
0.008114851906,5.30527
0.008140631468,5.34822
0.008166064782,5.23341
0.008192906032,5.2574
0.008220858303,5.16483
0.008249658303,4.37439
0.008279658303,3.64321
0.008313258303,3.7815
0.008348786742,4.26154
0.008379773707,4.69461
0.008405116672,5.11205
0.008432921788,5.2587
0.008458798395,5.32169
0.008483794409,5.21301
0.008509502048,5.21591
0.00853838239,4.88872
0.00856598239,3.98842
0.00860078239,3.68228
0.008633583441,4.06375
0.008668207136,4.69892
0.008694384419,5.14254
0.00872216843,5.2992
0.00874616843,5.11971
0.008772859564,5.12748
0.008798859564,5.27985
0.008825259564,5.19819
0.008852859564,4.4818
0.008885259564,3.71713
0.008916459564,3.79152
0.008950794417,4.25033
0.008981760673,4.85109
0.009009589541,5.09583
0.009034326271,5.19776
0.00906035992,5.26544
0.00908675992,5.30238
0.00911355992,5.29675
0.00914035992,4.89025
0.00917035992,3.8801
0.00920275992,3.59847
0.009235369988,4.00367
0.009270702222,4.62895
0.00929986501,5.11237
0.009325596448,5.30477
0.009351449481,5.17682
0.009376649481,5.08846
0.009401823735,5.19648
0.009430249481,5.13016
0.009459049481,4.53138
0.009489049481,3.87607
0.009522649481,3.96603
0.009555594487,4.40743
0.0095853406,4.92788
0.0096127406,5.13241
0.0096393406,5.12629
0.009664964308,5.0363
0.009690384207,5.11226
0.009716645799,5.30053
0.009743947682,5.03045
0.009772747682,4.08733
0.009803947682,3.7245
0.009837921637,4.07822
0.009869591031,4.68242
0.009898591031,5.13043
0.009924391031,5.14696
0.009951991031,5.14845
0.009977591031,5.1924
0.010002803851,5.24039
0.010028581327,5.14125
0.010057381327,4.42553
0.010087381327,3.78919
0.010120981327,3.87788
0.010152272325,4.37729
0.01018323922,4.78862
0.010210278275,4.99952
0.010235796092,4.96478
0.010262196092,5.01681
0.010287703485,5.15265
0.010314996092,5.36533
0.010341472843,5.10648
0.010370272843,4.11807
0.010401472843,3.56579
0.010435072843,3.84796
0.010469910072,4.45843
0.010500100838,4.99532
0.01052683307,5.27159
0.010550642746,5.39614
0.010578242746,5.38058
0.01060243307,5.39439
0.01063003307,5.33796
0.01065763307,4.5634
0.01068883307,3.55673
0.01072243307,3.47247
0.010759307718,4.01827
0.010792457055,4.70444
0.010818898717,5.16789
0.010846655755,5.33674
0.010872430144,5.37197
0.010896930413,5.36416
0.010924737025,5.3672
0.010951137025,5.02796
0.010981137025,3.85483
0.011013537025,3.43938
0.011047648657,3.83965
0.011084572832,4.5109
0.011114895558,5.09369
0.011138837565,5.3485
0.011164796834,5.36543
0.011189996834,5.23879
0.011216484977,5.26559
0.011244465161,5.29994
0.011273265161,4.56933
0.011303265161,3.70653
0.011336865161,3.61352
0.011372737478,4.10777
0.011404747413,4.7101
0.011433213177,5.05264
0.011458568372,5.18539
0.011484797016,5.29888
0.011510174478,5.25341
0.011535997016,5.38302
0.011562483845,4.99299
0.011593683845,4.05031
0.011624883845,3.53291
0.011658483845,3.90381
0.011694010097,4.51352
0.011723918825,5.05675
0.011750246945,5.31221
0.011774599934,5.20502
0.011801399934,5.09033
0.011827399934,5.15857
0.011853681354,5.07597
0.011881281354,4.43262
0.011911281354,3.7216
0.011944881354,3.86171
0.011977699312,4.35773
0.012008066242,4.91735
