time,RcpSim20.rcp[1].rcpHost.divide-by(session-2-Rate:vector)
0.000024085328,5
0.00004972799,10
0.000077474655,7.73969
0.000102674655,0.0307307
0.000129074655,0.02377
0.000161474655,0.0297219
0.000222711215,0.0408752
0.000270752099,0.0679256
0.000304588763,0.112675
0.000342988817,0.175933
0.000367314694,0.264482
0.000391314694,0.390938
0.000415633732,0.586614
0.000439714694,0.848665
0.000462482694,1.22857
0.000489682694,1.69488
0.000508882694,2.3777
0.000534882694,3.16437
0.000561500682,3.9702
0.000584482694,4.75834
0.000610686992,5.28449
0.000636482694,5.5606
0.000662882694,5.25033
0.000690482694,4.33478
0.000716882694,3.64954
0.000748082694,3.80287
0.00078095036,4.3209
0.00081174885,4.90228
0.000839191461,5.18288
0.000863836001,5.29288
0.000889646411,5.34754
0.000917436001,5.21192
0.000943836001,4.69416
0.000972636001,3.90075
0.001001436001,3.81316
0.0010353483,4.28385
0.001067462977,4.68778
0.001092432584,5.06858
0.001117871207,5.08362
0.001144376279,4.94043
0.001170776279,4.90491
0.001196651575,5.14246
0.001223976279,5.16874
0.001250376279,4.61195
0.001280376279,3.99228
0.001311576279,4.08791
0.00134453494,4.43754
0.001373427214,4.95461
0.001400469224,5.22165
0.001427089084,5.22487
0.001452669289,5.26017
0.001479811679,5.15686
0.001505469289,5.25913
0.001531869289,5.01402
0.001561869289,3.95039
0.001594269289,3.59187
0.001625771662,4.01029
0.00166125951,4.4931
0.001688791415,5.0016
0.001715499005,5.2576
0.00174025951,5.3279
0.00176705951,5.36291
0.001793907753,5.37364
0.001819333299,5.2104
0.001849333299,4.22568
0.001880533299,3.47639
0.001915333299,3.6993
0.001949759911,4.25511
0.001981042843,4.89199
0.002008877046,5.16567
0.002034159911,5.23095
0.002060959911,5.29535
0.002086959911,5.27106
0.002113759911,5.27869
0.002141359911,4.84812
0.002168959911,3.81259
0.002203759911,3.58057
0.002238106852,4.06903
0.002270225399,4.63043
0.002299306561,5.00429
0.002326688645,5.07202
0.002351106561,5.15418
0.002376695272,5.33365
0.002403106561,5.37582
0.002430706561,5.21347
0.002457106561,4.21703
0.002489506561,3.48468
0.002523106561,3.69536
0.002560733444,4.34296
0.002590545855,4.97538
0.002616533444,5.27251
0.002644695525,5.30002
0.002670333444,5.19824
0.00269478426,5.14292
0.002723133444,5.11459
0.002750733444,4.47622
0.002781933444,3.7127
0.002815533444,3.82421
0.00284827059,4.31939
0.002878885975,4.79618
0.002906685975,5.14571
0.002931885975,5.14325
0.002957085975,5.06253
0.002982188428,5.16657
0.003009085975,5.24984
0.003036763378,5.2581
0.003064363378,4.33848
0.003095570413,3.69481
0.003129163378,3.73664
0.00316173839,4.30473
0.00319562224,4.90042
0.00322093839,5.2123
0.003246708718,5.21169
0.003272228941,5.08168
0.00329973839,5.19326
0.003325754712,5.29525
0.003354554712,4.75886
0.003385754712,3.80045
0.003415754712,3.59529
0.003447674649,4.06678
0.003482839193,4.67552
0.003509239193,5.10048
0.003534839193,5.26612
0.003560476327,5.35738
0.003586439193,5.35477
0.003613239193,5.29725
0.003640839193,5.12014
0.003667239193,4.19219
0.003699639193,3.51278
0.003733239193,3.6959
0.003768041683,4.33763
0.003799241683,4.93336
0.003826641683,5.22242
0.003852984833,5.37796
0.003878441683,5.38781
0.003905205065,5.38998
0.003930441683,5.41245
0.003958041683,4.65867
0.003990441683,3.61813
0.004022841683,3.51289
0.00405770973,4.01799
0.004093471811,4.68251
0.004122471811,5.15681
0.004148071811,5.31534
0.004173807053,5.23224
0.004198345307,5.11261
0.004226871811,5.24851
0.004252161255,5.07166
0.004280961255,4.29452
0.004313361255,3.63611
0.004346961255,3.86857
0.004381246159,4.44799
0.004411275453,5.00282
0.004437021936,5.2668
0.004463424827,5.23387
0.004488714233,5.27557
0.004513677102,5.233
0.004543158633,5.23622
0.004569558633,4.68568
0.004599558633,3.70145
0.004631958633,3.51076
0.004665738514,4.02372
0.004698596464,4.68396
0.004727257406,5.0055
0.004752996464,5.1402
0.004778996464,5.25584
0.004804084721,5.21327
0.004830196464,5.38028
0.004858196464,5.20435
0.004886996464,4.26991
0.004916996464,3.47523
0.004950596464,3.71396
0.004987879772,4.21055
0.005019112633,4.69856
0.005044755295,5.07885
0.005071678494,5.2553
0.005097705904,5.34081
0.005123479772,5.27547
0.005150279772,5.32683
0.005177879772,4.76083
0.005205479772,3.74387
0.005240279772,3.52808
0.00527248043,4.01571
0.005308455299,4.68882
0.005336052745,5.10034
0.005361486265,5.31755
0.005389480243,5.23005
0.005412455299,5.23253
0.005439655299,5.32654
0.005466540291,5.28227
0.005494140291,4.29172
0.005526540291,3.60528
0.005560140291,3.69169
0.005595148351,4.28465
0.005626754065,4.75741
0.005654761035,5.14269
0.005680169489,5.26481
0.005706169489,5.33161
0.005733434187,5.40503
0.005758100017,5.344
0.005785700017,4.77323
0.005815700017,3.62197
0.005850500017,3.39233
0.005885450215,3.93266
0.005919366032,4.47716
0.005952188879,4.92104
0.005976069565,5.17047
0.006002854665,5.25245
0.006029289482,5.41983
0.006053689482,5.47107
0.006081642271,5.06975
0.006109242271,4.0007
0.006142842271,3.4119
0.006176442271,3.74976
0.006212458872,4.32955
0.006243785916,4.80802
0.006270234206,5.16015
0.006296634206,5.27415
0.006323034206,5.31274
0.006349834206,5.4116
0.006376634206,5.41973
0.006403034206,4.5339
0.006435434206,3.58347
0.006467834206,3.57937
0.006503975422,4.05338
0.006539216242,4.74561
0.006565216242,5.21147
0.006592018307,5.23409
0.006617416242,5.10715
0.006643416242,5.18692
0.006670815767,5.31145
0.006697969103,5.08339
0.006727969103,4.0361
0.006759169103,3.557
0.006792769103,3.88251
0.006828289428,4.43044
0.006858489428,4.97672
0.006885489428,5.20482
0.006911337842,5.25996
0.00693888591,5.24734
0.006962289428,5.28115
0.006990681616,5.19769
0.007018281616,4.49056
0.007049481616,3.65108
0.007083081616,3.65684
0.007117349069,4.16343
0.007151638439,4.79688
0.007177549069,5.18265
0.007203149069,5.29501
0.007228349069,5.33243
0.007255396314,5.39278
0.007282298956,5.4321
0.007308749069,5.06049
0.007338749069,3.85645
0.007369949069,3.35571
0.007405963985,3.77499
0.007443379667,4.42424
0.007474446875,5.03479
0.007498846875,5.33936
0.007524846875,5.44571
0.007550446875,5.39578
0.007576846875,5.28877
0.007604446875,5.10981
0.007633246875,4.43125
0.007663246875,3.6239
0.007699246875,3.69664
0.007733936491,4.23598
0.007765244895,4.81986
0.007793610591,5.11766
0.00782024188,5.18558
0.007846010591,5.14854
0.007869610591,5.2779
0.007897210591,5.40123
0.007924810591,4.86042
0.007954810591,3.78618
0.007987210591,3.48916
0.008020596983,3.93854
0.008053811996,4.57075
0.008083685504,5.10255
0.008109939374,5.30527
0.008135718936,5.34822
0.00816115225,5.23341
0.0081879935,5.2574
0.008213545771,5.16483
0.008242345771,4.37439
0.008274745771,3.64321
0.008308345771,3.7815
0.008340700862,4.26154
0.00837204529,4.69461
0.00840020414,5.11205
0.008425609256,5.2587
0.008451485863,5.32169
0.008476481877,5.21301
0.008505869858,5.21591
0.008531069858,4.88872
0.008561069858,3.98842
0.00859347838,3.68228
0.008628670909,4.06375
0.008660347032,4.69892
0.008689471887,5.14254
0.008714855898,5.2992
0.008741547032,5.11971
0.008767947032,5.12748
0.008794347032,5.27985
0.008820347032,5.19819
0.008847947032,4.4818
0.008877947032,3.71713
0.008911547032,3.79152
0.008945881885,4.25033
0.008976848141,4.85109
0.009002203336,5.09583
0.009029447388,5.19776
0.009055447388,5.26544
0.009083047388,5.30238
0.009106247388,5.29675
0.009135447388,4.89025
0.009163047388,3.8801
0.009195447388,3.59847
0.00923057174,4.00367
0.009262936949,4.62895
0.009292360096,5.11237
0.009318283916,5.30477
0.009344136949,5.17682
0.009369336949,5.08846
0.009396915617,5.19648
0.009422936949,5.13016
0.009451736949,4.53138
0.009481736949,3.87607
0.009515336949,3.96603
0.009548228068,4.40743
0.009580628068,4.92788
0.009607828068,5.13241
0.009632028068,5.12629
0.009657651776,5.0363
0.009685471675,5.11226
0.009712028068,5.30053
0.00973663515,5.03045
0.00976543515,4.08733
0.00979904361,3.7245
0.009830609105,4.07822
0.009865478499,4.68242
0.009893878499,5.13043
0.009919478499,5.14696
0.009944678499,5.14845
0.009970278499,5.1924
0.009997891319,5.24039
0.010023668795,5.14125
0.010052468795,4.42553
0.010082468795,3.78919
0.010113668795,3.87788
0.010148265106,4.37729
0.010178526688,4.78862
0.010205526688,4.99952
0.010232218413,4.96478
0.01025728356,5.01681
0.010282790953,5.15265
0.01030768356,5.36533
0.010336560311,5.10648
0.010365360311,4.11807
0.010396560311,3.56579
0.010430160311,3.84796
0.01046259754,4.45843
0.010492788306,4.99532
0.010519520538,5.27159
0.010545730214,5.39614
0.010570930214,5.38058
0.010597520538,5.39439
0.010625120538,5.33796
0.010652720538,4.5634
0.010681520538,3.55673
0.010715120538,3.47247
0.010750988678,4.01827
0.010784558163,4.70444
0.010813986185,5.16789
0.010839343223,5.33674
0.010865117612,5.37197
0.010892017881,5.36416
0.010917424493,5.3672
0.010943824493,5.02796
0.010973824493,3.85483
0.011006224493,3.43938
0.011043336857,3.83965
0.011076859644,4.5109
0.011107322803,5.09369
0.011133925033,5.3485
0.011159884302,5.36543
0.011185084302,5.23879
0.011211572445,5.26559
0.011237152629,5.29994
0.011265952629,4.56933
0.011298352629,3.70653
0.011329552629,3.61352
0.011364624536,4.10777
0.011399834881,4.7101
0.011425752927,5.05264
0.011453884484,5.18539
0.011477484484,5.29888
0.011502861946,5.25341
0.011532371313,5.38302
0.011557571313,4.99299
0.011586371313,4.05031
0.011617571313,3.53291
0.011653571313,3.90381
0.011686487402,4.51352
0.011716487402,5.05675
0.011742934413,5.31221
0.011770087402,5.20502
0.011794087402,5.09033
0.011820087402,5.15857
0.011846368822,5.07597
0.011876368822,4.43262
0.011906368822,3.7216
0.011939968822,3.86171
0.01197278678,4.35773
0.01200315371,4.91735
