time,RcpSim7.flowGenerator3.flowSynRttsToXConverge:vector
0.013392698357,29
0.013957735637,35
0.014448964892,20
0.014725134096,2
0.015360899804,25
0.016069724088,31
0.016837417489,17
0.017389483184,17
0.018588908989,18
0.019368762118,17
0.020893847162,63
0.021829182386,24
0.022345610761,16
0.02258538754,13
0.023088819844,17
0.024445807462,15
0.025032943523,17
0.026089423387,28
0.026773651318,24
0.027036858726,1
0.027625818537,14
0.028116874026,21
0.028801536726,85
0.029305273525,33
0.03177837823,65
0.032677655516,20
0.032941102764,16
0.033649795195,13
0.035294404545,7
0.035641394185,8
0.036241178293,18
0.037393948234,16
0.037537310215,28
0.038173738963,33
0.039253088071,18
0.039686116592,8
0.039949705607,29
0.041113645642,33
0.041989044925,17
0.042301895827,11
0.043105331149,21
0.044737834748,25
0.045493041838,66
0.045949556733,16
0.046500694433,36
0.04700555159,21
0.047618445983,24
0.048108966076,26
0.049501340549,10
0.050378450283,24
0.050520955531,16
0.050893681272,51
0.051756937749,19
0.052393264418,9
0.052933188018,8
0.053245426749,20
0.054337242244,20
0.054613953546,16
0.055514372644,59
0.055885610855,18
0.05653355328,20
0.05730137019,19
0.058153337448,89
0.05899355084,10
0.059269081408,25
0.059820942413,8
0.060828579076,47
0.061057852102,16
0.062125605472,20
0.062606423224,40
0.063493278085,17
0.063841925031,20
0.064597981733,17
0.065461070758,18
0.065953033006,22
0.067382396091,11
0.068317623202,11
0.06870152772,33
0.069181864092,8
0.069673253035,23
0.070429343013,10
0.070957244,24
0.071472957378,34
0.07226573011,8
0.072517738888,30
0.073117483361,16
0.074053756126,16
0.074413092505,7
0.074678104965,21
0.075564928842,15
0.076153503956,16
0.076309611667,13
0.07716138539,10
0.077726094389,8
0.077869039661,10
0.078960907844,25
0.079308938916,45
0.080161546969,18
0.080437837097,17
0.080989167904,8
0.08166069458,40
0.082296799052,16
0.083029926903,21
0.083401871173,8
0.084457194669,9
0.084626087808,7
0.085225019141,35
0.086041975656,21
0.086701253206,71
0.087193789573,28
0.087781226969,9
0.087913231372,17
0.088776667766,36
0.089377664403,20
0.089749250351,15
0.089869774712,19
0.091190022307,19
0.091609242425,8
0.091969761524,28
0.092641957482,19
0.093132860752,38
0.093842599079,11
0.094622454588,16
0.095389365285,21
0.096253223651,83
0.097405917251,18
0.098077817013,28
0.098425028205,33
0.099745076549,22
0.100680828649,15
0.10126959633,16
0.102698350058,17
0.10316637752,13
0.103346462981,8
0.10477456643,25
0.105025848431,8
0.105529552003,17
0.106044943654,78
0.10758169512,18
0.107857315996,9
0.108421205432,25
0.109069420143,10
0.110077091054,8
0.110365230606,53
0.111133360453,15
0.111265563256,16
0.112837835444,30
0.113484989109,46
0.113750129199,8
0.114218196318,31
0.11498488682,23
0.115982204211,11
0.116461041807,12
0.11664090311,16
0.118249789307,30
0.118789604249,23
0.119197983147,8
0.120097979747,25
0.120577110151,26
0.121597271398,15
0.121861643595,17
0.122449747713,16
0.12399740836,14
0.12471692596,18
0.12504146746,19
0.125930089472,15
0.127189536437,16
0.127597679443,22
0.128845044889,20
0.129373366914,19
0.130669118689,73
0.131053353015,37
0.132289282573,16
0.132984737572,44
0.133524650605,17
0.134641971048,16
0.135360694773,59
0.136753028838,37
0.137533923356,22
0.138264977106,25
0.138757132618,26
0.139357575313,19
0.140449793634,22
0.140713174862,64
0.141205947849,27
0.14223732398,37
0.14284966544,16
0.143294174212,20
0.144468625663,30
0.144972988069,17
0.14564532803,30
0.145872858021,12
0.147072913325,20
0.147600862177,41
0.148740821543,10
0.149630039611,18
0.150781421122,42
0.150996980245,15
0.151550121181,17
0.152641799359,21
0.153121361792,9
0.154225112182,14
0.15512487025,73
0.155628662924,9
0.155760976832,10
0.157921220674,18
0.158305693916,10
0.158929520917,21
0.159660624416,31
0.160465967859,15
0.160753483888,14
0.162180671311,15
0.162745036115,29
0.163429147491,40
0.163572567182,21
0.164521701625,16
0.165374226021,14
0.166081254521,18
0.167797124839,15
0.168108850325,35
0.169153700836,22
0.169452752994,8
0.170028919901,29
0.170652816176,15
0.171937507866,47
0.17232145399,59
0.172885638706,19
0.17341349558,17
0.173773535748,43
0.175093363048,22
0.175237309054,8
0.176245128972,19
0.176905879417,23
0.177493111298,39
0.178477500991,45
0.178693356591,15
0.179209198691,32
0.179784672734,60
0.180468786828,20
0.181381656042,16
0.181645580072,20
0.183254279147,26
0.183565238693,9
0.184380868658,8
0.18477764013,19
0.18502934836,61
0.185965374303,19
0.186493676599,30
0.187154270035,14
0.187297132265,9
0.188256741297,44
0.18882254684,17
0.189433427622,11
0.190261336312,48
0.190501221457,12
0.191341240506,15
0.19185726413,71
0.192373981694,18
0.192961912934,12
0.193104745715,18
0.194472846444,32
0.194857462964,17
0.195505836329,9
0.195756955543,20
0.196657122135,33
0.197077032425,18
0.198073510293,15
0.198564607582,33
0.199321488355,17
0.199837607138,18
0.200173817991,9
0.200749654398,18
0.201937342188,11
0.203101599012,18
0.203257675997,18
0.20414506447,45
0.204973401402,17
0.205285365767,11
0.20666543131,38
0.20732526346,11
0.2075772562,100
0.208445021075,17
0.209029217802,17
0.209497846428,17
0.209880446647,13
0.2106253699,25
0.211297556554,34
0.211596836006,56
0.212329489631,30
0.213685863161,18
0.214069123589,17
0.214777189064,69
0.215569091398,25
0.216817685592,8
0.217346096238,10
0.217489510753,8
0.218617182067,16
0.218928971553,11
0.219254401972,31
0.220513632113,25
0.220921189578,12
0.221581840946,23
0.222265124664,8
0.222433165511,27
0.224125268776,23
0.224797306476,54
0.225302235324,74
0.226129116197,9
0.227318750261,24
0.227473191351,13
0.228949198608,8
0.229465775596,22
0.230724936689,7
0.231254035382,8
0.231733599618,7
0.23239334664,15
0.232742096195,20
0.233749886101,13
0.234625321362,37
0.235081270929,34
0.235501831303,18
0.236449671745,29
0.23706110549,12
0.237566094486,7
0.237841417601,8
0.238788779041,10
0.239545307422,15
0.239953029176,35
0.240733589775,44
0.241417733824,30
0.242257081618,35
0.243468739067,7
0.244669487242,27
0.245137143796,37
0.246000673104,29
0.246171043738,9
0.247189690511,7
0.247656919053,8
0.248029611828,19
0.248186480732,16
0.248653232334,16
0.249121066911,20
0.24968632753,9
0.250837570139,12
0.251233403929,35
0.251389042028,16
0.252457563536,10
0.252877699465,41
0.253501107605,17
0.254076747159,74
0.254233366989,31
0.255325417014,18
0.255506001527,16
0.256357512151,36
0.256584785927,35
0.258001059122,9
0.258121478337,21
0.258828843575,24
0.259404825154,18
0.26005274436,16
0.260462764485,8
0.260616862378,15
0.261361892316,11
0.261529538386,20
0.262177546771,20
0.262597723478,10
0.263318233167,18
0.264254400482,8
0.264589156863,24
0.264733758108,60
0.265153797482,9
0.265740812384,7
0.26611475215,9
0.266257260127,7
0.26666493202,18
0.267470003196,7
0.267997193723,23
0.268417100843,8
0.269185509465,13
0.269376760768,18
0.269917203322,43
0.270961088158,10
0.273205582076,25
0.274477616166,12
0.275353290284,13
0.276229458005,12
0.277536672716,37
0.278401551117,16
0.279001842214,30
0.279504989658,6
0.281089576241,11
0.281508965152,43
0.282180728694,36
0.282601640745,8
0.283249301849,38
0.283609281496,16
0.284064983918,12
0.285086576245,14
0.285229619784,58
0.285697979164,8
0.286094146409,26
0.286680958323,15
0.286824885266,32
0.287280792672,15
0.287930036306,9
0.288072824807,11
0.288673492817,13
0.289178181253,8
0.290281652441,20
0.290760561737,15
0.291061860891,16
0.291505286644,28
0.291852483255,48
0.293424946327,15
0.293724930829,17
0.294205883445,15
0.294757470189,26
0.295220508572,11
0.296004855233,11
0.2966894363,7
0.297181249096,66
0.297768787654,62
0.298021174027,8
0.298668614928,9
0.299569346506,19
0.300024838773,8
0.300469802306,91
0.301201388782,29
0.301800937826,8
0.30298888075,17
0.303205376266,8
0.303792749886,8
0.303937261047,8
0.305017756671,14
0.306014174225,16
0.306769443466,8
0.306925836743,8
0.308197128428,7
0.30846197576,18
0.309662040913,9
0.310310097568,19
0.311294167215,21
0.312097068495,22
0.31226609663,85
0.312901444445,10
0.313933828872,17
0.314161721108,9
0.314929312619,14
0.31574497671,34
0.316104585447,10
0.316609860411,17
0.316957250669,10
0.317857216685,8
0.317977660613,55
0.319477420398,8
0.319729575403,17
0.320497489186,12
0.320916896019,29
0.321325280001,10
0.322128660315,8
0.322417749449,16
0.323293761124,21
0.323833121075,11
0.324708845032,46
0.325092630499,8
0.325681541549,17
0.326089025942,16
0.326257507658,9
0.326642828416,8
0.327674093268,49
0.328044845162,21
0.32845320551,19
0.328609861051,10
0.329629101147,8
0.329809311328,40
0.330769347165,19
0.331285224657,17
0.331741777141,8
0.33189782633,9
0.332676710613,20
0.333145704027,14
0.333553114751,44
0.333925470068,14
0.334164677093,16
0.334681040161,17
0.335413682606,9
0.336013340769,22
0.336252851393,17
0.336997469889,15
0.337477031208,18
0.337705340811,8
0.33831709369,12
0.338952969808,15
0.339300653235,27
0.340501153056,10
0.340993047985,16
0.341281284031,18
0.341881430221,9
0.342433401702,9
0.343153146356,8
0.343538472702,9
0.344017982662,23
0.344281899588,16
0.345565234095,8
0.346238142428,18
0.346381132967,17
0.347389082211,16
0.347881501815,22
0.348193273749,16
0.349272937431,8
0.349789701481,19
0.350077743961,17
0.351000997058,23
0.351216686466,9
0.352164860031,21
0.352681373014,18
0.35319740403,18
0.353797250443,8
0.354553730005,15
0.355333640192,49
0.355717059206,18
0.356148890154,10
0.357804901467,26
0.358045388277,10
0.358789043145,22
0.360036566398,11
0.360637841783,41
0.361045534524,19
0.36172965215,10
0.362378084001,42
0.362570428243,16
0.363492938582,8
0.36366154807,8
0.365052986778,58
0.365293836074,32
0.366220765832,18
0.366505069592,18
0.367093382243,17
0.367800923044,23
0.368041429284,35
0.369325542513,26
0.369972833024,37
0.370561096226,7
0.371151801899,8
0.372204886532,15
0.372673332058,19
0.372973567824,17
0.373428838928,19
0.374125343885,17
0.375386151381,32
0.375603224463,33
0.377233612513,8
0.377653148115,20
0.377773776726,18
0.378661294547,10
0.379836984445,15
0.38007673892,32
0.38119348396,61
0.381363270922,10
0.38180536446,25
0.382453196687,16
0.383149291288,19
0.383712820141,16
0.384913390298,17
0.385057384802,15
0.385872738466,34
0.38607655812,19
0.386856877769,30
0.387277717322,8
0.387768699904,8
0.38826118472,20
0.388981369687,35
0.389545100035,16
0.39045769516,15
0.390696948794,22
0.391237485363,12
0.391633786539,15
0.392857542486,31
0.393457466511,16
0.393962300313,28
0.394188861625,55
0.394956554246,16
0.395233181866,19
0.395917557043,8
0.396049088922,15
0.39685281881,26
0.397741538511,22
0.398232429884,70
0.398666131578,42
0.39925283643,61
0.399996898342,44
0.4001169819,16
0.40077688045,16
0.401377407381,8
0.401833050457,9
0.402265734688,10
0.402696921245,9
0.403212525562,7
0.403392521578,15
0.404184794541,22
0.405133690353,27
0.405744758286,8
0.40610563237,8
0.40624895794,19
0.407485063128,16
0.408913323272,47
0.409598033302,16
0.409848886563,15
0.410509117057,8
0.411421386043,9
0.412008847887,29
0.412597042676,18
0.412777240347,16
0.413592676676,17
0.414144657595,18
0.414541734574,16
0.415044688022,23
0.415212420145,20
0.415752879838,16
0.416497190409,18
0.416652927155,18
0.417410244176,9
0.417841769759,15
0.418068836994,8
0.418524654494,8
0.419305285464,16
0.419449570187,16
0.419904753549,15
0.420361822242,23
0.421836788062,8
0.422557105432,17
0.423276925022,33
0.423877978965,16
0.424153014937,16
0.424752766601,20
0.42546113142,7
0.426012802325,16
0.426684730579,32
0.42690191784,17
0.427285245688,17
0.428328649153,12
0.428928971756,31
0.430861851188,17
0.431460693858,7
0.431702061034,16
0.432277759388,19
0.432757655138,16
0.433705475172,16
0.434317804918,15
0.434557269968,22
0.435696957012,15
0.435877809622,16
0.437353692728,17
0.4383849732,14
0.43902109523,9
0.439430199542,16
0.440340715534,18
0.440461051912,15
0.442056917474,74
0.442392800295,17
0.443041446078,25
0.443641699687,48
0.44415725625,15
0.444408874132,10
0.445369650927,33
0.445885117802,16
0.446845187629,11
0.447312994641,49
0.448729385357,43
0.449174021975,15
0.449414765292,8
0.450817031136,37
0.451549526164,21
0.452137294658,8
0.452545864721,16
0.45279711205,17
0.453684392526,36
0.454813408199,7
0.455282284319,18
0.455425710544,17
0.456696920467,72
0.457225681025,9
0.457885304209,18
0.458293045384,29
0.459061620442,92
0.459217576979,18
0.461065522973,59
0.461556993465,11
0.462037813104,8
0.462517647303,46
0.463273480259,8
0.463740955459,14
0.464437396835,17
0.46458135808,58
0.465229201933,69
0.46595020193,18
0.466778398332,8
0.467054107394,16
0.467437659048,16
0.468180701519,10
0.468925026325,31
0.470017047449,16
0.471012824035,41
0.471301159465,9
0.471793376823,14
0.472596727501,9
0.472885533506,9
0.47394123451,48
0.474193638739,15
0.475189030951,20
0.475369801259,9
0.475920576231,15
0.476629667189,19
0.476894249494,10
0.477840909659,31
0.478152985988,8
0.478921141635,58
0.479581159728,30
0.480313283335,20
0.48075739311,19
0.481249330935,16
0.481404395161,16
0.483228253076,19
0.484105466874,20
0.484417581754,25
0.484992926767,15
0.485905199524,17
0.486528885816,14
0.486913516809,18
0.487741947762,20
0.487897662355,7
0.488797420328,16
0.489168924774,17
0.489409508263,9
0.490237536896,18
0.491268985661,39
0.492505678704,17
0.492745216659,33
0.494749899784,8
0.495781258791,18
0.49652480155,8
0.498313150028,29
0.499105997823,10
0.499286349939,19
0.499909514804,15
0.500809119971,10
0.501445889343,10
0.502585234752,21
0.503558319213,10
0.503785688127,17
0.505177857365,35
0.505812859745,56
0.506376640508,17
0.507325703736,10
0.50781939819,70
0.50809343713,17
0.508933520622,22
0.509557358881,31
0.510217038022,52
0.511117807025,8
0.511705312,21
0.511944936391,16
0.512857155635,18
0.513468981741,10
0.514188670386,12
0.514849065017,21
0.515126931963,12
0.515712557162,9
0.51658936683,12
0.517297742828,17
0.517813477403,19
0.51806483922,45
0.518581259212,21
0.519481930633,19
0.519938191793,9
0.520681698718,19
0.521269144299,27
0.521557067634,19
0.522277180193,18
0.523045534505,18
0.524052971265,14
0.524233313019,17
0.52482198488,17
0.525769005655,23
0.526741749074,25
0.527701007102,15
0.529045965236,23
0.529680667868,24
0.530593321878,14
0.53101308055,18
0.53146854453,17
0.532368739831,17
0.532620920804,8
0.533592735451,22
0.534253430847,10
0.534469161334,18
0.535478083306,25
0.536232911488,29
0.536761643836,20
0.537348561808,129
0.537829276498,15
0.537997724337,28
0.538609157675,16
0.540229897137,15
0.540492773337,26
0.541393426375,10
0.541801171633,48
0.541921755831,83
0.542533139033,20
0.54289289361,24
0.543540929083,8
0.544093208164,138
0.544573123221,9
0.545449502371,15
0.54568895923,15
0.547081124093,30
0.547224686702,17
0.548257474089,11
0.548509298851,19
0.549301453194,16
0.549780796266,11
0.549997593677,19
0.55096875434,10
0.551101092785,20
0.551580495367,8
0.552325002252,37
0.553332594111,11
0.553992736577,64
0.554424662127,50
0.55496538473,16
0.555181624883,19
0.555770058504,53
0.556908971692,34
0.557857606271,62
0.558349094355,8
0.559117794242,20
0.559489928778,9
0.559753638121,7
0.560340533213,18
0.561169490205,21
0.56132556415,16
0.562236991658,34
0.562356802652,8
0.562945942439,15
0.563317155406,21
0.563449377088,9
0.563809498354,20
0.564480892838,16
0.56463700551,16
0.565357903982,21
0.565729279472,17
0.565908836486,10
0.56647314989,10
0.566941014428,16
0.567444879384,19
0.56781698159,8
0.568489185677,8
0.569173382498,16
0.56931698096,16
0.569773530655,8
0.570205800046,15
0.570924797924,10
0.571057874117,12
0.571513409284,7
0.572881252699,15
0.573144896005,23
0.573864805758,16
0.574765730371,8
0.574909053034,8
0.575617412829,22
0.575893016326,8
0.576732958877,20
0.57706997273,12
0.57769331505,16
0.578449368398,19
0.578964804868,9
0.579361584924,16
0.580453297035,22
0.581173726653,11
0.581377667005,8
0.582516894002,13
0.584629174966,28
0.584918449653,75
0.586189747474,9
0.587076452939,7
0.58732930273,26
0.587917152335,74
0.588684614973,8
0.588973083266,21
0.590208970323,8
0.591433565226,60
0.591877952268,34
0.592056672773,8
0.59329299779,42
0.593941720905,14
0.594408983193,19
0.594900987928,22
0.595717680082,7
0.595920809273,16
0.597612922694,30
0.598069979339,18
0.598213250584,10
0.599365083854,20
0.599653199719,58
0.600541419584,19
0.601609413924,11
0.6019937262,7
0.6026290472,28
0.603313162486,34
0.604405430737,7
0.604645370758,44
0.605629535063,16
0.60660113913,21
0.607320898612,28
0.60777777311,61
0.608917013456,15
0.610153262392,24
0.610272848255,32
0.61074185682,13
0.611197031502,8
0.612038031127,58
0.612205173483,14
0.612972767753,9
0.61455706748,11
0.614869496963,23
0.615530478379,18
0.616225005827,15
0.617341483895,9
0.618061560521,25
0.618336952764,72
0.619009151255,22
0.619584857433,19
0.620198028415,19
0.621829909163,31
0.622489415644,18
0.623448617289,19
0.624181032746,18
0.624325605001,18
0.625213313018,11
0.62697727754,58
0.627373103386,8
0.628597340378,15
0.628908574161,28
0.630145446822,12
0.630721242349,8
0.632210002917,9
0.632700958991,16
0.633097393122,12
0.633768893881,25
0.63449043084,35
0.634633418152,14
0.635317253938,81
0.636181434314,11
0.637164786743,18
0.637716744254,32
0.637860622034,36
0.638280632572,25
0.639337135813,35
0.639780821454,8
0.640730037624,10
0.641941747413,8
0.642685307363,16
0.642817562307,17
0.643548667211,9
0.643813532117,19
0.644209814466,29
0.644964741432,25
0.645577547059,11
0.645889257355,11
0.647053421271,30
0.647316861522,42
0.648421124622,16
0.648673317957,13
0.649729355191,60
0.650701295916,9
0.651540919032,46
0.651829896053,21
0.652477087544,40
0.655092854061,18
0.655945948582,17
0.656185331153,8
0.656796902853,9
0.657734842799,16
0.658609964614,96
0.65887315979,34
0.659845095741,11
0.660457326318,8
0.660601161917,24
0.661632946421,28
0.662677066488,15
0.663447335578,27
0.664201198827,7
0.66458489712,71
0.664885834625,27
0.665929064748,7
0.666577535722,9
0.667453235888,33
0.668400948281,13
0.668664532101,31
0.669576917239,17
0.670201425451,19
0.670500587656,76
0.671496823825,32
0.671965241333,33
0.672650246273,17
0.672912756601,29
0.673357051629,7
0.673728848973,18
0.674221890946,7
0.674569769995,13
0.675037488478,15
0.675433592289,17
0.676248543247,17
0.67674176616,8
0.676921495373,12
0.677533753668,30
0.67948921195,18
0.679837986605,17
0.680004849325,23
0.680545007928,9
0.681313658288,64
0.682333224515,21
0.682584626129,20
0.68348457589,17
0.683869170073,25
0.684469112422,16
0.684852905782,10
0.68569304758,9
0.686222001776,16
0.686460512521,18
0.686953501665,9
0.687492946562,8
0.688321917311,9
0.688597252951,8
0.689580522704,16
0.68994164639,9
0.690913788112,21
0.691152614863,16
0.691909708393,18
0.692797338833,186
0.693385842326,16
0.694044430758,17
0.694573049775,21
0.695365565461,17
0.695952555812,15
0.696744799021,42
0.696901994656,17
0.69781330849,8
0.698041829388,19
0.698640764032,9
0.700273036686,11
0.700920838343,16
0.701161689952,13
0.701640893125,12
0.702625534483,17
0.70280495221,30
0.70416029594,11
0.704941046394,25
0.705733250191,23
0.706200934892,20
0.706897460755,23
0.707640688235,32
0.708277018544,18
0.709201488291,7
0.709549470065,23
0.710521004675,8
0.711061096694,11
0.712141800954,10
0.712862383736,65
0.71349713824,44
0.714469592942,29
0.714936929696,33
0.715381251609,58
0.715837646939,16
0.716545624442,8
0.717108948844,12
0.717733270923,14
0.718165461746,9
0.718465222719,49
0.718849095102,18
0.719832907951,16
0.720649141659,24
0.721165461811,20
0.721525933451,16
0.722029692953,22
0.72300105139,16
0.723552513324,29
0.724249341829,17
0.725077412372,53
0.725448768988,9
0.725917348072,9
0.726289187849,9
0.726648805503,7
0.728077837706,26
0.728557196354,27
0.729024917304,30
0.72946904529,10
0.730068648508,20
0.730873536649,17
0.731869201276,32
0.732456839134,17
0.733057921171,9
0.73354961018,18
0.733837344475,14
0.735290388079,18
0.735410359013,8
0.736837248233,8
0.737257257475,7
0.737557059389,9
0.738073418979,12
0.739021326326,10
0.739609764525,15
0.740101680805,8
0.740245647457,18
0.740844496177,16
0.741589648539,56
0.741744758751,16
0.742548472586,11
0.743017867389,16
0.74487798085,20
0.745525216665,11
0.746306207833,132
0.746808829646,17
0.747648838904,29
0.748668988972,9
0.749269137066,17
0.750096713106,19
0.750265351054,26
0.751237980504,23
0.751657210794,16
0.752112837821,11
0.75235333615,22
0.753109307744,9
0.753264523196,68
0.753962202835,8
0.754441150563,8
0.754800914553,15
0.755245602403,21
0.755389383905,8
0.755869410135,9
0.757465669129,11
0.758353411068,20
0.759073547731,16
0.760057097712,9
0.760981755635,16
0.761592814921,47
0.762253784832,15
0.763393217033,40
0.763753491725,18
0.764929733153,41
0.765433328108,28
0.76572080749,20
0.76628462951,8
0.768313388918,16
0.768997121833,8
0.769969822947,9
0.770233129227,16
0.771589583585,17
0.771997525971,58
0.77228561566,18
0.773401223702,29
0.774313190788,19
0.775309029399,17
0.776472931579,11
0.777097295891,16
0.777673055192,16
0.778188956146,11
0.778368566253,18
0.778909777781,18
0.779772821498,8
0.780505114479,25
0.781213227338,27
0.781837536761,19
0.782209687493,8
0.782604779619,26
0.783492473803,38
0.783984966694,21
0.78441701964,56
0.784945249851,19
0.785233055155,13
0.7861572142,30
0.786445685068,27
0.78688988444,61
0.787514117739,7
0.787656877536,20
0.788365176352,9
0.788630119387,8
0.789348581536,23
0.790237754316,16
0.790464592943,16
0.790908513381,39
0.791269598474,13
0.79171381024,15
0.792108432152,16
0.792996950283,21
0.793141579815,16
0.79372917988,58
0.794352725927,8
0.797352920578,38
0.797748956242,17
0.798842352678,15
0.79944149676,17
0.800340581558,28
0.80094058189,131
0.801229086699,17
0.801744857987,13
0.802645338818,12
0.802993886412,36
0.804181278408,9
0.804901444872,18
0.805753221464,20
0.806221135586,16
0.806617767132,27
0.807421537881,17
0.807552594607,32
0.808753153866,35
0.808957736305,17
0.809520729951,16
0.810781123547,15
0.81140535083,17
0.811574527747,22
0.812461539097,10
0.813085481027,9
0.813576648901,8
0.814224944985,10
0.814716823546,19
0.815677505351,30
0.816180911907,25
0.816660931887,42
0.816829466197,25
0.817957416828,16
0.818185230075,8
0.818700808975,19
0.819648852391,45
0.819852847301,7
0.820380921273,20
0.821305049713,17
0.822160451537,16
0.82251764139,30
0.823188300127,9
0.823440855518,10
0.824018039025,15
0.824496352812,8
0.824964816804,29
0.825709171636,16
0.825853486375,15
0.827328721836,18
0.827569357666,17
0.828565089678,70
0.828804570171,17
0.830064862742,17
0.830340677245,21
0.830941998268,40
0.832056948,30
0.832500963386,49
0.833496559859,27
0.833652375629,10
0.834565065142,20
0.835573123286,9
0.836209285437,17
0.836509208205,10
0.83754056504,54
0.838140727455,27
0.838716856933,17
0.839100980607,18
0.839509307363,18
0.840108610201,10
0.84057705848,9
0.840936981531,29
0.841369022866,16
0.84171781824,54
0.842233708515,19
0.842892478978,16
0.843816688211,28
0.843937077852,27
0.844753508779,8
0.84511275132,8
0.845472465474,16
0.846181151511,10
0.846338305204,8
0.847200644237,17
0.847357078295,17
0.848029173816,8
0.848172774855,21
0.84853335009,7
0.849853197438,26
0.850128315167,17
0.850621425527,8
0.851785409002,16
0.852204787656,15
0.853165664715,15
0.853633185234,15
0.85514512995,80
0.855684952253,16
0.855877636083,9
0.857089979244,10
0.857821983176,17
0.859501474591,44
0.860148612132,41
0.860700681771,19
0.861277682198,22
0.861817041728,7
0.86209329676,13
0.862656732699,28
0.864445172395,38
0.864745228829,27
0.865285114015,19
0.86677284131,24
0.868045481176,70
0.868380895209,20
0.86884965397,16
0.870169162633,18
0.871201640157,20
0.87199358338,15
0.872497355996,27
0.873637439135,17
0.874116772989,19
0.874548734501,16
0.874944822459,9
0.875316947507,16
0.875484937268,21
0.87616994209,17
0.876864316999,18
0.877356772363,9
0.877920870741,39
0.878496810586,30
0.879025366992,16
0.879384875262,19
0.880476956345,8
0.880813422837,13
0.881473739893,7
0.881712458742,8
0.882156633522,63
0.882817555177,17
0.883320384789,34
0.883441153541,41
0.884137664977,8
0.884521013926,15
0.884989857584,15
0.88513348473,28
0.885996791179,8
0.886777778349,9
0.887259143771,15
0.887749542587,15
0.888109031887,8
0.888805285755,8
0.888948696838,28
0.890244818418,7
0.891216924854,15
0.891457609043,7
0.892273088329,16
0.892501851244,9
0.893004725926,19
0.893677237493,15
0.893929366382,19
0.894684997895,16
0.894829412895,16
0.895500977478,8
0.896496685758,8
0.896628433833,8
0.89748084798,21
0.89798448811,37
0.898404813762,16
0.899005222926,42
0.89917274888,17
0.90024073895,9
0.900445872249,16
0.901044813736,19
0.901237266891,20
0.901717777344,11
0.90271307094,17
0.902965122961,26
0.903660989736,17
0.903805592321,8
0.904525149414,19
0.904801011611,18
0.905665228751,12
0.906025542595,15
0.906637596854,15
0.90742938919,22
0.907572636788,18
0.908076448464,9
0.90870059722,22
0.909348897326,15
0.910465370785,34
0.911220725042,17
0.91165262025,44
0.911904787869,33
0.912277183767,73
0.913128753845,7
0.913489321241,70
0.913873832948,8
0.914388886222,15
0.915061205955,16
0.915528804898,9
0.916044970424,52
0.916909444581,15
0.917053054495,8
0.918336851541,8
0.919081584721,7
0.919548826393,11
0.920029582499,18
0.920580773662,12
0.920905735043,9
0.921745179913,15
0.922021104563,15
0.923030026959,19
0.923268564239,7
0.924469282496,16
0.92464869719,19
0.925537280776,10
0.926040919792,16
0.926209410716,9
0.926688955527,21
0.927493587941,15
0.927638018051,17
0.92834625297,8
0.928573173095,19
0.929821693728,17
0.930529441994,7
0.931153363462,23
0.931813559951,30
0.93265355723,21
0.933674508054,31
0.933936930081,18
0.934740576788,8
0.93579704726,19
0.936733385908,30
0.937128647419,18
0.937981135192,25
0.938640897641,36
0.939169699386,18
0.939457266721,21
0.940704812395,23
0.940825528635,47
0.94165341287,34
0.942013576893,29
0.942481359938,8
0.942625452732,19
0.943117225509,17
0.944065881307,8
0.944545020733,18
0.944772249688,8
0.945253346575,8
0.946416692303,15
0.946945229797,27
0.947221229712,16
0.947605055221,14
0.948169239248,15
0.948961898555,8
0.949141787861,17
0.950940406501,8
0.951145147421,17
0.95172111486,16
0.952489283952,18
0.952729032669,17
0.954013821545,9
0.954709885443,10
0.955381731083,17
0.955777479001,28
0.956461573697,29
0.956964561788,18
0.957648906529,14
0.958765326186,24
0.959029595538,17
0.959893483987,9
0.96087732452,12
0.961512835957,14
0.962256733903,17
0.962376831089,11
0.962929870812,10
0.963481095531,49
0.964177344511,17
0.965148235194,48
0.965677590508,31
0.966229366903,19
0.966853127019,21
0.968352963082,16
0.968917362344,18
0.969732608318,8
0.970513605377,18
0.970681029263,40
0.971568946178,17
0.972457578762,19
0.973957859748,18
0.974329229906,9
0.974761342654,30
0.975840575877,19
0.976309292244,8
0.976633144423,18
0.977593681328,16
0.97818152382,42
0.978409509037,28
0.97892485091,24
0.979692371144,17
0.980341038168,31
0.981457193277,18
0.982045259054,31
0.982620748427,45
0.983760730295,38
0.984024824001,57
0.985045378267,29
0.985585000284,88
0.985897012745,27
0.987553575745,14
0.987876938132,17
0.988440810061,16
0.989052641644,21
0.990036995941,8
0.990529399311,10
0.991080724739,21
0.992209250748,16
0.99253316462,8
0.993361385061,9
0.994129351463,25
0.995508404408,17
0.996360664495,8
0.996853033777,19
0.997116418719,20
0.998197197902,24
0.99876079379,19
0.999853158903,16
1.000200986931,9
1.001460652334,16
1.002013231458,15
1.00298579157,13
1.00340504606,39
1.003681130607,35
1.004293439772,16
1.005828612327,32
1.006320562344,19
1.006777404187,9
1.007401546596,17
1.00802522404,16
1.008205137331,27
1.008829312907,19
1.009933341327,15
1.010472755268,37
1.010593922425,69
1.01151724462,21
1.011913006294,9
1.01245278251,41
1.012873580445,22
1.013389820718,35
1.013628384683,11
1.01404940717,11
1.014565523546,51
1.014973714832,33
1.01542897259,16
1.016100863059,21
1.016701233402,14
1.018236866459,18
1.018692896046,27
1.018848619847,16
1.019472458481,13
1.019881227487,10
1.02106838229,15
1.021813115257,12
1.022413312073,20
1.024657158966,18
1.024825364513,9
1.025592462264,14
1.025737138174,25
1.026565099863,27
1.027033559956,15
1.027633006299,45
1.028004456826,16
1.029168682392,134
1.030044751154,16
1.030248710227,55
1.031341962146,16
1.032097514516,18
1.033093082568,19
1.033993140712,17
1.034881308398,8
1.035732920914,16
1.036345513423,17
1.037388603527,11
1.037904325144,21
1.038121097644,18
1.038829607511,67
1.03922439225,18
1.039369625739,9
1.03974114551,13
1.040748977489,19
1.041337554999,8
1.041492104202,74
1.042093319556,21
1.042669350166,8
1.042885609015,18
1.043570503772,12
1.04402452672,9
1.04416924804,25
1.045813815985,16
1.046197400531,16
1.047168352319,8
1.047769393679,18
1.048357388116,19
1.048692922741,19
1.049701939305,19
1.049845076445,32
1.050840892081,49
1.051717387939,10
1.052304811291,44
1.052640528199,13
1.053012763465,9
1.053276724197,9
1.05471652519,9
1.055208605467,16
1.056205538634,15
1.057260710012,11
1.057969340314,28
1.058208529608,57
1.059625464677,8
1.06072944437,8
1.061220319279,15
1.062276922302,8
1.062879735685,16
1.063416582182,26
1.064268447335,9
1.064785209158,9
1.064940587469,17
1.065817932242,52
1.06620060264,9
1.066344564595,8
1.067448733775,17
1.067749028278,16
1.068816340575,16
1.069213702009,8
1.069716881497,13
1.070161090803,41
1.070413537907,17
1.071265172474,9
1.071421430491,96
1.07186523426,20
1.072836222943,18
1.073436761297,16
1.074397299927,16
1.075032868272,18
1.075644316876,19
1.07632876065,18
1.076593814689,30
1.078093041398,26
1.078572888096,18
1.079569317582,9
1.079928850584,15
1.080288793684,8
1.080445097966,44
1.080877120179,7
1.081465008241,27
1.082052742009,15
1.083229740965,17
1.083733584825,39
1.084128631257,18
1.084668687171,20
1.085161235277,16
1.085520251009,15
1.086048724851,8
1.086901294609,12
1.087092749444,17
1.08838994333,8
1.088988659388,9
1.089612620262,16
1.089793212939,70
1.090392858284,28
1.091736523878,44
1.092025463809,8
1.092744965848,55
1.093632522327,8
1.093812502699,12
1.094280824637,14
1.095048821256,8
1.095193837113,54
1.095588909849,13
1.096225664917,17
1.096381698874,19
1.09686132318,8
1.097509129687,7
1.097880602327,15
1.098037522799,53
1.098709162868,43
1.0988767092,17
1.100461164313,17
1.10060518703,17
1.101793351344,17
1.103581670345,20
1.104192407038,25
1.104492815715,16
1.105092992774,11
1.106136948261,9
1.106677377373,15
1.106977181412,46
1.107853251424,14
1.108561447572,18
1.109149609432,27
1.109400896813,14
1.110456813174,8
1.111033531891,9
1.111513504364,82
1.112172773303,17
1.112616755363,17
1.113085353902,9
1.113889366554,69
1.114740776784,51
1.115149065016,7
1.11568922096,18
1.116516921294,13
1.117021336461,15
1.117608547264,19
1.117849070525,15
1.11895346903,15
1.119529153309,15
1.119672165225,26
1.120477693689,15
1.120908340085,19
1.121364945495,19
1.122241441008,42
1.122925215262,28
1.123141195075,26
1.123897191922,34
1.124508566318,17
1.125097426453,15
1.125240968736,10
1.125768768337,19
1.126632806566,47
1.12723311322,16
1.127725268401,16
1.128421416397,9
1.129020771846,10
1.129584568968,8
1.130172864817,15
1.1309283318,15
1.13163687858,27
1.131840906361,15
1.132753546793,16
1.133664843026,15
1.134384437827,8
1.134888878489,15
1.135249169355,19
1.136388481525,9
1.136905488705,23
1.13788882832,16
1.138548741713,12
1.138909350627,27
1.139869132859,15
1.140084775934,19
1.140973759491,8
1.142377110829,17
1.143336699115,16
1.143684550532,19
1.144644544766,21
1.144921069807,15
1.14663708032,27
1.147776396645,28
1.148209140708,32
1.148676954248,16
1.148820573686,16
1.149492499106,8
1.14988917074,19
1.150524475743,57
1.15111305085,8
1.151581474838,16
1.152409523284,28
1.152636586378,29
1.153489031937,10
1.154124622974,54
1.154293178615,20
1.155024966209,26
1.155480952126,12
1.155637448023,10
1.157077023315,15
1.157701099913,15
1.158384589109,17
1.158876003446,15
1.159488867075,30
1.159657309982,9
1.160208853428,20
1.161049511574,12
1.161457159892,16
1.161672889047,19
1.162993705899,17
1.163677862504,52
1.16446893908,93
1.164612876678,19
1.166293553388,8
1.167121546882,26
1.167876827068,11
1.168416780412,20
1.168572748227,30
1.169377519506,18
1.169929727851,16
1.170396786771,17
1.170984481944,31
1.171177488194,30
1.171536128068,19
1.172148791214,42
1.172556782238,7
1.172700554162,24
1.173024766761,16
1.173564680274,9
1.174608409467,9
1.174812850493,47
1.175581246753,48
1.17643260434,20
1.17687713753,17
1.177344269792,32
1.178040524187,7
1.178484405422,8
1.179001921466,32
1.179792634147,17
1.179937711042,27
1.180357256456,44
1.180921122665,8
1.181065557743,17
1.181425738204,14
1.18178454167,16
1.182492962303,19
1.18261313207,8
1.182959991854,27
1.183609173482,7
1.184965637149,7
1.18566110542,17
1.18614150758,8
1.187232747809,25
1.187352279838,13
1.187724683236,8
1.188540913286,8
1.189476797045,22
1.189632831697,39
1.190556684808,28
1.190929128841,48
1.192105359339,7
1.192585148817,18
1.19300462996,8
1.193389456763,8
1.193617353125,46
1.194409647922,8
1.19467363649,7
1.195333160522,8
1.196221011171,17
1.196376649259,15
1.196929429641,15
1.197829609165,10
1.19827303926,32
1.19840511592,18
1.198788695795,15
1.199941016079,16
1.201093505,7
1.201646188531,30
1.202832948314,66
1.203637373007,8
1.204128646725,35
1.205125051502,11
1.205833114447,64
1.20640870696,14
1.207176745023,8
1.207321819118,10
1.207705103051,33
1.208352634034,30
1.208988958781,8
1.209720920945,20
1.2103570717,30
1.210716499926,9
1.211125607012,12
1.211808628991,44
1.212720837873,7
1.213693699726,15
1.214460696502,16
1.215302039889,15
1.215529137227,16
1.216429461115,7
1.216633000301,17
1.217929240881,17
1.219057272844,26
1.219320939955,7
1.220028491239,11
1.221121296404,57
1.221577163927,12
1.22250089055,21
1.223677623096,18
1.224780814425,16
1.224901409411,19
1.225836993257,9
1.225981663219,8
1.226353638779,26
1.228248334407,8
1.228500476568,25
1.229520922795,11
1.230253004257,18
1.230877035759,54
1.231788365322,9
1.232101284675,9
1.232905245339,19
1.233157178155,62
1.233696411699,15
1.234440899006,9
1.235173549792,27
1.235832652604,11
1.236660606553,47
1.236817171129,8
1.237441530063,8
1.238100533617,22
1.238701068011,17
1.239553241465,19
1.239745653464,20
1.240428876912,28
1.240597161549,15
1.24191683329,63
1.242876578932,65
1.244065688835,24
1.244941595378,46
1.24521704162,8
1.24600942216,8
1.246656963547,12
1.247629332606,27
1.248625601417,10
1.249189343018,18
1.249837038112,18
1.250376680333,18
1.250640720992,19
1.251565551018,28
1.252152954075,26
1.252464777098,9
1.253292716395,29
1.253749908974,10
1.25434872296,18
1.254985400445,78
1.255608448186,8
1.256196993322,27
1.256341501427,20
1.256917853377,19
1.257505178617,8
1.257937717548,51
1.258405483309,17
1.258993424956,17
1.260037036226,16
1.26074462633,40
1.261356604942,15
1.261968923727,10
1.262869399713,17
1.263013648398,26
1.263721865192,17
1.264897166239,31
1.266096439159,32
1.26673285707,24
1.266852590617,9
1.267273159698,18
1.268413021298,17
1.268713274187,19
1.269576660132,66
1.270392899225,19
1.271136400403,32
1.271520892688,10
1.272264482794,16
1.272805413655,19
1.273728245618,14
1.273872313475,8
1.27454592609,14
1.274808604965,34
1.275901077117,18
1.276381335789,15
1.277760824541,34
1.278805061158,33
1.27911648524,16
1.27994613861,11
1.280820957161,8
1.281530312931,9
1.281998339627,26
1.283208794893,15
1.283736333936,17
1.284336585122,17
1.284685458215,8
1.285537261777,21
1.285704661186,92
1.286701975361,8
1.286844598881,9
1.287577909992,17
1.288164634881,40
1.289040236293,10
1.289713486436,12
1.290097161833,16
1.291021428993,8
1.291381714667,18
1.292017036076,18
1.293108810627,16
1.293624730924,54
1.294092296701,18
1.294524532314,8
1.295473396856,18
1.295748833905,38
1.296084537437,18
1.296685379991,9
1.297152747491,51
1.297308362755,41
1.297825396338,7
1.298532851761,11
1.298724873653,7
1.299517124951,18
1.299696840112,23
1.300128398893,16
1.300849732753,27
1.301556304337,8
1.302036752875,28
1.302672278465,20
1.303609001312,10
1.303752790222,8
1.304184953993,18
1.304796698199,31
1.3053969141,7
1.306021275631,16
1.306572429136,15
1.307544746492,27
1.307784718743,30
1.308613375798,16
1.309201195454,16
1.309968614881,12
1.310473009496,16
1.310893674754,64
1.311913405587,18
1.312271840755,14
1.313172768113,28
1.313341291632,17
1.314073179557,17
1.314792697221,11
1.314960694303,8
1.316376932881,40
1.317120992024,37
1.317277177618,13
1.318069968639,22
1.318213580835,7
1.319160624926,10
1.320217708628,18
1.321500977808,8
1.321704861714,17
1.322401189595,55
1.322832647773,30
1.323973220225,7
1.324141096292,8
1.32496899316,13
1.325257066181,11
1.326912807184,7
1.327873271349,32
1.328641000561,12
1.32900129396,20
1.329972948628,39
1.331352509707,42
1.331640280652,20
1.332121373868,58
1.333093114319,43
1.334317448904,20
1.335937694581,30
1.33672899652,16
1.336956476157,31
1.337761549604,8
1.339141232104,30
1.339932788415,30
1.340124277158,8
1.340485249438,31
1.342141099284,10
1.34346106203,53
1.343713004493,8
1.344600993191,25
1.345368897147,22
1.34586056254,26
1.34652051133,8
1.346640433521,28
1.347553508184,8
1.347696333868,20
1.348177302438,17
1.349124657418,15
1.349977238827,26
1.350972675149,15
1.351465370228,17
1.352400659983,8
1.35272423118,52
1.353349411133,30
1.353588562353,11
1.354477647319,24
1.354933619947,51
1.355172838987,27
1.355857015425,18
1.355988173681,63
1.356744370209,11
1.357440885796,17
1.357681395712,9
1.358593304436,9
1.358821303867,9
1.359648943555,17
1.360140305114,19
1.360380478478,27
1.361148468178,21
1.362120193715,16
1.362276947641,20
1.36300986707,9
1.364029009703,16
1.364629762792,17
1.364773223857,8
1.365264586297,17
1.365924635216,37
1.366081359533,35
1.366789917506,15
1.366933068241,17
1.367412899648,33
1.367808278034,20
1.368517629908,16
1.368684801842,30
1.369418195338,22
1.370124646388,40
1.370725367268,44
1.371673669705,18
1.371841197465,11
1.373173003098,8
1.374145002803,8
1.3746849649,10
1.375226103117,8
1.376736961128,10
1.377024683112,11
1.378069234193,28
1.379209090585,17
1.379712922963,19
1.380084994431,20
1.380649302174,18
1.381033015431,30
1.381477053945,23
1.381634675462,20
1.382436622069,25
1.383576631957,55
1.384164450458,16
1.384500314632,36
1.385245582478,16
1.385820952588,7
1.386398438032,9
1.386732851252,21
1.387213031727,9
1.387357288619,8
1.387946277232,9
1.388089036071,57
1.389396818047,36
1.389961176184,8
1.390225285032,18
1.391208429092,17
1.391653191588,46
1.392012146058,23
1.392528416956,16
1.393201005016,9
1.394256403378,15
1.394436493905,23
1.395000843554,16
1.395300473388,12
1.395937041248,16
1.396308739451,10
1.39646498935,24
1.397532389802,17
1.397940366475,7
1.39850485167,8
1.399116830551,9
1.399260272447,21
1.399597031711,8
1.400928603151,65
1.401193133808,20
1.401540348104,8
1.402620340042,21
1.403124627375,16
1.403725079792,7
1.404624430877,8
1.405212945544,12
1.405741229655,9
1.406952831216,7
1.407577513623,27
1.408513283893,33
1.408920903099,23
1.409917357665,27
1.411069053906,15
1.411213129898,67
1.412400907131,8
1.412976875051,25
1.413937015429,56
1.41510135847,22
1.415472836531,17
1.416540979645,30
1.417141189301,11
1.41756066732,20
1.418436487505,34
1.421028099776,8
1.42144917848,8
1.422313020122,13
1.423153364841,16
1.423752501194,20
1.42448496087,26
1.425468980905,8
1.4261766685,31
1.426789412225,16
1.42772536102,20
1.427880578808,16
1.428625075708,176
1.429633047413,8
1.430749527413,37
1.431001556446,17
1.431745153097,16
1.432608711523,40
1.433316863911,8
1.434241534222,18
1.434733001383,10
1.435608738623,19
1.436065451754,54
1.437241244619,10
1.437829351084,35
1.439088857019,34
1.439460767458,19
1.440409493556,14
1.441068742859,14
1.441213047606,40
1.443541329508,7
1.444116845431,41
1.445268472362,46
1.445736869621,19
1.44652910728,22
1.447309371566,19
1.447453620384,17
1.448016486788,35
1.448592646948,16
1.449181215216,53
1.450189256039,10
1.451244747476,56
1.45159227655,34
1.451820548489,8
1.45240838962,36
1.452853160911,16
1.453249080435,17
1.453765100977,12
1.453971993721,23
1.454472701498,18
1.454844504104,32
1.45558900096,18
1.456044853367,34
1.456213775522,8
1.457269368892,71
1.457832546486,8
1.458408664465,66
1.458877303712,8
1.459464667164,23
1.460052826324,17
1.461445242897,21
1.462452976899,8
1.463364718002,51
1.464384502208,29
1.464889338744,15
1.465201922756,18
1.465788542451,10
1.466448677646,8
1.467445112723,18
1.467745079027,45
1.468296581261,8
1.469016881503,10
1.470096584754,27
1.470672489885,54
1.471357521939,16
1.471513076242,15
1.472017310872,16
1.47271234177,18
1.473252850113,9
1.473372320034,26
1.47420075023,9
1.474681521058,15
1.475040462945,19
1.475424848406,18
1.475917557034,10
1.476289220252,22
1.476768375411,20
1.476996518721,9
1.478124834863,17
1.47871345092,9
1.478881558192,17
1.479949337899,16
1.480104261002,17
1.480584274937,16
1.48123334539,19
1.482228456812,11
1.482612749807,27
1.48345276272,8
1.484484063967,23
1.484748665241,21
1.485325041833,19
1.485564194005,44
1.486129245477,8
1.487136624362,7
1.487545481314,14
1.488348706449,18
1.488517633021,30
1.489272376108,45
1.489656620181,84
1.490400622978,20
1.491265143895,8
1.491733515757,11
1.491877014912,10
1.492633292333,15
1.493209619782,8
1.493677489022,22
1.494396601433,17
1.494565081385,10
1.495046117659,8
1.495548735082,17
1.498020835726,18
1.498273393388,8
1.498945700666,9
1.500432508182,17
1.501260479957,19
1.50211289516,9
1.502772354172,18
1.503110061139,17
1.503673787586,9
1.50468057277,27
1.50530472908,56
1.505724582429,20
1.506792450579,40
1.506913140376,8
1.507885920805,8
1.508088537534,20
1.508689011086,24
1.509672941051,7
1.510153398236,8
1.510849002231,17
1.512205162303,17
1.512697068477,8
1.513645222353,8
1.513981592673,26
1.514653582363,10
1.515648739259,19
1.51633276073,16
1.51708984922,15
1.517485390942,18
1.518013538587,12
1.518684764382,8
1.518961780252,18
1.519573149891,16
1.520880614621,17
1.522020308561,26
1.523136689217,11
1.523581096244,18
1.524804999048,19
1.525752464413,38
1.526173184793,29
1.527360830925,17
1.527685212815,8
1.528248506317,50
1.529052445271,19
1.529749299062,51
1.530696432221,17
1.531801371495,20
1.532401196495,132
1.532676712183,22
1.533240591901,155
1.534476362209,17
1.534716657008,12
1.53574874174,33
1.536625909034,20
1.537608898087,20
1.5378724475,41
1.538580893815,17
1.539433825581,27
1.540692360499,19
1.54094580331,15
1.542289921354,16
1.542576665589,30
1.543525104746,16
1.544425557403,13
1.545145032904,48
1.545984254471,16
1.546837497157,17
1.547305023111,16
1.547820590087,15
1.54864919606,7
1.549116500222,22
1.549440868279,12
1.549584210815,25
1.550377205742,14
1.551024730052,9
1.551492728208,14
1.553077329864,42
1.553712745601,17
1.554576981356,17
1.554864820344,64
1.555549123174,19
1.555992373799,32
1.556400644666,31
1.556820187503,16
1.557288351437,22
1.558092607245,36
1.55860927723,14
1.559076515419,25
1.559713241918,17
1.559892662425,17
1.561596879952,35
1.562066068005,17
1.562592792913,50
1.563156686417,17
1.564045012671,18
1.564200634793,19
1.564981357727,23
1.565328561621,16
1.565665782817,8
1.566265232121,19
1.567968842291,34
1.568520486721,14
1.569144243818,23
1.569673655432,31
1.570260304389,14
1.57066910182,7
1.571100615048,16
1.571232704495,29
1.571989366134,8
1.572132781671,15
1.572984899728,15
1.57344126062,10
1.573884528248,7
1.574544664051,38
1.575289564848,40
1.575529000279,11
1.576056534675,15
1.577256323879,8
1.577484473736,6
1.578300836242,7
1.578793677425,34
1.579296854553,9
1.57982471618,18
1.581000552623,7
1.581217096858,50
1.581889200306,29
1.582537230209,11
1.583220893903,18
1.58412094375,30
1.584564920649,16
1.584961898742,10
1.585452954362,19
1.586113072591,13
1.58677277128,25
1.587889065368,12
1.588320657857,17
1.589064815353,20
1.58935291788,16
1.5915485169,16
1.591812481366,11
1.592508553043,11
1.593636038876,8
1.594248890811,27
1.594560468502,16
1.595317358803,17
1.596552469005,22
1.596949085695,17
1.59750071642,11
1.598173468242,17
1.598664957234,35
1.599480579168,62
1.600092618725,12
1.600728661327,21
1.60111297035,24
1.602228719054,15
1.602733191869,7
1.603332429509,51
1.603464228383,19
1.603908684733,18
1.604401164202,19
1.605336738815,20
1.605577872396,13
1.60654932009,21
1.606789335283,36
1.607460476779,21
1.607929395226,16
1.609249764017,17
1.609896795766,11
1.610676874917,8
1.611576650093,25
1.61241667382,8
1.613052852626,26
1.613918337996,7
1.614792347302,20
1.615920444831,8
1.617108868345,57
1.617408641161,8
1.617997090714,7
1.618537289646,10
1.619113050693,26
1.620493241757,19
1.620756989791,84
1.621645367497,17
1.622880480149,34
1.623204511199,39
1.623851987758,14
1.624741518485,130
1.625041437456,15
1.625749066795,44
1.626672870447,42
1.626949296743,16
1.627825314311,15
1.628232784996,9
1.628893093101,19
1.629565559465,21
1.63020053357,17
1.630826441406,10
1.631365052989,17
1.631965644682,11
1.632733492081,16
1.63362040773,10
1.634280537743,16
1.634400310541,17
1.635360919345,21
1.636056332665,21
1.63670589134,17
1.636836761161,40
1.638445011022,9
1.639392627623,17
1.639836828416,32
1.639957040813,34
1.640508525694,12
1.641288941596,16
1.641528672333,22
1.641972136696,14
1.642236965271,9
1.642392324621,16
1.642668273029,17
1.642836901804,20
1.642980967937,16
1.643124182259,21
1.643257231164,15
1.643928375718,31
1.644132912933,15
1.644504971063,15
1.644732655586,42
1.644984546332,27
1.6452611861,33
1.645404513565,12
1.645680277971,11
1.646016568838,27
1.646232291741,12
1.646616798832,17
1.647132304853,42
1.647384067191,19
1.647551996447,8
1.647732049069,18
1.647851776605,18
1.647971905748,27
1.648092521175,33
1.648331801907,49
1.648500116885,13
1.648740011469,9
1.649004021306,7
1.649171977396,32
1.649291663329,15
