time,PerHopSim7.flowGenerator3.flowFinRttsToXConverge:vector
0.055799999894,6.9584
0.059279999894,3.9236
0.062519999893,3.99655
0.064199999885,3.94653
0.067439999869,3.94173
0.070679999853,3.95745
0.076199999826,6.9239
0.079799999808,5.96093
0.083039999792,3.97147
0.086519999775,3.99431
0.089879999758,2.9672
0.094079999737,9.94148
0.097199999722,2.96285
0.098399999716,-0.0500179
0.101879999699,3.98715
0.107519999671,5.98731
0.11171999965,6.93623
0.114479999637,-0.00693634
0.117479999622,1.93599
0.119399999612,5.96329
0.122279999598,-3.33333e-06
0.125519999585,2.97032
0.128999999585,3.95709
0.131759999585,-0.12827
0.136799999585,3.9196
0.140639999585,6.93307
0.142319999585,3.99133
0.146159999585,6.95028
0.152879999585,8.8928
0.154439999585,2.97727
0.157439999585,-0.0460035
0.162239999585,-0.107737
0.163919999585,3.93805
0.167159999585,3.98341
0.172439999585,5.97715
0.175919999585,3.9356
0.177119999585,-0.0184607
0.181919999585,-0.0304034
0.185159999585,3.93232
0.186719999585,2.89303
0.190319999585,6.97133
0.196319999585,9.90127
0.200279999585,7.9817
0.204119999585,6.93083
0.207839999585,7.961
0.212039999585,6.8872
0.216119999585,10.9468
0.219599999585,3.9776
0.222359999585,-0.117626
0.225839999585,3.93024
0.227519999585,3.97147
0.230279999585,-0.0700334
0.235799999585,5.9733
0.239039999585,3.9972
0.242519999585,3.93493
0.243719999585,-0.0472527
0.248999999585,2.9849
0.250679999584,3.98527
0.256559999571,6.936
0.260039999563,3.96136
0.263519999556,3.97849
0.267239999547,2.98214
0.270959999539,2.99397
0.27479999953,6.93212
0.27647999953,3.92672
0.28067999953,10.9693
0.28607999953,6.97601
0.28823999953,7.9841
0.29171999953,3.9147
0.29471999953,-0.0211006
0.30023999953,6.96808
0.30191999953,3.91524
0.30527999953,2.97331
0.30863999953,2.99637
0.31223999953,3.92996
0.31763999953,2.9625
0.32111999953,3.97216
0.32447999953,2.97583
0.32651999953,6.93402
0.33023999953,6.98637
0.33455999953,7.90877
0.33839999953,6.97768
0.34223999953,6.9793
0.34895999953,9.92915
0.35099999953,6.9373
0.35459999953,5.92743
0.36059999953,5.9364
0.36455999953,7.8953
0.36695999953,9.96173
0.37331999953,9.93439
0.37727999953,6.96877
0.37895999953,3.91267
0.38399999953,1.96197
0.38747999953,3.98604
0.38867999953,-0.114021
0.39335999953,-0.0440169
0.39503999953,3.88583
0.39995999953,2.94847
0.40211999953,7.94967
0.40547999953,2.98106
0.40883999953,4.9228
0.41207999953,2.94518
0.41687999953,3.9604
0.41807999953,-0.0689656
0.42263999953,-0.0775006
0.42431999953,3.98157
0.42815999953,2.98964
0.43139999953,3.99635
0.43571999953,-0.038895
0.43943999953,7.99659
0.44267999953,3.95586
0.44435999953,3.92461
0.44927999953,3.99686
0.45287999953,6.97423
0.45623999953,3.97085
0.45791999953,3.99561
0.46115999953,3.9125
0.46463999953,3.95317
0.46847999953,3.9274
0.47171999953,3.98089
0.47447999953,-0.0117698
0.47771999953,3.97585
0.48155999953,3.95501
0.48443999953,-0.0288219
0.48827999953,3.94896
0.49355999953,3.93235
0.49691999953,2.99783
0.49895999953,6.9839
0.503759999527,2.98346
0.506999999524,3.95277
0.508559999523,2.94343
0.513479999519,-0.109941
0.516839999516,2.99366
0.518519999515,3.9529
0.52415999951,3.90815
0.525839999508,3.8893
0.529199999506,2.98051
0.532079999503,-0.0159008
0.536879999499,-0.0993675
0.538439999498,2.97933
0.541919999495,3.97677
0.545519999492,4.94733
0.551399999488,7.91782
0.552599999488,-0.0996212
0.557399999488,-0.0692043
0.558599999488,-0.102938
0.564239999488,6.96305
0.568799999488,5.9827
0.570359999488,2.99907
0.573599999488,3.99964
0.577199999488,2.93698
0.582359999488,3.9301
0.585359999488,-0.0493932
0.587399999488,6.91303
0.592439999488,-0.0736042
0.596039999488,6.9126
0.597719999488,3.98959
0.602279999488,-0.0537376
0.605279999488,-0.0816043
0.608519999488,3.9561
0.609719999488,-0.0452043
0.612479999488,-0.0209376
0.617759999488,3.91955
0.621239999488,3.9303
0.623279999488,6.93823
0.626999999488,7.96706
0.631319999488,-0.0878709
0.632879999488,2.90885
0.637919999488,3.90136
0.639599999488,3.98919
0.644879999488,2.89946
0.647039999488,7.98801
0.651959999488,-0.0708043
0.655799999488,3.96506
0.657359999488,2.95784
0.661079999488,6.98954
0.664079999488,-0.0332982
0.669239999488,6.89943
0.672239999488,-0.0104908
0.675599999488,2.8949
0.678359999488,-0.0944043
0.680039999488,3.94722
0.685199999488,4.9485
0.686399999488,-0.0507857
0.689159999488,-0.0596043
0.691919999488,-0.0629376
0.695159999488,3.96313
0.697919999488,-0.0346709
0.702719999488,3.93813
0.705479999488,-0.0505665
0.708479999488,-0.0612299
0.709679999488,-0.0845676
0.712919999488,3.97292
0.716399999488,3.94419
0.719759999488,2.98901
0.723239999488,3.9809
0.728399999487,4.93186
0.729599999487,-0.0478709
0.732359999487,-0.0679615
0.735119999486,-0.0902637
0.738359999486,3.97459
0.741239999486,-0.0135009
0.746279999485,3.9184
0.749519999485,3.96823
0.750719999485,-0.0103021
0.755639999484,3.98118
0.757319999484,3.98916
0.760919999484,4.96781
0.763799999484,-0.0149676
0.768839999483,3.95177
0.770039999483,-0.103368
0.774839999482,-0.097101
0.778439999482,6.93688
0.782279999482,3.94245
0.784319999482,6.97322
0.787919999481,6.93755
0.790679999481,-0.0633676
0.793439999481,-0.0921676
0.79823999948,3.946
0.79979999948,2.9833
0.804959999479,-0.00174761
0.806999999479,6.92041
0.810599999479,6.99957
0.813959999479,3.9473
0.819119999478,4.9247
0.820679999478,2.99221
0.823919999478,3.95253
0.827159999477,3.93206
0.830519999477,4.99574
0.835559999476,3.99857
0.837239999476,3.97523
0.839999999473,-0.00828061
0.843479999473,3.979
0.847079999473,6.9471
0.852239999472,3.97488
0.85463999947,9.9992
0.858599999469,3.95463
0.862319999468,6.98255
0.868319999464,6.97453
0.872279999462,3.96195
0.874319999461,6.99545
0.879599999457,-0.0593827
0.881759999456,7.9365
0.886559999453,3.91573
0.890399999451,6.97085
0.892559999449,7.9636
0.897599999446,3.91714
0.901559999444,5.97611
0.905039999442,5.98007
0.907079999441,6.9636
0.913079999437,6.98973
0.916319999435,3.91878
0.919559999433,-0.0118482
0.922679999431,2.99904
0.92435999943,3.94232
0.929159999427,3.96438
0.931919999426,-0.097498
0.935159999423,3.97142
0.938639999421,3.99266
0.94031999942,3.96764
0.945359999417,3.96312
0.947039999417,3.98277
0.952439999414,7.93628
0.954119999412,3.96007
0.959399999409,7.95359
0.961079999408,3.9855
0.966839999404,3.92469
0.970319999402,3.98717
0.973559999401,3.94986
0.976559999398,-0.0461227
0.978239999398,3.98584
0.981479999395,3.94136
0.984599999394,1.9984
0.989879999391,3.93474
0.991559999389,3.91116
0.996839999386,3.92225
0.999839999385,-0.0959004
1.001999999373,7.90219
1.007399999338,6.98417
1.011119999315,7.92359
1.012799999304,3.9327
1.01807999927,7.98844
1.021799999246,7.97297
1.025039999226,3.93559
1.026599999216,2.94426
1.029839999195,3.92132
1.034999999162,4.90132
1.036679999151,3.94143
1.040279999128,6.97825
1.045079999098,3.95437
1.046759999087,3.98586
1.050599999063,6.92546
1.053839999042,3.94223
1.05887999901,3.90548
1.062599998986,5.96116
1.064279998975,3.95315
1.069319998943,3.96426
1.070999998932,3.89282
1.074719998909,3.95487
1.080119998874,6.99718
1.084319998847,6.9885
1.088279998822,3.95179
1.0917599988,3.99609
1.093439998789,3.97622
1.099079998753,6.97918
1.10279999873,5.98061
1.103999998722,-0.0734117
1.107359998701,2.98856
1.111919998671,-0.0298198
1.113599998661,3.95891
1.119359998624,3.95579
1.122599998603,3.94838
1.125599998584,-0.0502777
1.128599998565,-0.000565483
1.132079998543,3.91931
1.135319998522,3.91504
1.136519998514,-0.0108124
1.141559998482,3.99405
1.144799998461,3.96885
1.148279998439,3.94893
1.149479998432,-0.110412
1.154279998401,3.98015
1.157759998379,3.96494
1.161239998356,3.98362
1.163279998343,6.92172
1.168799998308,2.9992
1.171559998291,-0.102548
1.17323999828,3.95079
1.176959998256,7.98576
1.180679998232,3.90808
1.184519998208,7.93477
1.189559998176,3.90951
1.192919998154,4.95617
1.19663999813,2.97363
1.200119998108,3.97635
1.202279998094,7.95797
1.207559998061,3.94175
1.21079999804,3.96059
1.214159998018,3.98712
1.216319998005,7.94611
1.22015999798,6.95719
1.223759997957,6.94022
1.227239997935,3.93014
1.2327599979,7.97443
1.236599997875,7.94518
1.238639997862,6.99381
1.243439997831,3.97834
1.247039997809,4.91558
1.250519997786,3.93537
1.253759997766,3.99889
1.255439997755,3.93411
1.260599997722,-0.0356877
1.262999997707,9.98305
1.268159997674,3.99743
1.270199997661,6.97906
1.275719997625,3.947
1.277399997615,3.96105
1.281959997585,6.96405
1.28591999756,8.97396
1.291319997526,3.91335
1.295159997501,6.93785
1.297199997488,6.96303
1.301999997458,-0.0685223
1.303559997448,2.91091
1.307039997425,3.95473
1.310279997405,-0.00308829
1.313519997384,3.91382
1.318559997352,5.94844
1.321319997334,-0.0505555
1.32347999732,7.97239
1.326839997299,-0.0990892
1.333679997255,6.93012
1.337279997232,2.93231
1.338959997221,3.95184
1.342679997198,2.9708
1.348679997159,6.95406
1.352759997133,3.91385
1.355519997116,-0.0329571
1.358519997097,-0.112423
1.360199997086,3.96531
1.363199997067,-0.0462911
1.366439997046,1.97784
1.371599997013,4.91364
1.375799996986,7.93104
1.377479996975,3.99373
1.381799996948,7.95945
1.386839996916,3.93251
1.390199996894,4.93343
1.393439996874,3.98593
1.396799996852,3.93012
1.400039996831,3.99205
1.402079996818,6.92972
1.404839996801,-0.0574926
1.40807999678,2.9942
1.411319996759,3.92211
1.414679996738,2.98774
1.417919996717,3.98144
1.423079996684,6.93194
1.424759996674,3.95434
1.427999996653,3.94849
1.431839996628,6.9693
1.437239996594,5.98197
1.439039996582,4.99174
1.442399996561,2.94154
1.446959996532,-0.109496
1.448999996519,6.92824
1.454279996485,3.92683
1.457759996463,3.95968
1.461719996438,7.95316
1.465319996415,6.94116
1.466999996404,3.97157
1.47071999638,7.98704
1.473959996359,3.94667
1.47851999633,-0.0434972
1.480319996319,4.97897
1.484039996295,7.95282
1.487399996274,2.90926
1.490999996251,6.89828
1.49423999623,3.95748
1.497839996207,6.9757
1.501079996186,3.96625
1.506119996154,3.91983
1.507319996146,-0.0532321
1.511279996121,7.90285
1.516679996087,3.97369
1.520159996064,3.96851
1.52399999604,7.96776
1.527599996017,6.91579
1.531079995995,3.94845
1.534559995972,3.96486
1.536599995959,6.98609
1.541879995926,3.87599
1.543919995913,6.92464
1.547639995889,3.94403
1.552799995856,3.9333
1.55687999583,6.98343
1.55843999582,2.90053
1.563359995788,2.92771
1.565039995778,3.94716
1.570199995745,-0.0285988
1.571879995734,3.95567
1.5772799957,2.96734
1.580759995677,3.94466
1.582679995665,5.93729
1.587479995634,10.9767
1.592399995603,2.99336
1.59443999559,6.96663
1.597799995568,2.93167
1.60223999554,-0.0180671
1.605479995519,3.94783
1.608839995498,-0.00283571
1.610519995487,3.98087
1.615559995455,3.92576
1.617239995444,3.91072
1.622519995411,2.95394
1.624559995398,6.97946
1.627559995378,-0.0276606
1.630919995357,3.97086
1.633679995339,-0.0670122
1.638719995307,3.95023
1.640399995296,3.92439
1.643159995279,-0.0388393
1.646399995258,3.93276
1.651799995224,6.91921
1.655399995201,6.96209
1.658879995178,3.92553
1.661639995161,-0.108574
1.66331999515,3.9531
1.666799995128,3.95963
1.6711199951,-0.00324083
1.673879995083,-0.074041
1.677119995062,3.92955
1.678799995051,3.91286
1.683599995021,3.98801
1.68527999501,3.9271
1.690199994978,3.92207
1.69307999496,-0.0795087
1.695839994942,-0.0325562
1.697399994932,2.92876
1.701839994904,-0.0587521
1.704839994885,-0.0352426
1.707719994867,-0.0183094
1.711199994844,3.93889
1.712879994834,3.94982
1.716359994811,3.90142
1.721639994778,3.94335
1.724879994757,3.98628
1.726439994747,2.98024
1.731479994715,3.90104
1.734839994693,3.99244
1.736399994683,2.91818
1.739759994662,2.94885
1.743479994638,2.98099
1.747319994614,6.94967
1.752839994578,3.93403
1.756439994555,6.90899
1.758599994542,7.96891
1.76195999452,3.93514
1.765199994499,2.99595
1.76987999447,-0.03945
1.773119994449,3.98592
1.775879994431,-0.107675
1.777079994424,-0.00762352
1.781879994393,3.93318
1.785119994372,3.98462
1.786319994365,-0.0959436
1.791239994333,2.92406
1.794719994311,3.96315
1.795919994303,-0.00256581
1.800719994273,3.94871
1.803959994252,3.96166
1.805639994241,3.9806
1.811039994207,6.92079
1.812719994196,3.91625
1.818479994159,3.97232
1.822559994133,6.98681
1.825799994112,-0.0127043
1.829759994087,3.94313
1.833599994063,6.99682
1.837439994038,6.91864
1.839119994027,3.87472
1.842359994007,3.93231
1.847039993977,2.94752
1.848719993966,3.96748
1.851959993945,3.91446
1.857119993912,6.99661
1.860959993888,7.95928
1.864439993866,3.98336
1.867919993843,3.99112
1.871159993823,3.97599
1.872359993815,-0.0280815
1.877519993782,3.94488
1.879199993771,3.96977
1.884239993739,3.95605
1.885919993728,3.93062
1.891439993693,3.96774
1.893119993683,3.96072
1.897079993657,7.9302
1.902119993625,3.91514
1.903799993614,3.99682
1.908839993582,3.99088
1.91231999356,3.99032
1.91387999355,2.977
1.916639993532,-0.0991281
1.921319993502,2.99482
1.925159993478,6.96044
1.926839993467,3.96804
1.930439993444,3.99647
1.933439993425,-0.0365874
1.938239993394,3.93024
1.939919993384,3.92982
1.944719993353,3.93573
1.948079993332,2.92634
1.950119993319,6.96446
1.953839993295,5.95898
1.958879993263,3.96072
1.960559993252,3.96463
1.965239993222,2.95911
1.966919993211,3.92389
1.969679993194,-0.00141408
1.972919993173,3.91038
1.975679993155,-0.00645628
1.978439993138,-0.0863043
1.983719993104,2.97847
1.985399993093,3.95606
1.99055999306,3.94311
1.992599993047,6.99338
1.998119993012,6.93726
1.999919993,4.9245
2.003639992985,7.98701
2.006519992973,-0.0192406
2.011919992949,3.93927
2.015159992935,3.93877
2.019119992918,3.98007
2.020679992912,2.95124
2.025959992889,1.90604
2.029319992874,4.91157
2.033159992858,6.99361
2.036519992843,3.92343
2.040239992828,6.982
2.042279992819,6.92154
2.048039992794,3.92441
2.049719992786,3.96316
2.054879992764,3.98931
2.056559992757,3.94866
2.060759992739,9.94199
2.066399992715,3.95304
2.070479992697,9.91778
2.073959992682,3.99923
2.077199992668,2.97826
2.080799992652,6.92592
2.082479992645,3.97296
2.087639992623,3.97971
2.090999992609,2.9352
2.093999992596,-0.0948917
2.097479992581,3.89601
2.100959992565,3.94966
2.105039992548,10.9687
2.10695999254,5.94028
2.111039992522,10.9391
2.116799992497,7.98674
2.120399992482,4.96576
2.124359992465,3.97949
2.126399992456,6.94115
2.132879992428,3.96555
2.136359992413,3.94783
2.139719992398,3.94711
2.141519992391,4.99564
2.144519992378,-0.0926969
2.149439992356,3.99497
2.153039992341,6.97649
2.156399992326,4.99184
2.158079992319,3.98975
2.163239992297,6.97684
2.167439992279,7.95829
2.171039992263,6.94801
2.175359992245,6.98987
2.177039992238,3.99194
2.180879992221,3.94538
2.186279992198,6.97924
2.187479992193,-0.0388536
2.192519992171,3.98968
2.195759992157,3.99369
2.197679992148,5.99761
2.200439992139,-0.123318
2.205959992126,6.93732
2.207639992122,3.9815
2.212319992111,10.9791
2.215799992103,3.93323
2.220599992091,-0.0497534
2.223359992085,-0.113368
2.226839992076,3.94324
2.230439992068,6.90728
2.232599992062,7.9662
2.236199992054,6.9673
2.239919992045,5.96402
2.243999992035,10.9609
2.249519992022,7.90477
2.251559992017,6.94189
2.255039992009,3.94472
2.259839991997,1.92396
2.263319991989,3.92909
2.267279991979,7.9041
2.270759991971,3.99143
2.272559991967,4.97676
2.276039991958,3.999
2.27939999195,3.97174
2.284559991938,5.92886
2.288279991929,7.94411
2.289959991925,3.9317
2.295239991913,3.9514
2.297279991908,6.95012
2.302799991894,3.98952
2.306399991886,6.91663
2.309879991877,3.95936
2.312399991871,10.968
2.317679991859,3.98958
2.319719991854,6.93581
2.324999991841,3.96229
2.328839991832,6.94833
2.332679991823,6.93779
2.336639991813,7.9087
2.340839991803,9.91688
2.342879991798,6.95543
2.348039991786,3.96323
2.349719991782,3.92539
2.355239991769,3.9983
2.356439991766,-0.00897165
2.361239991755,3.97574
2.364479991747,3.94977
2.366159991743,3.96258
2.369879991734,5.94263
2.374919991722,3.98877
2.378159991714,3.9145
2.381399991706,3.98108
2.383079991702,3.91919
2.38799999169,-0.00856885
2.390999991683,-0.0118002
2.393759991677,-0.0287274
2.394959991674,-0.0904648
2.399519991663,-0.0238929
2.402759991655,3.92913
2.406119991647,4.94329
2.408279991642,7.91249
2.413799991629,7.92806
2.415479991625,3.9866
2.420279991613,3.98901
2.421959991609,3.93366
2.425199991601,3.93593
2.428679991593,3.97676
2.431919991585,3.96035
2.435159991578,3.99824
2.440319991565,6.98495
2.44235999156,6.91493
2.445599991553,3.96474
2.449079991544,3.99983
2.45495999153,5.98158
2.456999991525,6.93348
2.460479991517,3.91583
2.466119991503,6.92143
2.4676799915,2.98454
2.472839991487,3.99195
2.476679991478,7.98069
2.478359991474,3.91027
2.481599991466,3.99872
2.486639991454,3.98142
2.487839991451,-0.052754
2.493479991438,6.97554
2.495159991434,3.93086
2.500319991422,3.94873
2.501999991418,3.99058
2.505479991409,4.98154
2.510759991397,3.97124
2.512439991393,3.97181
2.517479991381,3.95234
2.518679991378,-0.0394212
2.522279991369,3.99588
2.525639991361,4.97969
2.53019999135,-0.0488922
2.534159991341,7.85805
2.537519991333,2.91725
2.539679991327,7.98066
2.542439991321,-0.120888
2.547599991308,4.95087
2.549759991303,7.98953
2.553239991295,3.97272
2.558639991282,6.99214
2.561639991275,-0.0926221
2.564639991268,-0.116605
2.568119991259,3.98572
2.569799991255,3.92524
2.574599991244,-0.0734224
2.577959991236,2.98844
2.579639991232,3.95941
2.582879991224,3.94659
2.585879991217,-0.0507559
2.591039991204,3.97124
2.5927199912,3.96553
2.596199991192,3.99886
2.601959991178,4.96161
2.603159991175,-0.0141461
2.609159991161,6.95799
2.612639991153,3.96668
2.614319991149,3.99735
2.61779999114,1.93843
2.621159991132,2.98992
2.624639991124,3.92882
2.629679991112,3.98895
2.632679991105,-0.0787569
2.634959991099,8.99432
2.640119991087,3.94806
2.643719991078,2.98191
2.64719999107,3.95196
2.650559991062,3.99487
2.654039991054,3.94031
2.65571999105,3.96626
2.659199991041,3.97997
2.662799991033,6.95311
2.666039991025,3.9488
2.671079991013,3.91972
2.674559991004,5.98673
2.676119991001,2.97589
2.681519990988,2.99404
2.684999990979,3.91908
2.687999990972,-0.100453
2.691119990965,2.95311
2.692679990961,2.95486
2.695919990953,3.93093
2.700959990941,3.96356
2.704079990934,2.93004
2.707799990925,7.97394
2.70983999092,6.977
2.713079990912,3.98116
2.7181199909,2.98566
2.721599990892,3.98226
2.725199990883,3.96699
2.728439990875,3.94064
2.729639990873,-0.116225
2.732399990866,-0.0744761
2.735639990858,3.99078
2.741039990845,3.9549
2.742719990841,3.97302
2.745839990834,2.98712
2.749799990824,3.99578
2.753399990816,6.93116
2.756999990807,3.95737
2.762399990794,6.90057
2.76395999079,2.98205
2.769359990778,5.97061
2.77235999077,-0.0938743
2.775479990763,2.90907
2.778959990755,3.91486
2.780519990751,2.99922
2.786519990736,6.99166
2.790359990727,6.90317
2.792399990722,6.96296
2.797799990709,6.97286
2.801279990701,-0.0198795
2.804519990693,3.95168
2.807759990686,3.96215
2.811119990678,3.93232
2.812799990674,3.93152
2.816279990665,3.94604
2.821559990653,3.93957
2.823239990649,3.95833
2.828039990637,3.9768
2.831759990628,3.91836
2.833439990624,3.91239
2.839079990611,3.95969
2.840759990607,3.91012
2.844719990597,7.99357
2.848319990589,6.99485
2.85167999058,2.97545
2.857439990567,6.98508
2.859119990563,3.91906
2.86439999055,3.93633
2.865599990547,-0.00272222
2.870639990535,2.94112
2.872319990531,3.97154
2.87711999052,-0.0230528
2.880359990512,3.98005
2.881559990509,-0.126448
2.886359990497,2.94032
2.887559990495,-0.0454795
2.891279990486,3.98368
2.894639990478,-0.0109901
2.900639990463,6.97666
2.904239990455,6.87239
2.908079990445,7.96577
2.911439990437,3.89712
2.912999990434,2.96725
2.917559990423,-0.0112324
2.921279990414,7.9158
2.924879990405,6.98152
2.926439990402,2.96179
2.93135999039,2.94685
2.934599990382,3.95999
2.936639990377,6.98607
2.939999990369,2.95072
2.945399990356,5.96992
2.947439990351,6.97019
2.952479990339,3.92576
2.953679990336,-0.0271472
2.958599990325,4.96619
2.961719990317,2.90739
2.963399990313,3.94065
2.966519990306,2.94765
2.971319990294,3.95459
2.97287999029,2.95508
2.978159990278,7.91736
2.982119990268,7.90976
2.983799990264,3.97296
2.987279990256,-0.0356812
2.990159990249,-0.0106146
2.993159990242,-0.013548
2.996879990233,7.96232
3.002039990221,3.94634
3.005519990212,3.95419
3.007199990208,3.95503
3.0104399902,2.92659
3.013919990192,3.91759
3.018719990181,2.99938
3.020399990177,3.95772
3.023879990168,3.91618
3.028199990158,-0.0809272
3.029879990154,3.9956
3.032639990147,-0.123015
3.036959990137,-0.0205564
3.038159990134,-0.0100822
3.043679990121,6.91925
3.045719990116,6.91005
3.050279990105,-0.0272128
3.051839990101,2.90572
3.055079990094,2.93905
3.058559990085,3.97018
3.062039990077,3.91554
3.065519990069,4.90657
3.06911999006,6.90799
3.074759990046,7.98606
3.076439990042,3.91748
3.079679990035,3.98014
3.084719990023,3.94826
3.086399990019,3.91595
3.091679990006,3.95208
3.095279989997,6.97736
3.097319989992,6.91426
3.101639989982,7.96352
3.107639989968,-0.0148358
3.109799989963,7.91079
3.113279989954,3.99987
3.118319989942,3.93064
3.121319989935,-0.117081
3.122519989932,-0.0804146
3.127919989919,5.95405
3.132239989909,6.89565
3.1360799899,7.99985
3.13991998989,6.98445
3.143759989881,7.9132
3.145319989878,2.97004
3.151079989864,3.95454
3.154319989856,3.9201
3.155879989852,2.96732
3.161279989839,6.96673
3.162959989835,3.9467
3.167399989825,-0.0467515
3.170639989817,3.90189
3.171839989814,-0.0668849
3.174839989807,-0.00341828
3.1775999898,-0.0138183
3.182519989788,2.9796
3.184199989784,3.97032
3.187439989777,3.97443
3.192119989765,2.95791
3.194879989759,-0.00227457
3.198119989751,3.92058
3.199679989747,2.99133
3.205079989734,6.91871
3.20675998973,3.96125
3.210119989722,-0.0652856
3.213479989714,2.98325
3.218639989702,3.92269
3.220199989698,2.96125
3.22367998969,3.96718
3.228839989678,-0.0195854
3.230519989674,3.98788
3.233879989666,2.94078
3.237119989658,3.90197
3.242399989645,3.95412
3.245639989637,3.95045
3.246839989635,-0.087341
3.250439989626,3.96898
3.253799989618,2.87805
3.257639989609,3.96543
3.262559989597,2.99707
3.266039989589,3.96332
3.269879989579,6.92526
3.273119989572,3.95492
3.274799989568,3.99741
3.279719989556,-0.0380177
3.283079989548,3.94644
3.284759989544,3.95465
3.290039989531,3.99786
3.291719989527,3.94903
3.296279989516,-0.100754
3.299279989509,-0.0307541
3.302639989501,3.89345
3.304319989497,3.95018
3.307799989489,5.97998
3.310559989482,-0.0518608
3.315119989471,-0.101421
3.316679989467,2.9645
3.322319989454,3.89824
3.32387998945,2.96631
3.329639989436,5.88456
3.332999989428,-0.0232311
3.334679989424,3.94625
3.338159989416,3.92954
3.343079989404,3.93158
3.3446399894,2.96811
3.349919989388,2.98338
3.35315998938,3.91397
3.356999989371,6.93045
3.358199989368,-0.0133473
3.362999989356,3.96305
3.364559989353,2.99222
3.368279989344,2.87246
3.373559989331,2.93418
3.377399989322,3.95844
3.378959989318,2.9398
3.384119989306,3.95604
3.386159989301,6.97966
3.391079989289,3.97799
3.392759989285,3.95844
3.396119989277,2.92364
3.39923998927,2.90698
3.404279989258,2.94808
3.406319989253,6.97678
3.409799989244,3.92247
3.413039989237,3.93164
3.418199989224,3.95634
3.420719989218,10.9887
3.424799989208,10.9175
3.430199989196,6.96418
3.434639989185,8.95271
3.436319989181,3.95804
3.441839989168,3.93589
3.44507998916,-0.0402877
3.446759989156,3.93598
3.450599989147,6.93792
3.455759989134,2.89233
3.459359989126,2.89191
3.462359989119,-0.0978687
3.46595998911,6.97605
3.467159989107,-0.0101641
3.470399989099,3.93261
3.473879989091,3.95164
3.47843998908,-0.0390243
3.481679989072,3.9716
3.483359989068,3.99044
3.488399989056,3.98663
3.491399989049,-0.0540913
3.492599989046,-0.106825
3.497399989035,3.94351
3.500399989028,-0.0326654
3.50363998902,3.93951
3.505319989016,3.97385
3.508559989008,3.94058
3.512039989,3.98758
3.515159988992,2.93791
3.518399988984,3.98977
3.522239988975,6.95511
3.525479988967,3.97537
3.530639988955,2.98017
3.534359988946,4.97644
3.536039988942,3.99593
3.539639988934,3.93444
3.544439988922,-0.0356915
3.547919988914,3.98872
3.549959988909,6.98911
3.553439988901,3.88991
3.559439988886,3.99204
3.563279988877,3.99585
3.564479988874,-0.0346906
3.569279988863,-0.135826
3.572039988856,-0.0215595
3.573719988852,3.99524
3.576479988845,-0.121826
3.581759988833,3.9324
3.584759988826,-0.0139598
3.586559988821,4.96132
3.589559988814,-0.0756932
3.592319988807,-0.0451599
3.597479988795,3.9798
3.599159988791,3.96542
3.604199988779,3.95564
3.605879988775,3.92111
3.610679988764,-0.0340764
3.612719988759,6.94244
3.615479988752,-0.103027
3.620759988739,3.97702
3.623999988732,2.99894
3.627239988724,3.93431
3.630239988717,-0.167027
3.633479988709,2.99955
3.6371999887,6.94434
3.640439988692,3.99524
3.641639988689,-0.0885792
3.646439988678,3.92377
3.647639988675,-0.032046
3.650879988667,3.95191
3.655439988656,-0.0747128
3.659039988648,6.99013
3.660719988644,3.97883
3.663959988636,3.98071
3.668399988625,-0.00124641
3.670199988621,4.99993
3.67499998861,-0.0506283
3.6789599886,7.93297
3.682319988592,3.95748
3.683999988588,3.99515
3.687599988579,5.98408
3.691079988571,3.98832
3.694559988563,3.91235
3.700799988548,7.9875
3.702359988544,2.88049
3.70823998853,6.91616
3.711959988521,2.88608
3.715199988513,3.9455
3.718679988505,3.99271
3.722159988497,3.99515
3.725999988487,5.98737
3.730079988478,6.90229
3.73343998847,-0.0150126
3.736799988462,-0.000229483
3.740519988453,7.97297
3.744599988443,10.9003
3.748799988433,5.92684
3.752159988425,3.90632
3.753839988421,3.96051
3.757679988412,3.97734
3.763919988397,10.9344
3.768239988386,3.98608
3.772079988377,3.93006
3.77507998837,-0.0645312
3.778559988362,3.92771
3.782399988352,6.99994
3.783959988349,2.91452
3.787319988341,2.94657
3.790799988332,3.9327
3.794759988323,9.95894
3.798239988315,3.99354
3.801479988307,3.91399
3.804959988298,3.96888
3.810479988285,5.96857
3.814319988276,6.99475
3.818039988267,5.96032
3.822119988257,6.89337
3.825599988249,3.96097
3.828959988241,2.95115
3.832439988233,3.90853
3.835919988224,3.90755
3.839399988216,3.96728
3.842639988208,-0.0158316
3.844319988204,3.91386
3.849599988192,3.98453
3.851279988188,3.92728
3.856919988174,6.99982
3.860279988166,3.96338
3.862319988161,6.97657
3.865319988154,-0.074055
3.870119988142,1.8863
3.873119988135,-0.0995655
3.876359988128,3.98645
3.878039988123,3.98991
3.881039988116,-0.0283189
3.886439988103,2.87177
3.8876399881,-0.0710325
3.89195998809,-0.0144897
3.894719988084,-0.073166
3.897959988076,3.94528
3.901559988067,6.90981
3.904799988059,3.96137
3.906839988055,6.97839
3.910319988046,3.9963
3.915479988034,3.97612
3.918479988027,-0.0165713
3.921959988018,3.99265
3.923159988015,-0.1109
3.928199988003,3.9563
3.931439987996,3.87577
3.935159987987,2.97302
3.937199987982,6.93263
3.94235998797,3.8839
3.943559987967,-0.0906336
3.949199987953,6.9816
3.952799987945,6.97275
3.956039987937,3.93575
3.95879998793,-0.0678339
3.960479987926,3.9753
3.963719987918,3.98173
3.969359987905,10.9158
3.973679987895,3.9191
3.974879987892,-0.0938342
3.978719987882,3.94483
3.98411998787,6.99858
3.987599987861,-0.0597011
3.990479987854,-0.0173169
3.993719987847,3.9219
3.995399987843,3.94451
4.000079987831,2.97595
4.002839987824,-0.0799681
4.00451998782,3.9691
4.007759987812,2.99592
4.013519987798,7.93022
4.015199987794,3.94334
4.020839987782,3.97773
4.022879987776,6.95036
4.027559987766,-0.0921869
4.030799987758,-0.0104999
4.032839987752,6.97283
4.03775998774,-0.0130355
4.039799987736,6.91931
4.043519987727,5.96088
4.048799987714,3.99042
4.052759987705,7.94335
4.056599987696,6.99489
4.060319987686,6.9283
4.06283998768,10.9438
4.066679987672,3.9779
4.072079987658,6.98847
4.073759987654,3.99025
4.077239987645,3.8974
4.081079987635,6.92527
4.084199987629,-0.00454252
4.088039987619,3.98624
4.093559987606,6.99335
4.096799987599,3.97076
4.100039987591,3.88575
4.103399987581,3.95176
4.105079987577,3.91798
4.110359987564,3.97524
4.11251998756,7.88541
4.115759987552,2.95621
4.12091998754,-0.136589
4.122599987536,3.95721
4.127399987523,-0.0323404
4.129439987517,6.89684
4.133039987509,6.99657
4.138559987495,3.93285
4.139759987493,-0.0829209
4.143239987485,3.9915
4.146839987476,6.99261
4.150079987468,3.97997
4.153799987457,7.98248
4.158599987443,3.93648
4.160399987439,4.95488
4.163879987428,3.96854
4.167359987418,3.9353
4.172279987404,2.99949
4.173479987401,-0.104036
4.178159987388,-0.08719
4.181279987379,2.94955
4.184759987369,3.96395
4.188479987359,3.90861
4.189679987354,-0.051257
4.192799987346,2.99636
4.198079987331,3.91981
4.199279987327,-0.111446
4.20527998731,6.9229
4.209119987299,6.93896
4.212119987291,-0.0230904
4.215479987281,2.96541
4.219079987271,4.93055
4.222439987262,2.94429
4.224119987257,3.99025
4.229159987242,3.95997
4.231319987237,7.91568
4.235039987225,6.96227
4.240199987211,2.97713
4.2436799872,3.98229
4.245719987196,6.96606
4.249679987184,7.9525
4.253159987174,3.89477
4.256039987166,-0.0139598
4.259399987157,2.98532
4.263239987145,6.96307
4.268759987129,7.93066
4.27175998712,-0.064374
4.274639987113,-0.0386785
4.276679987106,6.96818
4.282079987091,3.87986
4.283759987087,3.91631
4.286519987079,-0.123279
4.291679987065,3.9674
4.293839987058,7.87171
4.297679987047,7.90525
4.30343998703,3.90855
4.306439987021,-0.00594987
4.307999987017,2.97007
4.312799987003,3.90587
4.314839986998,6.91198
4.318079986989,3.94809
4.32119998698,-0.0554962
4.32479998697,3.99569
4.330079986955,3.9462
4.33175998695,3.89341
4.337039986934,3.91576
4.33871998693,3.99559
4.343879986916,2.90994
4.345079986911,-0.00569162
4.350239986897,2.94754
4.351919986893,3.99557
4.355159986884,3.9541
4.35959998687,-0.0710427
4.362719986861,2.89767
4.36667998685,7.93001
4.368359986845,3.98139
4.372679986833,-0.0173903
4.375919986824,3.93317
4.378679986816,-0.101261
4.380239986812,2.88687
4.384919986799,2.93117
4.38767998679,-0.0384617
4.39127998678,6.9254
4.394519986771,3.94866
4.397759986762,3.95668
4.400999986757,3.90746
4.404239986754,3.95354
4.40771998675,3.99365
4.410479986747,-0.0880982
4.412159986746,3.99338
4.415279986742,2.99043
4.418519986739,3.99687
4.423559986733,3.945
4.425239986732,3.90551
4.430279986726,3.96264
4.433519986723,3.95723
4.43627998672,-0.0363773
4.439519986716,3.9793
4.441199986715,3.99729
4.44551998671,-0.0513491
4.447199986708,3.91192
4.452599986702,6.9779
4.4545199867,5.98399
4.458119986697,6.93596
4.463039986691,2.97153
4.46459998669,2.9962
4.467839986686,3.95763
4.472879986681,3.93846
4.47407998668,-0.104424
4.479359986674,3.88807
4.481519986672,7.92996
4.486079986667,-0.0819294
4.489559986663,3.96351
4.490759986662,-0.0335294
4.493879986659,2.92707
4.497239986655,2.9482
4.50191998665,2.96714
4.505759986646,3.96009
4.509359986642,4.96769
4.512839986638,4.89326
4.516559986634,3.93298
4.518239986633,3.93462
4.521359986629,2.91547
4.526639986624,3.92816
4.528319986622,3.93954
4.531199986619,-0.0458359
4.536239986614,3.953
4.53923998661,-0.021425
4.540919986609,3.97799
4.544159986605,3.97202
4.547879986601,3.9235
4.553039986596,2.95362
4.556999986591,7.92482
4.561319986587,7.92463
4.565639986582,7.93327
4.569479986578,3.91796
4.573919986573,7.99629
4.57715998657,3.97472
4.580399986567,3.96162
4.582439986564,6.95851
4.586039986561,6.9477
4.590719986556,-0.105445
4.594079986552,2.99471
4.596839986549,-0.0848341
4.598399986547,2.92486
4.601519986544,2.96777
4.60511998654,3.93419
4.610639986534,3.94773
4.612319986533,3.93407
4.617359986527,3.93563
4.619039986525,3.91278
4.622759986521,5.99175
4.627799986516,3.92514
4.631519986512,5.96755
4.63319998651,3.97565
4.638359986505,6.96345
4.641599986501,3.9529
4.644839986498,3.94058
4.646039986497,-0.0961125
4.649879986493,3.91572
4.653239986489,3.93909
4.656719986485,3.9924
4.660679986481,6.96542
4.664399986477,7.99522
4.670639986471,7.9242
4.672199986469,2.98378
4.677479986463,1.92754
4.68035998646,-0.0100789
4.682039986458,3.97933
4.687079986453,3.9262
4.688279986452,-0.0988282
4.691519986448,3.95754
4.696079986443,-0.0656115
4.697279986442,-0.0337979
4.702319986437,3.93202
4.703519986436,-0.00136089
4.706879986432,2.909
4.711919986427,3.96469
4.713599986425,3.93714
4.71827998642,-0.0359419
4.721519986416,3.92047
4.724279986413,-0.0843799
4.72715998641,-0.113722
4.728359986409,-0.0709618
4.733039986404,2.8922
4.734719986402,3.91739
4.739759986397,3.95949
4.741439986395,3.95029
4.744319986392,-0.0683695
4.749119986387,1.9462
4.750799986385,3.99774
4.756679986379,7.99473
4.758359986377,3.97695
4.763519986372,3.98842
4.76531998637,4.92817
4.770479986364,2.94433
4.772159986363,3.96949
4.775639986359,3.97607
4.780679986353,3.92433
4.782239986352,2.91135
4.785479986348,3.986
4.788959986345,3.96537
4.792799986341,3.90686
4.797839986335,3.94737
4.801079986332,3.90815
4.804319986328,3.98967
4.805999986327,3.97539
4.810199986322,6.89362
4.814519986317,-0.0855967
4.817759986314,2.99244
4.820519986311,-0.098901
4.824119986307,6.99913
4.827239986304,2.92729
4.828919986302,3.9578
4.832159986299,3.96931
4.836959986294,3.97184
4.838519986292,2.96185
4.843319986287,3.91452
4.846799986283,3.96453
4.85003998628,3.98622
4.853399986276,3.91535
4.856879986272,3.9917
4.85891998627,6.98543
4.865639986263,7.91202
4.867319986261,3.92632
4.873439986255,6.98021
4.875479986253,6.93691
4.880639986247,5.967
4.882679986245,6.96058
4.887839986239,2.98506
4.891199986236,2.95162
4.892399986235,-0.0588663
4.895519986231,2.90745
4.901159986225,7.97218
4.903079986223,5.98491
4.908239986218,3.95926
4.910279986216,6.92095
4.914239986211,3.99647
4.917959986207,5.9703
4.921799986203,6.99759
4.925519986199,5.97947
4.929959986195,11.9803
4.936199986188,6.98681
4.938119986186,5.94939
4.941359986183,3.9754
4.946399986177,3.99329
4.949639986174,3.97454
4.952039986171,9.96162
4.957079986166,3.99549
4.960559986162,3.91454
4.964039986158,2.9707
4.965719986157,3.90054
4.971119986151,6.94498
4.973039986149,5.97794
4.977839986144,-0.0575082
4.98131998614,2.96312
4.984799986136,3.95233
4.987319986134,10.9033
4.99031998613,-0.0283812
4.995599986125,3.98794
4.998839986121,3.9901
5.000879986119,6.94402
5.004359986116,3.97989
5.00951998611,4.96135
5.013599986106,5.97323
5.014799986104,-0.115882
5.0185199861,5.99852
5.022239986096,6.95465
5.02787998609,6.96036
5.030519986088,11.9584
5.035799986082,5.98781
5.03735998608,2.97713
5.040599986077,3.97169
5.046239986071,3.93735
5.04743998607,-0.00602415
5.051759986065,7.99175
5.057039986059,3.88238
5.061119986055,5.92802
5.063039986053,5.98655
5.066759986049,7.99992
5.070479986045,2.92932
5.076359986039,7.92623
5.079839986035,3.92895
5.081759986033,5.95743
5.085599986029,6.95773
5.089439986025,6.98678
5.09399998602,6.90148
5.099519986014,-0.0231006
5.101079986013,2.99158
5.105039986008,3.92385
5.108639986005,5.96198
5.113799985999,3.96305
5.117279985995,3.95175
5.120759985992,3.99642
5.124359985988,6.99146
5.127959985984,6.89573
5.131199985981,3.9169
5.134199985977,-0.101653
5.138159985973,6.99217
5.142239985969,6.97798
5.144279985967,6.89953
5.148359985962,6.93652
5.152919985957,9.91712
5.158919985951,6.99167
5.160959985949,6.94868
5.164319985945,2.90526
5.16959998594,3.93897
5.173439985936,6.91745
5.175119985934,3.98962
5.179439985929,-0.0551355
5.182919985926,3.98975
5.185079985923,7.94472
5.18855998592,3.92945
5.192519985915,7.893
5.196119985912,4.91892
5.201639985906,6.92966
5.205239985902,6.9802
5.209439985897,6.92758
5.213159985893,6.95734
5.214719985892,2.99212
5.219879985886,3.95278
5.222639985883,-0.101269
5.224679985881,6.95715
5.229959985876,6.93683
5.231159985874,-0.109536
5.23475998587,6.9681
5.237999985867,3.9953
5.24459998586,6.9029
5.248319985856,2.9516
5.251799985852,2.97104
5.255399985848,6.99206
5.257559985846,7.98814
5.260799985843,3.92596
5.264879985838,5.99265
5.270039985833,3.99686
5.27279998583,-0.087403
5.276039985827,3.9668
5.277719985825,3.92528
5.282879985819,3.93647
5.286119985816,3.90952
5.289359985812,3.92966
5.291039985811,3.95993
5.297039985804,8.923
5.3012399858,9.93442
5.304719985796,3.98205
5.308679985792,9.94161
5.31071998579,6.96259
5.314559985786,7.99223
5.320799985779,7.95564
5.323799985776,-0.0498069
5.327759985771,4.92022
5.330999985768,3.94103
5.335079985764,7.93882
5.337119985762,6.9896
5.340119985758,-0.00105201
5.345879985752,3.95193
5.348639985749,-0.0157796
5.350799985747,7.89908
5.355359985742,-0.100252
5.358599985739,3.95081
5.361359985736,-0.0199602
5.364959985732,6.99075
5.368199985728,3.94875
5.370119985726,5.991
5.373599985723,5.96915
5.377799985718,6.92913
5.380919985715,2.97438
5.384519985711,6.99367
5.388239985707,5.97574
5.391479985704,3.9471
5.396159985699,2.97586
5.399279985695,2.96046
5.401079985693,4.96637
5.40431998569,3.95949
5.407679985686,2.96626
5.411159985683,3.96131
5.414519985679,3.98399
5.417879985676,2.9402
5.42291998567,3.94563
5.424479985669,2.93268
5.429279985663,3.93615
5.430839985662,2.96306
5.434079985658,3.99148
5.436839985655,-0.0092236
5.440199985652,3.9091
5.443439985648,3.97876
5.446679985645,3.98997
5.452679985639,6.97817
5.454359985637,3.97877
5.457119985634,-0.017635
5.460119985631,-0.0924019
5.465639985625,7.94108
5.467199985623,2.98379
5.472839985617,6.99593
5.477159985613,3.96355
5.481119985608,7.92817
5.485439985604,10.9764
5.4885599856,2.99606
5.490599985598,6.98529
5.496479985592,5.95513
5.499479985589,-0.0113959
5.501519985587,6.93223
5.504519985583,-0.0115126
5.509679985578,6.99624
5.512919985575,3.98322
5.514599985573,3.97868
5.518199985569,6.96461
5.523599985563,6.89675
5.525279985561,3.99532
5.530199985556,2.98406
5.533319985553,2.94558
5.534999985551,3.98478
5.540879985545,6.94082
5.544119985541,3.99925
5.548079985537,7.95182
5.551559985533,3.92764
5.555399985529,6.98399
5.557439985527,6.92532
5.562599985522,4.95476
5.56427998552,3.90778
5.568599985515,-0.00273687
5.572439985511,6.94815
5.575799985508,3.95446
5.579399985504,6.92785
5.5828799855,5.93677
5.585279985498,9.96659
5.589119985493,3.96948
5.59259998549,2.95361
5.595959985486,3.90556
5.601239985481,3.93296
5.604719985477,3.90006
5.606399985475,3.98496
5.609639985472,3.98928
5.612879985468,3.90699
5.616479985464,4.92748
5.621999985458,6.93583
5.626199985454,11.9213
5.62955998545,-0.0682817
5.632799985447,3.94606
5.637119985442,6.98147
5.63927998544,7.9227
5.644679985434,3.92315
5.647919985431,3.91726
5.649599985429,3.99071
5.654399985424,3.99148
5.655599985423,-0.0579626
5.660399985418,3.93609
5.663759985414,3.98569
5.666999985411,3.96803
5.670479985407,3.99933
5.671679985406,-0.0560785
5.6773199854,3.90881
5.678519985398,-0.11332
5.681879985395,3.95723
5.685359985391,3.97408
5.688119985388,-0.0915037
5.693639985382,6.94543
5.697959985378,6.9636
5.701799985374,6.89609
5.70551998537,5.96926
5.707679985367,7.92524
5.713679985361,6.95319
5.717999985356,12.9651
5.721839985352,3.8847
5.725679985348,3.96319
5.728919985345,3.93366
5.730959985343,6.95183
5.73371998534,-0.0533753
5.739239985334,7.95756
5.740919985332,3.91199
5.745959985327,-0.0192594
5.747639985325,3.97534
5.75231998532,6.9357
5.755799985316,3.92241
5.760239985311,8.93127
5.763479985308,3.93339
5.767799985303,7.95628
5.772959985298,-0.0699892
5.774999985296,6.96887
5.78003998529,-0.0686546
5.783519985287,3.99939
5.786999985283,3.96353
5.788679985281,3.94279
5.792159985277,3.90608
5.797919985271,6.90328
5.799959985269,6.9753
5.803439985265,3.9549
5.80835998526,-0.0161209
5.809919985259,2.98455
5.813759985254,7.89941
5.818799985249,3.91111
5.820479985247,3.97402
5.823719985244,3.96031
5.828759985239,3.93109
5.830439985237,3.94891
5.833679985233,3.91331
5.838479985228,-0.00105516
5.841959985224,3.91396
5.843999985222,6.97233
5.849999985216,6.94934
5.852159985214,7.98309
5.858399985207,6.95508
5.860439985205,6.93942
5.863679985201,3.97214
5.868959985196,3.93494
5.872199985192,3.96091
5.87435998519,7.97935
5.877719985186,4.94795
5.882519985181,3.92593
5.885879985178,2.92287
5.887559985176,3.95174
5.892359985171,3.94374
5.896319985167,7.99462
5.899679985163,4.99267
5.901599985161,5.9375
5.907239985155,5.98548
5.910239985152,-0.106608
5.913479985148,3.9852
5.916239985145,-0.092439
5.917799985144,2.95144
5.92091998514,2.99241
5.924399985137,3.99799
5.93051998513,6.91401
5.932919985128,9.9151
5.937239985123,7.97143
5.943479985116,10.9784
5.946839985113,2.99017
5.950319985109,3.97703
5.952599985107,8.98449
5.957999985101,2.91023
5.961839985097,3.97703
5.963879985095,6.95215
5.969159985089,3.98906
5.972399985086,3.88174
5.975879985082,3.96036
5.978759985079,-0.0213231
5.982719985075,5.93801
5.984399985073,3.9573
5.990639985066,5.9651
5.994119985063,5.89409
5.998199985058,5.96571
6.000359985056,7.99881
6.003839985052,3.95403
6.009719985046,6.98214
6.013439985042,6.96379
6.017279985038,6.9563
6.021119985034,2.9976
6.022799985032,3.92163
6.025559985029,-0.0837248
6.029039985025,3.95616
6.03419998502,6.96542
6.037679985016,3.99111
6.039479985014,4.95183
6.04331998501,6.92481
6.049079985004,7.99885
6.052919985,6.98278
6.056159984997,2.90776
6.058919984994,-0.00785838
6.06251998499,6.95697
6.065879984986,2.98749
6.069479984982,3.99978
6.072479984979,-0.132657
6.074159984977,3.95401
6.079439984972,3.91018
6.08123998497,4.98587
6.086159984965,3.98782
6.089399984961,3.92987
6.092879984958,3.99523
6.094559984956,3.96416
6.09971998495,6.99988
6.101279984949,2.97526
6.106079984943,-0.0101565
6.10919998494,2.96454
6.112559984937,2.99089
6.115559984933,-0.00585889
6.117239984932,3.96326
6.121439984927,6.92813
6.125279984923,6.95608
6.12827998492,-0.00151318
6.132119984916,3.95135
6.135359984912,3.97485
6.140399984907,3.9815
6.141599984906,-0.0569258
6.1466399849,3.98299
6.149879984897,3.91309
6.151439984895,2.87981
6.15659998489,-0.0890568
6.160559984886,7.96393
6.162599984883,6.96264
6.167879984878,3.95875
6.170999984874,2.94087
6.17507998487,9.96941
6.179279984866,6.99486
6.182639984862,-0.00132371
6.183839984861,-0.129192
6.187439984857,6.99011
6.193439984851,2.90307
6.197999984846,6.93179
6.199679984844,3.99196
6.204839984838,-0.0522584
6.207839984835,-0.0243524
6.211199984832,3.87627
6.21287998483,3.93656
6.217319984825,-0.0941252
6.221519984821,9.99773
6.225359984817,3.99538
6.228719984813,2.95454
6.230399984811,3.94885
6.234959984806,-0.140842
6.238199984803,2.90041
6.241559984799,2.94466
6.245519984795,4.95011
6.247559984793,6.93081
6.251039984789,3.95983
6.256439984784,3.93733
6.25967998478,2.92755
6.260879984779,-0.0350693
6.264119984775,2.89747
6.267359984772,3.98894
6.272519984766,2.87697
6.274559984764,6.92396
6.27839998476,6.94734
6.284039984754,3.97774
6.28823998475,6.96412
6.291599984746,2.96952
6.294599984743,-0.0969259
6.298079984739,3.94174
6.299759984737,3.97494
6.305399984731,6.97987
6.307559984729,7.98248
6.311039984725,3.98316
6.31631998472,3.9747
6.317519984719,-0.0322284
6.320639984715,2.88881
6.323639984712,-0.0981261
6.328799984707,2.93835
6.330479984705,3.90547
6.333479984702,-0.00805629
6.336239984699,-0.00705957
6.340799984694,-0.0366526
6.343559984691,-0.157193
6.34475998469,-0.0691787
6.349319984685,-0.0945227
6.350879984683,2.98251
6.35399998468,2.96495
6.356759984677,-0.0554597
6.361559984672,3.93494
6.363719984669,7.99768
6.368999984664,3.93841
6.370199984663,-0.0015932
6.375599984657,3.992
6.379199984653,6.99414
6.382439984649,3.99583
6.385679984646,3.96302
6.386879984645,-0.01026
6.39143998464,-0.0501267
6.393479984638,6.90454
6.396839984634,4.9006
6.401879984629,1.89025
6.403559984627,3.96875
6.406919984623,2.95734
6.412319984618,4.92454
6.415079984615,-0.0225958
6.416279984613,-0.0667936
6.41939998461,2.97943
6.422639984607,3.95641
6.427919984601,3.98363
6.431279984598,2.91104
6.434039984595,-0.00684018
6.437279984591,3.91064
6.43847998459,-0.132927
6.443759984584,3.98824
6.447239984581,3.9105
6.450479984577,3.98304
6.453719984574,3.9745
6.455399984572,3.90645
6.458639984568,3.96947
6.462239984565,2.95675
6.464999984562,-0.0289274
6.470039984556,3.9321
6.473519984553,1.94041
6.47603998455,10.8959
6.480719984545,9.94484
6.484559984541,6.94886
6.489959984535,6.91032
6.492959984532,-0.069461
6.496199984528,3.91281
6.499679984525,3.91909
6.501359984523,3.99707
6.505679984518,-0.0740603
6.506879984517,-0.0611944
6.511679984512,3.90801
6.514919984509,3.90064
6.516599984507,3.91337
6.520919984502,7.93051
6.526799984496,6.99391
6.530639984492,6.9985
6.531839984491,-0.014075
6.535079984487,3.97602
6.540239984482,6.91087
6.542399984479,7.93717
6.547679984474,7.97977
6.549359984472,3.91469
6.552599984468,3.98197
6.557399984463,3.97069
6.559079984462,3.94456
6.562679984458,4.94704
6.567719984452,3.97961
6.570719984449,-0.029595
6.574199984445,3.96071
6.575879984444,3.99374
6.580919984438,3.95391
6.582599984437,3.97833
6.586199984433,3.99098
6.589679984429,3.9702
6.593279984425,4.93333
6.596759984422,4.9208
6.602039984416,3.94989
6.603599984414,2.95217
6.607079984411,3.97766
6.610439984407,2.90861
6.613919984403,3.92547
6.619079984398,3.99567
6.620759984396,3.94061
6.62603998439,3.9438
6.627719984389,3.95199
6.631199984385,3.97504
6.634559984381,2.9963
6.640079984375,6.97125
6.643319984372,3.98051
6.64499998437,3.99127
6.648479984366,3.96045
6.651959984363,3.99407
6.655319984359,2.93917
6.660719984353,6.98855
6.664559984349,6.94264
6.667799984346,3.93782
6.671039984342,3.93891
6.672719984341,3.97508
6.677279984336,-0.0449638
6.680279984333,-0.119231
6.681479984331,-0.0144264
6.686519984326,3.91437
6.689879984322,3.99422
6.693239984319,2.98189
6.696119984316,-0.107372
6.699359984312,3.95562
6.702839984309,4.91404
6.704519984307,3.94438
6.708239984303,5.89507
6.712079984299,6.87117
6.715559984295,3.92489
6.719039984291,3.95887
6.722399984288,-0.0511216
6.726959984283,-0.0757297
6.73019998428,2.99645
6.733679984276,-0.0185839
6.737159984272,3.95575
6.740279984269,2.9048
6.742319984267,6.96155
6.745799984263,3.94809
6.749879984259,6.95496
6.755159984253,3.96763
6.758759984249,6.9363
6.760679984247,5.93863
6.764159984243,2.9015
6.769319984238,2.94
6.771479984236,7.95278
6.77699998423,6.97838
6.780479984226,3.92586
6.783599984223,2.994
6.787319984219,5.9964
6.790799984215,3.94347
6.793799984212,-0.00795007
6.797279984208,3.90907
6.798959984206,3.97518
6.804119984201,4.95356
6.806159984199,6.97758
6.811919984193,7.9955
6.815639984189,5.9779
6.818879984185,3.9817
6.822359984182,3.92564
6.82403998418,3.93909
6.829319984174,3.94492
6.832079984171,-0.0482986
6.835319984168,3.97615
6.836519984166,-0.120299
6.841559984161,4.97983
6.844799984158,3.92579
6.847919984154,2.93909
6.849119984153,-0.0717654
6.853679984148,-0.00386922
6.855359984146,3.99064
6.860399984141,2.98703
6.862439984139,6.94369
6.865919984135,3.95557
6.87071998413,10.8934
6.877319984123,10.9899
6.881159984119,6.97862
6.882719984117,2.97359
6.888239984111,7.9693
6.890399984109,7.97936
6.894839984104,7.93898
6.900239984099,6.90637
6.904199984094,6.9745
6.906239984092,6.99425
6.910439984088,6.98596
6.915719984082,6.95263
6.916919984081,-0.0376197
6.919679984078,-0.0880446
6.924479984073,3.96907
6.928319984069,7.95624
6.929519984068,-0.0315129
6.932279984065,-0.00833097
6.93659998406,-0.0485781
6.938279984058,3.93489
6.943199984053,4.96857
6.944879984051,3.95469
6.948359984047,3.94032
6.951599984044,3.95493
6.956759984039,6.98093
6.958439984037,3.93797
6.961799984033,3.95191
6.966599984028,3.97855
6.968639984026,6.95758
6.972359984022,6.97062
6.975839984018,3.97139
6.979559984014,5.94959
6.98387998401,6.98757
6.987599984006,6.93387
6.992759984,4.96993
6.994439983998,3.9597
7.000079983992,6.97428
7.003559983989,3.91595
7.007399983985,3.99323
7.011119983981,5.99047
7.014599983977,3.99264
7.018079983973,3.99513
7.019639983972,2.93884
7.025279983966,3.91889
7.027199983964,5.92422
7.03103998396,6.99795
7.035839983954,-0.0676128
7.037519983953,3.95951
7.043159983947,6.97347
7.046519983943,3.99157
7.048559983941,6.93045
7.054079983935,3.97761
7.055279983934,-0.03285
7.060079983929,3.92673
7.063319983925,3.94009
7.066559983922,3.89858
7.06823998392,3.9711
7.072199983916,5.98382
7.076039983912,2.89195
7.081319983906,3.92663
7.083359983904,6.98513
7.088999983898,3.92235
7.091039983896,6.93997
7.094879983892,6.95285
7.099919983886,2.99056
7.102799983883,-0.00953224
7.104479983881,3.94516
7.108319983877,3.9709
7.113239983872,2.99122
7.11479998387,2.95395
7.118279983867,3.9939
7.121519983863,2.93222
7.124999983858,3.91302
7.130759983852,7.94708
7.134239983849,3.98214
7.136159983847,5.95667
7.138919983844,-0.0395109
7.143719983839,3.92663
7.147079983835,2.98463
7.148279983834,-0.100031
7.151039983831,-0.0251512
7.155599983826,-0.139513
7.159079983822,3.96551
7.160279983821,-0.121913
7.165079983816,3.97609
7.168559983812,3.93569
7.171319983809,-0.0346946
7.174919983805,4.97232
7.176599983804,3.94649
7.181399983798,3.98149
7.183079983797,3.91333
7.186319983793,3.93013
7.18967998379,3.90826
7.192679983786,-0.098635
7.197719983781,3.97481
7.199399983779,3.92991
7.204319983774,2.96254
7.20779998377,3.96326
7.211159983767,3.9758
7.213199983765,6.96736
7.21799998376,-0.0455139
7.220879983756,-0.139899
7.222079983755,-0.0433687
7.22663998375,-0.0317807
7.228679983748,6.95198
7.233239983743,-0.0124001
7.236479983739,3.98982
7.238639983736,7.95902
7.243919983731,3.91498
7.245479983729,2.86656
7.250639983724,3.95224
7.25411998372,3.95082
7.255799983718,3.96586
7.258799983715,-0.00560283
7.264079983709,3.97023
7.265759983708,3.97003
7.268759983704,-0.0663144
7.273559983699,2.95797
7.277039983696,2.99533
7.278719983694,3.96424
7.28243998369,5.94958
7.287479983684,3.935
7.289039983683,2.91476
7.294199983677,2.98156
7.295759983676,2.87903
7.298519983673,-0.0392672
7.301759983669,3.95864
7.307039983664,3.89576
7.308719983662,3.95244
7.312079983658,3.93513
7.315559983655,5.96708
7.318559983651,-0.0462187
7.323239983646,-0.110455
7.324799983645,2.98341
7.328159983641,3.9352
7.333439983636,3.95802
7.336199983633,-0.0172073
7.337399983631,-0.036972
7.342199983626,-0.0319482
7.343879983624,3.96844
7.349399983619,7.99421
7.353599983614,6.99294
7.356959983609,2.92942
7.360559983606,4.98382
7.364399983597,7.98622
7.367279983594,-0.0180482
7.37075998359,3.97429
7.372919983588,7.99915
7.376399983584,5.91448
7.381319983579,3.93496
7.384559983576,3.99468
7.386719983573,7.97516
7.391759983568,3.91862
7.395239983564,3.98648
7.39931998356,7.89465
7.402799983556,-0.00239512
7.406399983552,4.97534
7.408079983551,3.98694
7.413119983545,3.98717
7.414799983543,3.99187
7.420439983537,3.95043
7.424399983533,7.92505
7.426079983531,3.89631
7.431839983523,7.95505
7.436039983515,9.92136
7.438199983513,7.92799
7.441679983506,3.99457
7.445399983501,5.94127
7.450679983495,3.93586
7.452479983493,4.94416
7.457639983487,2.94262
7.459319983485,3.92461
7.464479983475,2.89043
7.46831998347,6.91474
7.469519983467,-0.0237463
7.47479998346,3.93949
7.478159983453,3.93699
7.481879983447,7.92362
7.485599983441,6.95623
7.487639983436,6.93732
7.490999983432,4.97135
7.496639983421,3.97811
7.498319983419,3.94316
7.502519983413,6.89889
7.505879983407,-0.0340689
7.509239983403,2.99007
7.512479983395,3.90859
7.517519983389,3.93166
7.520999983382,3.89593
7.524599983377,6.9116
7.528199983371,6.98801
7.530959983364,-0.0138816
7.53467998336,5.95799
7.536719983356,6.9166
7.53995998335,3.92594
7.545239983342,3.98595
7.546799983339,2.912
7.550159983334,3.97023
7.553639983328,3.95861
7.558319983321,-0.0461864
7.561439983315,2.96693
7.563119983311,3.97357
7.568639983304,3.89688
7.572239983296,6.96224
7.575479983293,3.97874
7.578959983287,3.96422
7.582799983279,6.94223
7.584359983278,2.99271
7.587839983272,3.9088
7.591199983266,2.99568
7.595039983261,6.98523
7.598879983253,3.91646
7.604759983244,6.97804
7.608239983238,5.93861
7.611599983233,3.92423
7.615199983226,4.94701
7.617239983224,6.98903
7.622039983214,10.8802
7.625759983209,3.93972
7.630799983199,3.96303
7.631999983198,-0.027818
7.635239983195,3.88628
7.640999983183,3.93033
7.642799983181,4.90535
7.645799983177,-0.0553546
7.649399983169,4.98286
7.653839983164,-0.0959189
7.65551998316,3.9436
7.660199983152,-0.0135259
7.663199983147,-0.108319
7.666679983141,3.92756
7.668599983139,5.954
7.67315998313,-0.0459776
7.676399983125,3.97356
7.678199983123,4.89679
7.682999983114,3.94693
7.684679983112,3.99436
7.689479983103,3.94795
7.692959983098,3.9289
7.696199983093,3.9677
7.699319983086,2.95469
7.700999983085,3.94553
7.70435998308,4.96594
7.707839983073,3.98213
7.711319983069,3.97851
7.716959983058,6.95943
7.720319983054,4.94
7.724399983045,5.99926
7.726559983043,7.89353
7.732919983031,9.96767
7.736399983027,5.90459
7.73975998302,3.95793
7.743239983015,3.98804
7.745279983013,6.99275
7.748759983005,3.96093
7.752239983,3.96849
7.75751998299,3.98768
7.760999982986,3.96559
7.762679982984,3.92968
7.766159982975,3.96328
7.769759982971,3.95053
7.772999982966,3.9039
7.77647998296,3.98021
7.780439982954,7.92141
7.783799982946,2.93899
7.787159982943,3.92395
7.790399982936,3.92328
7.794119982931,3.97491
7.799159982921,3.98127
7.802639982916,3.99301
7.804319982915,3.97181
7.807079982909,-0.0558358
7.810439982904,3.9975
7.815479982895,3.98863
7.817159982891,3.96408
7.820639982887,3.99039
7.823639982882,-0.0176243
7.828679982874,3.91159
7.831919982869,2.9807
7.835399982863,3.92291
7.836959982861,2.90879
7.840439982854,3.93693
7.845719982846,4.99026
7.849559982839,6.99087
7.851239982836,3.94272
7.856639982828,3.90299
7.860119982821,2.91274
7.863599982817,5.9782
7.866959982809,2.89532
7.870319982806,3.99247
7.8731999828,-0.107751
7.876679982793,3.96589
7.877879982792,-0.0176053
7.882199982785,-0.0455759
7.885679982779,3.90639
7.887359982777,3.93207
7.891919982768,1.961
7.893479982765,2.97089
7.896839982762,-0.0038233
7.900439982755,6.92788
7.905959982748,6.96323
7.907159982744,-0.104589
7.911119982737,7.94272
7.915439982731,-0.0776751
7.917119982727,3.95727
7.921919982721,3.92225
7.923599982718,3.91889
7.92695998271,2.95581
7.931639982705,-0.0712095
7.934879982697,3.9284
7.938359982693,3.99923
7.94027998269,5.98066
7.944119982683,6.9494
7.947239982679,2.93127
7.950479982672,3.96909
7.955039982665,-0.105797
7.958519982659,3.9606
7.960559982655,6.97266
7.964039982651,3.93639
7.967279982645,3.8842
7.970999982638,7.97572
7.97591998263,2.95047
7.977119982627,-0.0843303
7.980959982623,3.92886
7.984199982617,3.94209
7.988999982609,-0.0576638
7.990199982608,-0.0699304
7.9936799826,3.95752
7.998479982595,3.95999
8.001239982591,-0.0415049
8.004719982591,3.99914
8.008319982591,4.96047
8.009999982591,3.99734
8.013239982591,3.98361
8.017559982591,-0.0788292
8.021039982591,3.90139
8.022719982591,3.95127
8.027759982591,3.95382
8.029439982591,3.93501
8.034599982591,4.92434
8.036279982591,3.98607
8.039039982591,-0.00966388
8.044319982591,5.93934
8.047079982591,-0.0520795
8.049839982591,-0.101797
8.053679982591,3.9966
8.055719982591,6.96112
8.060759982591,3.982
8.062439982591,3.96551
8.065919982591,3.95502
8.070599982591,1.96874
8.073839982591,3.94554
8.075879982591,6.96234
8.079119982591,3.93767
8.082959982591,6.99685
8.088119982591,2.9854
8.089799982591,3.9842
8.093279982591,3.94576
8.096279982591,-0.10993
8.101319982591,2.97527
8.104799982591,3.92706
8.106479982591,3.97979
8.112119982591,3.94914
8.115959982591,6.98439
8.118479982591,10.9116
8.124839982591,5.95282
8.126999982591,7.9286
8.129759982591,-0.0207306
8.134559982591,-0.0592639
8.138759982591,5.9472
8.140319982591,2.96717
8.145239982591,-0.138597
8.148239982591,-0.0103306
8.149919982591,3.9666
8.153279982591,2.95967
8.158799982591,2.98502
8.160479982591,3.9712
8.164319982591,6.97547
8.167919982591,4.9662
8.173919982591,7.9758
8.175599982591,3.97695
8.179919982591,6.99555
8.183759982591,6.92122
8.189399982591,3.89266
8.190599982591,-0.0105972
8.196119982591,5.93367
8.198159982591,6.99734
8.201399982591,3.91644
8.206679982591,3.98501
8.210159982591,3.94436
8.211359982591,-0.0012639
8.216879982591,2.94224
8.220119982591,3.98892
8.223959982591,6.98159
8.227079982591,2.95278
8.230559982591,3.97817
8.233919982591,3.9854
8.235599982591,3.98129
8.239559982591,5.9706
8.243639982591,8.98607
8.247239982591,4.95087
8.252519982591,3.93537
8.254559982591,6.93672
8.259839982591,2.90108
8.261759982591,5.99917
8.265359982591,6.97852
8.268719982591,2.99833
8.272199982591,3.98148
8.275679982591,3.92594
8.279759982591,7.95809
8.285039982591,3.90727
8.288879982591,6.97767
8.292719982591,6.9974
8.295959982591,1.93517
8.297519982591,2.98967
8.303039982591,6.94906
8.304839982591,4.94314
8.308199982591,2.98549
8.312039982591,6.93247
8.317079982591,3.91705
8.318279982591,-0.0122094
8.322959982591,2.99267
8.326439982591,3.96886
8.328119982591,3.98015
8.331119982591,-0.058132
8.335919982591,3.97472
8.338679982591,-0.00607183
8.339879982591,-0.0929972
8.345039982591,3.93228
8.348159982591,2.89607
8.351639982591,3.96047
8.354879982591,3.95644
8.356079982591,-0.0200543
8.360399982591,-0.0141155
8.362079982591,3.99168
8.364839982591,-0.0529715
8.367839982591,-0.0791237
8.371079982591,3.9822
8.375399982591,-0.0297972
8.378759982591,4.9218
8.380919982591,7.91594
8.384399982591,3.96643
8.389439982591,3.92263
8.391119982591,3.99991
8.396399982591,3.9254
8.399879982591,3.97248
8.403359982591,3.96034
8.405399982591,6.97354
8.410319982591,3.90215
8.411999982591,3.92381
8.414759982591,-0.0377225
8.417519982591,-0.0601972
8.420639982591,2.99247
8.425919982591,3.98435
8.429399982591,3.96095
8.430599982591,-0.000997225
8.433719982591,2.98353
8.436479982591,-0.0807821
8.439719982591,3.94718
8.444999982591,3.99505
8.446199982591,-0.0748655
8.450999982591,3.90309
8.452199982591,-0.132236
8.456759982591,-0.0313903
8.458439982591,3.96204
8.461439982591,-0.115397
8.467079982591,6.92127
8.470439982591,3.92251
8.471639982591,-0.130464
8.477279982591,3.92367
8.480279982591,-0.0927237
8.482199982591,5.98343
8.485919982591,6.9346
8.489159982591,2.98548
8.492159982591,-0.0055964
8.496719982591,-0.126857
8.500439982591,7.94649
8.504399982591,7.94484
8.505599982591,-0.0164639
8.510159982591,-0.10899
8.513159982591,-0.0195634
8.516399982591,3.94581
8.518079982591,3.95487
8.521319982591,3.95068
8.525279982591,7.99628
8.530799982591,6.99034
8.532959982591,7.91849
8.538359982591,6.9178
8.539919982591,2.95786
8.543879982591,9.92374
8.547119982591,1.8915
8.550839982591,6.99433
8.555039982591,6.99359
8.558759982591,2.96107
8.562239982591,3.95328
8.566079982591,6.89354
8.569799982591,2.8934
8.573999982591,5.92764
8.577959982591,7.96642
8.584559982591,6.90824
8.588039982591,3.98893
8.589599982591,2.97205
8.592839982591,-0.121131
8.597039982591,6.94984
8.600039982591,-0.00122614
8.605319982591,-0.00226863
8.606999982591,3.97988
8.609759982591,-0.0819306
8.615519982591,6.96793
8.616719982591,-0.0177228
8.619959982591,3.97697
8.624759982591,-0.0165634
8.625959982591,-0.0643306
8.629199982591,3.96895
8.634599982591,6.95507
8.636639982591,6.86474
8.639879982591,2.89447
8.643119982591,3.90661
8.645879982591,-0.0169707
8.649479982591,6.97357
8.653319982591,6.93136
8.656319982591,-0.0243479
8.659679982591,3.98137
8.662799982591,2.93394
8.668439982591,3.8966
8.671679982591,3.95727
8.674439982591,-0.0453972
8.675999982591,2.99688
8.680679982591,-0.107131
8.683679982591,-0.119923
8.686559982591,-0.0809849
8.688119982591,2.98117
8.692919982591,3.92691
8.695679982591,-0.0342781
8.699039982591,2.95682
8.700239982591,-0.0131204
8.705279982591,2.95045
8.708879982591,6.9034
8.710079982591,-0.0178142
8.714039982591,7.8746
8.716079982591,6.93659
8.718119982591,6.98482
8.720039982591,5.97908
8.721599982591,2.89724
8.723279982591,3.98874
8.724959982591,3.97011
8.726519982591,2.95567
8.728199982591,3.9942
8.729879982591,3.98658
8.731559982591,3.93076
8.733119982591,2.99613
8.734799982591,3.95127
8.736479982591,3.93954
8.738159982591,3.95714
8.739719982591,2.97087
8.741279982591,2.98527
8.743199982591,5.94626
8.744879982591,3.97634
8.746439982591,2.9747
8.747999982591,2.9961
8.750039982591,6.96219
8.751599982591,2.99505
8.753279982591,3.9921
8.754959982591,3.99914
8.756639982591,3.96612
8.757839982591,-0.00687417
8.759519982591,3.98394
8.760719982591,-0.0167467
8.762399982591,3.99367
8.763599982591,-0.00392377
