time,PerHopSim7.flowGenerator3.flowFinRttsToXConverge:vector
0.005543998014,3.96196
0.005891997889,3.92432
0.006215997774,3.99158
0.006383997713,3.92728
0.006707997598,3.9897
0.007031997482,3.95514
0.007583997285,6.98273
0.007943997155,5.99397
0.008279997035,3.94382
0.008627996913,3.98892
0.008951996802,2.93943
0.009335996671,6.94671
0.009695996548,6.96896
0.009815996507,-0.079877
0.010211996372,3.96871
0.010787996175,6.92963
0.011159996048,3.94858
0.011435995954,-0.140503
0.011735995852,1.97699
0.011903995794,3.97831
0.012203995692,-0.12828
0.012587995561,6.97267
0.012935995442,3.94255
0.013211995348,-0.127419
0.013715995176,3.97939
0.01411199504,7.97327
0.014279994983,3.93762
0.014663994852,6.97902
0.015323994627,7.96599
0.015491994569,3.96583
0.015767994474,-0.0644232
0.01624799431,-0.0224888
0.016427994248,4.97603
0.016751994138,3.99991
0.017291993954,6.92297
0.017639993835,3.99344
0.017759993794,-0.0249812
0.018239993631,-0.118992
0.01856399352,3.93638
0.018719993467,2.89133
0.019079993344,6.95624
0.019691993135,6.95881
0.020075993004,6.95384
0.020459992873,6.98772
0.020831992746,7.9873
0.021251992602,6.89999
0.021659992463,10.9523
0.02201999234,4.95004
0.022295992246,-0.0501219
0.022643992127,3.95804
0.02281199207,3.9371
0.023087991976,-0.0860159
0.023639991787,5.97403
0.023963991677,3.93953
0.024311991558,3.92239
0.024431991517,-0.107368
0.024971991332,2.9901
0.025151991271,4.93862
0.025727991074,6.98157
0.026075990956,3.9302
0.026459990824,6.92153
0.02679599071,3.97573
0.027167990583,2.90057
0.027551990452,6.97834
0.027719990394,3.97296
0.028115990259,7.98409
0.028655990075,6.94414
0.028859990005,6.96467
0.029207989886,3.96816
0.029507989784,-0.00103883
0.030083989587,7.9318
0.03025198953,3.99142
0.030587989415,2.91833
0.030935989296,3.98349
0.031283989178,2.91444
0.03184798899,3.99195
0.032171988882,2.97283
0.03250798877,2.919
0.032711988702,6.944
0.033083988578,6.89889
0.033515988434,7.88747
0.033899988306,6.94888
0.03430798817,8.99413
0.034895987974,7.99319
0.035099987906,6.96484
0.035471987782,5.91258
0.036059987586,5.95814
0.036455987454,7.89233
0.036671987382,7.99244
0.037259987186,8.97409
0.037655987054,5.99763
0.037823986998,3.94298
0.038351986822,3.86227
0.038711986702,3.95535
0.038831986662,-0.109582
0.039299986506,-0.0740797
0.03946798645,3.98199
0.039971986282,3.99296
0.040175986214,6.99089
0.040523986098,2.92324
0.04084798599,3.97227
0.041183985878,3.96854
0.041663985718,3.99123
0.041783985678,-0.082165
0.042239985526,-0.0204015
0.04240798547,3.99318
0.042755985354,3.95559
0.043079985246,3.93478
0.04360798507,7.92403
0.043979984946,7.95406
0.044303984838,3.94176
0.04450798477,6.93649
0.04498798461,2.97186
0.045359984486,7.93425
0.04564798439,-0.0664824
0.04576798435,-0.04798
0.046091984242,3.94021
0.046439984126,3.97272
0.046823983998,3.98709
0.04714798389,3.988
0.047423983798,-0.00750334
0.04774798369,3.91133
0.048179983546,7.94161
0.04846798345,-0.0193355
0.048851983322,3.93883
0.049379983146,3.98189
0.049703983038,2.93391
0.04990798297,6.95751
0.050399982806,2.96118
0.050711982702,2.96074
0.05086798265,2.98239
0.05134798249,-0.0311741
0.05170798237,4.99636
0.051875982314,3.97583
0.05242798213,3.96829
0.052583982078,2.96563
0.052919981966,2.98306
0.05320798187,-0.0578972
0.05368798171,-0.0947742
0.053855981654,3.97467
0.054215981534,3.91564
0.054563981418,3.97107
0.055139981226,7.97355
0.055259981186,-0.0546786
0.055763981018,-0.0905629
0.055883980978,-0.0361813
0.056411980802,3.96248
0.056879980646,6.95829
0.057035980594,2.9736
0.057359980486,3.92836
0.05770798037,2.95984
0.058211980202,2.94163
0.058511980102,-0.00347708
0.058715980034,6.9757
0.059219979866,-0.0525515
0.059615979734,9.95709
0.059783979678,3.95459
0.060239979526,-0.0327109
0.060539979426,-0.0212609
0.060863979318,3.9746
0.060983979278,-0.0441423
0.061259979186,-0.0233987
0.06178797901,3.9894
0.062123978898,3.96712
0.06232797883,6.93132
0.062699978705,7.96818
0.063131978557,-0.057661
0.063287978504,2.95118
0.063827978319,6.92898
0.063995978262,3.94789
0.064547978074,3.90641
0.064751978004,6.98224
0.065243977836,-0.082469
0.065615977709,3.89597
0.065771977656,2.89828
0.066155977525,6.95491
0.066455977422,-0.00579084
0.066971977246,6.95786
0.067271977144,-0.00168567
0.067607977029,2.8943
0.067919976922,2.94445
0.068075976869,2.96839
0.068591976693,4.8805
0.068711976652,-0.0991638
0.06898797656,-0.116761
0.069263976468,-0.0545864
0.06958797636,3.94091
0.069863976268,-0.0817867
0.070343976108,3.93894
0.070619976016,-0.0307119
0.070919975916,-0.00944384
0.071075975864,2.89372
0.071399975756,3.89419
0.071723975648,2.94312
0.07204797554,2.89081
0.072371975432,3.95085
0.072875975264,3.98841
0.072995975224,-0.0911334
0.073271975132,-0.065472
0.07354797504,-0.00443817
0.073883974928,4.99817
0.074195974824,-0.00419533
0.074711974652,3.9847
0.075023974548,2.9193
0.075143974508,-0.00529092
0.075635974344,3.94578
0.075803974288,3.92075
0.076151974172,3.94556
0.076439974076,-0.0206153
0.0769679739,5.99567
0.07708797386,-0.109429
0.077579973696,-0.015324
0.077939973576,6.94134
0.078311973452,2.97473
0.078479973396,3.97245
0.078839973276,6.97113
0.079115973184,-0.0725285
0.07942797308,-0.105608
0.07990797292,3.99948
0.080063972868,2.91198
0.080579972696,-0.0243213
0.080783972628,6.90542
0.081155972504,7.92231
0.081503972388,5.91777
0.081995972224,2.96905
0.082163972168,3.94374
0.08248797206,3.93914
0.082811971952,3.90788
0.08308797186,-0.0792337
0.083591971692,3.92972
0.083759971636,3.97904
0.084035971544,-0.00465608
0.084335971444,-0.0731827
0.084695971324,6.97496
0.085163971168,-0.0331403
0.085379971096,7.92912
0.085775970964,3.94256
0.086159970836,6.96701
0.08674797064,5.93527
0.087119970516,2.93961
0.087275970464,2.96693
0.087791970292,-0.00265992
0.087995970224,6.95211
0.088475970064,3.98252
0.088859969936,6.98079
0.089063969868,6.9564
0.089555969704,3.92172
0.089951969572,5.96932
0.090323969448,7.98356
0.09052796938,6.94522
0.091175969164,7.97469
0.091535969044,6.91809
0.091835968944,-0.00199075
0.092159968836,3.90124
0.092279968796,-0.048538
0.092759968636,3.98291
0.093035968544,-0.0105618
0.09334796844,2.94472
0.093683968328,2.98457
0.093851968272,3.98266
0.0943679681,4.9427
0.094535968044,3.91278
0.095075967864,7.9325
0.095231967812,2.99801
0.095759967636,7.98937
0.095939967576,4.92724
0.096503967388,3.97928
0.096851967272,3.95043
0.097175967164,3.92225
0.097475967064,-0.0511904
0.097595967024,-0.0510169
0.097919966916,3.94477
0.098255966804,2.97482
0.098771966632,2.9425
0.098939966576,3.91087
0.0994679664,3.99522
0.0997679663,-0.0168423
0.099983966228,7.99945
0.100535966044,7.94156
0.10090796592,7.93129
0.10108796586,4.92871
0.101603965688,6.95065
0.101963965568,6.92021
0.10228796546,3.98584
0.102455965404,3.93596
0.1027679653,2.92186
0.10324796514,1.95052
0.1033679651,-0.0653704
0.10372796498,6.99735
0.10420796482,3.94486
0.104375964764,3.93377
0.104759964636,6.90898
0.105083964528,3.93846
0.10558796436,3.97022
0.105959964236,5.91853
0.10612796418,3.99891
0.106619964016,3.98854
0.10678796396,3.91094
0.107219963816,7.99049
0.107771963632,6.96396
0.108155963504,6.98469
0.108539963376,3.9299
0.108875963264,2.93219
0.109079963196,6.89815
0.10960796302,3.88364
0.109979962896,5.95949
0.110099962856,-0.0575154
0.110435962744,2.98881
0.110891962592,-0.0361504
0.111011962552,-0.0918399
0.11158796236,3.93894
0.111911962252,3.98204
0.112211962152,-0.0432038
0.11254796204,2.88056
0.112895961924,3.99728
0.113219961816,3.91283
0.113363961768,1.8993
0.1138679616,3.89356
0.114179961496,2.93559
0.11452796138,3.95197
0.11464796134,-0.04326
0.11512796118,3.95713
0.115475961064,3.97222
0.115823960948,3.9514
0.11602796088,6.90748
0.116591960692,3.97424
0.1168679606,-0.03211
0.117035960544,3.93671
0.117359960436,3.97975
0.11770796032,3.94229
0.118091960192,7.91296
0.118655960004,3.91193
0.118979959896,3.99901
0.119351959772,1.97417
0.11968795966,2.95203
0.119891959592,6.90227
0.120419959416,3.96536
0.120743959308,3.91124
0.1210679592,2.93033
0.121271959132,6.99453
0.121655959004,6.90574
0.12202795888,7.93886
0.122375958764,3.9713
0.122915958584,6.97144
0.12328795846,5.98728
0.123491958392,6.97633
0.123971958232,3.98158
0.124319958116,3.94542
0.124667958,3.93862
0.124991957892,3.94247
0.125159957829,3.98489
0.125675957631,-0.0242146
0.125903957545,8.95422
0.126419957347,3.97565
0.126623957269,6.991
0.127163957062,3.8994
0.127331956998,3.9305
0.127787956823,6.95603
0.128183956672,8.96758
0.128699956474,3.99925
0.129083956327,6.94229
0.12931195624,8.94476
0.129791956056,-0.0549747
0.129947955996,2.94374
0.130295955863,3.97305
0.130619955739,-0.000545
0.130943955615,3.90348
0.131447955422,5.98517
0.131723955316,-0.070539
0.131927955239,6.97404
0.13226395511,-0.0583023
0.132935954853,7.98322
0.133319954706,6.91388
0.133487954641,3.95321
0.133847954504,2.9721
0.134495954256,10.9399
0.134891954104,3.9255
0.135167953998,-0.0422058
0.135467953883,-0.108487
0.135623953824,2.95298
0.135923953709,-0.0456539
0.13625995358,2.98126
0.136751953392,2.96305
0.137183953227,7.94721
0.137339953167,2.93866
0.13775995301,6.92307
0.138251952826,2.92505
0.138575952705,3.98811
0.138899952585,3.93875
0.139247952455,3.92595
0.139571952334,3.98875
0.139775952258,6.96786
0.140051952155,-0.0696153
0.140399952025,3.99849
0.140723951904,3.94253
0.141047951783,2.93594
0.14132395168,-0.073595
0.141803951501,3.91911
0.141959951443,2.97249
0.142283951322,3.9834
0.142643951188,6.96475
0.143183950987,6.9706
0.143351950924,3.94631
0.143699950794,3.94792
0.144155950624,-0.0212977
0.144311950566,2.94389
0.144851950364,3.89933
0.145199950235,3.98731
0.145583950091,6.92361
0.145943949957,6.97427
0.146111949894,3.95315
0.146507949747,9.91347
0.146831949626,3.93335
0.147287949456,-0.0839884
0.147503949375,7.9601
0.147863949241,6.97431
0.148211949111,3.97553
0.148571948977,6.99983
0.148931948842,6.92247
0.149243948726,2.92338
0.149567948605,3.99445
0.150071948417,3.91193
0.150191948372,-0.0631653
0.150575948229,6.98248
0.151103948032,3.96101
0.151439947907,2.96426
0.151823947764,7.95923
0.152183947629,6.94711
0.152543947495,5.94768
0.152903947361,4.99788
0.153107947285,6.96582
0.153635947088,3.97905
0.153851947007,7.92703
0.154235946864,3.98561
0.154763946667,3.93637
0.155171946515,5.98866
0.155315946461,1.91147
0.155819946273,3.88991
0.156011946202,5.95927
0.156479946027,-0.0503065
0.156647945964,3.91658
0.157199945758,2.94502
0.157547945629,3.93989
0.157799945535,10.9438
0.15826794536,10.8917
0.158759945176,3.96334
0.1589639451,6.91448
0.159299944975,2.91439
0.159755944805,-0.00255483
0.160031944702,-0.0574708
0.160367944577,-0.0570086
0.160535944514,3.98223
0.161039944326,3.9991
0.161207944263,3.9442
0.161723944071,2.97631
0.161927943995,6.94482
0.162227943883,-0.019791
0.162527943771,-0.0605318
0.162803943668,-0.00221742
0.163295943484,2.98991
0.163463943422,3.98302
0.163739943319,-0.124775
0.164063943198,3.88368
0.164603942997,6.88352
0.164963942862,6.99406
0.165311942732,3.95679
0.165587942629,-0.0613607
0.165755942567,3.94217
0.166103942437,3.98516
0.166535942276,-0.104159
0.166811942173,-0.059162
0.167135942052,3.93696
0.167303941989,3.91379
0.16778394181,3.96133
0.167951941748,3.98128
0.16845594156,3.92769
0.168743941452,-0.090798
0.169019941349,-0.0256703
0.169187941287,3.98996
0.169643941117,-0.0406014
0.169943941005,-0.0389862
0.170243940893,-0.0787679
0.170591940763,3.96091
0.1707599407,3.96465
0.171095940575,2.91871
0.171611940382,2.94012
0.171935940262,3.93966
0.172091940203,2.9795
0.172607940011,4.95906
0.172943939886,3.98062
0.173099939827,2.94322
0.173447939698,4.94185
0.173819939559,2.9934
0.174167939429,3.94642
0.174719939223,3.94645
0.175067939093,5.98684
0.175235939031,3.99883
0.175571938905,3.93709
0.175931938771,2.96533
0.176399938596,-0.0405368
0.176723938476,3.97634
0.176999938373,-0.0285394
0.177119938328,-0.00093125
0.177599938149,3.99407
0.177923938028,3.95669
0.178043937983,-0.0954857
0.1785359378,2.89842
0.178895937665,4.93876
0.179015937621,-0.0443533
0.179483937446,2.96993
0.179807937325,3.92546
0.179963937267,2.9282
0.180503937066,6.97774
0.180659937007,2.89436
0.181211936801,2.9276
0.181619936649,6.98766
0.181991936511,2.89058
0.182387936363,4.98374
0.182759936224,6.94105
0.183143936081,6.94057
0.183299936023,2.98467
0.183623935902,3.98586
0.184103935723,3.91042
0.18427193566,3.96389
0.184595935539,3.98852
0.185099935351,5.95892
0.185471935212,5.95972
0.185855935069,6.99595
0.186203934939,3.99071
0.186527934819,3.98154
0.186647934774,-0.0686399
0.187163934581,3.96107
0.187331934519,3.99982
0.187835934331,3.89806
0.187991934272,2.96562
0.188519934075,2.98476
0.188687934013,3.9651
0.189083933865,7.99661
0.189575933682,3.96128
0.189755933614,4.87267
0.190259933426,3.9378
0.190595933301,3.95988
0.190763933238,3.98726
0.191039933135,-0.0528388
0.191519932956,3.99073
0.191891932818,5.95192
0.192059932755,3.94272
0.19239593263,4.9034
0.192695932518,-0.0336268
0.193175932339,3.98649
0.193343932276,3.93634
0.193859932084,6.99272
0.194183931963,1.92574
0.194387931887,6.93896
0.194759931748,5.986
0.19526393156,3.97968
0.195431931497,3.97125
0.195911931318,3.97865
0.196079931255,3.95279
0.196355931153,-0.0520706
0.196679931032,3.9914
0.196955930929,-0.0917358
0.197231930826,-0.0552069
0.197747930633,2.9994
0.197903930575,2.97505
0.198419930383,3.94649
0.198623930307,6.99403
0.199187930096,6.896
0.199343930038,2.99374
0.199715929899,7.97453
0.200003929792,-0.00197567
0.200495929608,-0.0799229
0.200771929505,-0.0884527
0.201155929362,3.96537
0.201311929304,2.91923
0.201875929093,1.92619
0.202211928968,3.94122
0.202583928829,6.9717
0.202919928704,3.91508
0.203291928565,6.95068
0.203483928494,5.97683
0.20408392827,6.9716
0.204251928207,3.98943
0.204827927992,7.92611
0.20499592793,3.95636
0.205403927777,8.99462
0.205919927585,3.99037
0.206327927433,9.89746
0.206675927303,3.91113
0.207023927173,3.91529
0.207383927039,6.92324
0.207551926976,3.97985
0.208091926775,5.96929
0.208427926649,2.8912
0.208727926538,-0.00809175
0.209063926412,2.99316
0.209411926282,3.91725
0.209771926148,6.90789
0.209963926077,5.95396
0.210323925942,6.98825
0.210899925727,7.90778
0.211247925598,3.97127
0.211631925454,3.95581
0.211835925378,6.91091
0.212471925141,3.90927
0.212819925011,3.99693
0.213167924881,3.95013
0.213347924814,4.93561
0.213647924702,-0.0973601
0.214151924514,3.97747
0.214475924393,3.96293
0.214751924291,-0.0270599
0.214955924214,6.9704
0.215471924022,6.96482
0.215867923874,5.97851
0.21622792374,6.98051
0.216599923601,3.972
0.216767923539,3.96811
0.217163923391,4.95272
0.217703923189,6.95414
0.217823923145,-0.0549536
0.218327922957,3.94028
0.218651922836,3.99848
0.21885592276,6.98116
0.219131922657,-0.109848
0.219683922451,6.93846
0.219851922388,3.98657
0.220307922218,10.9414
0.220655922088,3.92654
0.221111921918,-0.0273487
0.221387921815,-0.117837
0.221735921685,3.96467
0.222095921551,6.94615
0.22231192147,7.92197
0.222671921336,6.96938
0.223043921197,5.9791
0.22343992105,9.91713
0.223943920862,3.90195
0.224147920786,6.96145
0.224495920656,3.90816
0.225083920436,9.93391
0.225431920307,3.91119
0.225815920163,6.93424
0.226151920038,2.93003
0.226343919966,5.98645
0.226691919837,3.9832
0.227027919711,3.93518
0.227543919519,6.96961
0.227903919385,6.95379
0.228059919326,2.95424
0.228587919129,3.99436
0.228791919053,6.99821
0.22939191883,6.92632
0.229751918695,6.97823
0.230099918565,3.94547
0.230339918476,9.97211
0.230867918279,3.94011
0.231071918203,6.98333
0.231575918015,2.9881
0.231971917867,6.94154
0.232355917724,6.94389
0.232751917576,7.93255
0.233183917415,10.9855
0.233399917334,7.99351
0.233927917138,3.9569
0.234095917075,3.9897
0.234623916878,2.99712
0.234743916833,-0.0499828
0.235211916659,2.95158
0.235535916538,3.92949
0.235703916475,3.972
0.236075916336,5.97449
0.236579916148,3.92365
0.236903916027,3.9926
0.237227915907,3.94524
0.237395915844,3.94239
0.23788791566,-0.0162467
0.238187915548,-0.00519009
0.238463915446,-0.00418008
0.238583915401,-0.0793566
0.239039915231,-0.0886586
0.239315915128,-0.0455943
0.239591915025,-0.0877757
0.239807914944,7.9542
0.240347914743,6.91448
0.24051591468,3.93168
0.240947914519,-0.0691342
0.241115914456,3.92356
0.241391914353,-0.0366387
0.241739914224,3.98305
0.242051914107,2.98911
0.242363913991,2.96442
0.242879913798,6.93546
0.243095913718,7.92267
0.243419913597,3.99509
0.243719913485,-0.0366298
0.244319913261,6.97072
0.244523913185,6.97317
0.244883913051,4.99622
0.24544791284,6.98051
0.245567912796,-0.0421356
0.246095912599,3.98535
0.246443912469,3.99535
0.246647912393,6.95701
0.246971912272,3.94541
0.247475912084,3.92814
0.247595912039,-0.000852584
0.248123911842,3.9461
0.24829191178,3.93717
0.248831911578,3.99829
0.248999911515,3.97572
0.249323911395,2.96047
0.249851911198,3.95767
0.250019911135,3.96777
0.250547910938,3.9753
0.250667910893,-0.0579932
0.25105191075,5.9765
0.25139991062,3.99725
0.251867910446,-0.0687859
0.252263910298,7.88614
0.252599910173,3.86259
0.252815910092,7.9877
0.253091909989,-0.0779833
0.253607909797,3.95749
0.253823909716,7.9972
0.254171909586,3.96312
0.25472390938,7.98677
0.255023909268,-0.103532
0.255323909156,-0.0587461
0.255671909027,3.91625
0.255827908968,2.97719
0.256307908789,-0.0866457
0.256643908664,2.91698
0.256811908601,3.94145
0.257135908481,3.98914
0.257435908369,-0.0549519
0.257963908172,3.96669
0.258131908109,3.96343
0.258479907979,3.92915
0.259055907764,4.98312
0.25917590772,-0.00601534
0.259775907496,6.95126
0.260123907366,3.91849
0.26032790729,6.94109
0.26067590716,3.9606
0.261059907017,3.96625
0.261407906887,3.96722
0.261911906699,3.96669
0.262211906587,-0.046069
0.262439906502,8.97798
0.262967906305,3.9306
0.263291906184,1.9071
0.263639906054,3.94114
0.263975905929,3.9434
0.264371905781,7.97335
0.264539905719,3.96348
0.264875905593,2.95461
0.265187905477,2.99647
0.265511905356,3.92773
0.265991905177,2.99724
0.266327905052,4.95982
0.266483904994,2.96082
0.267035904788,2.94489
0.267371904662,2.95448
0.267683904546,-0.11209
0.26799590443,2.89362
0.268163904367,3.99688
0.268487904246,3.92841
0.268991904058,3.99134
0.269291903946,1.95237
0.269651903812,6.98415
0.269867903731,7.94336
0.27019190361,3.92158
0.270707903418,3.99989
0.271055903288,3.99292
0.271391903163,3.91798
0.271715903042,3.96997
0.271835902997,-0.0773127
0.272111902894,-0.0256804
0.272387902791,-0.0599226
0.272915902594,3.93486
0.27303590255,-0.0518441
0.273359902429,3.93159
0.273743902286,3.94693
0.274103902151,6.95252
0.274403902039,-0.0613569
0.274895901856,2.90063
0.275063901794,3.97346
0.275627901583,6.98126
0.275927901472,-0.0865625
0.276251901351,3.96245
0.276599901221,3.98102
0.276755901163,2.93962
0.277367900934,7.94047
0.277751900791,6.94715
0.277991900702,9.90599
0.278579900482,9.96978
0.27887990037,-0.0263635
0.27920390025,3.93358
0.279527900129,3.94775
0.279851900008,2.92003
0.280019899945,3.99642
0.280367899815,3.99763
0.280895899618,3.97533
0.281063899556,3.95795
0.281543899377,3.99664
0.281903899242,2.98282
0.282023899198,-0.0913659
0.282587898987,3.98638
0.282755898925,3.96287
0.283127898786,5.94501
0.283475898656,5.99278
0.283823898526,3.94087
0.284399898311,6.99797
0.284567898249,3.99885
0.285095898052,3.95699
0.285215898007,-0.0397454
0.285719897819,2.95519
0.285839897774,-0.0706755
0.286319897595,-0.0264388
0.286643897474,3.94471
0.28676389743,-0.112791
0.287219897259,-0.0686446
0.287339897215,-0.128489
0.287723897071,3.99986
0.288047896951,-0.0144094
0.288599896745,5.95143
0.28895989661,6.90465
0.289379896454,6.97949
0.289715896328,2.94887
0.289883896266,3.96193
0.290339896096,-0.0564708
0.290663895975,3.88651
0.29102389584,6.96041
0.291179895782,2.91379
0.291671895599,2.94405
0.291995895478,3.92189
0.292187895406,5.96689
0.292571895263,6.95277
0.293135895053,7.9633
0.293339894977,6.97952
0.293831894793,2.93511
0.293951894748,-0.110909
0.294383894587,-0.0238297
0.294695894471,2.9632
0.294815894426,-0.0605008
0.29512789431,2.91877
0.295559894148,-0.0687947
0.295727894086,3.93832
0.296255893889,7.97193
0.296639893746,6.92359
0.296795893687,2.97024
0.297095893576,-0.116325
0.297395893464,-0.00275433
0.297695893352,-0.0785324
0.298043893222,5.91337
0.298571893025,4.94366
0.298919892895,3.88974
0.299087892832,3.98711
0.299423892707,3.90791
0.299759892582,2.9945
0.300251892398,2.93738
0.300419892336,3.90708
0.300767892206,3.93469
0.301199892045,-0.0464299
0.301367891982,3.98602
0.301643891879,-0.11047
0.302075891718,-0.0900504
0.302195891673,-0.113332
0.302735891472,6.94722
0.302939891396,6.96734
0.303395891226,-0.0663369
0.303551891167,2.95228
0.303875891046,2.94487
0.304211890921,2.91946
0.304559890791,3.9518
0.304847890684,-0.046111
0.30520789055,6.97827
0.305771890339,7.98973
0.305927890281,2.98734
0.30625189016,3.99802
0.306791889959,6.94241
0.306959889896,3.95363
0.307475889704,3.94015
0.307847889565,7.95058
0.308051889489,6.93366
0.308471889332,6.92695
0.309071889108,-0.0266919
0.309287889028,7.87945
0.309635888898,3.94072
0.310151888705,3.99894
0.310451888594,-0.03311
0.310571888549,-0.0954179
0.311111888347,5.97502
0.311531888191,6.93086
0.311903888052,6.95272
0.312323887895,9.95325
0.312707887752,6.90902
0.312863887694,2.94085
0.313427887483,3.9343
0.313751887363,3.93173
0.313931887295,4.97246
0.314483887089,6.93729
0.314651887027,3.954
0.315095886861,-0.0381158
0.315431886736,4.92086
0.315551886691,-0.0742704
0.315851886579,-0.0948572
0.316127886476,-0.00811042
0.316631886288,3.90733
0.316799886226,3.98263
0.317123886105,3.96027
0.31759188593,2.95573
0.317867885827,-0.00978592
0.318191885706,3.97696
0.318359885644,3.97863
0.318911885438,7.91606
0.319079885375,3.89906
0.31941588525,-0.0705885
0.31976388512,3.8925
0.320279884927,3.9546
0.320435884869,2.98782
0.320771884744,2.91404
0.321287884551,-0.0245638
0.321443884493,2.97216
0.321779884368,2.97087
0.322091884252,2.94504
0.322619884055,3.89588
0.322943883934,3.88886
0.323063883889,-0.0146854
0.323363883777,-0.0564495
0.323699883652,2.89646
0.324083883509,3.96344
0.324587883321,3.92286
0.324923883195,2.99875
0.325307883052,6.99804
0.325631882931,3.89905
0.325799882868,3.93626
0.326243882703,-0.0956444
0.326579882577,2.98936
0.326747882515,3.98665
0.327263882322,2.9899
0.32743188226,3.98001
0.32788788209,-0.107527
0.328187881978,-0.0313473
0.328535881848,3.99181
0.328715881781,4.97664
0.32903988166,3.92197
0.329315881557,-0.122611
0.329771881387,-0.127786
0.32995188132,4.97044
0.330467881127,3.97136
0.330623881069,2.89781
0.331199880854,5.99714
0.331547880724,-0.00662642
0.331715880662,3.93561
0.332063880532,4.92701
0.332555880348,3.97552
0.33271188029,2.99543
0.333239880093,2.8991
0.333551879977,2.91318
0.333899879847,3.91675
0.334019879802,-0.0585027
0.334499879623,3.98678
0.334655879565,2.98739
0.33499187944,2.98773
0.335555879229,3.92258
0.335939879086,2.94048
0.336095879028,2.97322
0.336587878844,2.97929
0.336791878768,6.96882
0.337283878585,3.91794
0.337439878527,2.95985
0.337775878401,2.93017
0.338087878285,2.98548
0.338579878101,2.90129
0.338783878025,6.90021
0.339131877895,3.95048
0.339455877775,3.98221
0.339983877578,3.97524
0.340235877484,10.9825
0.340667877322,10.9568
0.341243877108,7.95875
0.341711876933,10.9737
0.34187987687,3.92439
0.342539876624,5.95537
0.342863876503,-0.0271048
0.343043876436,4.92295
0.343439876288,6.96638
0.343967876091,2.91271
0.344327875957,2.96191
0.344627875845,-0.113303
0.344987875711,6.94758
0.345107875666,-0.032462
0.345431875545,3.93216
0.345779875416,3.9868
0.346235875245,-0.0400551
0.346559875125,3.93936
0.346715875066,2.97258
0.347219874878,3.92878
0.347531874762,-0.0239668
0.347651874717,-0.0473408
0.348083874556,-0.0050515
0.34839587444,-0.0640043
0.348671874337,-0.099197
0.348827874279,2.92385
0.349163874153,4.92915
0.349487874032,3.97852
0.349811873912,3.93923
0.350135873791,3.9715
0.350507873652,5.94802
0.350831873531,3.9448
0.35137187333,3.92731
0.351743873191,4.89542
0.351911873128,3.98246
0.352271872994,3.93005
0.352775872806,-0.125207
0.353123872676,2.92052
0.353339872596,7.958
0.35367587247,2.89451
0.354275872246,3.96398
0.354647872108,2.94822
0.354767872063,-0.0304926
0.355247871884,-0.0950249
0.355523871781,-0.147314
0.355691871718,3.96285
0.355967871615,-0.00515317
0.356495871418,3.94547
0.356795871306,-0.0203821
0.356951871248,2.98578
0.357251871136,-0.0848478
0.357527871033,-0.105926
0.358055870836,3.95064
0.358223870774,3.983
0.358739870581,4.91605
0.358907870519,3.91575
0.35938787034,-0.0959275
0.359591870263,6.90265
0.359867870161,-0.0981171
0.360383869968,3.91387
0.360719869843,3.98659
0.361043869722,3.93009
0.361331869614,-0.12446
0.361655869494,3.93495
0.362027869355,6.94713
0.362351869234,3.94455
0.362471869189,-0.0388924
0.36295186901,3.91121
0.363071868965,-0.00785375
0.363395868845,3.96114
0.363851868674,-0.0688159
0.364175868554,3.9965
0.364331868495,2.98697
0.364655868375,3.87035
0.365111868204,-0.0490084
0.365279868142,3.96553
0.365759867963,-0.0371019
0.366155867815,7.98252
0.366503867685,3.95111
0.366671867623,3.95366
0.367031867488,5.99295
0.367391867354,4.94518
0.367739867224,3.97541
0.368351866996,7.94579
0.368507866938,2.9831
0.369095866718,7.94302
0.369479866575,3.95663
0.369803866454,3.96664
0.37016386632,4.92979
0.370499866195,2.99513
0.37085986606,3.92629
0.371267865908,5.97462
0.371615865778,-0.0138288
0.371951865653,-0.0778449
0.372311865519,6.89344
0.372671865384,6.96992
0.373091865228,6.96441
0.373439865098,3.9111
0.373607865035,3.92542
0.374027864879,6.93233
0.37463986465,10.9838
0.375059864494,3.95159
0.37544386435,3.98954
0.375791864221,3.99786
0.376139864091,3.90703
0.376523863948,6.97674
0.376691863885,3.91701
0.37702786376,2.95371
0.37737586363,3.92567
0.377771863482,9.93427
0.378119863352,2.92795
0.378431863236,2.92162
0.378731863124,-0.0116867
0.379283862918,5.97099
0.379655862779,5.94886
0.38002786264,6.97474
0.380423862493,6.95961
0.380771862363,3.89743
0.381119862233,3.93781
0.381467862103,3.99856
0.381803861978,2.94835
0.382151861848,3.98579
0.382475861727,-0.0237058
0.382643861665,3.92594
0.383171861468,3.9688
0.383339861405,3.9288
0.383879861204,6.98145
0.38426386106,6.96762
0.38447986098,7.98736
0.384779860868,-0.00638234
0.385259860689,1.87322
0.385559860577,-0.107047
0.385883860456,3.95206
0.386051860393,3.95756
0.386351860282,-0.0327747
0.386867860089,1.93235
0.386987860044,-0.106006
0.387419859883,-0.0115158
0.38769585978,-0.0670679
0.388019859659,3.95538
0.388391859521,7.90859
0.3887158594,3.97449
0.388931859319,7.99784
0.389315859176,6.97273
0.389831858983,3.95479
0.390131858872,-0.00390183
0.390479858742,3.94651
0.390599858697,-0.106474
0.391103858509,3.93821
0.391427858388,3.98484
0.39182385824,4.94521
0.391991858178,3.95472
0.39249585799,2.94295
0.392651857932,2.92187
0.39319185773,6.96268
0.393551857596,6.95972
0.393875857475,3.96126
0.394151857372,-0.00027775
0.394319857309,3.94915
0.394643857188,3.98792
0.395207856978,10.9342
0.395555856848,3.91769
0.395675856804,-0.0230017
0.396119856638,4.92806
0.396671856432,7.94406
0.397019856302,-0.0713021
0.39731985619,-0.010561
0.397643856069,3.94391
0.397811856007,3.99784
0.398279855832,2.98106
0.398555855729,-0.0060485
0.398723855667,3.99949
0.399071855537,3.99504
0.399575855349,3.9661
0.399743855286,3.98194
0.400319855071,3.92669
0.400523854995,6.93576
0.400991854821,-0.0647985
0.401327854695,-0.0035495
0.401519854624,5.96571
0.402023854436,-0.104166
0.40222785436,6.98248
0.402599854221,5.99496
0.403127854024,3.92876
0.403523853876,7.9568
0.403907853733,6.93154
0.404315853581,5.97635
0.404555853491,9.9742
0.404915853357,2.98778
0.405419853169,3.938
0.405587853106,3.98355
0.405935852976,3.92904
0.406331852829,7.92567
0.406631852717,-0.0169744
0.407015852574,3.97473
0.407555852372,5.97448
0.407879852251,3.90181
0.40820385213,3.87842
0.40852785201,2.94655
0.408695851947,3.95441
0.409211851754,3.93411
0.409403851683,5.88714
0.409727851562,2.94448
0.410255851365,-0.124482
0.410423851302,3.9597
0.410903851123,-0.120501
0.411107851047,6.92749
0.411479850908,7.98629
0.412031850702,3.9659
0.412151850658,-0.0037395
0.412499850528,3.99131
0.412823850407,3.893
0.413135850291,2.92918
0.413507850152,7.9623
0.413987849973,3.88104
0.41415584991,3.99996
0.41450384978,3.96883
0.414863849646,3.99113
0.415355849463,2.95048
0.415475849418,-0.030547
0.415955849239,-0.0374468
0.416267849122,2.9574
0.416603848997,2.96624
0.416963848863,3.98827
0.417083848818,-0.0789264
0.417395848702,2.99881
0.417923848505,3.93792
0.41804384846,-0.0506374
0.418619848245,6.98202
0.419015848097,7.90251
0.419315847985,-0.0941098
0.419639847865,2.95198
0.419987847735,3.95711
0.420311847614,2.92725
0.420479847551,3.96757
0.421031847345,7.893
0.421247847265,7.9891
0.421631847122,7.95604
0.422147846929,3.98482
0.422495846799,3.99284
0.422711846719,7.88905
0.423095846575,6.95537
0.42343184645,3.9872
0.423731846338,-0.0158133
0.424079846208,3.97228
0.424475846061,7.98082
0.425027845855,7.94353
0.425327845743,-0.0162293
0.425639845626,-0.0248727
0.425855845546,7.95737
0.426347845362,3.94091
0.426527845295,4.90146
0.426803845192,-0.090726
0.427331844995,3.95378
0.427547844915,7.95782
0.427919844776,6.96317
0.428483844566,2.91527
0.428783844454,-0.00572692
0.428939844396,2.9216
0.429419844216,3.93521
0.42962384414,6.96204
0.42994784402,3.98657
0.430259843903,-0.0185735
0.430607843773,3.96301
0.431135843576,3.98088
0.431291843518,2.96549
0.431819843321,3.905
0.431987843259,3.99898
0.432503843066,2.92852
0.432623843021,-0.0112108
0.433151842824,3.95467
0.433319842762,3.94179
0.433643842641,3.97753
0.434099842471,-0.0493768
0.434411842354,2.92335
0.434807842207,7.97431
0.434975842144,3.92353
0.435407841983,-0.0294539
0.435731841862,3.99436
0.436007841759,-0.100011
0.436163841701,2.94737
0.43659584154,-0.0391072
0.436871841437,-0.060531
0.43718384132,2.91381
0.437459841217,-0.00989234
0.437735841114,-0.0633636
0.438011841011,-0.0292033
0.438335840891,3.99596
0.438683840761,3.95286
0.438959840658,-0.010681
0.439079840613,-0.0891449
0.439403840492,3.99153
0.439727840371,3.96965
0.440207840192,2.92152
0.440327840148,-0.039236
0.440807839969,3.91749
0.441119839852,2.98632
0.441395839749,-0.0978394
0.441719839628,3.93375
0.441887839566,3.95675
0.442319839405,-0.0152213
0.442487839342,3.932
0.44302783914,6.93389
0.443231839064,6.97337
0.44359183893,6.9631
0.444095838742,3.96293
0.444251838684,2.91645
0.444575838563,3.95236
0.445079838375,3.99769
0.44519983833,-0.0732779
0.445739838129,3.90529
0.445955838048,7.95187
0.446411837878,-0.0869552
0.446771837744,3.96146
0.446891837699,-0.019195
0.447203837583,2.95871
0.447527837462,1.99607
0.448007837283,3.92093
0.44839183714,3.97844
0.44873983701,3.98608
0.44908783688,3.94229
0.449459836741,3.9992
0.449627836679,3.93899
0.449939836562,2.94036
0.450467836365,3.94302
0.450635836303,3.96985
0.450923836195,-0.102146
0.451415836012,3.96959
0.451703835904,-0.022013
0.451871835841,3.99128
0.452183835725,2.94111
0.452591835573,5.90473
0.453119835376,2.9784
0.453467835246,3.97519
0.453899835085,6.99396
0.454343834919,7.97785
0.454739834772,3.9065
0.455111834633,7.97939
0.455435834512,3.97794
0.455759834391,3.9585
0.455975834311,7.95347
0.456347834172,7.9182
0.456815833997,-0.0513103
0.457199833854,6.93539
0.457475833751,-0.105752
0.457643833688,3.93798
0.457967833568,3.96344
0.458327833433,3.9681
0.458879833227,3.97147
0.459047833165,3.94186
0.459551832977,3.90455
0.459719832914,3.92083
0.460067832784,3.94226
0.460571832596,3.98624
0.460943832457,5.96677
0.461111832395,3.99216
0.461591832216,3.93108
0.461915832095,3.94016
0.462191831992,-0.0758128
0.462311831947,-0.0148792
0.462695831804,3.97526
0.463019831683,2.97668
0.463379831549,3.97947
0.463763831406,6.95163
0.464159831258,9.94227
0.46477183103,6.94571
0.464975830953,6.94546
0.465515830752,2.87939
0.46581583064,-0.0201637
0.465983830577,3.95954
0.466475830394,3.91412
0.466595830349,-0.104155
0.466919830228,3.9982
0.467375830058,-0.0533239
0.467495830013,-0.0643835
0.467999829825,3.99896
0.468119829781,-0.0213186
0.468455829655,2.90781
0.468959829467,3.97778
0.469127829405,3.98543
0.46959582923,-0.0437378
0.469919829109,3.92292
0.470195829006,-0.0982989
0.470483828899,-0.115005
0.470603828854,-0.0653407
0.471059828684,1.97815
0.471215828626,2.98733
0.471707828442,2.97138
0.471863828384,2.96373
0.472163828272,-0.0151373
0.472655828089,2.91863
0.472775828044,-0.0802204
0.473363827825,7.94511
0.47348382778,-0.0367061
0.473999827587,3.91775
0.474167827525,3.97911
0.474683827332,3.97089
0.47485182727,3.93888
0.475175827149,1.94019
0.475679826961,3.96687
0.475847826898,3.98271
0.476219826759,7.91856
0.476555826634,2.96081
0.476939826491,2.91835
0.477467826294,6.98162
0.477791826173,3.97302
0.478115826052,3.98132
0.478283825989,3.99984
0.478691825837,5.95099
0.479123825676,-0.104106
0.479447825555,2.9777
0.479723825452,-0.0192405
0.480047825331,3.93812
0.480371825211,3.91322
0.480491825166,-0.0266917
0.480815825045,3.9981
0.481247824884,-0.041536
0.481403824826,2.96874
0.481835824664,-0.00792409
0.482183824535,3.99095
0.482507824414,3.97345
0.482843824288,3.932
0.483203824154,3.93237
0.483395824083,5.98147
0.484043823841,6.98891
0.484211823778,3.92968
0.484811823554,6.92398
0.485015823478,6.88308
0.485567823272,7.96855
0.485771823196,6.9446
0.486359822977,2.98639
0.486707822847,3.9635
0.486827822802,-0.101957
0.487139822686,2.98495
0.487703822476,6.97373
0.487907822399,6.94706
0.488423822207,3.95719
0.488627822131,6.97569
0.489011821988,3.96521
0.489383821849,5.95042
0.489767821706,6.97269
0.490139821567,5.98778
0.49055982141,10.9178
0.491135821195,7.89177
0.491351821115,7.91671
0.491663820998,2.91794
0.49216782081,2.97461
0.49249182069,3.96487
0.4927318206,9.96949
0.493235820412,3.91715
0.493583820282,3.89902
0.493943820148,2.9417
0.494063820103,-0.0809986
0.494603819902,6.95948
0.49479581983,5.99113
0.495275819651,-0.0915697
0.495611819526,2.97517
0.495959819396,3.98796
0.496211819302,10.9228
0.49651181919,-0.0758718
0.497039818993,3.99199
0.497399818859,6.97047
0.497603818783,6.99853
0.497951818653,3.97638
0.498455818465,3.9178
0.498851818317,5.96586
0.498971818272,-0.0991069
0.499343818134,5.91763
0.499691818004,3.9387
0.500243817798,6.94299
0.500447817722,6.94943
0.50098781752,6.91835
0.501155817458,3.98607
0.501431817355,-0.0554934
0.501947817162,2.93153
0.502067817118,-0.00504575
0.502499816956,7.94124
0.50305181675,2.96912
0.503447816603,4.92615
0.50361581654,3.99821
0.503975816406,6.92532
0.504359816263,3.88777
0.504971816034,6.9697
0.505307815909,2.9213
0.505499815837,5.98983
0.505871815699,5.9211
0.50624381556,6.98844
0.506711815385,7.95197
0.507263815179,-0.00626425
0.507431815117,3.97072
0.507803814978,2.99783
0.508163814844,5.9225
0.508667814656,2.99461
0.509051814512,6.95273
0.509399814383,3.95839
0.509747814253,5.95267
0.510107814118,6.90177
0.510431813998,3.99256
0.510731813886,-0.0582254
0.511079813756,3.9231
0.511511813595,7.93028
0.511727813514,7.93767
0.512135813362,6.93378
0.512591813192,9.97673
0.513179812973,6.95534
0.513395812892,7.98284
0.513767812753,6.95355
0.514295812556,3.9536
0.514679812413,6.9156
0.514835812355,2.96704
0.515267812194,-0.0377826
0.515591812073,3.98495
0.515795811997,6.95905
0.516143811867,3.98967
0.516443811755,-0.0760815
0.516791811625,3.95469
0.517331811424,5.87683
0.517703811285,7.98183
0.518123811128,7.97525
0.518507810985,6.95725
0.518651810931,1.95284
0.519179810734,3.98116
0.519455810632,-0.0851938
0.519623810569,3.99884
0.520151810372,6.99428
0.520271810327,-0.0878349
0.520631810193,6.97228
0.520943810076,2.95067
0.521627809821,6.91388
0.521975809692,3.96778
0.522311809566,2.98837
0.522635809445,3.96861
0.522803809383,3.91203
0.523127809262,3.92584
0.52353580911,5.9669
0.524063808913,3.9263
0.52433980881,-0.00638634
0.524663808689,3.96697
0.524819808631,2.90468
0.525395808416,6.91211
0.525719808295,3.94819
0.526043808174,3.9318
0.526211808111,3.99227
0.526811807888,8.91462
0.527219807735,8.94165
0.52755580761,3.96309
0.527951807462,9.93851
0.528155807386,6.99594
0.528527807248,6.98855
0.529127807024,6.92063
0.529427806912,-0.0401474
0.529811806769,3.95391
0.530159806639,5.95142
0.530555806491,7.99499
0.530747806419,5.99445
0.531047806308,-0.113212
0.531623806093,3.94805
0.53189980599,-0.0141764
0.532103805914,6.99982
0.532559805744,-0.00128283
0.532883805623,3.96792
0.53315980552,-0.00126217
0.533519805385,6.93697
0.53385580526,4.96951
0.534023805197,3.95482
0.534371805068,5.94973
0.534743804929,6.91949
0.535079804804,4.9959
0.535439804669,6.93166
0.535835804522,6.98513
0.536147804405,2.96614
0.536615804231,2.98849
0.536927804114,2.94005
0.537095804052,3.93
0.537419803931,3.99953
0.537755803805,2.92783
0.538151803658,7.93829
0.538475803537,3.96049
0.538811803411,2.95148
0.539327803219,3.98413
0.539483803161,2.91657
0.539963802982,3.9781
0.540119802924,2.97715
0.540431802807,2.98743
0.540707802704,-0.0823744
0.541043802579,3.99399
0.541367802458,3.92264
0.541691802337,3.95371
0.542231802136,3.95546
0.542399802073,3.93415
0.54267580197,-0.015014
0.542987801854,-0.00829325
0.543515801657,6.93854
0.543671801599,2.95287
0.544247801384,7.92186
0.544691801218,3.92951
0.545063801079,6.97664
0.545495800918,10.9269
0.545819800797,3.99383
0.546023800721,6.93655
0.546623800497,5.99288
0.54691180039,-0.0107589
0.547079800327,3.97969
0.547379800215,-0.00858942
0.547895800023,6.9395
0.548219799902,3.98159
0.548387799839,3.99111
0.548747799705,6.97835
0.549287799504,7.9885
0.549455799441,3.98229
0.549935799263,2.98736
0.550271799138,4.93797
0.550439799075,3.93142
0.551039798852,7.94461
0.551363798731,3.98134
0.551699798605,2.98758
0.55203579848,2.90103
0.552419798337,6.99575
0.552623798261,6.99806
0.553139798068,3.9577
0.553259798023,-0.0123226
0.553691797862,-0.0978549
0.554075797719,6.95844
0.554363797612,-0.0443121
0.554723797477,6.96936
0.555071797348,5.96002
0.555287797267,7.9047
0.555671797124,3.97928
0.556007796998,2.90134
0.556343796873,3.96642
0.556859796681,2.90789
0.557195796555,2.98003
0.557363796493,3.95888
0.557687796372,3.96094
0.55798779626,1.93425
0.55833579613,3.95718
0.558875795929,6.94628
0.559259795785,8.93034
0.55959579566,-0.015696
0.559919795539,3.97531
0.560303795396,6.94664
0.560423795351,-0.0746567
0.56096379515,3.97825
0.561275795033,2.91721
0.561479794957,6.93777
0.561959794778,3.99925
0.562079794733,-0.0690598
0.562559794554,3.90449
0.562907794425,3.96252
0.563231794304,3.89967
0.563579794174,3.99494
0.563699794129,-0.0784285
0.564263793919,3.9188
0.564383793874,-0.0570094
0.564731793744,3.95778
0.565079793614,3.93021
0.565355793511,-0.0296408
0.565907793306,6.94247
0.56635179314,7.96727
0.566735792997,6.95255
0.567119792853,6.91881
0.567323792777,6.95957
0.567899792562,5.99588
0.568319792406,11.9811
0.568715792258,3.99121
0.56911179211,3.98296
0.56943579199,3.98322
0.569639791913,6.98818
0.570011791775,-0.0445751
0.570563791569,7.91106
0.570731791506,3.93322
0.571235791318,-0.0214417
0.571403791255,3.99885
0.571775791117,6.95208
0.572123790987,3.93856
0.572507790844,3.94381
0.572867790709,6.98617
0.573299790548,7.89185
0.573815790356,-0.0714211
0.57401979028,6.97342
0.574523790092,-0.0836061
0.574835789975,2.96745
0.575183789845,3.96189
0.575327789792,1.92051
0.575663789666,2.95467
0.576239789452,6.97769
0.576455789371,7.91124
0.576767789255,-0.0900897
0.577259789071,-0.0326034
0.577415789013,2.9441
0.577787788874,6.90991
0.578291788686,3.93349
0.578459788623,3.95925
0.578783788503,3.95296
0.579287788315,4.92639
0.579455788252,3.98766
0.579779788131,3.9645
0.580259787952,-0.0653629
0.580607787822,3.92799
0.580811787746,6.93711
0.581447787509,6.89552
0.581651787433,6.98804
0.582203787227,-0.0361983
0.582407787151,6.95512
0.582755787021,3.90291
0.583283786824,3.94786
0.583607786703,3.94912
0.583823786623,7.98068
0.584135786506,2.961
0.584603786332,2.93917
0.584951786202,3.98308
0.585107786144,2.95557
0.585539785982,-0.0908139
0.585923785839,6.94158
0.586247785718,3.93206
0.586439785647,5.99432
0.586979785445,5.98075
0.587279785333,-0.0105654
0.587627785204,5.96479
0.587903785101,-0.0226348
0.588059785042,2.92419
0.588395784917,4.98645
0.588731784792,2.97788
0.58937978455,7.91503
0.589571784478,5.95207
0.590003784317,6.93726
0.590579784102,6.96606
0.590915783977,2.97537
0.591251783852,3.98777
0.591479783767,8.98324
0.592019783565,2.88025
0.592391783427,2.9018
0.59259578335,6.96203
0.593123783154,3.98214
0.593447783033,3.96833
0.593819782894,5.98935
0.594107782786,-0.0753295
0.594551782621,9.90307
0.594719782558,3.92528
0.595355782321,6.95278
0.595715782187,6.89124
0.596111782039,5.93052
0.596327781958,7.99532
0.596663781833,2.94619
0.597275781605,7.92938
0.597683781453,5.9782
0.598079781305,7.96821
0.598475781157,3.95669
0.598643781094,3.92184
0.598919780992,-0.0116925
0.599243780871,2.99786
0.599759780678,6.97648
0.600107780548,3.97506
0.600275780486,3.99524
0.600659780342,6.91223
0.601271780114,6.99969
0.601667779966,7.98234
0.602015779837,3.9111
0.602291779734,-0.0735191
0.602651779599,6.9488
0.602987779474,2.98664
0.603299779358,2.96609
0.603599779246,-0.0977261
0.603767779183,3.92382
0.604235779009,-0.0528678
0.604403778946,3.93146
0.604895778762,3.99564
0.605219778642,3.93511
0.605567778512,3.97601
0.605723778454,2.95665
0.606239778261,6.95743
0.606395778203,2.97324
0.606875778024,-0.0523316
0.607199777903,3.89922
0.607535777778,2.98251
0.607871777652,2.9775
0.608027777594,2.97831
0.608471777428,7.99048
0.608867777281,7.90083
0.609167777169,-0.0110481
0.609563777021,4.99703
0.6098877769,3.97973
0.610391776712,3.97862
0.610511776668,-0.0687861
0.61101577648,3.94575
0.611339776359,3.94164
0.6114957763,2.93464
0.611975776121,-0.0794051
0.612371775974,7.92144
0.612563775902,5.99514
0.61307977571,2.98215
0.613403775589,3.93816
0.613823775432,9.99144
0.614207775289,6.96761
0.614543775164,-0.00711659
0.614663775119,-0.0295328
0.615011774989,5.98496
0.615611774765,2.88092
0.616103774582,9.9661
0.616271774519,3.97424
0.616811774318,-0.0381418
0.617111774206,-0.0165655
0.61744777408,3.88969
0.617615774018,3.95157
0.618071773848,-0.0563538
0.618491773691,9.96955
0.618875773548,3.99011
0.619223773418,3.99477
0.619391773355,3.94635
0.619847773185,-0.0312846
0.62018377306,2.89584
0.620519772934,2.94429
0.620915772787,5.93293
0.621119772711,6.93791
0.621467772581,3.93154
0.621959772397,2.97269
0.622307772267,3.99078
0.622427772223,-0.00281475
0.622751772102,2.98402
0.623075771981,3.94533
0.623603771784,3.87598
0.623807771708,6.88376
0.624179771569,5.94729
0.624719771368,3.93903
0.625067771238,3.99838
0.625403771113,2.99142
0.625703771001,-0.0924084
0.626051770871,3.98123
0.626219770808,3.9954
0.626783770598,6.88649
0.626999770517,7.96413
0.627347770387,3.93791
0.627887770186,4.91719
0.628007770141,-0.065281
0.62833177002,3.88576
0.628631769908,-0.121055
0.629147769716,2.98486
0.629303769658,2.90708
0.629603769546,-0.009142
0.629879769443,-0.00675492
0.630335769273,-0.0223088
0.63061176917,-0.137812
0.630731769125,-0.0991224
0.631187768955,-0.115858
0.631355768892,3.91308
0.631679768771,3.95625
0.631955768669,-0.0459985
0.632423768494,2.95288
0.632639768413,7.89732
0.633155768221,3.91264
0.633275768176,-0.109129
0.633803767979,3.93562
0.634163767845,6.96734
0.634487767724,3.98535
0.634811767603,3.97241
0.634931767558,-0.0934637
0.635387767388,-0.0681445
0.635591767312,6.99132
0.635915767191,3.99186
0.636431766999,2.98417
0.636599766936,3.94144
0.636947766806,3.91292
0.637475766609,3.98312
0.637751766507,-0.0260173
0.637907766448,2.88017
0.638231766327,3.94138
0.638507766225,-0.0862953
0.639023766032,2.99088
0.639371765902,3.91576
0.639647765799,-0.0092555
0.639971765678,3.98824
0.640091765634,-0.133303
0.640607765441,2.99161
0.640955765311,3.92931
0.641279765191,3.95638
0.64160376507,3.94338
0.641771765007,3.92312
0.642095764886,3.98315
0.642467764747,3.95471
0.642743764644,-0.0241672
0.643235764461,3.94213
0.643595764327,1.89082
0.643787764255,5.98116
0.64425576408,10.9225
0.644603763951,3.92643
0.645131763754,5.98882
0.645431763642,-0.0391488
0.645743763525,2.91772
0.646043763413,-0.0802001
0.646199763355,2.99272
0.646631763194,-0.0267705
0.646751763149,-0.088691
0.647219762975,2.91596
0.647543762854,3.90145
0.647663762809,-0.0779346
0.648095762648,7.93057
0.648659762438,7.99824
0.649043762294,6.97732
0.64916376225,-0.026299
0.649487762129,3.92549
0.650003761936,6.9244
0.65020776186,6.94555
0.650735761663,7.93502
0.650903761601,3.90496
0.65122776148,3.90269
0.651707761301,3.95552
0.651875761238,3.9566
0.652211761113,4.99302
0.652715760925,3.95108
0.653015760813,-0.0754914
0.653363760683,3.94308
0.653483760638,-0.0221276
0.653999760446,3.96826
0.654167760383,3.98833
0.654527760249,3.95929
0.654911760106,6.94956
0.655235759985,1.96127
0.655571759859,4.91069
0.656099759662,3.98905
0.6562677596,3.95955
0.656627759465,4.94823
0.656975759336,3.89226
0.657323759206,3.94077
0.657839759013,3.95474
0.658007758951,3.94392
0.658535758754,3.98547
0.658703758691,3.94792
0.659063758557,3.89959
0.659447758414,6.91223
0.660011758203,6.94145
0.660335758082,3.95682
0.66050375802,3.96322
0.66085175789,3.95629
0.66119975776,3.99391
0.661583757617,6.94625
0.662123757415,6.93709
0.662507757272,6.98263
0.662831757151,3.99047
0.663191757017,6.95738
0.66337175695,4.96688
0.66382775678,-0.0283651
0.664127756668,-0.0136376
0.664247756623,-0.0703414
0.664751756435,3.95666
0.665075756314,2.96839
0.665423756184,3.97921
0.665723756073,-0.114826
0.666047755952,3.96811
0.666395755822,3.97579
0.666563755759,3.92928
0.666947755616,6.90893
0.667331755473,6.90261
0.667679755343,3.96676
0.668027755213,3.93398
0.668363755088,-0.0253907
0.668819754918,-0.117442
0.669155754792,2.98144
0.669491754667,-0.0379364
0.669839754537,3.94635
0.670151754421,2.92922
0.670355754345,6.95454
0.670703754215,3.95546
0.671111754063,5.96551
0.671639753866,3.93964
0.671999753731,6.96504
0.672179753664,4.97422
0.67253975353,2.92279
0.673043753342,2.90701
0.673247753266,6.93823
0.673787753065,6.96062
0.674135752935,3.92579
0.674459752814,3.92071
0.674807752684,3.94053
0.675155752554,3.94738
0.675455752442,-0.0263896
0.675803752313,3.9727
0.67597175225,3.94866
0.676475752062,3.96797
0.676679751986,6.94141
0.677243751775,6.97312
0.677603751641,4.98556
0.677975751502,7.93377
0.678323751373,3.97589
0.67849175131,3.95556
0.679019751113,3.95591
0.67929575101,-0.0946838
0.679619750889,3.97667
0.679739750844,-0.109062
0.680243750656,3.91593
0.680567750535,3.92795
0.680891750415,3.93112
0.68101175037,-0.0859571
0.6814677502,-0.0652099
0.681635750137,3.9958
0.682187749931,5.95568
0.682391749855,6.94911
0.68272774973,3.87189
0.68318374956,9.93847
0.683831749318,9.90827
0.684203749179,5.99014
0.684371749116,3.98597
0.684911748915,7.98457
0.685127748834,7.95572
0.685571748669,7.9535
0.686111748467,6.94319
0.68650774832,7.96669
0.686711748244,6.92779
0.687155748078,7.93143
0.687731747863,9.95931
0.687851747818,-0.0240418
0.688127747715,-0.0420229
0.688607747536,3.92046
0.688979747398,6.93518
0.689099747353,-0.00296192
0.68937574725,-0.0286085
0.689807747089,-0.0572324
0.689987747022,4.94665
0.690467746843,3.9486
0.69063574678,3.93876
0.69098374665,3.98677
0.691307746529,3.98496
0.691823746337,6.98481
0.691979746279,2.92905
0.692315746153,3.89475
0.692795745974,3.98503
0.693011745894,7.94253
0.693407745746,6.97151
0.693743745621,2.91354
0.694115745482,5.9338
0.694535745325,6.90691
0.694907745186,6.98943
0.695399745003,2.98015
0.69556774494,3.95032
0.69613174473,6.90403
0.6964797446,3.9947
0.696863744457,3.90095
0.697247744314,5.94219
0.697595744184,3.95205
0.697931744058,3.94326
0.698087744,2.95843
0.698663743785,3.9011
0.698879743705,7.90078
0.699263743562,6.94445
0.699755743378,-0.107369
0.699899743324,1.90819
0.700463743114,6.96053
0.700799742989,3.94632
0.701003742912,6.96334
0.701555742707,3.93345
0.701675742662,-0.0477411
0.702191742469,6.90325
0.702515742348,3.93442
0.702839742228,3.98119
0.703007742165,3.94239
0.703427742008,6.99453
0.703811741865,3.98237
0.704375741655,6.98923
0.704579741579,6.98868
0.705119741377,3.96366
0.705323741301,6.96689
0.705695741162,6.91976
0.70621174097,3.95148
0.706511740858,-0.0141549
0.7066677408,2.96532
0.707051740656,3.96481
0.707555740468,3.99207
0.70771174041,2.98549
0.70805974028,3.92603
0.70838374016,2.92637
0.708719740034,2.96628
0.709271739828,6.98385
0.709619739699,3.96915
0.709787739636,3.98246
0.710063739533,-0.0045725
0.710543739354,3.99865
0.710879739229,2.99759
0.710999739184,-0.0506669
0.711275739081,-0.00339408
0.711731738911,-0.132086
0.712067738785,2.99794
0.712187738741,-0.0702996
0.712667738562,3.95543
0.713015738432,3.9278
0.713291738329,-0.042453
0.713639738199,3.97541
0.713807738136,3.98244
0.714287737957,3.98097
0.714455737895,3.93427
0.714779737774,3.90322
0.715115737648,3.9279
0.715415737537,-0.0970734
0.715907737353,2.94393
0.71607573729,3.98983
0.716579737102,3.98346
0.716927736973,3.97691
0.717263736847,3.93122
0.717479736767,7.97547
0.717959736588,-0.0580779
0.71824773648,-0.0251168
0.718367736435,-0.0739539
0.718823736265,-0.0666075
0.719027736189,6.93621
0.719483736019,-0.0167208
0.719807735898,3.93058
0.720023735818,7.99265
0.720539735625,3.91293
0.720695735567,2.8817
0.721211735375,3.92062
0.721559735245,3.95754
0.721727735182,3.95349
0.72202773507,-0.0214643
0.722543734878,3.92811
0.722711734815,3.97981
0.723011734703,-0.0793726
0.72350373452,2.99747
0.72385173439,2.8922
0.724019734327,3.96572
0.724415734179,7.9484
0.724919733991,3.97313
0.725087733929,3.96704
0.725603733736,2.99998
0.725759733678,2.94157
0.726035733575,-0.0454838
0.726359733454,3.98961
0.726875733262,2.89907
0.727043733199,3.96406
0.727391733069,3.99236
0.72773973294,5.97529
0.728039732828,-0.130332
0.728507732653,-0.126176
0.728663732595,2.95072
0.72899973247,3.93146
0.729527732273,3.97206
0.72980373217,-0.0216983
0.729923732125,-0.107099
0.730403731946,-0.104284
0.730571731883,3.99351
0.731123731677,7.938
0.731531731525,5.9932
0.7318677314,2.94447
0.732239731261,5.91967
0.732623731118,6.90403
0.732899731015,-0.0317031
0.733247730885,3.91711
0.733451730809,6.97225
0.733799730679,5.90004
0.734303730491,3.9357
0.73462773037,3.95215
0.73484373029,7.99414
0.735347730102,3.93231
0.735695729972,3.94616
0.73610372982,7.90683
0.73645172969,-0.0208825
0.736787729564,3.92946
0.736955729502,3.99769
0.737459729314,3.9111
0.737615729256,2.97349
0.738179729045,3.9421
0.738575728898,7.95104
0.738743728835,3.99791
0.73931972862,7.91517
0.739739728463,9.96813
0.739943728387,6.93769
0.740279728262,2.99377
0.740663728119,6.94109
0.741179727926,2.94304
0.741347727864,3.91288
0.741863727671,2.89732
0.742019727613,2.92207
0.74253572742,2.8889
0.742919727277,6.99117
0.743039727232,-0.0841843
0.743567727035,3.96529
0.743939726897,6.96333
0.744263726776,3.92495
0.74459972665,3.95776
0.744803726574,6.92668
0.745199726427,3.99846
0.745739726225,2.97222
0.745907726163,3.92001
0.746327726006,6.98942
0.746675725876,-0.0173559
0.747023725746,3.98958
0.747347725625,3.98924
0.747839725442,3.95952
0.748187725312,2.9889
0.748499725196,2.96302
0.748859725061,6.95664
0.749135724958,-0.079372
0.749519724815,6.98632
0.749723724739,6.95269
0.750047724618,3.98648
0.75055172443,3.94635
0.750719724368,3.96108
0.751055724242,3.95238
0.751403724112,3.92998
0.751859723942,-0.0633617
0.752183723821,3.94428
0.752387723745,6.92998
0.752939723539,3.93023
0.753299723405,6.98486
0.753623723284,3.97289
0.753971723155,3.94427
0.754367723007,7.94551
0.754523722949,2.95779
0.754859722823,2.95822
0.755195722698,3.96702
0.755567722559,6.89265
0.755999722398,6.96653
0.756575722183,5.94712
0.756923722053,5.93262
0.757271721924,3.98153
0.757619721794,3.93622
0.757811721722,5.98533
0.758279721548,9.93361
0.7586757214,5.9699
0.759179721212,3.89841
0.759299721167,-0.0319397
0.759611721051,2.99254
0.76017572084,3.92817
0.760343720778,3.96605
0.760643720666,-0.0887766
0.761015720527,5.97615
0.761471720357,-0.0570483
0.761639720294,3.97112
0.762131720111,-0.102089
0.762431719999,-0.064569
0.762779719869,3.90849
0.762983719793,6.97333
0.763439719623,-0.0380973
0.763799719489,6.94346
0.763967719426,3.88587
0.764459719242,4.97903
0.76462771918,3.9746
0.765107719001,3.90564
0.765455718871,3.9364
0.76577971875,3.98962
0.766091718634,2.90785
0.766259718571,3.92886
0.76658371845,3.96163
0.76693171832,3.97711
0.76727971819,3.96372
0.76784371798,6.94577
0.768179717855,4.93794
0.768611717694,6.96308
0.768815717617,6.94134
0.769463717376,9.90111
0.769811717246,5.94544
0.770183717107,5.95194
0.770519716982,2.94116
0.770723716906,6.97047
0.771071716776,3.96864
0.771419716646,3.96032
0.771947716449,3.9856
0.772295716319,3.96373
0.772451716261,2.96423
0.772787716136,2.97309
0.773147716002,3.93244
0.773471715881,3.98727
0.773819715751,3.97933
0.774167715621,3.91172
0.774515715491,3.96334
0.774863715361,3.97457
0.775187715241,3.96773
0.775547715106,3.99357
0.776051714918,3.94785
0.776399714789,3.92233
0.77655571473,2.92485
0.776831714627,-0.0114618
0.777167714502,3.94977
0.777671714314,3.96938
0.777851714247,4.97453
0.778187714122,3.92858
0.77848771401,-0.00274075
0.778979713826,3.89489
0.779315713701,2.96976
0.77963971358,2.98263
0.779807713517,3.95143
0.780143713392,3.98506
0.780671713195,3.9693
0.781055713052,6.94702
0.781223712989,3.93896
0.781739712797,1.98323
0.782099712662,2.94253
0.782447712533,5.98715
0.782783712407,2.99627
0.783119712282,2.87498
0.783407712174,-0.0828806
0.783755712045,3.97126
0.783875712,-0.0104248
0.784307711839,-0.0583651
0.784655711709,3.98797
0.784811711651,2.99686
0.785327711458,6.92873
0.7854837114,2.99708
0.785807711279,-0.0466354
0.786167711145,6.97638
0.786719710939,6.96675
0.786839710894,-0.038337
0.787235710747,7.9347
0.787667710585,-0.0687904
0.787787710541,-0.0451936
0.788267710362,3.98746
0.788435710299,3.96632
0.788783710169,3.94424
0.789251709995,-0.068575
0.789575709874,3.98628
0.789923709744,3.96566
0.790127709668,6.98157
0.790511709525,6.93258
0.790835709404,3.99976
0.791147709287,2.99606
0.791603709117,-0.0664832
0.791939708992,2.90458
0.792155708911,7.91221
0.792503708781,3.92578
0.792863708647,6.92895
0.793223708513,6.95125
0.793715708329,2.96772
0.793835708285,-0.0462263
0.794207708146,2.95307
0.794531708025,3.92392
0.795011707846,-0.0608864
0.795131707801,-0.0223373
0.795431707689,-0.0278913
0.79591170751,3.92932
0.796187707407,-0.0825992
0.796535707277,3.95942
0.796895707143,4.94128
0.797063707081,3.99485
0.79738770696,3.96336
0.797819706799,-0.101975
0.798155706673,2.97785
0.798323706611,3.92573
0.798827706423,2.90878
0.79899570636,3.98381
0.799499706172,3.91007
0.799667706109,3.92985
0.799943706006,-0.111966
0.800483705805,6.92018
0.800759705702,-0.0910139
0.801035705599,-0.0894561
0.801419705456,3.96404
0.801635705375,7.9902
0.802127705192,3.9431
0.802295705129,3.95876
0.802643704999,3.97565
0.803147704811,2.97621
0.803459704695,2.93695
0.803627704632,3.91582
0.803951704511,3.93257
0.804347704363,7.94586
0.804899704158,5.97368
0.805067704095,3.96557
0.805415703965,3.92343
0.805715703853,-0.121819
0.806219703665,3.93024
0.806567703535,3.95185
0.806735703473,3.97543
0.807287703267,2.99807
0.807671703124,6.90802
0.807911703034,9.94308
0.808535702801,5.97831
0.808739702725,6.93275
0.809015702622,-0.0995888
0.809483702448,-0.0620631
0.809915702286,7.94354
0.810071702228,2.96924
0.81057570204,-0.121115
0.810875701928,-0.0267348
0.811043701866,3.87234
0.811367701745,2.98615
0.812015701503,7.92323
0.812171701445,2.97705
0.812555701302,6.92791
0.812903701172,3.96118
0.813503700948,7.88844
0.813671700885,3.91732
0.814079700733,5.94749
0.814451700594,6.96674
0.815015700384,4.97318
0.815135700339,-0.0152752
0.815747700111,7.93019
0.815903700053,2.93483
0.816227699932,3.95987
0.816755699735,3.94227
0.817103699605,3.94994
0.81722369956,-0.0558752
0.817763699359,2.94904
0.818075699243,2.99333
0.818447699104,6.9979
0.818771698983,3.95929
0.819119698853,3.94211
0.819455698728,3.92868
0.819623698665,3.96357
0.820019698518,5.98433
0.820403698374,6.98259
0.820787698231,6.92429
0.821303698039,3.95519
0.82145969798,2.98689
0.821951697797,2.93795
0.822119697734,3.93226
0.822443697613,3.93206
0.822779697488,2.93849
0.823127697358,3.98891
0.823451697237,1.99891
0.823835697094,6.95052
0.824351696902,2.95496
0.824735696758,6.98648
0.825083696629,2.96361
0.825419696503,2.97298
0.825587696441,3.96806
0.82615169623,6.95892
0.826319696168,3.95411
0.826679696033,3.95087
0.82706369589,6.96946
0.827579695698,2.94125
0.827699695653,-0.0164474
0.828179695474,3.92466
0.828527695344,3.9625
0.828695695281,3.97921
0.828995695169,-0.00868542
0.829463694995,2.98496
0.829739694892,-0.0204724
0.829859694847,-0.0985789
0.830375694655,3.96563
0.830687694538,2.9431
0.831035694408,3.94312
0.831311694305,-0.0075125
0.831431694261,-0.00356392
0.8318636941,-0.0156856
0.831983694055,-0.0263153
0.832259693952,-0.0913692
0.83255969384,-0.105876
0.832883693719,3.95774
0.833315693558,-0.0359074
0.833627693442,2.9312
0.833831693365,6.94666
0.834179693236,3.94535
0.834683693048,3.91683
0.834839692989,2.96733
0.835355692797,2.95584
0.835715692663,3.98857
0.836063692533,3.99158
0.836267692457,6.93016
0.836759692273,3.90199
0.836915692215,2.92186
0.837191692112,-0.100676
0.837467692009,-0.146694
0.837791691888,3.88979
0.838355691678,3.94508
0.838703691548,3.9851
0.838823691503,-0.0110482
0.839147691382,3.94655
0.83942369128,-0.0935464
0.839747691159,3.9594
0.840263690966,3.97599
0.840383690921,-0.0779364
0.840863690742,3.95213
0.840983690698,-0.009211
0.841427690532,-0.0813171
0.841595690469,3.96239
0.841895690357,-0.0950414
0.842459690147,6.90212
0.842807690017,4.92535
0.842927689972,-0.122594
0.843527689749,6.94709
0.843839689632,-0.0830303
0.844031689561,5.99421
0.844403689422,6.94307
0.844739689297,3.94983
0.84505168918,-0.0150962
0.84550768901,-0.136977
0.845879688871,7.93494
0.846263688728,6.96318
0.846383688683,-0.00781709
0.846839688513,-0.0761761
0.847139688401,-0.0248863
0.84746368828,3.97723
0.847631688218,3.95259
0.847955688097,3.9522
0.848339687954,6.98549
0.848891687748,6.86386
0.849095687672,6.96382
0.849611687479,6.8766
0.849779687417,3.97126
0.850175687269,9.91705
0.850511687144,2.96573
0.850871687009,5.94631
0.851279686857,5.96476
0.851663686714,3.94736
0.85202368658,3.96733
0.852443686423,6.90085
0.852863686266,6.95649
0.853295686105,6.91327
0.853667685966,5.98395
0.854315685725,5.98734
0.854663685595,3.99931
0.854819685537,2.97427
0.855155685411,-0.139845
0.855575685255,6.98116
0.855875685143,-0.0122833
0.856343684968,-0.0214555
0.856511684905,3.96466
0.856787684802,-0.13994
0.857363684588,6.92864
0.857483684543,-0.00125358
0.857831684413,5.9643
0.858311684234,-0.0289829
0.858431684189,-0.143268
0.858755684068,3.99726
0.859295683867,6.92998
0.859511683786,7.9119
0.859847683661,2.90093
0.86017168354,3.9542
0.860447683437,-0.00975367
0.860807683303,6.95471
0.861179683164,6.93414
0.861479683052,-0.0177877
0.861839682918,5.99018
0.862151682802,2.99804
0.862703682596,3.91366
0.863027682475,3.9906
0.863303682372,-0.0709257
0.863471682309,3.95522
0.86395168213,-0.0765701
0.864251682018,-0.0363558
0.864551681906,-0.109374
0.864707681848,2.98164
0.865187681669,3.98588
0.865463681566,-0.0166313
0.865799681441,2.91511
0.865919681396,-0.0107518
0.866411681213,2.97134
0.866723681096,2.99173
0.866843681051,-0.123407
0.867215680913,6.94417
0.867419680837,6.91612
0.867611680765,5.95846
0.867815680689,6.95729
0.867971680631,2.94565
0.868139680568,3.94675
0.86829568051,2.96803
0.868451680452,2.90225
0.868619680389,3.93757
0.868787680326,3.97071
0.868955680264,3.95417
0.869123680201,3.98391
0.869291680138,3.92545
0.869459680076,3.94377
0.869627680013,3.99849
0.869783679955,2.96948
0.869951679892,3.95782
0.87014367982,5.96155
0.870299679762,2.99133
0.8704676797,3.97846
0.870635679637,3.97239
0.870839679561,6.99785
0.870995679503,2.99661
0.87116367944,3.98226
0.871319679382,2.96478
0.871487679319,3.96797
0.871607679274,-0.0080545
0.871775679212,3.98491
0.871895679167,-0.009773
0.872051679109,2.99893
0.872171679064,-0.00664375
