time,IdealSim1.flowGenerator3.flowSynId:vector
1.002241612243,1
1.002517774795,2
1.002781977876,3
1.002816795406,4
1.003202674483,5
1.003503625997,6
1.003904868531,8
1.003945668242,7
1.003960671417,9
1.004283201581,10
1.004622303784,12
1.004821862172,11
1.00502588653,13
1.005161193704,14
1.005492555239,15
1.005523247949,16
1.005691466705,18
1.006018224481,19
1.006342942222,20
1.006469421259,21
1.006513100946,17
1.007490819125,22
1.00773060794,23
1.007976209996,25
1.007976809994,24
1.008215344103,27
1.008308943374,26
1.008495171127,29
1.008640250574,30
1.009113049837,32
1.00919464955,28
1.009468138829,33
1.009577217996,34
1.009835216546,31
1.010055009822,38
1.010188161516,39
1.010218199632,36
1.010263164689,35
1.010311884538,40
1.010370324118,41
1.010441843573,37
1.01069714433,42
1.010885653024,43
1.011598692855,44
1.01182000695,45
1.012066550232,46
1.012449595149,48
1.012606553892,47
1.013397001403,49
1.013733115373,52
1.013777035242,50
1.013877734481,51
1.01466569716,53
1.01536128138,56
1.015420801185,54
1.015629328908,57
1.015696768418,58
1.016151924724,59
1.016262684134,60
1.016537241897,55
1.016746745294,61
1.016790826218,62
1.016923312714,64
1.017198591609,67
1.017303471584,66
1.017442191059,63
1.017461634197,65
1.017549525572,68
1.017723616996,69
1.018201595376,71
1.018307794632,70
1.01857859006,73
1.018953947517,75
1.018968587514,76
1.01900614741,74
1.019111506583,72
1.019126367923,77
1.019369436424,78
1.019382983522,79
1.01976544252,80
1.019941774281,81
1.020747775257,83
1.020811734775,82
1.021035511182,84
1.021171368877,85
1.021243660246,86
1.021617474923,87
1.021948277694,89
1.021982717458,88
1.023556667148,90
1.023820876733,91
1.024063595125,92
1.024223283792,94
1.02445404192,93
1.024681092833,95
1.024865945765,96
1.025202116043,97
1.026185856047,98
1.026472531232,99
1.026618703639,100
1.026767675541,101
1.027151003697,102
1.027196814355,103
1.027666419154,104
1.028549112649,105
1.028725706748,106
1.029149825616,107
1.029756415994,108
1.029762698681,109
1.029808330637,110
1.030431150774,111
1.030493755675,112
1.030559616676,113
1.030818574156,114
1.031107018081,116
1.031149377828,117
1.031212257355,118
1.031253417063,115
1.031417483032,121
1.031441123033,122
1.031557642626,123
1.031723242029,124
1.032026481255,126
1.032043281222,120
1.032183841212,127
1.032361883788,128
1.032431723571,129
1.032592762957,130
1.032825202041,119
1.033016600516,131
1.033162279353,125
1.033276752906,132
1.033371216115,134
1.033945292865,136
1.033986092747,135
1.034173051271,137
1.034201011089,133
1.034572179193,138
1.034704131236,139
1.034769887447,140
1.03480757075,141
1.034850708704,142
1.034926028149,143
1.034954439844,144
1.035069662037,145
1.035192574305,146
1.035220452073,147
1.035331532996,148
1.035413639844,149
1.035949997348,150
1.036368977376,151
1.036558514915,152
1.036747311509,153
1.037213374725,154
1.03732907329,155
1.037347833124,156
1.038050088564,159
1.038053568565,158
1.038097968322,160
1.038324527337,162
1.038376247181,163
1.038398687139,161
1.038438406859,157
1.039268346544,165
1.039359905851,166
1.039368905814,164
1.03947827289,167
1.040239131316,170
1.040304891133,171
1.040711689519,172
1.040996208484,173
1.041505367902,175
1.041704207826,176
1.041738527757,177
1.041903887732,174
1.041968807514,169
1.042066726781,178
1.042236165964,179
1.042249485904,168
1.042505258381,182
1.042600298038,180
1.043252195708,184
1.043255315709,183
1.043701718078,187
1.043731238054,185
1.04403231785,181
1.044549976481,189
1.044570321128,190
1.04459665962,191
1.044733339102,186
1.044922697575,188
1.045568915958,192
1.045976967477,193
1.046245327103,194
1.046282283574,195
1.046542199113,197
1.046640478351,198
1.046853476627,196
1.047590076851,199
1.047796092743,200
1.047914425723,202
1.047934585643,203
1.048261222979,204
1.048431381612,201
1.049047010507,205
1.049339897339,206
1.049805596591,208
1.049924995667,209
1.050058914602,207
1.050127412105,210
1.050146592664,211
1.050564941271,212
1.050646663892,214
1.051043740634,213
1.05154140084,215
1.051668325851,216
1.051904064171,217
1.052514033409,219
1.052636552776,220
1.052962710109,218
1.053002888843,221
1.053128055103,222
1.053238590257,223
1.053295943534,224
1.053446015003,225
1.053941669341,227
1.054073188296,226
1.054581227328,228
1.054900498133,229
1.055160417218,230
1.055348631064,231
1.055502684016,232
1.0559889434,233
1.056787543037,238
1.056906931896,235
1.057521574743,239
1.057808974178,241
1.057916494034,242
1.05803325382,236
1.058297136987,237
1.058809896221,244
1.059110976185,245
1.059370776102,247
1.059698856104,243
1.060417608484,249
1.060568808485,251
1.060686528484,252
1.060790208483,253
1.06096828848,250
1.061049528361,254
1.06113124822,246
1.06136429139,248
1.061788973028,255
1.062042292025,234
1.062349729545,256
1.062397249207,257
1.062623567372,240
1.062953094291,258
1.063242591177,259
1.064068778667,261
1.064117738315,262
1.064198497693,260
1.06435592231,263
1.064479755222,264
1.064744179414,265
1.066072968355,266
1.066398027499,267
1.066706414273,268
1.066717908461,269
1.066975810501,270
1.067226529782,272
1.067242972963,273
1.067565767997,275
1.067682047776,274
1.067691287777,271
1.067826889947,276
1.067904726263,278
1.068257283382,279
1.068699240992,281
1.068818760547,277
1.068951201981,282
1.068985041769,283
1.06905464124,280
1.069950433733,284
1.069969077588,285
1.070221484754,286
1.070411229923,287
1.070424073116,288
1.070438749508,289
1.070710990681,290
1.070763576286,291
1.071145166366,292
1.071416178689,293
1.071695787838,294
1.071779040528,295
1.072125785765,296
1.072278428203,299
1.072333028082,300
1.072543747998,302
1.072948507862,303
1.073093947833,304
1.073112191017,305
1.073120471002,297
1.073353390584,307
1.073467630538,308
1.073595310515,301
1.073632753612,309
1.073675953503,310
1.073963112554,311
1.074077112132,298
1.074238394129,312
1.074293953717,306
1.075255526544,316
1.075728684194,317
1.076859563561,318
1.07693480356,319
1.077382645913,321
1.077530549145,320
1.077573208923,322
1.077893848882,314
1.077995492079,315
1.077996812077,324
1.078194328059,323
1.078615645078,326
1.07979584278,329
1.080533482611,335
1.080830444572,331
1.081013444401,325
1.081927607486,330
1.081972487456,332
1.082063722277,333
1.082190082267,313
1.082284063623,327
1.082413783623,328
1.082459143583,339
1.082471023584,336
1.082724670447,342
1.082744230445,341
1.082766670445,334
1.082866753455,340
1.082984116644,344
1.083010320464,345
1.083082680413,346
1.083492719963,348
1.08351743994,338
1.083588359916,343
1.083666158834,347
1.083743402248,349
1.083810362211,352
1.083870475055,353
1.083880041049,354
1.084008564247,350
1.084150163709,337
1.084349242819,355
1.084493961677,356
1.084717639901,357
1.084869198694,358
1.085277555361,359
1.085304915185,360
1.085361674763,351
1.085821989143,361
1.086232194283,362
1.086643690709,363
1.086906281136,364
1.087186182408,365
1.087326100043,367
1.087928495074,366
1.088029770176,368
1.088592456223,369
1.088650305749,370
1.088846229642,372
1.089116107444,371
1.089258078871,373
1.089507245616,374
1.089728157457,378
1.089728517457,377
1.089922316678,375
1.090109998418,379
1.090560115775,381
1.09076219533,383
1.090828750944,385
1.091323750292,382
1.091420830114,386
1.091626390066,389
1.092322630058,392
1.092638350019,390
1.092801909861,393
1.093059069831,395
1.093143309822,376
1.093343473002,398
1.093398912978,399
1.093745816721,384
1.093820216709,387
1.093938056707,400
1.093984856701,401
1.094002616706,394
1.094337776704,396
1.094724055948,402
1.094901295605,403
1.094959615515,404
1.094973655516,388
1.095238138684,391
1.09544909792,405
1.095613017292,406
1.096003975716,397
1.096081018374,380
1.096421981864,407
1.096524120619,408
1.097562004811,409
1.09790459713,410
1.098047653003,411
1.09830306801,412
1.098558621988,413
1.098952672843,414
1.099372086581,415
1.099441246047,416
1.099555221438,417
1.099583078808,418
1.099618018422,419
1.09965250061,420
1.099756977595,421
1.099790458798,422
1.099884221492,423
1.100158678405,424
1.100385782917,425
1.100590343078,426
1.100705131204,427
1.101111578967,428
1.101135718016,429
1.101192356433,430
1.102112123098,432
1.102156882776,431
1.102196916173,433
1.10279894965,434
1.102818897462,435
1.103030257651,436
1.103474283314,437
1.103890772541,439
1.10401341159,440
1.104152370483,438
1.104338653557,441
1.105260811339,442
1.105325905504,444
1.105453104495,443
1.105934552007,445
1.105945521525,446
1.106332297914,447
1.106746440361,449
1.107212877379,451
1.107311037022,450
1.107642234732,452
1.107848513064,448
1.107969702181,453
1.108272810491,454
1.108747346525,457
1.108803146348,458
1.108920025948,459
1.108982185742,460
1.109142985131,461
1.109395824134,462
1.109471543897,463
1.109798302599,464
1.110120862048,465
1.110177381865,456
1.110278661072,455
1.110487699868,466
1.110782555057,467
1.110906478731,469
1.111029717913,471
1.111579557785,473
1.111724157751,474
1.111775997673,475
1.11180035765,468
1.111956600423,470
1.111961640423,476
1.112053439741,472
1.112321012504,477
1.112452417909,478
1.112544959034,479
1.11320920274,480
1.113395023758,481
1.113676163073,482
1.114628099172,483
1.115191021916,484
1.115340411109,485
1.115401684452,486
1.115418183422,487
1.115522709226,488
1.11569151425,489
1.116087742458,491
1.116106342354,490
1.116358900183,492
1.116981141473,496
1.116998376367,493
1.117151255849,497
1.117151775108,498
1.11720213896,499
1.117290938643,495
1.117302591333,500
1.117733631143,501
1.117904870484,503
1.117982630252,505
1.118463593421,507
1.118558730347,508
1.118603490349,504
1.118634596445,509
1.118704076421,494
1.118890076094,510
1.119439914956,513
1.119458154945,511
1.119498234894,514
1.119556794871,502
1.119766437247,512
1.119901199513,515
1.120377476383,517
1.12117331312,518
1.121647431695,516
1.121696871584,520
1.121789271301,521
1.122055763498,522
1.122107994063,524
1.12233172264,527
1.12246048264,528
1.122528882638,529
1.122637002638,525
1.122695565742,526
1.122722085715,523
1.12272328894,506
1.122728928941,519
1.12335609039,532
1.12339017037,534
1.123422570346,533
1.123560089865,535
1.123589849794,530
1.123631732745,531
1.124231304478,536
1.124315358105,537
1.124595730838,538
1.12468087342,539
1.125719484108,540
1.126059111632,541
1.126334642981,542
1.128340544435,543
1.128722965677,544
1.128984810699,545
1.129444087938,546
1.129833640223,547
1.129880648371,549
1.129998607439,548
1.130850157749,550
1.131445929461,551
1.132175422755,553
1.132348581363,552
1.132756571121,554
1.133290490635,555
1.133460365974,556
1.133867745778,558
1.134044744377,559
1.134068504232,560
1.134352181984,561
1.134639100427,563
1.134683860302,564
1.13474782013,565
1.134750732892,562
1.134849699808,566
1.134964179383,567
1.135040018807,568
1.135183897944,570
1.135247137733,569
1.135293457574,572
1.135490736894,573
1.135924655588,574
1.136017775252,557
1.136170777277,571
1.136666157856,575
1.137381410585,579
1.137423530555,578
1.137546893751,581
1.137810893567,577
1.138160213542,582
1.138241453317,583
1.138258013301,580
1.138277096442,576
1.138302951234,584
1.138983298805,585
1.139335667173,586
1.139487701491,587
1.139602605234,588
1.139646155459,590
1.139731714897,591
1.14008331247,589
1.140192618653,593
1.140732134208,592
1.140889581416,594
1.140992455839,595
1.141850960707,598
1.141864283905,597
1.142093603002,596
1.14223817388,600
1.142306933378,601
1.142613410875,599
1.142827605132,604
1.142831805127,605
1.14284764831,603
1.143178365696,602
1.143811959936,609
1.143945039913,606
1.14397060311,608
1.144169322334,610
1.144231481867,607
1.144530374911,611
1.144859670365,612
1.14509658486,613
1.145336689345,616
1.145422369133,617
1.145441449106,615
1.14594100729,620
1.146066047245,621
1.146260927217,618
1.146266207206,622
1.146432889854,624
1.146607249829,623
1.14665788967,619
1.146807292365,626
1.147051371403,627
1.147245170648,625
1.147705127319,628
1.148382403181,630
1.148651083103,631
1.148837086237,633
1.149136667942,614
1.149297467325,629
1.14946516747,632
1.149898891815,634
1.150030739321,635
1.150303181278,636
1.150361402957,637
1.150684945904,638
1.150731115011,639
1.151413845861,640
1.151721610572,641
1.152467616183,642
1.152558943005,643
1.152735721324,644
1.153650651291,645
1.153709913049,646
1.154605209261,648
1.154657168879,647
1.155345688521,649
1.155985218653,653
1.156241898405,655
1.156414818275,650
1.156483341468,658
1.15651142147,659
1.156548381468,656
1.156658664461,654
1.156659984459,651
1.1567099075,652
1.156744347266,660
1.156819106934,661
1.157636421668,663
1.158357258717,662
1.158620296872,665
1.158748336474,667
1.15893121645,664
1.159071495932,668
1.159076415933,666
1.159835169695,669
1.159838409682,657
1.159953915066,670
1.160213967722,671
1.160583308307,672
1.160644022928,673
1.160795286061,674
1.160801195042,675
1.160901318163,676
1.161071918782,677
1.161377111304,678
1.161631547713,680
1.162068105262,681
1.162449942131,679
1.162523992454,682
1.163110350442,683
1.16341584675,684
1.163416353305,685
1.163665307917,686
1.16381815532,687
1.164081431797,688
1.164098725608,689
1.164957104303,693
1.165293408407,694
1.165330728407,691
1.165352143652,692
1.16553934685,696
1.165550746851,690
1.165589102168,695
1.165862918246,698
1.166262634987,699
1.166428714169,700
1.166487033734,697
1.166522434674,701
1.166611760933,702
1.166684668971,703
1.16723293069,704
1.167724108183,705
1.16792725858,706
1.168049605507,707
1.168132349337,709
1.168145189286,710
1.168291228163,711
1.168326867967,712
1.168350027825,708
1.168410477807,713
1.168415077367,714
1.168482662141,715
1.168965541431,717
1.169301539792,716
1.169303753651,718
1.169319236822,719
1.169406606696,720
1.169672043518,721
1.170480063292,722
1.170884335866,723
1.17093490803,724
1.171012299631,725
1.171417784046,726
1.171571936441,727
1.171717569586,728
1.171953735942,730
1.172435892431,732
1.172500452215,729
1.172745223259,733
1.172798502866,731
1.17314784301,734
1.173564329419,735
1.174013286798,737
1.174032006718,738
1.174257004894,736
1.175027782257,739
1.17521821374,740
1.175234162602,741
1.175420549507,742
1.175988382172,743
1.176452254213,746
1.176536614212,745
1.176894093228,749
1.176991773203,748
1.177037613065,744
1.177260094515,750
1.177394373535,751
1.177533332671,752
1.178189007282,753
1.178194167279,754
1.178669727857,755
1.178802567185,756
1.178849606844,747
1.179085941664,757
1.180022619637,758
1.180325573962,759
1.180484659362,760
1.180580752861,761
1.180901300829,764
1.181021900379,763
1.181243178591,765
1.181464816795,762
1.181865059706,766
1.182138291634,767
1.182234071419,768
1.182586253482,769
1.182765263964,770
1.182942904982,771
1.182979532743,772
1.18364052641,773
1.183812789335,775
1.183853229063,776
1.183880708885,774
1.183895112065,777
1.184085477442,779
1.184431556337,781
1.184510276087,782
1.184595715784,778
1.184822940535,783
1.185237177147,784
1.18529333673,780
1.185635759463,785
1.185992013433,786
1.186528183582,788
1.186572583317,789
1.186751982302,787
1.186775940822,790
1.186886378584,791
1.187162864198,793
1.187255743475,792
1.187384026483,794
1.187534228313,795
1.187577228094,796
1.187906532732,797
1.188090044038,798
1.188152050996,799
1.188257920071,800
1.188366259696,801
1.188555334442,802
1.189015586683,804
1.189078706233,805
1.189183225417,806
1.189225465116,803
1.189378181253,807
1.189470248991,808
1.189546811062,809
1.189806928217,810
1.18989796193,811
1.190155513737,812
1.190264776677,813
1.190600908974,814
1.190854079003,815
1.191013558184,817
1.191342235496,816
1.191520083707,818
1.191769922994,819
1.192234037676,820
1.192316360306,822
1.192334960202,821
1.192562380276,823
1.193285548476,824
1.193506792802,825
1.194189519297,826
1.194241053851,827
1.19438378824,828
1.194513000299,829
1.194595081357,830
1.194614875202,831
1.194738187067,832
1.194918342653,833
1.195264333424,834
1.195321881309,835
1.195719143198,837
1.195757302933,838
1.195829662381,836
1.196455910936,839
1.196720683206,840
1.196948403335,842
1.197062762482,843
1.197544918558,844
1.197670077566,841
1.197754913742,845
1.197771937621,846
1.197960446532,847
1.1984472178,849
1.198728976434,852
1.198981304743,853
1.199294744709,854
1.199317379911,855
1.199426507719,850
1.19995510665,858
1.200076309676,857
1.200881389533,863
1.200908749522,862
1.200977392718,861
1.201147072714,865
1.201410112715,864
1.201923712632,868
1.202005312565,859
1.202029552539,870
1.202071192527,860
1.202195512525,871
1.20225791253,848
1.202431552527,873
1.202572312527,866
1.202691712528,869
1.202750032437,874
1.202967989754,872
1.203084475128,876
1.203302754707,877
1.203343314652,856
1.203376554605,878
1.203408834582,867
1.203762596489,880
1.203806276464,879
1.204164115479,882
1.204623397945,883
1.204979557651,884
1.205326237627,875
1.205350957576,851
1.205658635066,885
1.205731834507,881
1.205823503403,887
1.206068181419,888
1.2060885813,886
1.20613396786,889
1.206461790454,890
1.206574542539,891
1.207040841847,892
1.207686228651,893
1.207813195386,895
1.208102753041,896
1.208464670105,897
1.209167504324,898
1.209605741455,899
1.209629861407,894
1.209651944523,900
1.209666195731,901
1.209825106445,903
1.209842389622,904
1.209920149073,905
1.209926269054,906
1.210203230152,907
1.210534067477,908
1.210578107285,909
1.211052703964,911
1.21121122336,912
1.211465502353,910
1.211803659618,913
1.211940458695,914
1.212174337594,915
1.212329736455,902
1.212388842903,916
1.212419235226,917
1.213525669986,918
1.213739645529,919
1.214679504411,920
1.215146950447,921
1.215204374485,922
1.215368893125,923
1.216225079181,924
1.21623840237,925
1.216635269192,926
1.217443216603,927
1.217724558663,928
1.218361918172,929
1.218717080696,930
1.219087992511,932
1.219095083449,937
1.219364723448,931
1.219476326439,934
1.219718460746,936
1.219757463902,940
1.219967772972,938
1.219968306687,935
1.220057728808,941
1.220109448685,942
1.220291848197,944
1.220502568136,943
1.220827768111,945
1.221330807846,939
1.221335505669,946
1.221579106939,933
1.22162227566,947
1.221852535741,948
1.222361159334,950
1.222425478849,949
1.222515689158,951
1.222900295487,952
1.22330002534,954
1.223626663099,955
1.223710542451,953
1.223781693487,956
1.223898252168,957
1.224336251818,958
1.22500587679,959
1.225163965848,961
1.225597763311,962
1.226318239963,964
1.226382679775,965
1.226391199776,963
1.226421319643,966
1.226617398254,967
1.226913316737,969
1.227116475963,970
1.227763393732,972
1.22782814067,971
1.227854780656,973
1.228146259493,960
1.228206139202,975
1.228437978634,976
1.228483098523,977
1.229039296258,974
1.229448133832,968
1.229494145168,979
1.229536864875,980
1.229556424763,978
1.229667381737,981
1.23001966619,982
1.23005100778,983
1.230129373165,984
1.230756108186,985
1.23078032674,986
1.23095936115,987
1.231308936164,988
1.231545948882,989
1.231692037806,991
1.231851636579,993
1.231902636419,992
1.232168195241,996
1.232246435216,995
1.232328874924,994
1.232542833263,998
1.232576073177,997
1.232601753018,999
1.233023429574,1000
1.233135388692,990
1.233300176997,1001
1.233870826099,1002
1.234127820905,1003
1.234902300425,1004
1.23568172574,1005
1.236309490323,1006
1.23735331031,1007
1.237498793718,1008
1.237615169825,1009
1.237752687613,1010
1.237784250681,1012
1.237839330273,1011
1.238282725931,1013
1.239282353931,1018
1.23930899393,1017
1.239354113931,1019
1.239640673359,1020
1.240059419145,1023
1.240112219141,1022
1.240650058137,1025
1.240662661332,1026
1.240722181332,1021
1.240855951661,1015
1.240952434859,1016
1.24122219485,1027
1.241343634435,1028
1.241382754345,1030
1.241394154322,1029
1.241478877404,1032
1.24156935735,1033
1.241915199883,1024
1.241948923082,1034
1.242023439597,1035
1.242370118422,1037
1.242506073219,1038
1.242563913191,1039
1.242575741177,1040
1.243052744375,1031
1.243069427572,1041
1.243240786912,1042
1.243271146838,1043
1.244087025605,1045
1.244154815088,1014
1.245144092206,1047
1.245391944374,1046
1.245773134298,1044
1.246024918977,1050
1.246418624424,1036
1.246425188685,1051
1.246553041581,1052
1.246688761078,1053
1.246815720602,1048
1.247211159219,1049
1.247253445551,1054
1.247292077677,1055
1.247315509316,1056
1.248081044925,1057
1.248388048506,1058
1.24842872593,1059
1.248546277466,1060
1.248870625778,1062
1.248894025634,1061
1.249058773718,1063
1.249230458731,1064
1.24966482026,1065
1.249675453278,1066
1.250168121446,1067
1.250750102836,1068
1.250946427153,1069
1.251242275282,1071
1.251256795212,1070
1.251498887967,1072
1.251926449551,1074
1.251954889391,1075
1.251970489312,1073
1.252714313078,1078
1.252806476108,1080
1.252814276093,1081
1.252970519289,1077
1.253049359013,1076
1.253095078683,1079
1.253120401779,1083
1.253333160357,1085
1.253355120318,1084
1.253454239644,1086
1.253642278142,1087
1.253685717881,1088
1.25427155308,1089
1.254401992947,1090
1.254593358217,1093
1.254606678198,1094
1.254848238174,1092
1.255835354188,1095
1.256007073524,1096
1.256051833512,1098
1.256116513484,1099
1.25613019346,1082
1.256194153246,1091
1.256557995011,1102
1.256914994826,1105
1.257030794827,1103
1.257121663528,1097
1.257169543483,1106
1.25723134346,1104
1.257270586569,1101
1.257902624606,1107
1.258118742856,1100
1.25828500702,1108
1.258462751643,1109
1.259331844773,1110
1.259351905558,1111
1.259787801769,1112
1.260027453281,1114
1.260041133218,1113
1.260167878671,1115
1.260737103164,1116
1.26083500542,1117
1.2609204163,1118
1.261005171729,1119
1.261075394001,1120
1.261966019221,1122
1.262041138646,1121
1.262234533511,1123
1.262348186736,1124
1.262560839048,1126
1.263254554644,1127
1.26331143446,1125
1.26406828659,1131
1.26406936659,1128
1.264177729389,1130
1.264751447912,1132
1.265016526275,1135
1.265044126235,1136
1.265464485818,1138
1.265532221258,1139
1.265631701166,1140
1.265918860657,1141
1.266149380656,1144
1.266191980658,1133
1.266318340656,1142
1.266910352371,1137
1.267911512303,1129
1.268050374261,1147
1.268066555346,1148
1.268111075286,1149
1.268241395064,1150
1.268414198214,1145
1.268593237868,1151
1.268947717472,1155
1.269068080665,1156
1.269097840665,1157
1.269502240669,1146
1.269502720665,1152
1.269681887365,1154
1.269795767157,1153
1.269805610337,1159
1.269821930312,1160
1.269836930289,1158
1.270575290482,1161
1.270732970391,1162
1.271221307392,1168
1.271361827382,1164
1.271446493529,1134
1.271769413529,1143
1.271906094034,1169
1.272068813723,1165
1.272145493621,1166
1.272414416666,1170
1.2724462166,1172
1.272475927478,1171
1.272560099499,1167
1.272584342597,1163
1.272870444355,1173
1.273068062921,1174
1.273324689927,1175
1.273627445473,1177
1.273724884719,1178
1.273833603868,1179
1.274225640675,1180
1.274643717435,1182
1.274665080632,1183
1.274670485725,1184
1.274677803829,1185
1.275084247281,1181
1.275126726993,1186
1.275136326967,1187
1.275329528732,1188
1.275398408293,1189
1.275556927026,1190
1.276093443672,1191
1.27614588672,1193
1.276442765536,1176
1.276465882388,1192
1.276490705259,1194
1.277107089535,1195
1.277487687133,1196
1.277577240013,1197
1.278809306991,1201
1.278827430188,1200
1.279156349389,1202
1.279242629082,1198
1.279612946054,1203
1.279756225517,1206
1.279790785493,1204
1.279923504992,1205
1.280016264273,1207
1.280150543205,1199
1.280438783299,1208
1.280853862546,1211
1.280912062356,1210
1.281499458173,1212
1.2830122961,1216
1.283360536099,1219
1.283739976101,1214
1.284288019298,1218
1.284476899295,1221
1.284793939295,1215
1.285197019291,1220
1.285521019292,1217
1.285601000061,1213
1.285753763016,1209
1.285984941995,1224
1.286008162893,1226
1.286189722757,1225
1.28670044273,1222
1.286851762156,1228
1.286942362134,1229
1.287079161637,1230
1.287086481625,1231
1.28724548147,1232
1.287525800917,1223
1.287592164015,1236
1.287610887198,1234
1.288041446856,1233
1.288191330053,1237
1.288455569005,1235
1.288738649966,1238
1.288970008099,1227
1.289322018268,1239
1.289900574511,1240
1.290099704215,1241
1.290505397041,1242
1.290970307545,1243
1.291130003231,1245
1.291189882788,1246
1.291249642346,1247
1.291464680605,1244
1.292229383603,1251
1.292596063486,1249
1.292622626742,1250
1.292636063485,1252
1.292672663231,1248
1.292977921927,1253
1.29312744834,1254
1.293251704845,1255
1.293642325838,1256
1.293713064344,1258
1.293907822846,1259
1.294030101878,1257
1.294472324682,1261
1.294565924198,1262
1.294939842608,1260
1.294995510608,1266
1.295007630585,1267
1.295284833409,1269
1.295308833388,1270
1.295563713076,1271
1.296204752863,1275
1.296242552842,1264
1.296244712838,1276
1.296556494466,1277
1.296602796035,1278
1.296786636036,1274
1.296938556038,1265
1.297113516037,1268
1.297128516036,1282
1.297300043541,1283
1.297346243543,1281
1.297408163544,1279
1.297512686551,1284
1.297630718821,1280
1.297712078779,1285
1.298345198756,1273
1.298478881478,1286
1.298504561423,1287
1.298537081374,1288
1.298745520623,1289
1.298934639964,1290
1.299645157995,1291
1.299859117508,1292
1.299870637499,1293
1.300057960341,1294
1.30011112019,1295
1.300251639657,1263
1.300257039635,1272
1.301471620951,1296
1.301657755583,1297
1.302109776253,1298
1.302516185581,1299
1.302645696294,1300
1.303004402854,1303
1.303096082575,1304
1.303925281888,1302
1.303943847006,1308
1.304782167004,1310
1.304973447005,1305
1.305428186124,1313
1.305560761877,1314
1.30577460188,1312
1.305813841879,1309
1.305854885063,1316
1.30586286213,1315
1.305980465129,1317
1.306334105081,1318
1.30640130497,1319
1.306677304422,1306
1.306904824398,1311
1.307018824018,1320
1.307080383948,1322
1.307173743923,1321
1.307175663923,1323
1.308156303327,1325
1.308346383283,1326
1.308539823258,1324
1.309257300321,1301
1.309796936188,1307
1.309888719564,1327
1.309984579467,1328
1.310293498427,1330
1.31071805494,1329
1.311434111041,1331
1.311445318138,1332
1.311833414174,1334
1.311896533794,1335
1.312170611561,1333
1.312822055175,1336
1.313092929328,1337
1.313239673619,1338
1.314087905859,1339
1.314222910234,1340
1.31481634549,1341
1.314844276537,1342
1.31496240946,1344
1.31508552857,1345
1.315492205498,1347
1.315516925493,1348
1.315606565328,1349
1.315775044766,1350
1.315852567963,1351
1.316031607272,1352
1.316087287155,1353
1.316094007156,1346
1.316407330299,1355
1.317199450076,1357
1.31732101005,1358
1.317428290026,1356
1.317737049577,1360
1.318348088322,1361
1.318979767751,1364
1.319408527753,1359
1.319431087753,1362
1.319513527749,1367
1.319889367751,1363
1.320327367748,1369
1.32038364775,1354
1.32040453093,1366
1.320722047297,1371
1.320988926768,1365
1.321447926178,1373
1.321535049302,1343
1.321977449254,1370
1.322384611869,1377
1.322873011866,1378
1.323155131866,1368
1.323663931325,1379
1.323772891125,1374
1.324076011095,1380
1.32423297103,1381
1.32427281099,1372
1.325042132918,1383
1.325102132916,1386
1.325124932916,1387
1.325141732917,1376
1.325142750976,1385
1.325181696068,1388
1.325838390718,1382
1.326285578947,1391
1.326452978626,1384
1.32672346182,1392
1.326849581795,1389
1.327033061083,1375
1.327278099092,1390
1.328516389433,1393
1.328967283008,1394
1.329110532231,1395
1.329846449438,1396
1.329947285552,1397
1.329984139305,1398
1.33014063537,1399
1.330932326805,1400
1.331262989639,1401
1.331448181608,1403
1.331548740821,1402
1.33175921104,1404
1.33199231249,1405
1.332376815425,1406
1.332843775114,1408
1.333257652533,1410
1.33334549222,1407
1.333609856492,1409
1.334436307004,1411
1.334663925992,1412
1.334765650991,1413
1.335007283016,1414
1.335457040532,1416
1.335635839093,1415
1.335902383802,1417
1.336574735747,1418
1.33776310975,1419
1.338090039441,1420
1.338602550011,1421
1.339390327664,1423
1.339478526986,1424
1.339495686947,1425
1.339786924571,1422
1.340351381276,1426
1.340415654043,1427
1.340517052361,1428
1.341429839386,1430
1.341530999017,1429
1.34171009845,1432
1.341794097815,1433
1.342174014763,1431
1.342188270994,1434
1.342346183941,1435
1.342504119631,1437
1.342596639318,1439
1.342895078127,1438
1.34290779809,1440
1.343100156555,1441
1.343109396517,1436
1.343269841106,1442
1.344100108162,1444
1.344131547951,1443
1.344713289597,1445
1.344792152919,1447
1.344888992199,1448
1.345629268675,1450
1.345686988527,1451
1.345699468528,1446
1.345948546839,1452
1.345992106624,1453
1.346241345834,1454
1.346266425782,1449
1.346365238958,1455
1.346723213636,1457
1.346790533145,1458
1.346824372914,1456
1.347464846577,1459
1.347652748925,1460
1.347717543695,1461
1.348006520446,1462
1.348550584005,1465
1.348772943859,1466
1.348802583788,1464
1.349244900602,1469
1.349294795246,1467
1.349324943726,1468
1.349859057223,1471
1.35016265601,1463
1.350223170829,1470
1.350416699124,1473
1.35042737908,1472
1.350508014687,1474
1.351593700553,1476
1.351986578127,1478
1.352512776,1479
1.352866654585,1480
1.353032254126,1483
1.35308205405,1477
1.353115297247,1481
1.353259656756,1485
1.353381456711,1486
1.353600816644,1487
1.353878976564,1488
1.353954096532,1489
1.354133256509,1482
1.354316859035,1490
1.354503458334,1491
1.354826017853,1475
1.354896228603,1496
1.354909421047,1497
1.354929101049,1484
1.354998829586,1493
1.355209072733,1498
1.355294389483,1494
1.355647308065,1492
1.355840150175,1499
1.356068029529,1501
1.356111229401,1500
1.35627298837,1502
1.356352667973,1495
1.35684954023,1503
1.357002162911,1504
1.357664165488,1505
1.357709780552,1506
1.358257187348,1507
1.358271468673,1508
1.358538452094,1509
1.358858426002,1510
1.359164895499,1511
1.359380549073,1512
1.359570040936,1515
1.359623560765,1514
1.359636040712,1513
1.359913864957,1516
1.359927428144,1517
1.360881610001,1518
1.360973521297,1519
1.361054323681,1520
1.361314628354,1522
1.3613513482,1521
1.36142081332,1523
1.361488473743,1524
1.361634299128,1525
1.36236461648,1527
1.362377816476,1530
1.362475736452,1528
1.363229933462,1531
1.363356892986,1526
1.363426975741,1532
1.363634094066,1529
1.364154173038,1533
1.364347464725,1534
1.36453618752,1535
1.365668272824,1536
1.365937435857,1537
1.366034678137,1538
1.366041863165,1539
1.36630836146,1540
1.366518031512,1541
1.367024759347,1542
1.367121042406,1543
1.367241011739,1544
1.367315113691,1545
1.367671345627,1546
1.36792899327,1547
1.368295846509,1550
1.368350926331,1549
1.368433005989,1548
1.368485040375,1551
1.369115189452,1552
1.369340873955,1554
1.369440713553,1553
1.369446318811,1555
1.370242392797,1556
1.370783928082,1557
1.370830915981,1558
1.370933158429,1559
1.371513503899,1560
1.371787776334,1561
1.372172755381,1562
1.372790954284,1564
1.372894633875,1565
1.373245872419,1568
1.373269995617,1566
1.373283915611,1567
1.373556193934,1563
1.373588850547,1569
1.374144411806,1570
1.374368753708,1572
1.374398513511,1571
1.374403296701,1573
1.374722150378,1575
1.374814669664,1576
1.374865549333,1577
1.37517202683,1574
1.376066698576,1578
1.37647491339,1580
1.37668395205,1582
1.376721631945,1581
1.376783071484,1583
1.376856030929,1584
1.376868874125,1585
1.376983709981,1579
1.377241057011,1587
1.37725377701,1588
1.377339816344,1586
1.377362031511,1589
1.377461883346,1590
1.377684980333,1591
1.378089164754,1592
1.378135496401,1593
1.378184699291,1594
1.378456440781,1596
1.378645559934,1599
1.378676150162,1595
1.379212189094,1598
1.379219629095,1597
1.379230072269,1600
1.379968734451,1601
1.380096765051,1602
1.380149809627,1603
1.380786207075,1605
1.38082928678,1606
1.380849686661,1604
1.380886408767,1607
1.381053291045,1608
1.381299806348,1609
1.38214219517,1610
1.382199968907,1611
1.382507257056,1614
1.38263409658,1612
1.382886417246,1616
1.382995857222,1617
1.383061137002,1615
1.383556252927,1613
1.383729026742,1618
1.384290894674,1619
1.38440528325,1620
1.384499372919,1621
1.384659719247,1622
1.384784929844,1623
1.385011345528,1624
1.385400011432,1625
1.385750720744,1626
1.385872974567,1627
1.386163245816,1628
1.386246535119,1629
1.386312829289,1630
1.387490301294,1631
1.387869802208,1632
1.388102962447,1635
1.388187082148,1634
1.388292081324,1633
1.388482196497,1636
1.388739519704,1638
1.388924678849,1640
1.389000998583,1639
1.389237276678,1641
1.389295716247,1642
1.389658833277,1643
1.389852632949,1646
1.389960819382,1644
1.390334915286,1647
1.390587274287,1648
1.39086303319,1649
1.390903473146,1651
1.391067152976,1653
1.391642912976,1654
1.391693672979,1645
1.39174503612,1637
1.391811300075,1656
1.391967816499,1658
1.39240918964,1659
1.392431618893,1660
1.39243294962,1655
1.39248237889,1657
1.392572258568,1652
1.393180137034,1661
1.393777373253,1663
1.393918492774,1664
1.393935892753,1662
1.394290609848,1650
1.394411787565,1665
1.39573600888,1672
1.396013928878,1668
1.396051608878,1673
1.396055568881,1669
1.396104888866,1674
1.396522707194,1666
1.396933109561,1671
1.396941749548,1676
1.397130149532,1670
1.397204909304,1677
1.397628989296,1667
1.397986348004,1679
1.398096867596,1678
1.398160467117,1675
1.398321635221,1680
1.3983361584,1681
1.398458288848,1682
1.398559535135,1684
1.398560375132,1683
1.398574178317,1685
1.398583129511,1686
1.39922034829,1687
1.399243496164,1688
1.399431713788,1690
1.399561913159,1689
1.399599758454,1692
1.399662878002,1691
1.399790089035,1693
1.400581521363,1696
1.400637681181,1695
1.400826800331,1694
1.400974149759,1698
1.401203467899,1697
1.401371233225,1699
1.401770631431,1703
1.40225879099,1700
1.402304994155,1705
1.40231795735,1706
1.402468077044,1707
1.40257895702,1701
1.402733036461,1708
1.40331083538,1712
1.403374195378,1713
1.403482195379,1710
1.40357398732,1711
1.403594270502,1714
1.403816750118,1702
1.403867750047,1716
1.404164750023,1715
1.404200269927,1709
1.404264349446,1717
1.404311749102,1704
1.404399176792,1718
1.404666290543,1719
1.404881272878,1720
1.405143647867,1721
1.405315314264,1722
1.405356349152,1723
1.405597679475,1725
1.405717918524,1724
1.405882391797,1726
1.406281510087,1727
1.406356781988,1728
1.406734584968,1730
1.406951303223,1731
1.407093862098,1732
1.407373699891,1733
1.407423739528,1734
1.407471979177,1729
1.408251626131,1737
1.408336105839,1738
1.408422985735,1736
1.408802664206,1735
1.409472517178,1742
1.40955963714,1743
1.409688517098,1744
1.409841876972,1740
1.41006184017,1739
1.410269920053,1747
1.410415000029,1745
1.41048483996,1749
1.41087924221,1748
1.411002162754,1750
1.411287161641,1751
1.411371761341,1741
1.41139636119,1752
1.411433920946,1753
1.411451080859,1754
1.411525360309,1755
1.411743399002,1746
1.411814174214,1758
1.411909334211,1757
1.412050573675,1756
1.4121045767,1761
1.412285296001,1762
1.412414775514,1759
1.412626444521,1760
1.412846924331,1763
1.413099259491,1764
1.413342941047,1765
1.413385651936,1766
1.413838463655,1769
1.413856463633,1767
1.414035944211,1770
1.414082623873,1768
1.41409605437,1771
1.414213832571,1772
1.414285813831,1773
1.414551227574,1775
1.414571747454,1774
1.415416723527,1777
1.415426563511,1779
1.415632725901,1776
1.415688645506,1780
1.415739525133,1778
1.415991997479,1782
1.416033517184,1781
1.416598976854,1783
1.416938996009,1784
1.417217434712,1785
1.417297911239,1786
1.417306105051,1787
1.417684931568,1789
1.418000768987,1788
1.418244330667,1790
1.4189779448,1792
1.419077784019,1791
1.419882348754,1794
1.419934908374,1795
1.42021030613,1793
1.420617032847,1796
1.420683697535,1799
1.420740217359,1800
1.42075197736,1798
1.421119177957,1802
1.421200777669,1801
1.421200897669,1797
1.421533442876,1803
1.421943086725,1804
1.421963241056,1805
1.422035639195,1806
1.42242678377,1807
1.422464186923,1808
1.422792529607,1809
1.423314104702,1810
1.423739295142,1812
1.424118612314,1811
1.424227562577,1814
1.42475651822,1813
1.425024323992,1815
1.425061444767,1816
1.425454131663,1818
1.425552530894,1817
1.425997604385,1819
1.42650151998,1820
1.426875463989,1821
1.427075028677,1822
1.427207652144,1823
1.427574786366,1824
1.428214531663,1826
1.42850672932,1827
1.428518836112,1828
1.428699452382,1825
1.428732091878,1831
1.428905131242,1832
1.429108890889,1833
1.429468290852,1835
1.429545690828,1830
1.429571490773,1829
1.430066251273,1837
1.4302104909,1839
1.430527393612,1840
1.430570593588,1838
1.431532272284,1842
1.431719111932,1844
1.431817635043,1836
1.431847155005,1845
1.431919754982,1843
1.432014557836,1841
1.432426274989,1846
1.432901591079,1834
1.433588672421,1847
1.433843763898,1848
1.434008349144,1849
1.43413140944,1850
1.434185827358,1851
1.434376333862,1852
1.434527841655,1853
1.434606042421,1854
1.434895112257,1855
1.4350055897,1856
1.435509649199,1857
1.435990368493,1858
1.436005456984,1859
1.436097869068,1860
1.43618987465,1863
1.436277354338,1862
1.436308314133,1864
1.436363273726,1861
1.436618842045,1865
1.43666918932,1867
1.436748868707,1866
1.436985386559,1868
1.437117533128,1870
1.437148492921,1869
1.43789152721,1873
1.438189126609,1875
1.438248214199,1872
1.438719127514,1878
1.438787925726,1879
1.438801365726,1876
1.438962645702,1877
1.439024325497,1874
1.439044965396,1880
1.439440482894,1882
1.439490402739,1871
1.439654822519,1883
1.439826421143,1884
1.43985450096,1881
1.440276142384,1886
1.44031994207,1885
1.440915613644,1887
1.441045138556,1888
1.441430678705,1889
1.441900847283,1892
1.442064887058,1893
1.442091410251,1895
1.442154050149,1896
1.442391410124,1894
1.442614969259,1897
1.442631292456,1898
1.44313229124,1900
1.443476691187,1901
1.443742371163,1890
1.443763491149,1902
1.443853730836,1903
1.443868970832,1904
1.444039610616,1906
1.444286655952,1907
1.444571295431,1908
1.444855575408,1905
1.444962738234,1899
1.445103260363,1891
1.445108489692,1909
1.445322483304,1910
1.445365566908,1911
1.445400763854,1912
1.445676043573,1913
1.446039407285,1914
1.446304593527,1915
1.446653988548,1917
1.446668148481,1916
1.44679940193,1918
1.446810086825,1919
1.447408049917,1921
1.447921165731,1922
1.448610680036,1920
1.448729292767,1923
1.449150898591,1924
1.449458023331,1925
1.449856452523,1926
1.450744292342,1928
1.450841011778,1929
1.450996530533,1927
1.451129855856,1930
1.45136232455,1933
1.451754242971,1934
1.452017282374,1935
1.452345481142,1936
1.452533400557,1937
1.452666720097,1938
1.452688320058,1939
1.452809039607,1931
1.452966721593,1932
1.453010870004,1940
1.453737464699,1942
1.453945543016,1941
1.454010524514,1943
1.454329015822,1944
1.454932324527,1945
1.455354915959,1946
1.455396304104,1947
1.456243652831,1948
1.456378981218,1949
1.456664037682,1950
1.456687838871,1951
1.456754054019,1952
1.457134070218,1953
1.457164688532,1954
1.457286741814,1955
1.457509825457,1957
1.457553625191,1958
1.457839584032,1960
1.457892384007,1961
1.458083783262,1959
1.458339021186,1956
1.458421793835,1963
1.458701646169,1965
1.458822365719,1966
1.459373885283,1967
1.459397288463,1969
1.459493048439,1962
1.459782607285,1964
1.459927449378,1968
1.460041017369,1970
1.46072749106,1971
1.461026198648,1972
1.461442867245,1973
1.461454985602,1974
1.461483151971,1975
1.461767933761,1976
1.462189417756,1978
1.462269217142,1977
1.462909576469,1980
1.463145854551,1979
1.463164835616,1981
1.463310078288,1983
1.463328318265,1982
1.463543610557,1984
1.463734655908,1985
1.463860112273,1986
1.463890556269,1987
1.464031035452,1988
1.464122648225,1989
1.464546000266,1992
1.464746159484,1991
1.464918838096,1990
1.46520113101,1993
1.465522431888,1994
1.466120679434,1995
1.466205374838,1996
1.466435237798,1997
1.466518860433,1998
1.4668234414,1999
1.466935475696,2001
1.46694183567,2000
1.467201304955,2003
1.467231784752,2002
1.467378955551,2004
1.467383527236,2005
1.467451081225,2006
1.467477266201,2007
1.467815939442,2008
1.467861827845,2009
1.468128369664,2010
1.468578377579,2011
1.468648667654,2012
1.469487281429,2013
1.469576536122,2014
1.469783535207,2016
1.470082818365,2019
1.470406338303,2020
1.470518178259,2021
1.470531741455,2022
1.470815298198,2015
1.470817944156,2023
1.470827421394,2017
1.470954866366,2024
1.471161265183,2025
1.471329263892,2026
1.471938498935,2028
1.471989258776,2027
1.472312896134,2029
1.472528894428,2030
1.472671213293,2018
1.473060278038,2031
1.473122735881,2032
1.473218682507,2033
1.473333812942,2034
1.473515118624,2035
1.473715410228,2036
1.474254518208,2037
1.474315207934,2038
1.474597638831,2040
1.475038635259,2041
1.475153114356,2042
1.475193194075,2039
1.47601407093,2044
1.476038070785,2045
1.476064710617,2046
1.47611847022,2043
1.47614230125,2047
1.476184451834,2048
1.476389823499,2049
1.476546526105,2050
1.477039631249,2053
1.477053791243,2051
1.47710010861,2052
1.477421766978,2055
1.477804685853,2056
1.477895889036,2059
1.478574365781,2060
1.478634245756,2058
1.47896760442,2054
1.479056886991,2061
1.479148446279,2057
1.479329496654,2062
1.4794012344,2063
1.479726318859,2064
1.479730264124,2065
1.479921194973,2067
1.479956714728,2066
1.479978762074,2068
1.480508965852,2070
1.48056452544,2069
1.480632874692,2071
1.481044574307,2072
1.481094687977,2073
1.481465299669,2074
1.481668323267,2075
1.481717447557,2076
1.481984815457,2077
1.482114677207,2078
1.482137972698,2079
1.482192632483,2081
1.482601109481,2083
1.482632189404,2082
1.482745348957,2085
1.48286462892,2080
1.482994156568,2087
1.483044556456,2088
1.483447396059,2086
1.483667511339,2092
1.483757511179,2093
1.483886990938,2091
1.484137790442,2095
1.484287790167,2096
1.484368550094,2089
1.48445494994,2098
1.484493349887,2097
1.484627389862,2084
1.484780149653,2099
1.484780269655,2090
1.484885272093,2100
1.4849872715,2101
1.485041391105,2102
1.48528258986,2104
1.485307429809,2103
1.485621947244,2105
1.486151982887,2106
1.486317701586,2107
1.486636298982,2094
1.48692616596,2108
1.486933342092,2109
1.487330883227,2110
1.487341279398,2111
1.487440276335,2112
1.487503256947,2114
1.487627336229,2113
1.487852344921,2115
1.487940042478,2118
1.488167321589,2119
1.488393040701,2117
1.488412480618,2120
1.488704919312,2124
1.488823719267,2126
1.488873759271,2116
1.488901362447,2127
1.488945042383,2123
1.488991602358,2125
1.48899316236,2122
1.489017642252,2121
1.489495497152,2128
1.489597724546,2129
1.490137830169,2130
1.490749417672,2131
1.491450707574,2132
1.491506577812,2133
1.491628601416,2134
1.491684059462,2135
1.491728331547,2136
1.491823140979,2138
1.491854100772,2137
1.49192834166,2139
1.492004817208,2140
1.492133791223,2141
1.492715861029,2142
1.49286100965,2143
1.493144593339,2144
1.493158516523,2145
1.493461859127,2146
1.493865179466,2147
1.493987016053,2149
1.494621571203,2151
1.494712650944,2152
1.494913530175,2153
1.495094129504,2154
1.495302688901,2155
1.49542340849,2156
1.495475128327,2150
1.495561647841,2157
1.495655131007,2158
1.495759290625,2159
1.495801770332,2160
1.496435245109,2161
1.496478804811,2162
1.496624963644,2148
1.49694567081,2164
1.497347787512,2165
1.497361707454,2166
1.497450986935,2168
1.497497306862,2169
1.497515906861,2170
1.497674306254,2163
1.497885190792,2167
1.498108978769,2171
1.498460768644,2172
1.498472268178,2173
1.498811208988,2174
1.49914461358,2175
1.499265830868,2177
1.499269550853,2176
1.499408130821,2178
1.4999096553,2180
1.499988014704,2181
1.500466450768,2179
1.50057511939,2182
1.500764901849,2183
1.501372203175,2185
1.501668871313,2184
1.501808190785,2187
1.501986269352,2186
1.502969721781,2188
1.503022029255,2189
1.503147628296,2190
1.503659727227,2192
1.504018765918,2194
1.504316365308,2196
1.504316605311,2197
1.50435428531,2195
1.504520604835,2198
1.504644204372,2193
1.504791803207,2199
1.504806203138,2191
1.505016778615,2200
1.505986580103,2201
1.506700612398,2202
1.507199944104,2205
1.507509302927,2203
1.507510440501,2206
1.508173318303,2207
1.508184358265,2208
1.508634358357,2209
1.508791197101,2204
1.509165291959,2210
1.509276294664,2213
1.509494574342,2212
1.510153251649,2214
1.510534489582,2216
1.510582009437,2211
1.510587406223,2215
1.511199180133,2218
1.511609218204,2219
1.511661657818,2217
1.511708812632,2220
1.511932801548,2222
1.512500156871,2221
1.51283387926,2227
1.512997798946,2225
1.513047718907,2228
1.513054198908,2229
1.513082398896,2226
1.513246798263,2224
1.513277518058,2223
1.51347491973,2231
1.51362503853,2230
1.514304350013,2234
1.514313589999,2235
1.51453066914,2233
1.514568828873,2232
1.514640129099,2236
1.514824367044,2237
1.515018906274,2239
1.515063305955,2238
1.51519841155,2240
1.515637866279,2241
1.51571202106,2242
1.516029611383,2243
1.516095913906,2244
1.516670241786,2245
1.516798537778,2246
1.517346209397,2248
1.517692886581,2249
1.517693006581,2247
1.518195474387,2252
1.518196539828,2253
1.518206858793,2254
1.518263141808,2251
1.518277184991,2255
1.51840462398,2250
1.518480833917,2256
1.518550415483,2257
1.519194391956,2258
1.519366420681,2259
1.519404206657,2260
1.519555058885,2261
1.520122973838,2262
1.520268547428,2263
1.520897474977,2265
1.521091393805,2267
1.521127157002,2268
1.521581235179,2269
1.521588555181,2264
1.52172439753,2270
1.521844396586,2271
1.522324993711,2266
1.522413744228,2273
1.522696702188,2272
1.523064070686,2274
1.52312501125,2275
1.52338572114,2276
1.524077606948,2277
1.524589300226,2278
1.524784642062,2279
1.525365420959,2280
1.525962758633,2281
1.52623131378,2282
1.526399286369,2284
1.526737203611,2285
1.527131160379,2283
1.527168867763,2286
1.527212128587,2287
1.527266973709,2288
1.527368891624,2289
1.527586649628,2290
1.528119800445,2291
1.528677903006,2293
1.528740542535,2292
1.528758857053,2294
1.529069546381,2295
1.529206176679,2296
1.529380308371,2297
1.52979030492,2298
1.530042368047,2299
1.530232647649,2300
1.530247592682,2301
1.53035611721,2302
1.530848630872,2303
1.53103490016,2304
1.531192103208,2306
1.531217063053,2307
1.531248862839,2305
1.532374682079,2309
1.532423641722,2308
1.53299943803,2310
1.53317694006,2311
1.533472403579,2313
1.533846561987,2314
1.534015160633,2312
1.534107707991,2315
1.534162356639,2316
1.53422388251,2318
1.534314842131,2317
1.534578132437,2319
1.534834863578,2320
1.535577797784,2321
1.535611166159,2322
1.536393355834,2325
1.536408595823,2324
1.536618474705,2326
1.536795953277,2323
1.536920075708,2327
1.537038667339,2328
1.53711164802,2329
1.537511883456,2330
1.5385317562,2331
1.539340602557,2332
1.540534885447,2333
1.540686602007,2334
1.541053874789,2337
1.541080634751,2338
1.541373913581,2336
1.541380753553,2335
1.541665777965,2340
1.541668297955,2339
1.542217533391,2341
1.542387219837,2342
1.542832266416,2344
1.543342142801,2343
1.543882039008,2347
1.543943002205,2348
1.544060361768,2345
1.544221440611,2349
1.544315399879,2346
1.544481059467,2350
1.545259719215,2352
1.545531757768,2354
1.54558863759,2355
1.545840396597,2356
1.545876276526,2357
1.545989556107,2351
1.546298011062,2353
1.546551597163,2358
1.546662783165,2359
1.546758983665,2360
1.547124613394,2361
1.547186157719,2363
1.547239797323,2362
1.547440497842,2364
1.547702704298,2365
1.547787872312,2366
1.547818508391,2367
1.548061234764,2368
1.54851300027,2369
1.548845421125,2370
1.548863454844,2371
1.549051436621,2372
1.549104457719,2373
1.549369745516,2374
1.549549131127,2375
1.549733915852,2376
1.5498442893,2377
1.549963512767,2378
1.550550213924,2379
1.550919293922,2380
1.550932684859,2381
1.551941621893,2382
1.552116332791,2383
1.552386332132,2384
1.552776386567,2386
1.552790306548,2387
1.552841426173,2385
1.553066103994,2388
1.553367972168,2389
1.553680091817,2390
1.554276279445,2392
1.554367838733,2391
1.554471628377,2393
1.554471940858,2394
1.55461142273,2395
1.554819659031,2396
1.555049520123,2397
1.555807274406,2398
1.555963215268,2399
1.555976538457,2400
1.556422123083,2401
1.556538534575,2402
1.556597676522,2404
1.556604756493,2403
1.556646940883,2405
1.556695107158,2406
1.55705858789,2407
1.557672835478,2410
1.557927594469,2408
1.558197451271,2409
1.558622583533,2411
1.558677777832,2412
1.558902337351,2413
1.558957591358,2415
1.559286028672,2414
1.559655772401,2416
1.560230089573,2417
1.560818365928,2418
1.560883390099,2419
1.560907631959,2420
1.561206185239,2423
1.561222145225,2421
1.561291560144,2422
1.56130592511,2424
1.561591277102,2425
1.561796243959,2426
1.561974485716,2427
1.562206756114,2429
1.562312115501,2430
1.562513353879,2431
1.562841792252,2432
1.563176109549,2433
1.563383467885,2434
1.563611346108,2436
1.563680706057,2439
1.56372858918,2437
1.563800232355,2440
1.564073316676,2438
1.564617074803,2441
1.564714757997,2443
1.565144841068,2444
1.565250667337,2435
1.565721425433,2445
1.565816465158,2446
1.565947864663,2428
1.566009904197,2442
1.56687679089,2447
1.567303316403,2448
1.567674851169,2449
1.567849295762,2450
1.568510695035,2451
1.568681055166,2452
1.56868991157,2453
1.569670346229,2454
1.570339768577,2455
1.570352175461,2456
1.570724678051,2457
1.571530720304,2458
1.57172630799,2459
1.572122463364,2460
1.572129145398,2462
1.572166948515,2464
1.572236548277,2465
1.572902067936,2467
1.573074008709,2461
1.573190051906,2468
1.573336811367,2469
1.573338326599,2470
1.573592533558,2466
1.574430804334,2472
1.574554763896,2473
1.5747521638,2475
1.574957270091,2474
1.574990990041,2476
1.575008630024,2477
1.575279109598,2479
1.57533140323,2471
1.575459323054,2482
1.575547042899,2478
1.575629366098,2480
1.575740009055,2483
1.576021287952,2484
1.576064727823,2481
1.576712482476,2463
1.57680691742,2485
1.577425495076,2486
1.578710120104,2487
1.57903361244,2489
1.579511091225,2488
1.579890871868,2492
1.58010219104,2491
1.580312159626,2493
1.580434918654,2490
1.580490969864,2494
1.58086417099,2498
1.581166570861,2499
1.581212410803,2496
1.581257861808,2501
1.581485501753,2502
1.581739661727,2503
1.581779141684,2504
1.58237734059,2495
1.582576183785,2506
1.58336422691,2508
1.583424226813,2505
1.583766226661,2509
1.584001786636,2507
1.584477584736,2510
1.584814663523,2512
1.585060903304,2511
1.585766386503,2500
1.585859749363,2513
1.586172826856,2514
1.586336985539,2497
1.586384074415,2515
1.586425763323,2516
1.586526807051,2517
1.586666573593,2518
1.586730187161,2519
1.587312578013,2520
1.587453573969,2521
1.587564803115,2522
1.588638607146,2523
1.588826472811,2525
1.589103670701,2527
1.589230870325,2528
1.589456230273,2530
1.589538019558,2526
1.589614819524,2529
1.589690233196,2532
1.589838192632,2531
1.589900472207,2533
1.58996059178,2534
1.590608466988,2535
1.590953584178,2536
1.591369620781,2537
1.591389420671,2538
1.591624379583,2539
1.591672499233,2524
1.591720521355,2540
1.592255396321,2542
1.592354155549,2541
1.592543251207,2543
1.592730421707,2544
1.592982984988,2545
1.593254876137,2546
1.593559045327,2547
1.593843720454,2548
1.593881506715,2549
1.593961162935,2550
1.594018870871,2551
1.594080313846,2554
1.594129633693,2552
1.594484578113,2553
1.594667102632,2555
1.594682841735,2556
1.594687241235,2557
1.595122689964,2562
1.595606154106,2559
1.595880011683,2558
1.595900054882,2560
1.596061196701,2564
1.596122036598,2566
1.596128636585,2565
1.596229196252,2567
1.596237071676,2568
1.596318835973,2569
1.596464515429,2570
1.597408674496,2574
1.597429674497,2572
1.597696797227,2575
1.598001956666,2576
1.598529118833,2577
1.598572558824,2578
1.598956198086,2580
1.599292198085,2582
1.599322198084,2581
1.599345958085,2583
1.599651838074,2586
1.599753118045,2588
1.599815041194,2585
1.599830037979,2587
1.60009535798,2579
1.600264677982,2573
1.60033223798,2589
1.600795317706,2591
1.600805266552,2593
1.600990909751,2584
1.601097952947,2594
1.601334952945,2596
1.601441872943,2592
1.60162679289,2599
1.601837632882,2563
1.601967956053,2602
1.602539038802,2604
1.602754918801,2606
1.602802318801,2607
1.603430278808,2603
1.603654318801,2608
1.604317198796,2612
1.604400958802,2561
1.604451359049,2613
1.604539079057,2590
1.604614559051,2609
1.605175559051,2615
1.60519608225,2614
1.605350159053,2571
1.605759238882,2617
1.606046278885,2600
1.606270078862,2620
1.60645362058,2621
1.606516198861,2622
1.606576380581,2605
1.606716183774,2623
1.606955089421,2616
1.608222546797,2597
1.608226746792,2626
1.608339546796,2627
1.608407932439,2624
1.60846205563,2628
1.608748255463,2630
1.608802495472,2610
1.609303975146,2611
1.60930889515,2601
1.609754935002,2633
1.609828854942,2629
1.609984494925,2634
1.610009574918,2595
1.610160418104,2635
1.610184658104,2636
1.61033453809,2638
1.61035409808,2637
1.610488261278,2618
1.610598661274,2640
1.610669101277,2598
1.610694904469,2641
1.610854024469,2631
1.611056187888,2643
1.611468352875,2645
1.611531592859,2646
1.611544552862,2642
1.611650632863,2644
1.611653512863,2647
1.611671156056,2648
1.612594072642,2625
1.612863649083,2653
1.613468808952,2655
1.61381704865,2656
1.613946048531,2654
1.614049008471,2639
1.614207291528,2659
1.614327411443,2660
1.615084611254,2664
1.615208571245,2665
1.615214691254,2651
1.615302051237,2652
1.616578371233,2668
1.616671323036,2619
1.616896803033,2670
1.61723892303,2671
1.617306243029,2672
1.617399963033,2673
1.617438243031,2674
1.617603549134,2658
1.617702963026,2650
1.617890763032,2667
1.617891243028,2657
1.618025166094,2675
1.618569485764,2661
1.618648205724,2677
1.618842125635,2679
1.618860725628,2680
1.619057948352,2666
1.619166248621,2678
1.619873525421,2681
1.620086525421,2682
1.620132605424,2649
1.620237725422,2662
1.620261245422,2663
1.620316328526,2669
1.62095820807,2683
1.621191608072,2687
1.621210207,2688
1.622037371253,2689
1.622230926282,2696
1.622488446277,2698
1.622523006284,2692
1.622630886283,2694
1.623081611242,2700
1.623276611243,2690
1.623558126273,2701
1.623729006279,2676
1.623840246278,2632
1.623870966275,2703
1.624122846274,2697
1.624195394635,2702
1.624209194635,2704
1.624388474624,2699
1.624556474621,2705
1.62460723462,2706
1.62482059462,2707
1.625184674624,2693
1.625334914623,2686
1.625338994624,2691
1.625722277809,2685
1.625895680336,2695
1.626379399622,2708
1.626927195116,2709
1.626966674853,2710
1.62709795381,2684
1.627236937462,2711
1.627597711411,2713
1.627611631366,2714
1.627637191204,2712
1.628150073854,2717
1.628194353741,2718
1.62835203358,2720
1.629005958646,2721
1.62922231858,2722
1.629285198557,2719
1.629370761516,2723
1.629684638238,2725
1.629689318229,2715
1.630033596832,2724
1.63003696003,2716
1.630620385034,2726
1.630848076747,2728
1.630866199921,2729
1.631146034479,2731
1.63114951448,2730
1.631267353586,2727
1.631379892163,2733
1.631454171648,2734
1.631725010652,2737
1.63185533385,2735
1.631880053799,2736
1.631985772988,2738
1.63205645245,2732
1.632241605638,2739
1.632632389192,2740
1.632731082349,2741
1.632747002721,2743
1.632830162079,2742
1.632933349182,2744
1.63316660721,2746
1.633484845588,2748
1.633545565388,2745
1.633716868424,2749
1.634093666015,2747
1.634100732487,2751
1.634363410391,2752
1.63443444985,2750
1.63475604213,2753
1.634930357049,2754
1.635283877982,2756
1.635542355879,2755
1.635689121472,2758
1.635904040456,2759
1.636335677439,2761
1.637155516798,2763
1.637333236775,2757
1.637370679868,2762
1.637711957075,2760
1.637940213996,2764
1.638181871427,2765
1.638517329945,2766
1.638871929942,2767
1.639256715935,2769
1.639349475213,2770
1.639399394849,2768
1.639488851509,2771
1.639561933787,2772
1.640004168875,2775
1.640224128065,2776
1.640333447692,2777
1.640869485511,2773
1.641171522065,2778
1.641230921621,2774
1.641640270969,2779
1.642086105039,2781
1.642099664983,2782
1.642548101297,2780
1.6428255611,2783
1.642880433823,2784
1.642893962078,2785
1.643809249049,2787
1.643914968661,2786
1.644048024564,2789
1.644102984454,2791
1.644464063004,2792
1.644474982992,2793
1.64508926289,2797
1.64512514289,2798
1.645143142888,2799
1.645394662885,2800
1.645435582883,2801
1.645689262882,2802
1.645735342884,2795
1.645769186037,2788
1.645873229235,2794
1.646105428535,2803
1.646180428275,2790
1.64647994583,2804
1.646504785676,2796
1.646586689034,2805
1.646742074532,2806
1.646806393256,2807
1.647217879646,2808
1.647674897072,2809
1.647796045115,2810
1.647801427903,2811
1.647876798667,2812
1.648008028928,2813
1.648465179288,2814
1.648584189845,2815
1.6487976578,2816
1.649001121022,2817
1.649028441524,2818
1.649354582293,2820
1.649666821046,2822
1.649854980889,2824
1.650018780865,2823
1.650450779341,2819
1.650757621312,2821
1.651081892283,2826
1.651112852076,2825
1.651237827693,2828
1.651407266356,2829
1.651414412518,2830
1.651492105769,2827
1.651847463075,2831
1.652319921075,2832
1.652665932213,2835
1.652671572214,2834
1.652755571594,2833
1.652996434851,2837
1.653023314678,2836
1.653143716172,2838
1.6545538306,2839
1.655083885325,2841
1.655221044248,2842
1.655263643944,2840
1.655287874541,2843
1.655565594985,2844
1.655620794583,2845
1.656139731429,2846
1.656290552296,2847
1.656548438189,2848
1.656594484451,2849
1.656780580321,2851
1.656811660113,2850
1.657047710205,2852
1.657115545438,2853
1.657160822359,2854
1.657187000641,2856
1.657315759636,2857
1.657574118176,2859
1.65763615797,2855
1.657658841125,2860
1.657764658462,2858
1.657937694584,2861
1.65813909876,2863
1.658336857902,2862
1.658542486104,2864
1.658622577964,2865
1.659238928201,2867
1.659469686329,2866
1.659607855166,2868
1.659725799682,2869
1.659869776229,2870
1.65989424757,2871
1.660001414621,2872
1.66007858166,2873
1.660116788071,2874
1.660587908058,2876
1.660729986925,2875
1.661423645871,2877
1.661477096065,2878
1.662017694358,2879
1.662133221574,2880
1.66457133978,2882
1.664599779594,2881
1.66514091747,2884
1.665599914279,2887
1.665979954229,2888
1.665997594205,2886
1.666292793437,2885
1.666333353401,2889
1.666334828983,2890
1.666372353185,2883
1.666390654926,2891
1.666497199915,2892
1.666624900805,2893
1.666628882929,2894
1.666823385873,2895
1.666831798895,2896
1.667262024989,2898
1.667306064673,2897
1.66786794439,2900
1.668066183247,2899
1.668152817273,2902
1.66817465717,2903
1.668794815617,2905
1.668963175594,2901
1.669693378316,2906
1.66984221401,2908
1.670036133278,2909
1.670250692448,2910
1.670301332395,2911
1.670818651723,2913
1.670832843438,2907
1.670895246635,2912
1.671164166023,2916
1.671581613601,2918
1.671741848501,2917
1.671828453379,2919
1.671835533365,2904
1.672010496392,2914
1.672159776349,2915
1.672313665338,2922
1.67231702534,2920
1.672486897633,2923
1.672776935267,2921
1.673057886143,2924
1.673655539264,2926
1.673680739105,2925
1.67369484857,2927
1.674003442742,2928
1.674694434529,2929
1.674711237689,2930
1.674862198282,2932
1.675113236241,2931
1.675122754102,2933
1.675248267174,2934
1.675935420303,2935
1.675972347788,2936
1.67673005549,2939
1.676841055306,2940
1.677387414756,2941
1.677586779344,2942
1.677751662227,2937
1.67813829846,2943
1.678210184868,2946
1.678320017413,2945
1.678335020608,2948
1.678351580603,2949
1.678442780551,2950
1.679394979802,2952
1.679611459511,2953
1.679879059032,2954
1.68006205868,2947
1.680373581725,2957
1.680442101725,2951
1.680459984912,2955
1.680962061092,2958
1.68108806429,2938
1.68121346382,2944
1.681240943616,2956
1.681701112963,2960
1.681708672932,2959
1.681728568401,2961
1.681846416186,2962
1.681907455893,2963
1.682145464058,2964
1.682502306747,2965
1.683007063845,2966
1.683168345203,2967
1.683633424109,2968
1.683907417844,2969
1.683933557157,2970
1.684023515064,2971
1.684183846469,2972
1.68439034787,2974
1.684693345396,2973
1.685024111611,2975
1.68513181887,2976
1.685695438853,2977
1.685873981906,2978
1.685919220669,2979
1.686037274413,2981
1.686127037288,2980
1.686195676767,2982
1.6864638828,2983
1.686638920629,2984
1.686694469805,2985
1.686833564981,2986
1.686983423818,2987
1.687835149106,2989
1.687911108894,2991
1.688150867948,2988
1.688675870143,2994
1.688692790116,2995
1.689081709674,2992
1.689244192736,2993
1.689344155935,2996
1.689528112425,2997
1.689709432399,2999
1.689798112081,2998
1.689842511762,2990
