time,IdealSim1.flowGenerator3.flowSynId:vector
1.022308153999,1
1.025069747999,2
1.027711781,3
1.028059954099,4
1.031918746099,5
1.0349282601,6
1.038940690099,8
1.039294690098,7
1.0394757189,9
1.0427240159,10
1.0461150459,12
1.0480566459,11
1.050150865499,13
1.051503937499,14
1.054817565499,15
1.055124479499,16
1.056806673999,18
1.060074273999,19
1.063321473998,20
1.064586273998,21
1.064807073998,17
1.074800205899,22
1.077144104899,23
1.079654102899,25
1.079660102899,24
1.082045456299,27
1.082927456299,26
1.084843714299,29
1.086258514299,30
1.091022514299,32
1.091622514299,28
1.094573416489,33
1.095664216488,34
1.097668216487,31
1.100442111789,38
1.101454911786,35
1.101756001788,39
1.101843601788,36
1.102882415788,40
1.103595215788,41
1.103738015788,37
1.106863455589,42
1.108748530589,43
1.115878928589,44
1.118092069589,45
1.120557502589,46
1.124387964589,48
1.125903564589,47
1.13386202729,49
1.137223183489,52
1.137518383489,50
1.138525360489,51
1.146548991489,53
1.15350484149,56
1.15406404149,54
1.156185328689,57
1.156859728688,58
1.161411328687,59
1.162518928686,60
1.164958528685,55
1.167359453289,61
1.167800262589,62
1.169125133689,64
1.171877933688,67
1.172899133684,66
1.174142333683,63
1.174337895185,65
1.175387255989,68
1.177128169989,69
1.181907954989,71
1.182861954989,70
1.185677921289,73
1.189431521288,75
1.189577921286,76
1.189881521286,74
1.190719121286,72
1.191155679289,77
1.193586364289,78
1.193721835289,79
1.197546427289,80
1.199309743289,81
1.207369785289,83
1.207955385289,82
1.210247112289,84
1.211605692489,85
1.212328602489,86
1.216066771489,87
1.219374792489,89
1.219665192488,88
1.235458671489,90
1.238100768489,91
1.240527951489,92
1.242124846489,94
1.244378446488,93
1.246702928489,95
1.248551458489,96
1.25191316049,97
1.26175056049,98
1.26461731249,99
1.266079036489,100
1.267568755489,101
1.271402040489,102
1.271860143689,103
1.276556191689,104
1.285383126689,105
1.287149067689,106
1.291390256689,107
1.297456163689,108
1.297510586889,109
1.297975306789,110
1.304203507789,111
1.304829556789,112
1.305488166789,113
1.308077741789,114
1.310962190789,116
1.311385790789,117
1.312014590789,118
1.312264190787,115
1.314066839689,121
1.314303239689,122
1.315468439689,123
1.317124439689,124
1.320062039689,120
1.320150839689,126
1.321686839688,127
1.323510839687,128
1.324209239686,129
1.325819639686,130
1.327733639685,119
1.330057660389,131
1.331068060389,125
1.332659529089,132
1.33360416419,134
1.339343764189,136
1.339716964187,135
1.341622564187,137
1.341704164187,133
1.34561379279,138
1.34693331279,139
1.34759087449,140
1.34796770899,141
1.34839908709,142
1.349152282589,143
1.349436398589,144
1.350588620589,145
1.351817749989,146
1.35209652099,147
1.353207329989,148
1.354028400589,149
1.35939198559,150
1.363581783589,151
1.36547714959,152
1.367365128989,153
1.37202574999,154
1.37318273299,155
1.37337033129,156
1.38039288729,159
1.38042048729,158
1.38087168729,160
1.38313728729,162
1.38365448729,163
1.38380688729,161
1.38402048729,157
1.392575482102,165
1.393473082102,164
1.393488504102,166
1.394674730102,167
1.402283357102,170
1.402940957102,171
1.407008957102,172
1.409854157102,173
1.414945757102,175
1.416932957101,176
1.4172737571,177
1.4188493571,174
1.4193185571,169
1.4205581571,178
1.4216609571,168
1.421963333402,179
1.424944590402,182
1.425858990401,180
1.432413982202,184
1.432439182199,183
1.436909182199,187
1.437176782198,185
1.439625982198,181
1.445391941601,189
1.445568341601,190
1.445857541601,191
1.446831941601,186
1.448702568602,188
1.455581159603,192
1.459661675603,193
1.462345271603,194
1.462714836203,195
1.465313993203,197
1.466296793203,198
1.468318793203,196
1.475792799503,199
1.477852927503,200
1.479036263303,202
1.479235463303,203
1.482504263303,204
1.484045063303,201
1.490362105103,205
1.493290992603,206
1.497947968603,208
1.499141968603,209
1.500373168603,207
1.501166121503,210
1.501357926903,211
1.505541412903,212
1.506359187003,214
1.510263987003,213
1.515306009003,215
1.516575259003,216
1.518932651003,217
1.525032351003,219
1.526257551003,220
1.529411151003,218
1.529920888603,221
1.531172551603,222
1.532277902603,223
1.532851435403,224
1.534352150403,225
1.539308722403,227
1.540569922403,226
1.545704275403,228
1.548896981403,229
1.551496172403,230
1.553378313403,231
1.554918842403,232
1.559781434403,233
1.567767474003,238
1.568939722001,235
1.575108922001,239
1.577981722001,241
1.579059321999,242
1.580080521997,236
1.582690553999,237
1.587992153999,244
1.591000553998,245
1.593600953997,247
1.596767753994,243
1.604067353994,249
1.605579353991,251
1.60675655399,252
1.607793353989,253
1.609502153988,250
1.610383699396,254
1.611030499394,246
1.613333331396,248
1.617782153985,255
1.619796953985,234
1.623389753985,256
1.623863753985,257
1.625472953984,240
1.629422943263,258
1.632317912263,259
1.640579806263,261
1.641069406263,262
1.641769006263,260
1.643451223163,263
1.644689553163,264
1.647333794163,265
1.660621694163,266
1.663872275163,267
1.666956143163,268
1.667023085023,269
1.669650106023,270
1.672157299023,272
1.672309699023,273
1.675549699023,275
1.676448499022,271
1.676592622313,274
1.677939018213,276
1.678939268213,278
1.682464868213,279
1.686884468213,281
1.687798868213,277
1.689404046713,282
1.689742446712,283
1.690118046711,280
1.699396351513,284
1.699528777513,285
1.702106853513,286
1.704004300513,287
1.704112683613,288
1.704267495413,289
1.707001907413,290
1.707527762913,291
1.711343663913,292
1.714053786913,293
1.716849878913,294
1.717682405713,295
1.721149857713,296
1.722676285713,299
1.723222285713,300
1.725327085713,302
1.729378285712,303
1.730830285712,304
1.730892717711,297
1.730969517711,305
1.73342711771,307
1.734568317708,308
1.735518717707,301
1.736219150522,309
1.736651150521,310
1.73952155052,311
1.740155150519,298
1.742276750519,312
1.742325950519,306
1.752447288623,316
1.757177688621,317
1.76848528862,318
1.769220888618,319
1.773716701122,321
1.775120701121,320
1.775587533122,322
1.778646333121,314
1.779584733121,315
1.779856488614,324
1.781662488614,323
1.786048488614,326
1.797850488613,329
1.80522688861,335
1.808185675118,331
1.809830875118,325
1.819061307118,330
1.819414107118,313
1.819513707118,332
1.820275348119,333
1.822216948119,327
1.823494490114,328
1.824041836522,336
1.824454636521,339
1.82652463652,334
1.827090271822,342
1.827169036517,341
1.828231036516,340
1.829732236515,344
1.829992636514,345
1.830719836513,346
1.833811036511,338
1.834765595823,348
1.835210795822,343
1.836101195821,347
1.837326303816,349
1.837995903814,352
1.838597103813,353
1.838676303812,354
1.839363903811,337
1.839711935813,350
1.843383935813,355
1.844832335813,356
1.847067935813,357
1.848583535813,358
1.852103135813,351
1.852644265503,359
1.852938825103,360
1.858111914103,361
1.862213944103,362
1.866328907103,363
1.868954823103,364
1.871753824103,365
1.873153004403,367
1.879123004403,366
1.880189701803,368
1.885816572803,369
1.886395058803,370
1.888354312403,372
1.890945112403,371
1.892472789403,373
1.894964456403,374
1.897173578403,378
1.897177178403,377
1.899060010403,375
1.900992581862,379
1.905492581861,381
1.90751338186,383
1.908179381857,385
1.913070581855,382
1.914067781853,386
1.916156981852,389
1.92311938185,392
1.92625621385,390
1.927896581847,393
1.929741590441,376
1.930463413849,395
1.933329013848,398
1.933882295043,399
1.936679495043,384
1.937616727043,387
1.939276327042,400
1.939373527041,394
1.93968309504,401
1.942989095039,396
1.947131495039,402
1.948901495037,403
1.949051495035,388
1.949483495034,404
1.951687895032,391
1.954383095032,405
1.956022295032,406
1.959334295031,397
1.959949927031,380
1.964111819443,407
1.965133206443,408
1.975512060443,409
1.978937971443,410
1.980368530443,411
1.982922681443,412
1.985478223443,413
1.989418728443,414
1.993612866443,415
1.994304461343,416
1.995444215343,417
1.995722788243,418
1.996072185043,419
1.996417006243,420
1.997461776243,421
1.997796588743,422
1.998734215243,423
2.001478784243,424
2.003749829243,425
2.005795431243,426
2.006943312243,427
2.011007800243,428
2.011249180243,429
2.011815564643,430
2.021013260643,432
2.021406860642,431
2.021861161843,433
2.027881500843,434
2.028080974643,435
2.030194576643,436
2.034634833643,437
2.038799730643,439
2.040026130642,440
2.041307730641,438
2.043278535943,441
2.052500113943,442
2.053151058143,444
2.054369058143,443
2.059237523343,445
2.059337615343,446
2.063214985343,447
2.067356419343,449
2.072020819342,451
2.07296641934,450
2.07631441934,452
2.078179219338,448
2.079589022343,453
2.082620105343,454
2.087365492343,457
2.087923492341,458
2.089092292341,459
2.08971389234,460
2.091321892339,461
2.093850292338,462
2.094607492337,463
2.097875092336,464
2.101100692335,465
2.101341892333,456
2.102300692333,455
2.104768999043,466
2.107717551043,467
2.108956789843,469
2.110189189843,471
2.11568758984,473
2.117131189838,474
2.117573989838,468
2.117636535638,475
2.119117335637,470
2.11938205534,476
2.120139255339,472
2.123102134143,477
2.124416179143,478
2.125341590743,479
2.131984028743,480
2.133842237743,481
2.136653630743,482
2.146172991743,483
2.151802229743,484
2.153296111743,485
2.153908844743,486
2.154073834543,487
2.155119092543,488
2.156807142543,489
2.160769433543,491
2.160901433543,490
2.163481006543,492
2.169703423543,496
2.169848623542,493
2.171403364843,497
2.171410564842,498
2.17191196534,499
2.172648765338,495
2.172916365337,500
2.177227965337,501
2.178942765335,503
2.179717965333,505
2.184527565333,507
2.185477965332,508
2.185835597332,504
2.185846397332,494
2.186101997332,509
2.188792397331,510
2.194290797329,513
2.194451597328,511
2.194509197328,502
2.194841629328,514
2.197164829327,512
2.198904861327,515
2.203666461327,517
2.211624861324,518
2.216259261323,516
2.216859261322,520
2.21778566132,521
2.220413661317,522
2.220971661316,524
2.222916861315,506
2.223193597122,527
2.224475229122,528
2.225093229122,529
2.225576861122,525
2.226003867519,526
2.226043693122,519
2.226088493311,523
2.233452927723,532
2.233793727721,534
2.234090127719,533
2.235491727719,535
2.235654927718,530
2.236020541718,531
2.242205044823,536
2.243045581523,537
2.245849314523,538
2.246700734523,539
2.257086883523,540
2.260483116523,541
2.263238434523,542
2.283297444523,543
2.287121660523,544
2.289740127423,545
2.294332879423,546
2.298228403423,547
2.298698486223,549
2.299824086223,548
2.308393578023,550
2.314351299023,551
2.321646230023,553
2.323323830023,552
2.327457716823,554
2.332796910823,555
2.334495659823,556
2.338569485123,558
2.340339485123,559
2.340577085121,560
2.34341388512,561
2.346283085118,563
2.346730685117,564
2.347292285116,562
2.347348685116,565
2.348389085115,566
2.349497885114,567
2.350292285113,568
2.351731085112,570
2.35232748511,569
2.35282668511,572
2.354799485108,573
2.358592685106,557
2.358960756763,574
2.36084429346,571
2.366553578763,575
2.373706143463,579
2.374092543463,578
2.375361429863,581
2.377881429862,577
2.38143582986,582
2.382292629859,580
2.382305434863,583
2.382428943455,576
2.382921513263,584
2.389725038263,585
2.393248672263,586
2.394769020663,587
2.395918053663,588
2.396353557863,590
2.397209157862,591
2.400239157861,589
2.401620190961,593
2.406961390961,592
2.408787814842,594
2.409816563742,595
2.418401609742,598
2.41849760974,597
2.420754809739,596
2.422273759262,600
2.422961359261,601
2.42579815926,599
2.428168060462,604
2.428202860461,605
2.428312060461,603
2.43145726046,602
2.438011636462,609
2.43882523646,606
2.439346946462,608
2.441520146461,610
2.441893346459,607
2.445195757662,611
2.448488703662,612
2.450857848662,613
2.453258903562,616
2.45411570356,617
2.454234503559,615
2.459302103559,620
2.460553703556,621
2.462441303555,618
2.462536103554,622
2.464220903553,624
2.465936903552,623
2.466298103551,619
2.467963703551,626
2.47040450355,627
2.472239303549,625
2.476943303549,628
2.483716103548,630
2.486365703545,631
2.488262903545,633
2.489620103544,614
2.492224685459,629
2.49385622296,632
2.498880929962,634
2.500199393962,635
2.502923812962,636
2.503506029862,637
2.506741470862,638
2.507203150862,639
2.514030458862,640
2.517108105862,641
2.524568161862,642
2.525481430463,643
2.527249225963,644
2.536398524963,645
2.536991130963,646
2.545944105963,648
2.546409705962,647
2.553348912963,649
2.559744198962,653
2.562310998961,655
2.563844073962,650
2.564726073961,658
2.564990073958,659
2.565290073958,656
2.566257273957,651
2.566331673957,654
2.566766073956,652
2.567336105957,660
2.568083705957,661
2.576255705956,663
2.583428105954,662
2.586094505954,665
2.587374905952,667
2.589122105951,664
2.59054530595,666
2.590594505949,668
2.597618105948,657
2.598241163684,669
2.599431150684,670
2.602031688684,671
2.605725104684,672
2.606332229684,673
2.607844860684,674
2.607885950584,675
2.608905186184,676
2.610611188184,677
2.613663113184,678
2.616207480184,680
2.620573080183,681
2.624283480182,679
2.625131924784,682
2.630995509784,683
2.634050467784,684
2.634055533214,685
2.636545079213,686
2.638073563013,687
2.640706318013,688
2.640879256413,689
2.649463054413,693
2.65282545441,694
2.65313505441,691
2.653328589654,692
2.655200589654,696
2.655263886409,690
2.655601086409,695
2.658521187653,698
2.662518387652,699
2.664179187651,700
2.664600387651,697
2.665116346854,701
2.666009609754,702
2.666738690254,703
2.672221307254,704
2.677133082254,705
2.679164586254,706
2.680388055254,707
2.681215494654,709
2.681342694654,710
2.682804294653,711
2.683160694651,712
2.683177494651,708
2.683996778454,713
2.684027173814,714
2.684718621614,715
2.689547695184,717
2.692724095183,716
2.692828747584,718
2.692991876584,719
2.693958071684,720
2.696612452684,721
2.704692672684,722
2.708735358684,723
2.709241080384,724
2.710014996484,725
2.714069840484,726
2.715611364484,727
2.717067700184,728
2.719429365184,730
2.724250965183,732
2.724752565181,729
2.727341849383,733
2.727680249383,731
2.731370430384,734
2.735535294384,735
2.740024875384,737
2.740212075383,738
2.742354075381,736
2.750169822584,739
2.752074137584,740
2.752233626084,741
2.754097495084,742
2.759775830084,743
2.764414550084,746
2.765204150082,745
2.768834150082,749
2.769780950081,748
2.77011455008,744
2.77249298208,750
2.77383578208,751
2.775225382079,752
2.781782182078,753
2.781820614078,754
2.786589414078,755
2.787770214076,747
2.787849948684,756
2.790751416684,757
2.800118222684,758
2.803147739684,759
2.804738593684,760
2.805699528984,761
2.808905015984,764
2.810075015982,763
2.812323815982,765
2.814396215981,762
2.818542597354,766
2.821274916354,767
2.822232717854,768
2.825754534854,769
2.827544639853,770
2.829321049853,771
2.829687328153,772
2.836297264154,773
2.838019896154,775
2.838424296154,776
2.838591096152,774
2.838809632754,777
2.840746782854,779
2.844207582853,781
2.84499478285,782
2.845669182849,778
2.848121425853,783
2.852263825852,784
2.85253742585,780
2.856249603803,785
2.859812134803,786
2.865173851803,788
2.865617851803,789
2.867195851802,787
2.867489414003,790
2.868755792003,791
2.871520666203,793
2.872341466201,792
2.873732265203,794
2.875234283203,795
2.875664281403,796
2.878957327403,797
2.880792440403,798
2.881412510003,799
2.882471201003,800
2.883554597003,801
2.885445347003,802
2.890047889003,804
2.890679089003,805
2.891724289002,806
2.891984689,803
2.893673812703,807
2.894594490003,808
2.895360111204,809
2.897961283203,810
2.898871623804,811
2.901447137804,812
2.902539766804,813
2.905901102804,814
2.908432800804,815
2.910027586804,817
2.913260386804,816
2.915092837204,818
2.917591230204,819
2.922232402204,820
2.923055634204,822
2.923133634203,821
2.925515802804,823
2.932747484804,824
2.934959940704,825
2.941787193704,826
2.942302538804,827
2.943729882804,828
2.945022005804,829
2.945842813804,830
2.946040752304,831
2.947273871304,832
2.949075427304,833
2.952535334304,834
2.953110813404,835
2.957083445404,837
2.957465045404,838
2.958080645403,836
2.964451109403,839
2.967098834403,840
2.969376036403,842
2.970519636403,843
2.975341236401,844
2.9764308364,841
2.977441137803,845
2.977611376504,846
2.979496465504,847
2.984364179504,849
2.987181779504,852
2.989705379502,853
2.992839779501,854
2.993044199334,855
2.993985811501,850
2.999443443501,858
3.000558211498,857
3.008706243498,863
3.008964211494,862
3.009638018732,861
3.011362418732,865
3.013977218731,864
3.019131218731,868
3.019724018729,859
3.020187250729,870
3.020426050729,860
3.02150845073,848
3.02180365073,871
3.024204850729,873
3.025281843492,866
3.026455443492,869
3.027392050727,874
3.029389475492,872
3.030737075492,876
3.032593475489,856
3.032912707489,877
3.033318307489,867
3.033636307488,878
3.037518307487,880
3.037927507486,879
3.041532307486,882
3.046127107483,883
3.049686307483,884
3.052037107482,851
3.052242339482,875
3.056280379931,881
3.056475247934,885
3.058127038934,887
3.060573838934,888
3.060669838933,886
3.061231678634,889
3.064509904634,890
3.065637425634,891
3.070300418634,892
3.076754288634,893
3.078023955634,895
3.080919555634,896
3.084538755633,897
3.091565955631,898
3.09560275563,894
3.095837347134,899
3.096104979134,900
3.096545557434,901
3.098143062466,903
3.098294262466,904
3.099093462465,905
3.099148662463,906
3.101924262462,907
3.10523266246,908
3.105673062459,909
3.110419062459,911
3.112004262458,912
3.114475062456,910
3.117928662456,913
3.119296662454,914
3.121635462454,915
3.122375862453,902
3.123595634506,916
3.124084352506,917
3.135148749506,918
3.137288455506,919
3.146687072506,920
3.151361504506,921
3.151935744906,922
3.153580937806,923
3.162142816806,924
3.162237915806,925
3.166244692806,926
3.174324166806,927
3.177137586806,928
3.183511199806,929
3.187008829806,930
3.190611138805,932
3.190834338803,937
3.193254738802,931
3.194531570802,934
3.196823570802,936
3.197466135206,940
3.199280535204,935
3.199430535203,938
3.200470967204,941
3.200985767203,942
3.202812167201,944
3.204882167201,943
3.2081329672,945
3.212658167199,939
3.213055056706,946
3.215193799199,933
3.216114757706,947
3.218417357706,948
3.223503596706,950
3.224092796706,949
3.225048891906,951
3.228894960906,952
3.232892274906,954
3.236158674905,955
3.236889474904,953
3.237708934906,956
3.238874521906,957
3.243245476406,958
3.249950782406,959
3.251531678606,961
3.255869678604,962
3.263074478604,964
3.263718878602,965
3.263744078601,963
3.264105278601,966
3.266066078599,967
3.269025278598,969
3.271056878595,970
3.277526078594,972
3.278146478592,971
3.278439278591,973
3.28040367859,960
3.281952245601,975
3.284271845599,976
3.284723045598,977
3.290177045596,974
3.292818245596,968
3.294465064106,978
3.294808295106,979
3.295246855106,980
3.296565820106,981
3.300088666106,982
3.300402078306,983
3.301185731806,984
3.307453084806,985
3.307695267706,986
3.309485611706,987
3.312981361706,988
3.315351497206,989
3.316812397586,991
3.318408397585,993
3.318882397585,992
3.321573997585,996
3.322328797583,995
3.323117197583,994
3.325319197583,998
3.32561559758,997
3.32590959758,999
3.330126397579,1000
3.330732397577,990
3.332893775286,1001
3.338600261286,1002
3.341170209286,1003
3.348915004286,1004
3.356709258286,1005
3.362986903286,1006
3.373425103286,1007
3.374879937286,1008
3.376043698286,1009
3.377418876286,1010
3.377735292256,1012
3.378209292256,1011
3.382719277955,1013
3.392715565956,1018
3.392963965954,1017
3.393385165953,1019
3.396265165953,1020
3.400485565953,1023
3.400996765951,1022
3.406393165951,1025
3.40651916595,1026
3.407030365949,1021
3.408229519184,1015
3.409166719184,1016
3.412115119183,1027
3.413327119182,1028
3.413718319181,1030
3.413807119179,1029
3.414681919178,1032
3.415585519177,1033
3.418286719177,1024
3.419165155184,1034
3.420126355184,1035
3.423593155183,1037
3.424950355182,1038
3.425529955181,1039
3.425633155181,1040
3.429827155179,1031
3.430586751174,1041
3.432299151173,1042
3.432603951172,1043
3.439466751171,1014
3.440714305976,1045
3.451331905974,1047
3.453784705973,1046
3.456523105972,1044
3.460142305971,1050
3.461452705968,1036
3.463937991582,1051
3.46542239158,1052
3.466693191579,1048
3.466770441581,1053
3.47080124158,1049
3.472426455585,1054
3.472812777285,1055
3.473047093185,1056
3.480702450185,1057
3.483772485185,1058
3.484179259785,1059
3.485354775785,1060
3.488598276785,1062
3.488778276785,1061
3.490479739785,1063
3.492196587785,1064
3.496540202785,1065
3.496635732885,1066
3.501573214885,1067
3.507393057885,1068
3.509356271885,1069
3.512314760885,1071
3.512405960885,1070
3.514880880785,1072
3.519156518785,1074
3.519440918785,1075
3.519488918784,1073
3.527035136486,1078
3.527935168486,1080
3.528033568486,1081
3.529526368485,1077
3.530278768485,1076
3.530681968484,1079
3.531095357726,1083
3.533222957726,1085
3.533406557724,1084
3.534433757723,1086
3.536315357722,1087
3.536749757721,1088
3.542608157719,1089
3.543888557717,1090
3.545827757714,1093
3.545950157712,1094
3.548288957711,1092
3.558245357711,1095
3.55986175771,1082
3.559962786332,1096
3.560407986332,1098
3.56097438633,1091
3.561048346835,1099
3.565472746834,1102
3.567729946831,1097
3.568999706033,1105
3.569702906033,1103
3.571385306033,1104
3.571564106032,1106
3.57175250603,1101
3.57891890603,1107
3.580126106029,1100
3.582742071936,1108
3.584519516936,1109
3.593210447936,1110
3.593411055636,1111
3.597770045636,1112
3.600166547636,1114
3.600249347635,1113
3.601570790936,1115
3.607263031936,1116
3.608242054536,1117
3.609096163136,1118
3.609943717436,1119
3.610645940036,1120
3.619552201036,1122
3.620249401035,1121
3.622237336036,1123
3.623373869036,1124
3.625500392036,1126
3.632437592036,1127
3.632862392035,1125
3.640121296536,1128
3.640545587535,1131
3.641473187535,1130
3.647405987534,1132
3.650056787533,1135
3.650331587531,1136
3.654533987531,1138
3.655213906331,1139
3.65621110633,1140
3.65908030633,1141
3.661385506329,1144
3.661565506327,1133
3.662985106327,1142
3.668816735825,1137
3.677785535824,1129
3.680395535823,1147
3.680547935823,1148
3.681005135822,1149
3.682307135821,1150
3.68379753582,1145
3.68575356782,1151
3.68936796782,1155
3.690575167817,1156
3.690869167815,1157
3.694550767815,1146
3.694818671623,1152
3.696541879124,1154
3.697658876622,1153
3.697939911124,1159
3.698087511123,1158
3.698107911122,1160
3.705646311121,1161
3.70722071112,1162
3.710983911118,1134
3.712057911118,1168
3.713112711116,1164
3.714775911116,1143
3.718953143116,1169
3.719539943115,1165
3.720185543115,1166
3.723871975115,1170
3.724127575115,1167
3.724301607115,1172
3.724437207114,1171
3.724494807113,1163
3.728596443726,1173
3.730572639526,1174
3.733138899526,1175
3.736166469526,1177
3.737140869526,1178
3.738228069525,1179
3.742148469524,1180
3.746329269522,1182
3.746512869519,1183
3.746564457275,1184
3.746626901519,1185
3.750636101519,1181
3.751159301519,1186
3.751243301517,1187
3.753187301516,1188
3.753876101515,1189
3.755461301515,1190
3.760826501514,1191
3.761350901513,1193
3.762985301511,1176
3.763798438655,1192
3.764799052656,1194
3.770962895656,1195
3.774768872656,1196
3.775664404856,1197
3.787985099856,1201
3.788139899855,1200
3.791455499854,1202
3.792218699854,1198
3.796021531854,1203
3.797454331854,1206
3.797772331853,1204
3.799063531852,1205
3.800054731851,1207
3.80101833185,1199
3.804279833556,1208
3.808430634556,1211
3.808976634554,1210
3.814886634554,1212
3.830015034552,1216
3.83349743455,1219
3.837248634548,1214
3.842735034548,1218
3.844661034547,1221
3.847723434546,1215
3.851747034545,1220
3.854939034545,1217
3.855717202056,1213
3.856571602055,1209
3.859426402054,1224
3.859974802053,1226
3.861616402052,1225
3.866291602052,1222
3.868410802052,1228
3.869316802052,1229
3.870684802051,1230
3.870741016096,1231
3.872348034051,1232
3.873962034051,1223
3.875813634051,1236
3.875979266051,1234
3.879376466051,1233
3.88154486605,1237
3.88412126605,1235
3.887278466049,1238
3.888705266049,1227
3.893041411616,1239
3.898897767616,1240
3.900889042616,1241
3.904945970616,1242
3.909595075616,1243
3.911192037616,1245
3.911790837615,1246
3.912388437614,1247
3.914376837612,1244
3.922185850016,1251
3.925825450014,1249
3.926055850013,1250
3.926237050012,1252
3.926456650011,1248
3.929671243416,1253
3.931166483416,1254
3.932409049416,1255
3.936315258416,1256
3.937022644516,1258
3.938970244516,1259
3.940085044514,1257
3.944615269616,1261
3.945551269615,1262
3.949019269614,1260
3.949847122416,1266
3.949965922415,1267
3.952740322414,1269
3.952981411413,1270
3.955531522411,1271
3.96193952241,1275
3.962055922409,1264
3.962322322409,1276
3.965456722409,1277
3.965918722409,1278
3.967638322409,1274
3.968879122408,1265
3.970670722407,1268
3.971178835515,1282
3.972893635515,1283
3.973257235514,1281
3.973769635514,1279
3.975021235513,1284
3.975975267513,1280
3.977012099513,1285
3.982997699512,1273
3.984681299512,1286
3.98493809951,1287
3.98526329951,1288
3.987347699509,1289
3.989238899508,1290
3.996344099507,1291
3.998481299506,1292
3.998588099504,1293
4.000469699504,1294
4.001003699502,1295
4.001225699501,1263
4.0014812995,1272
4.014608210016,1296
4.016469556016,1297
4.020989763016,1298
4.025053867016,1299
4.026348965016,1300
4.029936034016,1303
4.030852834014,1304
4.038930034013,1302
4.039277671714,1308
4.047713671712,1310
4.04951487171,1305
4.054173634007,1313
4.055502034005,1314
4.057606834004,1312
4.057884034003,1309
4.058440834002,1316
4.058510434002,1315
4.059698434002,1317
4.063232434002,1318
4.063902034001,1319
4.066371634001,1306
4.068673234001,1311
4.070079634,1320
4.070695233998,1322
4.071579633996,1321
4.071648033995,1323
4.081454433994,1325
4.083352833992,1326
4.085234433991,1324
4.091851233991,1301
4.096854065991,1307
4.098344805915,1327
4.099737795915,1328
4.102827001915,1330
4.107018601914,1329
4.114233110915,1331
4.114297181795,1332
4.118226144795,1334
4.118857344794,1335
4.121490144792,1333
4.128112552295,1336
4.130821293295,1337
4.132288736295,1338
4.140771059295,1339
4.142121106295,1340
4.148055457295,1341
4.148334765695,1342
4.149516101295,1344
4.150747301294,1345
4.154814101292,1347
4.155061301291,1348
4.15595770129,1349
4.157642501289,1350
4.158391301287,1351
4.160208101287,1352
4.160552501286,1346
4.160713301285,1353
4.163965301283,1355
4.171886501281,1357
4.17309970128,1358
4.17412090128,1356
4.17726250128,1360
4.183374101278,1361
4.189690901277,1364
4.193824901274,1359
4.194146501271,1362
4.195029701271,1367
4.198677701271,1363
4.203164501269,1369
4.203166901269,1354
4.203699701267,1366
4.207111301267,1371
4.209406901264,1365
4.212685301263,1343
4.214369707515,1373
4.218606907513,1370
4.223738107513,1377
4.22862210751,1378
4.229328907509,1368
4.236530139513,1379
4.236672939512,1374
4.240650971513,1380
4.240965371513,1372
4.242173771512,1381
4.248812171511,1376
4.249846571509,1383
4.250849771507,1386
4.250924203508,1385
4.251130571504,1387
4.251710171503,1388
4.257046571503,1382
4.2627501715,1391
4.263484705415,1384
4.267127905415,1392
4.267882705413,1389
4.268195905412,1375
4.271335105411,1390
4.285055904415,1393
4.289564830415,1394
4.290997322416,1395
4.298356495415,1396
4.299364861115,1397
4.299733393115,1398
4.301298363915,1399
4.309215326915,1400
4.312521896915,1401
4.314373830215,1403
4.315325430214,1402
4.317484120215,1404
4.319815125215,1405
4.323660160215,1406
4.328329769215,1408
4.332468569214,1410
4.333202969212,1407
4.335846601212,1409
4.344255081215,1411
4.346531260215,1412
4.347548510215,1413
4.349964830215,1414
4.354462411215,1416
4.356196411214,1415
4.358915838515,1417
4.365639357515,1418
4.377523097515,1419
4.380792394515,1420
4.385917500515,1421
4.393795300515,1423
4.394677300514,1424
4.394823700512,1425
4.397612500511,1422
4.403405812965,1426
4.404048540665,1427
4.405062523665,1428
4.414190415665,1430
4.415166015663,1429
4.416993002464,1432
4.417833002463,1433
4.421358602462,1431
4.421639111265,1434
4.423353845565,1435
4.424932004365,1437
4.425857204362,1439
4.428769604361,1438
4.42895920436,1440
4.430692004358,1436
4.430873538665,1441
4.432590418565,1442
4.440893108565,1444
4.441153508565,1443
4.447024899565,1445
4.447813531665,1447
4.448781931664,1448
4.456184731662,1450
4.45656153166,1446
4.456729114963,1451
4.459377514961,1452
4.459813114959,1453
4.461602314958,1449
4.462074989064,1454
4.463114797864,1455
4.467124155865,1457
4.467797355864,1458
4.468027755862,1456
4.474540467065,1459
4.476419499965,1460
4.477067436965,1461
4.479957204965,1462
4.485397861965,1465
4.487621461965,1466
4.487845861964,1464
4.492341061963,1469
4.492812661962,1467
4.493079061962,1468
4.498482661961,1471
4.500997861959,1463
4.501791336164,1470
4.504059003165,1473
4.504119003164,1472
4.504972147265,1474
4.515829072265,1476
4.519757872264,1478
4.525019872261,1479
4.52855867226,1480
4.530214672259,1483
4.530475072256,1477
4.530943072256,1481
4.532487472255,1485
4.533706672253,1486
4.535897872252,1487
4.538680672252,1488
4.539433072252,1489
4.540881472251,1482
4.543060672251,1490
4.54492667225,1491
4.546487872249,1475
4.547884144059,1484
4.548838596465,1496
4.548976686063,1497
4.549213028465,1493
4.551982628465,1498
4.552240628464,1494
4.555649828464,1492
4.558293428463,1499
4.560572228462,1501
4.56096822846,1500
4.561931828459,1495
4.562303650965,1502
4.568069445365,1503
4.569913629365,1504
4.576533656365,1505
4.576989805565,1506
4.582463873565,1507
4.582581487135,1508
4.585276521135,1509
4.588476260135,1510
4.591540955135,1511
4.593697491135,1512
4.595592419835,1515
4.596091619834,1514
4.596162419833,1513
4.599030649635,1516
4.599130597195,1517
4.608708114195,1518
4.609627213195,1519
4.610435237295,1520
4.613038295095,1522
4.613297495094,1521
4.613992139495,1523
4.614776737495,1524
4.616235000395,1525
4.623538174395,1527
4.623648574393,1530
4.624600174393,1528
4.632191374392,1531
4.633339774391,1526
4.634161713422,1532
4.636004913421,1529
4.641433730425,1533
4.643366650425,1534
4.645253888425,1535
4.656574728425,1536
4.659266359425,1537
4.660238781425,1538
4.660293831805,1539
4.662975614805,1540
4.665072320805,1541
4.670139593805,1542
4.671102424405,1543
4.672302117405,1544
4.673043137105,1545
4.676605477105,1546
4.679181933105,1547
4.682850479105,1550
4.683365279104,1549
4.684042079103,1548
4.684598410505,1551
4.691043895505,1552
4.693300749505,1554
4.694213949504,1553
4.694285592005,1555
4.702315991005,1556
4.707731281005,1557
4.708201162505,1558
4.709205317405,1559
4.715027065405,1560
4.717769763405,1561
4.721619558405,1562
4.727801556405,1564
4.728819156404,1565
4.732350756402,1568
4.7325655564,1566
4.7326687564,1567
4.735024356399,1563
4.735511713105,1569
4.741336118105,1570
4.743579545105,1572
4.743823145105,1571
4.743903367205,1573
4.747113512205,1575
4.748038712204,1576
4.748547512202,1577
4.751450312201,1574
4.760558996805,1578
4.764641161805,1580
4.766731561805,1582
4.767072361803,1581
4.767722761802,1583
4.7684523618,1584
4.768573561798,1585
4.769427961796,1579
4.772302587425,1587
4.772393787424,1588
4.773200187423,1586
4.77351231512,1589
4.77451083352,1590
4.77674181052,1591
4.78078366752,1592
4.78124696452,1593
4.78172581362,1594
4.78445641162,1596
4.786347611619,1599
4.786464011617,1595
4.791837502819,1598
4.791891502818,1597
4.792000734819,1600
4.79957934452,1601
4.80085965772,1602
4.80139009672,1603
4.80775409472,1605
4.808184894719,1606
4.808280894717,1604
4.80875608772,1607
4.81042491072,1608
4.81289007372,1609
4.82131395172,1610
4.82189168912,1611
4.82496457712,1614
4.826196977119,1612
4.828756189419,1616
4.829824189415,1617
4.830439789415,1615
4.835246989414,1613
4.83718226762,1618
4.84280095662,1619
4.84394483762,1620
4.84483173862,1621
4.84648919262,1622
4.84774129862,1623
4.85000545562,1624
4.85389212162,1625
4.85739920762,1626
4.85862174662,1627
4.86152445862,1628
4.86235735132,1629
4.86302029312,1630
4.87479501312,1631
4.87859002212,1632
4.88092163112,1635
4.88172683112,1634
4.882722831119,1633
4.88471396972,1636
4.88728719872,1638
4.889138798719,1640
4.889865998717,1639
4.892264798716,1641
4.892849198714,1642
4.896480398712,1643
4.89841719871,1646
4.899473198707,1644
4.903241198707,1647
4.905764798706,1648
4.908522398705,1649
4.90892580432,1651
4.91056380432,1653
4.915272604318,1637
4.916128204317,1654
4.916181004317,1645
4.918005004317,1656
4.919569804316,1658
4.923291004314,1655
4.923877804313,1659
4.924209004312,1660
4.924438204311,1657
4.924907404311,1652
4.93169340431,1661
4.937665804308,1663
4.939077004306,1664
4.939179004305,1662
4.941839404304,1650
4.94400987578,1665
4.95725093478,1672
4.960012134777,1668
4.960387734775,1673
4.960411734774,1669
4.960939766774,1674
4.965008675574,1666
4.969088675574,1671
4.969304675574,1676
4.971011075574,1670
4.971941107574,1677
4.975809907574,1667
4.97975450848,1679
4.980656908479,1678
4.981140339572,1675
4.98310835248,1680
4.98323602558,1681
4.98447489058,1682
4.98548735258,1684
4.985495752579,1683
4.98560140928,1685
4.98571609518,1686
4.99209548318,1687
4.99232696188,1688
4.99420915188,1690
4.995403151879,1689
4.99588959048,1692
4.996332390478,1691
4.99770650068,1693
5.00570723668,1696
5.006232836678,1695
5.007980036677,1694
5.00963351598,1698
5.011728715979,1697
5.01360434098,1699
5.01759832098,1703
5.022226720978,1700
5.02294270848,1705
5.02307110848,1706
5.02457110848,1707
5.02548190848,1701
5.027221163478,1708
5.033000363477,1712
5.033633963474,1713
5.034676763472,1710
5.035574363471,1711
5.035815563471,1714
5.037375563471,1702
5.038570763469,1716
5.041313963469,1715
5.041562363469,1709
5.042434763468,1704
5.04253373998,1717
5.04388377088,1718
5.04655490588,1719
5.04870472888,1720
5.05132847888,1721
5.05304514288,1722
5.05345549198,1723
5.05586880498,1725
5.057017204979,1724
5.05871592798,1726
5.06270710098,1727
5.06345982078,1728
5.06723785678,1730
5.069405056779,1731
5.070830656777,1732
5.073629056776,1733
5.074129456774,1734
5.074341856773,1729
5.08240828098,1737
5.08325308098,1738
5.084013880979,1736
5.087774680978,1735
5.094617237979,1742
5.095488437976,1743
5.096776037976,1744
5.098199237975,1740
5.099886437974,1739
5.102592258227,1747
5.103593058226,1745
5.104741458225,1749
5.108658258223,1748
5.109912258223,1750
5.112764658222,1751
5.112935058221,1741
5.113856745526,1752
5.114231145524,1753
5.114402745522,1754
5.11514554552,1755
5.115999945518,1746
5.11803375053,1758
5.11893855053,1757
5.119095750529,1756
5.120938677829,1761
5.122563477827,1759
5.122743675829,1762
5.125316475827,1760
5.12836125553,1763
5.13088460353,1764
5.13332141053,1765
5.13374851983,1766
5.13827665183,1769
5.138420651829,1767
5.140251467228,1770
5.140574267226,1768
5.14085254373,1771
5.14203032573,1772
5.14275013833,1773
5.14540427933,1775
5.145555479329,1774
5.15405927733,1777
5.154139677329,1779
5.156158077328,1776
5.156777730829,1780
5.157117330828,1778
5.15981199513,1782
5.160131195129,1781
5.16588180013,1783
5.16928196013,1784
5.17206634713,1785
5.17287111433,1786
5.17295185053,1787
5.17674131753,1789
5.179845717529,1788
5.18233531563,1790
5.18967146063,1792
5.19061586063,1791
5.19871552263,1794
5.199241122629,1795
5.201887122627,1793
5.20606232973,1796
5.20672897723,1799
5.207294177229,1800
5.207340977228,1798
5.211083777227,1802
5.211615377226,1797
5.21174609423,1801
5.21522642893,1803
5.21932289293,1804
5.21952441093,1805
5.22024839213,1806
5.22415984513,1807
5.22453387113,1808
5.22781729613,1809
5.23303304713,1810
5.23728497513,1812
5.24097017513,1811
5.24216763713,1814
5.247295237128,1813
5.25013524013,1815
5.25050644783,1816
5.25443334093,1818
5.255363340929,1817
5.25986804393,1819
5.26490719993,1820
5.26864663993,1821
5.27064228693,1822
5.27196852193,1823
5.27563986393,1824
5.28203732293,1826
5.284959322929,1827
5.285075722927,1828
5.286411322925,1825
5.287212920029,1831
5.288943320028,1832
5.290955720027,1833
5.294574920026,1835
5.294908520025,1830
5.295130520025,1829
5.30055510733,1837
5.301997507328,1839
5.305166707326,1840
5.305543507325,1838
5.315214307324,1842
5.317081507322,1844
5.31769830732,1836
5.31826830732,1845
5.31893550732,1843
5.319847507319,1841
5.324154307318,1846
5.328143107317,1834
5.33577873493,1847
5.33832964193,1848
5.33997549193,1849
5.34120609493,1850
5.34175027363,1851
5.34365533863,1852
5.34517041663,1853
5.34595242473,1854
5.34884312273,1855
5.34989390568,1856
5.35498849568,1857
5.35975866198,1858
5.35994656998,1859
5.36085869508,1860
5.36179075348,1863
5.362629553478,1862
5.362975153477,1864
5.363320753475,1861
5.36608042088,1865
5.36658389378,1867
5.367326693779,1866
5.3697458762,1868
5.3710673422,1870
5.371268942198,1869
5.3788073022,1873
5.381783302198,1875
5.382251302197,1872
5.387082502197,1878
5.387773702197,1879
5.387813302196,1876
5.389406902196,1877
5.389963702195,1874
5.390341702194,1880
5.394157702192,1871
5.3942946472,1882
5.396440247199,1883
5.397934247197,1881
5.3981528482,1884
5.4026534392,1886
5.4030374392,1885
5.4090481732,1887
5.4103433932,1888
5.4141987872,1889
5.4189004907,1892
5.420540890699,1893
5.420806090698,1895
5.421433690697,1896
5.423724490696,1894
5.426042890696,1897
5.426179690694,1898
5.431213690693,1900
5.434658890692,1901
5.436937690691,1890
5.437525129039,1902
5.438429929039,1903
5.438581129037,1904
5.440287529036,1906
5.442758329035,1907
5.445605929035,1908
5.448365929034,1905
5.449095529034,1899
5.450338599993,1891
5.45095169714,1909
5.45311683314,1910
5.45354766954,1911
5.45389963904,1912
5.45665244104,1913
5.46028607304,1914
5.46293793804,1915
5.46643188904,1917
5.466519489039,1916
5.46788602484,1918
5.46797126844,1919
5.47397252444,1921
5.479103724439,1922
5.485890924437,1920
5.48718492844,1923
5.49140098644,1924
5.49447223344,1925
5.49845652544,1926
5.50733495444,1928
5.508302154439,1929
5.509749354437,1927
5.51119055864,1930
5.51351524664,1933
5.517434446639,1934
5.520064846638,1935
5.523346846637,1936
5.525226046635,1937
5.526559246634,1938
5.526772846633,1939
5.527730446632,1931
5.529253278632,1932
5.530000700431,1940
5.537266652431,1942
5.53929345243,1941
5.539997245331,1943
5.543182158331,1944
5.549215245331,1945
5.553441186331,1946
5.553855041331,1947
5.562328528331,1948
5.563681812331,1949
5.566532377331,1950
5.566770388731,1951
5.567432540431,1952
5.571232702431,1953
5.571538885331,1954
5.572759418331,1955
5.574990261331,1957
5.57542826133,1958
5.578286661329,1960
5.578814661327,1961
5.580654261326,1959
5.583050661325,1956
5.584109938731,1963
5.58690953873,1965
5.588115538728,1966
5.593630738727,1967
5.593863538725,1969
5.594558338725,1962
5.597466072839,1964
5.598907170726,1968
5.600302175641,1970
5.607166910641,1971
5.610153986641,1972
5.614320672641,1973
5.614389056471,1974
5.614723519871,1975
5.617571343871,1976
5.621786179871,1978
5.62253017987,1977
5.628987776371,1980
5.63129657637,1979
5.631540356371,1981
5.632992785871,1983
5.63313918587,1982
5.63523812327,1984
5.637238559271,1985
5.638493123271,1986
5.638797563471,1987
5.640202363971,1988
5.641118486971,1989
5.645352020971,1992
5.647317620969,1991
5.648990420968,1990
5.651903310371,1993
5.655116330371,1994
5.661098795371,1995
5.661945752171,1996
5.664244378171,1997
5.665080606871,1998
5.668126426871,1999
5.669246759871,2001
5.66928515987,2000
5.671905053571,2003
5.67215585357,2002
5.673681556471,2004
5.673710472741,2005
5.674402813141,2006
5.674664662741,2007
5.678051394741,2008
5.678510278841,2009
5.681175696841,2010
5.685675799841,2011
5.686378676841,2012
5.694764840541,2013
5.695621364441,2014
5.69772736444,2016
5.700720164438,2019
5.703955364438,2020
5.705071364438,2021
5.705209364438,2022
5.707624964437,2015
5.707868891141,2017
5.708031796438,2023
5.709440596437,2024
5.711504596435,2025
5.713184596434,2026
5.719276996432,2028
5.71974859643,2027
5.723020996429,2029
5.725180996427,2030
5.725917796425,2018
5.730494780741,2031
5.731119358841,2032
5.732078825441,2033
5.733230129441,2034
5.735043186441,2035
5.737046102441,2036
5.742437182441,2037
5.743027283541,2038
5.745868389541,2040
5.750278389541,2041
5.751423189539,2042
5.751661989537,2039
5.760032718741,2044
5.76027271874,2045
5.760539118738,2046
5.760914718737,2043
5.761315013041,2047
5.761736518441,2048
5.763790235441,2049
5.765357267241,2050
5.770288336241,2053
5.77039393624,2051
5.77080309824,2052
5.774109676241,2055
5.777938876241,2056
5.778852076238,2059
5.785635676238,2060
5.786152876237,2058
5.789342476237,2054
5.790460908238,2061
5.791096908237,2057
5.793186970941,2062
5.793904344941,2063
5.797155188941,2064
5.797181441391,2065
5.799103954391,2067
5.79940515439,2066
5.799679620791,2068
5.804981660791,2070
5.80548326079,2069
5.806220747091,2071
5.810337743091,2072
5.810838882591,2073
5.814544997591,2074
5.816575238591,2075
5.817066475591,2076
5.819740154591,2077
5.821038772591,2078
5.821271727191,2079
5.821818325391,2081
5.825903125391,2083
5.82617792539,2082
5.827344325389,2085
5.828093125388,2080
5.829833286209,2087
5.830338486209,2088
5.833724886207,2086
5.836566518207,2092
5.83746711771,2093
5.838568086203,2091
5.841269286202,2095
5.8427692862,2096
5.843190486199,2089
5.844443286198,2098
5.844713949707,2097
5.845313949707,2084
5.846823549707,2090
5.847406118196,2099
5.848744118195,2100
5.849765318193,2101
5.850306518192,2102
5.85271851819,2104
5.852929718188,2103
5.856112118187,2105
5.861412518185,2106
5.863068518183,2107
5.865252518182,2094
5.869153663211,2108
5.869215821011,2109
5.873200841011,2110
5.873302394011,2111
5.874294763411,2112
5.874924571711,2114
5.87605737171,2113
5.878307470111,2115
5.879292427111,2118
5.88156522711,2119
5.883750427109,2117
5.884016827108,2120
5.886941227106,2124
5.887662427102,2116
5.888107659106,2126
5.888905659105,2127
5.889076059105,2123
5.889528459105,2125
5.889529659105,2122
5.889704859103,2121
5.894846971581,2128
5.895869245781,2129
5.901270301781,2130
5.907386176781,2131
5.914399075781,2132
5.914957778181,2133
5.916178014181,2134
5.916732594681,2135
5.917175315981,2136
5.918123417653,2138
5.918325017651,2137
5.919175416653,2139
5.919940172853,2140
5.921229915553,2141
5.927050613553,2142
5.928502097553,2143
5.931337933553,2144
5.931449611703,2145
5.934510591703,2146
5.938543795703,2147
5.939762171051,2149
5.946107771049,2151
5.947018571047,2152
5.949027371046,2153
5.950833371045,2154
5.952917771044,2155
5.954126171043,2156
5.954427371041,2150
5.95550857104,2157
5.956443371038,2158
5.957448971037,2159
5.957909771036,2160
5.964244571034,2161
5.964680171032,2162
5.965458971031,2148
5.969348721751,2164
5.97336992175,2165
5.973509121748,2166
5.974401921746,2168
5.974865121744,2169
5.975047521743,2170
5.976204321742,2163
5.978421132948,2167
5.980981787751,2171
5.984499686751,2172
5.984564282211,2173
5.988004104211,2174
5.991338136211,2175
5.992550309211,2177
5.99257550921,2176
5.993973308321,2178
5.998988568321,2180
5.99977216832,2181
6.004448568319,2179
6.005643199321,2182
6.007541029321,2183
6.013614053321,2185
6.01655405332,2184
6.017910314621,2187
6.01963711462,2186
6.029589217821,2188
6.030112292621,2189
6.031368283621,2190
6.036489273621,2192
6.04007967362,2194
6.043055673619,2196
6.043058073619,2197
6.043391673617,2195
6.045098073617,2198
6.046182873616,2193
6.047618073615,2191
6.047793735221,2199
6.050059786221,2200
6.059757801221,2201
6.066898124221,2202
6.071891461121,2205
6.074931061121,2203
6.07497856202,2206
6.081625362019,2207
6.081728562017,2208
6.086234562017,2209
6.087542562015,2204
6.091544944521,2210
6.092654722521,2213
6.09478352252,2212
6.101370322519,2214
6.105237922518,2216
6.105353122517,2211
6.105547673621,2215
6.111883809621,2218
6.115984209621,2219
6.116400609619,2217
6.116980126821,2220
6.119220021821,2222
6.12483962182,2221
6.128230805221,2227
6.129848405218,2225
6.130371605218,2228
6.130426805217,2229
6.130622405217,2226
6.132230405217,2224
6.132483605216,2223
6.134640352991,2231
6.13605035299,2230
6.142935517991,2234
6.14301231799,2235
6.145137517989,2233
6.145465117988,2232
6.146293291351,2236
6.148135683851,2237
6.150081066851,2239
6.15047106685,2238
6.151876116951,2240
6.156270662951,2241
6.157012211651,2242
6.160188125651,2243
6.160797149651,2244
6.166594454651,2245
6.167877385651,2246
6.173354097651,2248
6.17674169765,2247
6.176794739151,2249
6.181846758151,2252
6.181857398441,2253
6.18194635815,2254
6.182441958149,2251
6.182663958148,2255
6.183748758147,2250
6.184700339641,2256
6.185396154841,2257
6.191835919841,2258
6.193556206841,2259
6.193934066741,2260
6.195442593941,2261
6.201121744941,2262
6.202523490341,2263
6.208866783341,2265
6.21080598334,2267
6.211137183338,2268
6.215567583338,2264
6.215690110339,2269
6.217136110338,2270
6.218336110336,2271
6.222532510334,2266
6.224029459641,2273
6.226127059639,2272
6.230153539641,2274
6.231142112641,2275
6.233749212641,2276
6.240668070641,2277
6.245785002641,2278
6.247738424641,2279
6.253546209641,2280
6.259519586641,2281
6.262205150641,2282
6.263884873641,2284
6.26726407364,2285
6.271095673638,2283
6.271580677641,2286
6.272013286341,2287
6.272561737141,2288
6.273580920641,2289
6.275758499641,2290
6.281090032641,2291
6.286671041641,2293
6.28724344164,2292
6.287480570941,2294
6.290587463941,2295
6.291953766941,2296
6.293695083941,2297
6.297795049941,2298
6.300315681941,2299
6.302218476941,2300
6.302359527141,2301
6.303453172141,2302
6.308378309141,2303
6.310241002141,2304
6.311813039441,2306
6.31206263944,2307
6.312272639439,2305
6.323638871341,2309
6.32407447134,2308
6.329886380341,2310
6.331661412941,2311
6.334616044941,2313
6.338357644941,2314
6.339935644939,2312
6.340969083541,2315
6.341515566741,2316
6.342130829491,2318
6.342824429489,2317
6.345511349091,2319
6.348240636091,2320
6.355670012091,2321
6.356003662091,2322
6.363825580091,2325
6.36394198009,2324
6.366076780089,2326
6.367707580087,2323
6.369092757091,2327
6.370278679591,2328
6.371008480591,2329
6.375010834591,2330
6.385209574591,2331
6.393298025591,2332
6.405240865591,2333
6.406758020591,2334
6.410430758591,2337
6.41069835859,2338
6.413559158588,2336
6.413599958588,2335
6.416549795691,2340
6.41656899569,2339
6.422067343691,2341
6.423764204691,2342
6.428214688691,2344
6.43320548869,2343
6.438712418691,2347
6.439295618689,2348
6.440217218689,2345
6.442106430689,2349
6.442767630687,2346
6.444702594891,2350
6.452489215891,2352
6.45520961589,2354
6.455778415888,2355
6.458296015887,2356
6.458654815886,2357
6.459535615884,2351
6.462620160086,2353
6.465407971891,2358
6.466519831891,2359
6.467481836991,2360
6.471138133991,2361
6.471753581341,2363
6.47219158134,2362
6.474296978641,2364
6.476919059641,2365
6.477770723641,2366
6.478077084741,2367
6.480504366741,2368
6.485022002741,2369
6.488346229741,2370
6.488526548741,2371
6.490406366741,2372
6.490936577241,2373
6.493589456241,2374
6.495383314241,2375
6.497231165241,2376
6.498280901741,2377
6.499527127741,2378
6.505394144741,2379
6.509084939741,2380
6.509191248941,2381
6.519308218941,2382
6.521055327941,2383
6.523755333941,2384
6.527655890941,2386
6.52776389094,2387
6.528213890938,2385
6.530553046241,2388
6.533571744241,2389
6.536692918241,2390
6.542654814241,2392
6.54351641424,2391
6.544608284241,2393
6.544611408731,2394
6.546006227731,2395
6.548088590731,2396
6.550387209731,2397
6.557964744731,2398
6.559524152731,2399
6.559619238001,2400
6.564113231001,2401
6.565260550201,2402
6.565814773651,2403
6.565847210651,2404
6.566361409151,2405
6.566843071951,2406
6.570477878951,2407
6.576620387351,2410
6.57913198735,2408
6.58177655935,2409
6.586117835351,2411
6.586669778651,2412
6.588915383651,2413
6.589467923151,2415
6.592644323149,2414
6.596449725151,2416
6.602192912151,2417
6.608075660151,2418
6.608725902351,2419
6.608968319751,2420
6.611953871951,2423
6.61207747195,2421
6.61271760995,2422
6.612951251151,2424
6.615804777151,2425
6.617854440151,2426
6.619636858151,2427
6.621959565151,2429
6.62301316515,2430
6.625025565148,2431
6.628309965146,2432
6.631653165145,2433
6.633726765143,2434
6.636004365141,2436
6.636697965139,2439
6.637155197139,2437
6.637894397139,2440
6.640548797138,2438
6.646061597138,2441
6.647038397136,2443
6.651341597135,2444
6.652098797135,2435
6.657106397135,2445
6.658056797134,2446
6.658315997133,2428
6.659277229135,2442
6.668659920851,2447
6.672925171851,2448
6.676640511851,2449
6.678384957851,2450
6.684998951851,2451
6.686702551851,2452
6.686777915821,2453
6.696595462821,2454
6.703289685821,2455
6.703362155071,2456
6.707138782071,2457
6.715199203071,2458
6.717155080071,2459
6.721116639071,2460
6.721181055171,2462
6.721562655171,2464
6.72225865517,2465
6.728913855169,2467
6.730308255167,2461
6.731708893457,2468
6.733259293457,2469
6.733274893456,2470
6.735593293456,2466
6.744200893455,2472
6.745439293453,2473
6.747413293451,2475
6.74943769345,2474
6.74980249345,2476
6.749956093448,2477
6.752682493447,2479
6.752845693446,2471
6.754486093446,2482
6.755077693444,2478
6.756008893443,2480
6.757292893443,2483
6.760104493442,2484
6.760297693441,2481
6.76621849344,2463
6.76796117505,2485
6.77414695105,2486
6.78699320105,2487
6.79022813105,2489
6.794840931049,2488
6.79880073355,2492
6.80078793355,2491
6.803013645546,2493
6.804007245545,2490
6.80480169955,2494
6.80853373155,2498
6.811557731549,2499
6.811942931549,2496
6.812470931549,2501
6.814748531549,2502
6.817287731547,2503
6.817683731546,2504
6.823166531545,2495
6.825652360646,2506
6.833533960645,2508
6.833873560643,2505
6.837552792645,2509
6.839770392645,2507
6.84466661914,2510
6.848037419138,2512
6.850463819137,2511
6.856845419137,2500
6.858192824644,2513
6.861620024643,2514
6.862613624641,2497
6.863732744246,2515
6.864149635246,2516
6.865160072246,2517
6.866557736246,2518
6.867193871646,2519
6.873017791646,2520
6.874373752646,2521
6.875540031646,2522
6.886278071646,2523
6.888156737246,2525
6.890928737246,2527
6.892200737243,2528
6.894454337242,2530
6.89514433724,2526
6.895889537239,2529
6.896794337238,2532
6.898151537238,2531
6.898896737237,2533
6.899497937235,2534
6.905976737233,2535
6.909427937231,2536
6.913588337229,2537
6.913786337229,2538
6.915705137227,2524
6.915926567716,2539
6.917097213716,2540
6.922445976716,2542
6.923379576715,2541
6.925324518716,2543
6.927196219716,2544
6.929721855716,2545
6.932440761716,2546
6.935482453716,2547
6.938329204716,2548
6.938707067316,2549
6.939503629516,2550
6.940080709016,2551
6.940695279916,2554
6.941118879914,2552
6.944550612414,2553
6.946422641716,2555
6.946666417716,2556
6.946716412706,2557
6.951118912706,2562
6.955925953704,2559
6.958642944706,2558
6.958816944706,2560
6.960503590626,2564
6.961113190624,2566
6.961165990622,2565
6.962183590621,2567
6.962256790619,2568
6.963081190617,2569
6.964535590616,2570
6.973978390614,2574
6.974170390612,2572
6.976862022612,2575
6.979910054612,2576
6.985184086612,2577
6.985619686611,2578
6.989453718611,2580
6.99281251861,2582
6.993098118607,2581
6.993336918606,2583
6.996412518605,2586
6.997422310718,2588
6.998014075526,2585
6.998163318601,2587
7.0006881186,2579
7.002173718598,2573
7.003102550598,2589
7.007844342715,2591
7.00793330752,2593
7.009517142711,2584
7.01086954271,2594
7.013239542708,2596
7.014165783718,2592
7.016160982588,2599
7.016255782586,2563
7.019571414588,2602
7.025282182584,2604
7.027441014586,2606
7.027912646586,2607
7.034158678586,2603
7.036432678586,2608
7.040137014566,2561
7.043047014565,2612
7.043728614565,2590
7.044387446453,2613
7.045588646453,2609
7.051112278362,2571
7.051597078362,2615
7.051652278013,2614
7.057483078013,2617
7.059442678013,2600
7.062592710013,2620
7.064428710013,2621
7.064469510013,2605
7.065033510013,2622
7.067050645959,2623
7.069142245958,2616
7.080191845958,2597
7.082158645958,2626
7.083287845956,2627
7.083725845955,2624
7.084478245955,2628
7.086634645953,2610
7.087371445953,2630
7.091263045953,2601
7.091461045953,2611
7.097438245952,2633
7.097571445952,2629
7.09771307795,2595
7.099738677949,2634
7.101494277947,2635
7.101737877945,2636
7.103234309945,2638
7.103387877943,2618
7.103415477942,2637
7.104001077942,2598
7.105847909939,2640
7.106815109938,2641
7.106905109938,2631
7.110367141938,2643
7.114575541936,2645
7.115141909933,2642
7.115186389696,2646
7.116310773935,2644
7.116409173934,2647
7.11660230993,2648
7.12277870993,2625
7.128530309928,2653
7.134583109926,2655
7.138063141926,2656
7.138085941926,2639
7.139175541926,2654
7.141963141926,2659
7.143166741926,2660
7.150738773923,2664
7.150847973923,2651
7.151848773923,2652
7.151947173923,2665
7.160207973923,2619
7.165614005911,2668
7.168858837911,2670
7.172280037911,2671
7.172953237911,2672
7.173889237911,2673
7.174274437911,2674
7.174491637911,2650
7.174789269911,2658
7.177354741387,2657
7.178006341387,2667
7.179945573387,2675
7.184210373387,2661
7.186372805387,2677
7.188312005386,2679
7.188495629956,2680
7.189049973382,2666
7.191342005382,2678
7.198628405382,2681
7.198953605381,2649
7.20058560538,2662
7.200747637381,2682
7.200764405378,2663
7.201442405377,2669
7.208344805376,2683
7.211631605373,2687
7.211988005372,2688
7.22026440537,2689
7.222200005367,2696
7.224776405367,2698
7.225089605367,2692
7.225545605367,2632
7.226116805367,2694
7.230610805367,2676
7.230632437367,2700
7.231805069883,2690
7.235456669883,2701
7.238595869883,2703
7.238985869883,2697
7.241492669882,2702
7.241942669882,2704
7.241972669881,2699
7.245452701881,2705
7.24596630188,2706
7.248098701879,2707
7.249745101877,2693
7.251014701876,2686
7.251217533876,2691
7.254885933876,2685
7.256672733876,2695
7.263685533875,2708
7.268395533873,2684
7.269154365666,2709
7.269539983366,2710
7.272261375366,2711
7.275869129366,2713
7.275999929365,2714
7.276160729363,2712
7.281392755966,2717
7.281835555965,2718
7.283412355965,2720
7.289951155963,2721
7.292114755962,2722
7.292661955961,2719
7.293597955961,2723
7.29633995596,2715
7.296640355466,2725
7.299871929258,2716
7.299969987959,2724
7.306095863466,2726
7.308372781466,2728
7.308539581465,2729
7.311352381463,2731
7.311379981461,2730
7.31239038146,2727
7.313690928766,2733
7.314433728765,2734
7.317142128764,2737
7.318418928762,2735
7.318630128762,2736
7.319749728761,2738
7.32017812876,2732
7.322308057766,2739
7.326215892766,2740
7.327202823766,2741
7.327362027846,2743
7.328092827846,2742
7.329225492546,2744
7.331558078546,2746
7.334740478546,2748
7.335203678544,2745
7.337060709345,2749
7.340418309344,2747
7.340862131346,2751
7.343526131344,2752
7.343905331343,2750
7.347452422346,2753
7.349195571346,2754
7.352730803346,2756
7.355207603345,2755
7.356783220746,2758
7.358932420745,2759
7.363247620743,2761
7.371447220741,2763
7.37282002074,2757
7.373410390744,2762
7.376751190743,2760
7.379294152546,2764
7.381710721546,2765
7.385065312546,2766
7.388611299546,2767
7.392459169546,2769
7.393386769545,2770
7.393777969543,2768
7.394780515546,2771
7.395511338046,2772
7.399933715746,2775
7.402133315744,2776
7.403226515743,2777
7.408478915742,2773
7.411606080743,2778
7.411985280741,2774
7.416294709846,2779
7.420753060846,2781
7.420888660845,2782
7.425265060843,2780
7.428147611246,2783
7.428696338546,2784
7.428831620846,2785
7.437984500846,2787
7.439005700845,2786
7.440372259846,2789
7.440921859845,2791
7.444532659844,2792
7.444625059843,2793
7.450784659842,2797
7.451139859839,2798
7.451310259837,2799
7.453841059837,2800
7.454250259835,2801
7.456742659833,2788
7.456781091834,2802
7.457065491833,2795
7.458311091833,2794
7.460946291832,2803
7.461179091831,2790
7.464373523831,2796
7.464690471396,2804
7.465758890396,2805
7.467312745396,2806
7.467955932596,2807
7.472070807596,2808
7.476641000596,2809
7.477852451596,2810
7.477891879166,2811
7.478659988366,2812
7.479972289366,2813
7.484543793366,2814
7.485733899366,2815
7.487868578366,2816
7.489903210366,2817
7.490176415466,2818
7.493437837266,2820
7.496560237265,2822
7.498441837264,2824
7.500051037263,2823
7.504197037263,2819
7.507229751566,2821
7.510710951565,2826
7.510742151563,2825
7.512270278566,2828
7.513964678566,2829
7.514023478564,2830
7.514675078564,2827
7.518366641196,2831
7.522983243496,2832
7.526551358496,2835
7.526593358494,2834
7.527260558493,2833
7.529856367438,2837
7.530071167437,2836
7.531329166338,2838
7.545430316338,2839
7.550730880338,2841
7.552102480337,2842
7.552420480335,2840
7.552770745438,2843
7.555547950438,2844
7.556074749638,2845
7.561289314638,2846
7.562797532938,2847
7.565376381938,2848
7.565836844638,2849
7.567697806638,2851
7.567954606637,2850
7.570369105438,2852
7.571047454438,2853
7.571500224038,2854
7.571762007538,2856
7.573049607537,2857
7.575633207535,2859
7.575999207533,2855
7.576475402037,2860
7.577289002036,2858
7.579268946338,2861
7.581282995338,2863
7.583152595337,2862
7.585100880938,2864
7.585955789938,2865
7.592281302938,2867
7.594534902937,2866
7.595970551938,2868
7.597096006349,2869
7.598589763349,2870
7.598834476249,2871
7.599906146249,2872
7.600677817249,2873
7.601059880849,2874
7.605770120249,2876
7.607122520248,2875
7.614128459249,2877
7.614662960949,2878
7.620068943949,2879
7.621224215949,2880
7.645605405949,2882
7.645835805948,2881
7.651301182249,2884
7.655891182248,2887
7.659689182246,2888
7.659813982244,2886
7.662683182244,2885
7.663103182243,2889
7.663199182242,2890
7.663362382241,2883
7.663798549449,2891
7.664864004249,2892
7.666141008249,2893
7.666167440249,2894
7.668125862459,2895
7.668173989359,2896
7.672512281559,2898
7.672856681558,2897
7.678571483559,2900
7.680445883558,2899
7.681420183859,2902
7.681638583857,2903
7.687840183855,2905
7.688848183853,2901
7.696407356558,2906
7.698314156558,2908
7.700253356557,2909
7.702398956556,2910
7.702905356554,2911
7.707428156553,2907
7.707950188553,2913
7.708636556551,2912
7.711534556551,2916
7.71570935655,2918
7.716275756548,2904
7.717084588549,2917
7.717734323758,2919
7.718802034456,2914
7.720082534455,2915
7.722023059758,2920
7.723028188759,2922
7.724760988758,2923
7.726790188756,2921
7.730470868759,2924
7.736447420759,2926
7.736645420759,2925
7.736840485859,2927
7.739926427859,2928
7.746836384859,2929
7.747000798859,2930
7.748513991259,2932
7.750970391258,2931
7.751093141259,2933
7.752374672259,2934
7.759246204259,2935
7.759615477959,2936
7.767192590159,2939
7.768302590158,2940
7.773766190157,2941
7.775738197359,2942
7.777199797359,2937
7.781104597359,2943
7.781992713359,2946
7.782963513359,2945
7.783226313357,2948
7.783372713355,2949
7.784320713354,2950
7.793840313354,2952
7.796007513353,2953
7.798685913352,2954
7.800280713351,2947
7.803626313351,2957
7.804070313349,2951
7.804405145349,2955
7.809512313349,2958
7.810042713349,2938
7.811366313349,2944
7.811729999856,2956
7.816903141858,2960
7.816947541857,2959
7.817177684658,2961
7.818356162658,2962
7.818966558958,2963
7.821346654858,2964
7.824915067858,2965
7.829962638858,2966
7.831575463158,2967
7.836226241158,2968
7.838966179158,2969
7.839227571758,2970
7.840127150758,2971
7.841730464758,2972
7.843795481758,2974
7.846771481758,2973
7.850133117858,2975
7.851210190858,2976
7.856846388858,2977
7.858631831858,2978
7.859084206858,2979
7.860264746858,2981
7.861119146857,2980
7.861757377558,2982
7.864530828558,2983
7.866281207558,2984
7.866836698258,2985
7.868227650258,2986
7.869726238258,2987
7.878243508258,2989
7.879001908257,2991
7.881257908255,2988
7.886650699257,2994
7.886817499255,2995
7.890634699253,2992
7.892201899253,2993
7.893229099252,2996
7.894952299252,2997
7.896904699251,2999
7.897755499251,2998
7.89791389925,2990
